"Grupo","Numero_de_especies_registradas","Numero_de_especies_endemicas","Numero_de_especies_en_la_NOM-059-SEMARNAT-2010","Numero_de_especies_prioritarias","Numero_de_registros"
"Bacterias",0,0,0,0,0
"Algas",1,0,0,0,1
"Hongos",0,0,0,0,0
"Plantas no vasculares",3,0,0,0,3
"Briofitas",2,0,0,0,2
"Anthocerotophyta",0,0,0,0,0
"Marchantiophyta",1,0,0,0,1
"Plantas vasculares",112,3,2,0,211
"Pteridofitas",0,0,0,0,0
"Gimnospermas",0,0,0,0,0
"Pinaceae",0,0,0,0,0
"Cupressaceae",0,0,0,0,0
"Podocarpaceae",0,0,0,0,0
"Zamiaceae",0,0,0,0,0
"Ephedraceae",0,0,0,0,0
"Taxaceae",0,0,0,0,0
"Angiospermas",111,3,2,0,210
"Asteraceae",27,0,1,0,47
"Cactaceae",4,0,0,0,9
"Crassulaceae",3,1,0,0,6
"Euphorbiaceae",2,0,0,0,2
"Fabaceae",4,0,0,0,5
"Fagaceae",4,1,0,0,9
"Lamiaceae",1,0,0,0,2
"Rubiaceae",0,0,0,0,0
"Solanaceae",0,0,0,0,0
"Orchidaceae",0,0,0,0,0
"Asparagaceae",2,0,0,0,7
"Arecaceae",0,0,0,0,0
"Bromeliaceae",0,0,0,0,0
"Poaceae",4,0,0,0,5
"Commelinaceae",0,0,0,0,0
"Rosaceae",2,0,0,0,6
"Burseraceae",0,0,0,0,0
"Apocynaceae",0,0,0,0,0
"Campanulaceae",0,0,0,0,0
"Invertebrados no artrópodos",1,0,0,0,1
"Esponjas de mar",0,0,0,0,0
"Cnidarios",1,0,0,0,1
"Ctenóforos",0,0,0,0,0
"Chaetognatha",0,0,0,0,0
"platelmintos",0,0,0,0,0
"Moluscos",0,0,0,0,0
"Gusanos anélidos",0,0,0,0,0
"Sipuncula",0,0,0,0,0
"Rotifera",0,0,0,0,0
"Acanthocephala",0,0,0,0,0
"Briozoos",0,0,0,0,0
"Brachiopodos",0,0,0,0,0
"Tardigrados",0,0,0,0,0
"Onychophora",0,0,0,0,0
"Equinodermos",0,0,0,0,0
"Urocordados",0,0,0,0,0
"Artrópodos",4,0,0,0,5
"Crustáceos",1,0,0,0,1
"Quelicerados",1,0,0,0,1
"Miriápodos",0,0,0,0,0
"Hexápodos",2,0,0,0,3
"Vertebrados",42,4,7,9,70
"Peces",0,0,0,0,0
"Anfibios",2,0,1,1,6
"Reptiles",14,3,5,2,22
"Aves",26,1,1,6,42
"Mamíferos",0,0,0,0,0
