"Grupo","Numero_de_especies_registradas","Numero_de_especies_endemicas","Numero_de_especies_en_la_NOM-059-SEMARNAT-2010","Numero_de_especies_prioritarias","Numero_de_registros"
"Bacterias",85,0,0,0,481
"Algas",179,1,0,0,1322
"Hongos",794,0,17,0,4999
"Plantas no vasculares",660,0,1,0,5994
"Briofitas",607,0,1,0,5869
"Anthocerotophyta",3,0,0,0,5
"Marchantiophyta",50,0,0,0,120
"Plantas vasculares",8661,3593,247,71,197795
"Pteridofitas",2,0,1,0,12
"Gimnospermas",60,30,22,17,3466
"Pinaceae",38,20,12,11,2579
"Cupressaceae",11,3,2,1,804
"Podocarpaceae",1,0,1,0,23
"Zamiaceae",7,6,6,5,54
"Ephedraceae",2,1,0,0,5
"Taxaceae",1,0,1,0,1
"Angiospermas",8155,3517,214,53,186638
"Asteraceae",1148,647,7,0,25735
"Cactaceae",145,106,23,11,1990
"Crassulaceae",99,79,3,0,996
"Euphorbiaceae",280,159,4,0,4761
"Fabaceae",825,283,11,2,22494
"Fagaceae",67,49,1,2,4448
"Lamiaceae",233,155,0,0,6625
"Rubiaceae",156,54,9,0,3078
"Solanaceae",190,61,0,0,6259
"Orchidaceae",321,218,41,17,4024
"Asparagaceae",130,107,17,2,2521
"Arecaceae",16,11,8,0,240
"Bromeliaceae",130,95,4,0,1762
"Poaceae",560,173,6,0,17226
"Commelinaceae",67,33,0,0,1950
"Rosaceae",69,25,0,0,1814
"Burseraceae",68,42,3,3,6055
"Apocynaceae",160,70,0,0,4369
"Campanulaceae",31,9,0,0,989
"Invertebrados no artrópodos",283,0,0,0,843
"Esponjas de mar",0,0,0,0,0
"Cnidarios",0,0,0,0,0
"Ctenóforos",0,0,0,0,0
"Chaetognatha",0,0,0,0,0
"platelmintos",31,0,0,0,172
"Moluscos",154,0,0,0,398
"Gusanos anélidos",17,0,0,0,85
"Sipuncula",0,0,0,0,0
"Rotifera",73,0,0,0,153
"Acanthocephala",6,0,0,0,16
"Briozoos",0,0,0,0,0
"Brachiopodos",0,0,0,0,0
"Tardigrados",0,0,0,0,0
"Onychophora",0,0,0,0,0
"Equinodermos",2,0,0,0,19
"Urocordados",0,0,0,0,0
"Artrópodos",5071,273,4,1,127656
"Crustáceos",94,3,1,0,836
"Quelicerados",157,0,2,0,2587
"Miriápodos",2,0,0,0,21
"Hexápodos",4818,270,1,1,124212
"Vertebrados",1116,379,363,90,80556
"Peces",161,0,26,14,3833
"Anfibios",143,99,67,10,15114
"Reptiles",287,176,141,16,19203
"Aves",291,35,85,40,27958
"Mamíferos",234,69,44,10,14448
