"Grupo","Numero_de_especies_registradas","Numero_de_especies_endemicas","Numero_de_especies_en_la_NOM-059-SEMARNAT-2010","Numero_de_especies_prioritarias","Numero_de_registros"
"Bacterias",0,0,0,0,0
"Algas",0,0,0,0,0
"Hongos",0,0,0,0,0
"Plantas no vasculares",0,0,0,0,0
"Briofitas",0,0,0,0,0
"Anthocerotophyta",0,0,0,0,0
"Marchantiophyta",0,0,0,0,0
"Plantas vasculares",133,42,3,2,187
"Pteridofitas",0,0,0,0,0
"Gimnospermas",0,0,0,0,0
"Pinaceae",0,0,0,0,0
"Cupressaceae",0,0,0,0,0
"Podocarpaceae",0,0,0,0,0
"Zamiaceae",0,0,0,0,0
"Ephedraceae",0,0,0,0,0
"Taxaceae",0,0,0,0,0
"Angiospermas",133,42,3,2,187
"Asteraceae",12,2,0,0,12
"Cactaceae",9,8,2,1,9
"Crassulaceae",0,0,0,0,0
"Euphorbiaceae",6,3,0,0,7
"Fabaceae",17,2,0,0,24
"Fagaceae",1,1,0,0,1
"Lamiaceae",2,2,0,0,3
"Rubiaceae",2,0,0,0,2
"Solanaceae",5,0,0,0,12
"Orchidaceae",0,0,0,0,0
"Asparagaceae",0,0,0,0,0
"Arecaceae",1,0,0,0,1
"Bromeliaceae",0,0,0,0,0
"Poaceae",9,0,0,0,12
"Commelinaceae",1,1,0,0,1
"Rosaceae",0,0,0,0,0
"Burseraceae",4,2,0,0,9
"Apocynaceae",4,1,0,0,6
"Campanulaceae",1,0,0,0,1
"Invertebrados no artrópodos",2,0,0,0,2
"Esponjas de mar",0,0,0,0,0
"Cnidarios",0,0,0,0,0
"Ctenóforos",0,0,0,0,0
"Chaetognatha",0,0,0,0,0
"platelmintos",0,0,0,0,0
"Moluscos",2,0,0,0,2
"Gusanos anélidos",0,0,0,0,0
"Sipuncula",0,0,0,0,0
"Rotifera",0,0,0,0,0
"Acanthocephala",0,0,0,0,0
"Briozoos",0,0,0,0,0
"Brachiopodos",0,0,0,0,0
"Tardigrados",0,0,0,0,0
"Onychophora",0,0,0,0,0
"Equinodermos",0,0,0,0,0
"Urocordados",0,0,0,0,0
"Artrópodos",3,0,0,0,3
"Crustáceos",0,0,0,0,0
"Quelicerados",0,0,0,0,0
"Miriápodos",0,0,0,0,0
"Hexápodos",3,0,0,0,3
"Vertebrados",36,8,19,5,103
"Peces",5,0,4,1,6
"Anfibios",3,0,0,0,14
"Reptiles",14,7,12,3,68
"Aves",10,1,2,0,10
"Mamíferos",4,0,1,1,5
