"Grupo","Numero_de_especies_registradas","Numero_de_especies_endemicas","Numero_de_especies_en_la_NOM-059-SEMARNAT-2010","Numero_de_especies_prioritarias","Numero_de_registros"
"Bacterias",0,0,0,0,0
"Algas",0,0,0,0,0
"Hongos",15,0,0,0,26
"Plantas no vasculares",6,0,0,0,10
"Briofitas",6,0,0,0,10
"Anthocerotophyta",0,0,0,0,0
"Marchantiophyta",0,0,0,0,0
"Plantas vasculares",875,95,16,7,3658
"Pteridofitas",0,0,0,0,0
"Gimnospermas",1,1,1,0,4
"Pinaceae",0,0,0,0,0
"Cupressaceae",0,0,0,0,0
"Podocarpaceae",0,0,0,0,0
"Zamiaceae",1,1,1,0,4
"Ephedraceae",0,0,0,0,0
"Taxaceae",0,0,0,0,0
"Angiospermas",860,93,14,7,3608
"Asteraceae",50,2,0,0,150
"Cactaceae",6,2,0,0,11
"Crassulaceae",0,0,0,0,0
"Euphorbiaceae",40,10,0,0,131
"Fabaceae",110,11,1,0,516
"Fagaceae",0,0,0,0,0
"Lamiaceae",11,0,0,0,64
"Rubiaceae",28,4,0,0,151
"Solanaceae",23,1,0,0,83
"Orchidaceae",31,6,1,0,67
"Asparagaceae",1,1,1,0,1
"Arecaceae",10,7,2,0,43
"Bromeliaceae",15,2,0,0,59
"Poaceae",43,6,1,0,146
"Commelinaceae",6,1,0,0,11
"Rosaceae",0,0,0,0,0
"Burseraceae",11,8,0,0,24
"Apocynaceae",22,2,0,0,119
"Campanulaceae",0,0,0,0,0
"Invertebrados no artrópodos",36,0,0,0,77
"Esponjas de mar",0,0,0,0,0
"Cnidarios",0,0,0,0,0
"Ctenóforos",0,0,0,0,0
"Chaetognatha",0,0,0,0,0
"platelmintos",7,0,0,0,13
"Moluscos",16,0,0,0,21
"Gusanos anélidos",0,0,0,0,0
"Sipuncula",0,0,0,0,0
"Rotifera",11,0,0,0,41
"Acanthocephala",2,0,0,0,2
"Briozoos",0,0,0,0,0
"Brachiopodos",0,0,0,0,0
"Tardigrados",0,0,0,0,0
"Onychophora",0,0,0,0,0
"Equinodermos",0,0,0,0,0
"Urocordados",0,0,0,0,0
"Artrópodos",429,17,0,0,4648
"Crustáceos",12,1,0,0,27
"Quelicerados",10,0,0,0,13
"Miriápodos",0,0,0,0,0
"Hexápodos",407,16,0,0,4608
"Vertebrados",391,19,123,40,5757
"Peces",48,0,2,4,219
"Anfibios",20,2,7,1,144
"Reptiles",73,5,29,3,425
"Aves",177,9,66,23,3636
"Mamíferos",73,3,19,9,1333
