"Grupo","Numero_de_especies_registradas","Numero_de_especies_endemicas","Numero_de_especies_en_la_NOM-059-SEMARNAT-2010","Numero_de_especies_prioritarias","Numero_de_registros"
"Bacterias",0,0,0,0,0
"Algas",4,0,0,0,5
"Hongos",38,0,0,0,50
"Plantas no vasculares",192,0,0,0,558
"Briofitas",175,0,0,0,530
"Anthocerotophyta",0,0,0,0,0
"Marchantiophyta",17,0,0,0,28
"Plantas vasculares",1282,259,33,18,3316
"Pteridofitas",1,0,1,0,4
"Gimnospermas",15,9,7,5,52
"Pinaceae",9,6,1,2,41
"Cupressaceae",1,1,1,0,2
"Podocarpaceae",1,0,1,0,3
"Zamiaceae",3,2,3,3,4
"Ephedraceae",0,0,0,0,0
"Taxaceae",1,0,1,0,2
"Angiospermas",1181,245,20,12,3092
"Asteraceae",121,30,0,0,259
"Cactaceae",4,2,0,0,18
"Crassulaceae",6,5,0,0,9
"Euphorbiaceae",34,5,0,0,93
"Fabaceae",84,11,1,0,223
"Fagaceae",24,15,0,1,147
"Lamiaceae",33,10,0,0,74
"Rubiaceae",36,6,0,0,85
"Solanaceae",49,9,0,0,233
"Orchidaceae",25,11,3,1,44
"Asparagaceae",5,4,1,0,7
"Arecaceae",5,4,2,0,6
"Bromeliaceae",13,6,1,0,31
"Poaceae",72,12,0,0,153
"Commelinaceae",15,2,0,0,38
"Rosaceae",14,4,0,0,29
"Burseraceae",8,3,0,0,12
"Apocynaceae",20,3,0,0,67
"Campanulaceae",4,1,0,0,13
"Invertebrados no artrópodos",12,1,0,0,16
"Esponjas de mar",0,0,0,0,0
"Cnidarios",1,0,0,0,1
"Ctenóforos",0,0,0,0,0
"Chaetognatha",0,0,0,0,0
"platelmintos",0,0,0,0,0
"Moluscos",7,1,0,0,7
"Gusanos anélidos",4,0,0,0,8
"Sipuncula",0,0,0,0,0
"Rotifera",0,0,0,0,0
"Acanthocephala",0,0,0,0,0
"Briozoos",0,0,0,0,0
"Brachiopodos",0,0,0,0,0
"Tardigrados",0,0,0,0,0
"Onychophora",0,0,0,0,0
"Equinodermos",0,0,0,0,0
"Urocordados",0,0,0,0,0
"Artrópodos",490,31,1,1,1495
"Crustáceos",23,0,0,0,68
"Quelicerados",22,0,0,0,33
"Miriápodos",0,0,0,0,0
"Hexápodos",445,31,1,1,1394
"Vertebrados",338,73,90,21,1863
"Peces",39,0,1,2,83
"Anfibios",48,26,23,2,471
"Reptiles",62,27,28,3,263
"Aves",123,5,30,12,374
"Mamíferos",66,15,8,2,672
