"Grupo","Numero_de_especies_registradas","Numero_de_especies_endemicas","Numero_de_especies_en_la_NOM-059-SEMARNAT-2010","Numero_de_especies_prioritarias","Numero_de_registros"
"Bacterias",2,0,0,0,6
"Algas",1,0,0,0,4
"Hongos",212,0,6,0,761
"Plantas no vasculares",142,0,0,0,317
"Briofitas",139,0,0,0,312
"Anthocerotophyta",0,0,0,0,0
"Marchantiophyta",3,0,0,0,5
"Plantas vasculares",4048,663,148,39,29865
"Pteridofitas",2,0,0,0,26
"Gimnospermas",21,10,14,12,264
"Pinaceae",5,0,0,1,60
"Cupressaceae",0,0,0,0,0
"Podocarpaceae",3,0,1,0,11
"Zamiaceae",13,10,13,11,193
"Ephedraceae",0,0,0,0,0
"Taxaceae",0,0,0,0,0
"Angiospermas",3710,641,118,25,27471
"Asteraceae",247,55,2,0,1257
"Cactaceae",26,8,2,0,203
"Crassulaceae",5,4,0,0,5
"Euphorbiaceae",105,25,2,0,694
"Fabaceae",359,29,8,0,2554
"Fagaceae",23,13,0,1,196
"Lamiaceae",60,12,0,0,235
"Rubiaceae",199,43,3,0,1707
"Solanaceae",91,6,0,0,779
"Orchidaceae",233,87,25,4,1406
"Asparagaceae",18,16,4,1,58
"Arecaceae",40,17,20,5,392
"Bromeliaceae",82,35,7,0,663
"Poaceae",215,21,3,0,1075
"Commelinaceae",31,10,0,0,178
"Rosaceae",7,3,0,0,10
"Burseraceae",11,5,0,0,51
"Apocynaceae",77,10,0,0,613
"Campanulaceae",10,0,0,0,37
"Invertebrados no artrópodos",91,0,0,0,188
"Esponjas de mar",0,0,0,0,0
"Cnidarios",2,0,0,0,20
"Ctenóforos",0,0,0,0,0
"Chaetognatha",0,0,0,0,0
"platelmintos",2,0,0,0,2
"Moluscos",85,0,0,0,161
"Gusanos anélidos",0,0,0,0,0
"Sipuncula",0,0,0,0,0
"Rotifera",0,0,0,0,0
"Acanthocephala",1,0,0,0,1
"Briozoos",0,0,0,0,0
"Brachiopodos",0,0,0,0,0
"Tardigrados",0,0,0,0,0
"Onychophora",0,0,0,0,0
"Equinodermos",1,0,0,0,4
"Urocordados",0,0,0,0,0
"Artrópodos",1600,24,1,1,15294
"Crustáceos",46,1,0,0,125
"Quelicerados",46,0,0,0,160
"Miriápodos",5,0,0,0,10
"Hexápodos",1503,23,1,1,14999
"Vertebrados",836,132,269,78,85893
"Peces",100,0,8,10,604
"Anfibios",95,47,43,4,3798
"Reptiles",187,55,80,12,2976
"Aves",293,15,100,39,74704
"Mamíferos",161,15,38,13,3811
