"Grupo","Numero_de_especies_registradas","Numero_de_especies_endemicas","Numero_de_especies_en_la_NOM-059-SEMARNAT-2010","Numero_de_especies_prioritarias","Numero_de_registros"
"Bacterias",6,0,0,0,8
"Algas",38,0,0,0,46
"Hongos",59,0,1,0,79
"Plantas no vasculares",4,0,0,0,4
"Briofitas",4,0,0,0,4
"Anthocerotophyta",0,0,0,0,0
"Marchantiophyta",0,0,0,0,0
"Plantas vasculares",880,99,28,14,2089
"Pteridofitas",1,0,0,0,2
"Gimnospermas",1,1,1,1,4
"Pinaceae",0,0,0,0,0
"Cupressaceae",0,0,0,0,0
"Podocarpaceae",0,0,0,0,0
"Zamiaceae",1,1,1,1,4
"Ephedraceae",0,0,0,0,0
"Taxaceae",0,0,0,0,0
"Angiospermas",792,93,22,12,1876
"Asteraceae",37,3,0,0,78
"Cactaceae",5,0,0,0,8
"Crassulaceae",0,0,0,0,0
"Euphorbiaceae",20,3,1,0,35
"Fabaceae",69,6,2,0,152
"Fagaceae",1,0,0,0,1
"Lamiaceae",12,2,0,0,17
"Rubiaceae",42,7,1,0,84
"Solanaceae",16,0,0,0,46
"Orchidaceae",41,16,4,1,73
"Asparagaceae",0,0,0,0,0
"Arecaceae",8,5,3,0,12
"Bromeliaceae",12,1,1,0,17
"Poaceae",15,1,0,0,25
"Commelinaceae",7,2,0,0,14
"Rosaceae",1,0,0,0,1
"Burseraceae",1,0,0,0,1
"Apocynaceae",18,3,0,0,46
"Campanulaceae",2,0,0,0,3
"Invertebrados no artrópodos",38,0,0,0,316
"Esponjas de mar",0,0,0,0,0
"Cnidarios",0,0,0,0,0
"Ctenóforos",0,0,0,0,0
"Chaetognatha",0,0,0,0,0
"platelmintos",28,0,0,0,280
"Moluscos",2,0,0,0,2
"Gusanos anélidos",0,0,0,0,0
"Sipuncula",0,0,0,0,0
"Rotifera",6,0,0,0,25
"Acanthocephala",2,0,0,0,9
"Briozoos",0,0,0,0,0
"Brachiopodos",0,0,0,0,0
"Tardigrados",0,0,0,0,0
"Onychophora",0,0,0,0,0
"Equinodermos",0,0,0,0,0
"Urocordados",0,0,0,0,0
"Artrópodos",382,16,2,1,2744
"Crustáceos",39,1,0,0,195
"Quelicerados",16,0,0,0,17
"Miriápodos",0,0,0,0,0
"Hexápodos",327,15,2,1,2532
"Vertebrados",305,33,94,20,4447
"Peces",28,0,2,2,164
"Anfibios",41,12,14,2,901
"Reptiles",75,16,28,3,743
"Aves",146,2,45,11,2598
"Mamíferos",15,3,5,2,41
