"Grupo","Numero_de_especies_registradas","Numero_de_especies_endemicas","Numero_de_especies_en_la_NOM-059-SEMARNAT-2010","Numero_de_especies_prioritarias","Numero_de_registros"
"Bacterias",0,0,0,0,0
"Algas",0,0,0,0,0
"Hongos",1,0,0,0,1
"Plantas no vasculares",0,0,0,0,0
"Briofitas",0,0,0,0,0
"Anthocerotophyta",0,0,0,0,0
"Marchantiophyta",0,0,0,0,0
"Plantas vasculares",47,7,3,1,50
"Pteridofitas",0,0,0,0,0
"Gimnospermas",0,0,0,0,0
"Pinaceae",0,0,0,0,0
"Cupressaceae",0,0,0,0,0
"Podocarpaceae",0,0,0,0,0
"Zamiaceae",0,0,0,0,0
"Ephedraceae",0,0,0,0,0
"Taxaceae",0,0,0,0,0
"Angiospermas",47,7,3,1,50
"Asteraceae",6,1,0,0,6
"Cactaceae",2,0,0,0,2
"Crassulaceae",0,0,0,0,0
"Euphorbiaceae",2,1,0,0,2
"Fabaceae",3,0,0,0,3
"Fagaceae",0,0,0,0,0
"Lamiaceae",1,0,0,0,2
"Rubiaceae",1,1,0,0,1
"Solanaceae",0,0,0,0,0
"Orchidaceae",0,0,0,0,0
"Asparagaceae",1,1,1,0,1
"Arecaceae",0,0,0,0,0
"Bromeliaceae",0,0,0,0,0
"Poaceae",11,2,0,0,13
"Commelinaceae",0,0,0,0,0
"Rosaceae",0,0,0,0,0
"Burseraceae",0,0,0,0,0
"Apocynaceae",1,0,0,0,1
"Campanulaceae",0,0,0,0,0
"Invertebrados no artrópodos",3,0,0,0,3
"Esponjas de mar",0,0,0,0,0
"Cnidarios",0,0,0,0,0
"Ctenóforos",0,0,0,0,0
"Chaetognatha",0,0,0,0,0
"platelmintos",0,0,0,0,0
"Moluscos",3,0,0,0,3
"Gusanos anélidos",0,0,0,0,0
"Sipuncula",0,0,0,0,0
"Rotifera",0,0,0,0,0
"Acanthocephala",0,0,0,0,0
"Briozoos",0,0,0,0,0
"Brachiopodos",0,0,0,0,0
"Tardigrados",0,0,0,0,0
"Onychophora",0,0,0,0,0
"Equinodermos",0,0,0,0,0
"Urocordados",0,0,0,0,0
"Artrópodos",7,0,0,0,10
"Crustáceos",0,0,0,0,0
"Quelicerados",4,0,0,0,5
"Miriápodos",0,0,0,0,0
"Hexápodos",3,0,0,0,5
"Vertebrados",71,1,4,1,97
"Peces",39,0,0,0,39
"Anfibios",6,0,1,0,27
"Reptiles",7,0,2,1,10
"Aves",6,0,1,0,6
"Mamíferos",13,1,0,0,15
