"Grupo","Numero_de_especies_registradas","Numero_de_especies_endemicas","Numero_de_especies_en_la_NOM-059-SEMARNAT-2010","Numero_de_especies_prioritarias","Numero_de_registros"
"Bacterias",0,0,0,0,0
"Algas",0,0,0,0,0
"Hongos",0,0,0,0,0
"Plantas no vasculares",0,0,0,0,0
"Briofitas",0,0,0,0,0
"Anthocerotophyta",0,0,0,0,0
"Marchantiophyta",0,0,0,0,0
"Plantas vasculares",68,21,1,2,83
"Pteridofitas",0,0,0,0,0
"Gimnospermas",0,0,0,0,0
"Pinaceae",0,0,0,0,0
"Cupressaceae",0,0,0,0,0
"Podocarpaceae",0,0,0,0,0
"Zamiaceae",0,0,0,0,0
"Ephedraceae",0,0,0,0,0
"Taxaceae",0,0,0,0,0
"Angiospermas",66,21,1,2,81
"Asteraceae",4,2,0,0,4
"Cactaceae",7,3,0,1,10
"Crassulaceae",0,0,0,0,0
"Euphorbiaceae",0,0,0,0,0
"Fabaceae",16,6,0,1,23
"Fagaceae",0,0,0,0,0
"Lamiaceae",2,2,0,0,2
"Rubiaceae",2,0,0,0,2
"Solanaceae",0,0,0,0,0
"Orchidaceae",0,0,0,0,0
"Asparagaceae",2,1,0,0,3
"Arecaceae",1,1,1,0,1
"Bromeliaceae",0,0,0,0,0
"Poaceae",3,2,0,0,5
"Commelinaceae",0,0,0,0,0
"Rosaceae",0,0,0,0,0
"Burseraceae",2,2,0,0,3
"Apocynaceae",2,0,0,0,2
"Campanulaceae",0,0,0,0,0
"Invertebrados no artrópodos",3,0,0,0,4
"Esponjas de mar",0,0,0,0,0
"Cnidarios",0,0,0,0,0
"Ctenóforos",0,0,0,0,0
"Chaetognatha",0,0,0,0,0
"platelmintos",0,0,0,0,0
"Moluscos",3,0,0,0,4
"Gusanos anélidos",0,0,0,0,0
"Sipuncula",0,0,0,0,0
"Rotifera",0,0,0,0,0
"Acanthocephala",0,0,0,0,0
"Briozoos",0,0,0,0,0
"Brachiopodos",0,0,0,0,0
"Tardigrados",0,0,0,0,0
"Onychophora",0,0,0,0,0
"Equinodermos",0,0,0,0,0
"Urocordados",0,0,0,0,0
"Artrópodos",29,0,1,0,73
"Crustáceos",24,0,0,0,68
"Quelicerados",1,0,1,0,1
"Miriápodos",0,0,0,0,0
"Hexápodos",4,0,0,0,4
"Vertebrados",143,17,22,12,588
"Peces",27,0,0,0,31
"Anfibios",4,1,0,0,5
"Reptiles",12,4,6,3,20
"Aves",86,11,15,8,500
"Mamíferos",14,1,1,1,32
