"Grupo","Numero_de_especies_registradas","Numero_de_especies_endemicas","Numero_de_especies_en_la_NOM-059-SEMARNAT-2010","Numero_de_especies_prioritarias","Numero_de_registros"
"Bacterias",0,0,0,0,0
"Algas",35,1,0,0,97
"Hongos",17,0,0,0,18
"Plantas no vasculares",0,0,0,0,0
"Briofitas",0,0,0,0,0
"Anthocerotophyta",0,0,0,0,0
"Marchantiophyta",0,0,0,0,0
"Plantas vasculares",321,128,11,5,504
"Pteridofitas",0,0,0,0,0
"Gimnospermas",7,4,5,3,27
"Pinaceae",3,1,1,1,13
"Cupressaceae",0,0,0,0,0
"Podocarpaceae",1,0,1,0,7
"Zamiaceae",3,3,3,2,7
"Ephedraceae",0,0,0,0,0
"Taxaceae",0,0,0,0,0
"Angiospermas",311,123,6,2,473
"Asteraceae",44,29,0,0,79
"Cactaceae",0,0,0,0,0
"Crassulaceae",0,0,0,0,0
"Euphorbiaceae",13,6,0,0,18
"Fabaceae",56,16,0,1,84
"Fagaceae",6,5,0,0,25
"Lamiaceae",6,2,0,0,7
"Rubiaceae",5,1,0,0,8
"Solanaceae",4,2,0,0,4
"Orchidaceae",8,5,0,0,10
"Asparagaceae",5,5,0,0,7
"Arecaceae",1,1,1,0,1
"Bromeliaceae",9,5,1,0,9
"Poaceae",28,11,0,0,49
"Commelinaceae",0,0,0,0,0
"Rosaceae",0,0,0,0,0
"Burseraceae",0,0,0,0,0
"Apocynaceae",2,0,0,0,2
"Campanulaceae",1,0,0,0,2
"Invertebrados no artrópodos",2,0,0,0,4
"Esponjas de mar",0,0,0,0,0
"Cnidarios",2,0,0,0,4
"Ctenóforos",0,0,0,0,0
"Chaetognatha",0,0,0,0,0
"platelmintos",0,0,0,0,0
"Moluscos",0,0,0,0,0
"Gusanos anélidos",0,0,0,0,0
"Sipuncula",0,0,0,0,0
"Rotifera",0,0,0,0,0
"Acanthocephala",0,0,0,0,0
"Briozoos",0,0,0,0,0
"Brachiopodos",0,0,0,0,0
"Tardigrados",0,0,0,0,0
"Onychophora",0,0,0,0,0
"Equinodermos",0,0,0,0,0
"Urocordados",0,0,0,0,0
"Artrópodos",437,7,1,1,2033
"Crustáceos",3,0,0,0,13
"Quelicerados",27,0,0,0,109
"Miriápodos",0,0,0,0,0
"Hexápodos",407,7,1,1,1911
"Vertebrados",278,47,66,29,11359
"Peces",9,0,1,0,11
"Anfibios",13,7,1,0,123
"Reptiles",27,17,11,2,92
"Aves",216,22,52,27,11055
"Mamíferos",13,1,1,0,78
