"Grupo","Numero_de_especies_registradas","Numero_de_especies_endemicas","Numero_de_especies_en_la_NOM-059-SEMARNAT-2010","Numero_de_especies_prioritarias","Numero_de_registros"
"Bacterias",0,0,0,0,0
"Algas",0,0,0,0,0
"Hongos",1,0,0,0,1
"Plantas no vasculares",14,0,0,0,15
"Briofitas",14,0,0,0,15
"Anthocerotophyta",0,0,0,0,0
"Marchantiophyta",0,0,0,0,0
"Plantas vasculares",70,15,5,4,92
"Pteridofitas",0,0,0,0,0
"Gimnospermas",4,1,1,1,4
"Pinaceae",3,1,0,1,3
"Cupressaceae",0,0,0,0,0
"Podocarpaceae",1,0,1,0,1
"Zamiaceae",0,0,0,0,0
"Ephedraceae",0,0,0,0,0
"Taxaceae",0,0,0,0,0
"Angiospermas",64,14,3,3,85
"Asteraceae",2,0,0,0,2
"Cactaceae",0,0,0,0,0
"Crassulaceae",0,0,0,0,0
"Euphorbiaceae",2,1,0,0,2
"Fabaceae",13,2,0,1,19
"Fagaceae",3,3,0,0,3
"Lamiaceae",0,0,0,0,0
"Rubiaceae",0,0,0,0,0
"Solanaceae",1,0,0,0,1
"Orchidaceae",0,0,0,0,0
"Asparagaceae",0,0,0,0,0
"Arecaceae",2,1,1,0,4
"Bromeliaceae",1,0,0,0,1
"Poaceae",1,0,0,0,3
"Commelinaceae",1,0,0,0,1
"Rosaceae",0,0,0,0,0
"Burseraceae",3,2,0,0,4
"Apocynaceae",0,0,0,0,0
"Campanulaceae",1,0,0,0,1
"Invertebrados no artrópodos",0,0,0,0,0
"Esponjas de mar",0,0,0,0,0
"Cnidarios",0,0,0,0,0
"Ctenóforos",0,0,0,0,0
"Chaetognatha",0,0,0,0,0
"platelmintos",0,0,0,0,0
"Moluscos",0,0,0,0,0
"Gusanos anélidos",0,0,0,0,0
"Sipuncula",0,0,0,0,0
"Rotifera",0,0,0,0,0
"Acanthocephala",0,0,0,0,0
"Briozoos",0,0,0,0,0
"Brachiopodos",0,0,0,0,0
"Tardigrados",0,0,0,0,0
"Onychophora",0,0,0,0,0
"Equinodermos",0,0,0,0,0
"Urocordados",0,0,0,0,0
"Artrópodos",105,1,0,0,125
"Crustáceos",0,0,0,0,0
"Quelicerados",0,0,0,0,0
"Miriápodos",0,0,0,0,0
"Hexápodos",105,1,0,0,125
"Vertebrados",112,23,16,4,230
"Peces",8,0,1,1,9
"Anfibios",11,5,1,0,20
"Reptiles",18,7,4,0,24
"Aves",56,6,10,3,63
"Mamíferos",19,5,0,0,114
