"Grupo","Numero_de_especies_registradas","Numero_de_especies_endemicas","Numero_de_especies_en_la_NOM-059-SEMARNAT-2010","Numero_de_especies_prioritarias","Numero_de_registros"
"Bacterias",4,0,0,0,10
"Algas",12,0,0,0,51
"Hongos",13,0,0,0,19
"Plantas no vasculares",32,0,0,0,113
"Briofitas",32,0,0,0,113
"Anthocerotophyta",0,0,0,0,0
"Marchantiophyta",0,0,0,0,0
"Plantas vasculares",1420,140,27,8,29773
"Pteridofitas",0,0,0,0,0
"Gimnospermas",5,2,2,1,53
"Pinaceae",1,0,0,0,34
"Cupressaceae",1,0,0,0,1
"Podocarpaceae",0,0,0,0,0
"Zamiaceae",3,2,2,1,18
"Ephedraceae",0,0,0,0,0
"Taxaceae",0,0,0,0,0
"Angiospermas",1376,137,23,7,29488
"Asteraceae",80,7,1,0,584
"Cactaceae",6,1,0,0,13
"Crassulaceae",0,0,0,0,0
"Euphorbiaceae",56,11,0,0,291
"Fabaceae",156,17,0,0,1582
"Fagaceae",0,0,0,0,0
"Lamiaceae",20,0,0,0,143
"Rubiaceae",48,8,0,0,517
"Solanaceae",37,2,0,0,371
"Orchidaceae",72,11,4,1,261
"Asparagaceae",7,2,0,0,61
"Arecaceae",21,9,7,0,17742
"Bromeliaceae",23,4,2,0,146
"Poaceae",76,9,1,0,538
"Commelinaceae",7,1,0,0,61
"Rosaceae",0,0,0,0,0
"Burseraceae",3,0,0,0,72
"Apocynaceae",40,5,0,0,499
"Campanulaceae",3,0,0,0,11
"Invertebrados no artrópodos",85,0,0,0,223
"Esponjas de mar",0,0,0,0,0
"Cnidarios",0,0,0,0,0
"Ctenóforos",0,0,0,0,0
"Chaetognatha",0,0,0,0,0
"platelmintos",22,0,0,0,66
"Moluscos",42,0,0,0,59
"Gusanos anélidos",2,0,0,0,4
"Sipuncula",0,0,0,0,0
"Rotifera",17,0,0,0,90
"Acanthocephala",2,0,0,0,4
"Briozoos",0,0,0,0,0
"Brachiopodos",0,0,0,0,0
"Tardigrados",0,0,0,0,0
"Onychophora",0,0,0,0,0
"Equinodermos",0,0,0,0,0
"Urocordados",0,0,0,0,0
"Artrópodos",813,22,1,1,11010
"Crustáceos",54,2,0,0,537
"Quelicerados",36,0,0,0,71
"Miriápodos",0,0,0,0,0
"Hexápodos",723,20,1,1,10402
"Vertebrados",483,22,147,45,11498
"Peces",80,0,3,3,1327
"Anfibios",24,1,7,1,558
"Reptiles",96,7,42,5,964
"Aves",201,9,74,26,7828
"Mamíferos",82,5,21,10,821
