"Grupo","Numero_de_especies_registradas","Numero_de_especies_endemicas","Numero_de_especies_en_la_NOM-059-SEMARNAT-2010","Numero_de_especies_prioritarias","Numero_de_registros"
"Bacterias",0,0,0,0,0
"Algas",0,0,0,0,0
"Hongos",15,0,0,0,16
"Plantas no vasculares",20,0,0,0,27
"Briofitas",20,0,0,0,27
"Anthocerotophyta",0,0,0,0,0
"Marchantiophyta",0,0,0,0,0
"Plantas vasculares",651,214,8,5,1398
"Pteridofitas",0,0,0,0,0
"Gimnospermas",3,2,1,1,3
"Pinaceae",2,1,0,0,2
"Cupressaceae",0,0,0,0,0
"Podocarpaceae",0,0,0,0,0
"Zamiaceae",1,1,1,1,1
"Ephedraceae",0,0,0,0,0
"Taxaceae",0,0,0,0,0
"Angiospermas",624,206,7,4,1351
"Asteraceae",78,33,0,0,168
"Cactaceae",3,1,0,0,3
"Crassulaceae",0,0,0,0,0
"Euphorbiaceae",27,12,0,0,45
"Fabaceae",105,27,0,0,244
"Fagaceae",5,4,0,0,9
"Lamiaceae",16,11,0,0,28
"Rubiaceae",16,5,0,0,23
"Solanaceae",12,2,0,0,36
"Orchidaceae",14,9,2,1,23
"Asparagaceae",12,12,1,0,29
"Arecaceae",1,1,1,0,5
"Bromeliaceae",11,3,0,0,18
"Poaceae",58,14,0,0,168
"Commelinaceae",11,4,0,0,30
"Rosaceae",2,1,0,0,3
"Burseraceae",7,4,1,1,21
"Apocynaceae",6,3,0,0,9
"Campanulaceae",2,0,0,0,2
"Invertebrados no artrópodos",1,0,0,0,1
"Esponjas de mar",0,0,0,0,0
"Cnidarios",0,0,0,0,0
"Ctenóforos",0,0,0,0,0
"Chaetognatha",0,0,0,0,0
"platelmintos",0,0,0,0,0
"Moluscos",1,0,0,0,1
"Gusanos anélidos",0,0,0,0,0
"Sipuncula",0,0,0,0,0
"Rotifera",0,0,0,0,0
"Acanthocephala",0,0,0,0,0
"Briozoos",0,0,0,0,0
"Brachiopodos",0,0,0,0,0
"Tardigrados",0,0,0,0,0
"Onychophora",0,0,0,0,0
"Equinodermos",0,0,0,0,0
"Urocordados",0,0,0,0,0
"Artrópodos",163,6,0,0,376
"Crustáceos",2,0,0,0,3
"Quelicerados",8,0,0,0,17
"Miriápodos",0,0,0,0,0
"Hexápodos",153,6,0,0,356
"Vertebrados",188,50,44,11,607
"Peces",9,0,3,1,31
"Anfibios",21,12,5,0,200
"Reptiles",28,20,10,1,77
"Aves",118,14,25,8,264
"Mamíferos",12,4,1,1,35
