"Grupo","Numero_de_especies_registradas","Numero_de_especies_endemicas","Numero_de_especies_en_la_NOM-059-SEMARNAT-2010","Numero_de_especies_prioritarias","Numero_de_registros"
"Bacterias",0,0,0,0,0
"Algas",0,0,0,0,0
"Hongos",13,0,0,0,14
"Plantas no vasculares",34,0,0,0,52
"Briofitas",34,0,0,0,52
"Anthocerotophyta",0,0,0,0,0
"Marchantiophyta",0,0,0,0,0
"Plantas vasculares",625,118,27,9,1210
"Pteridofitas",1,0,1,0,4
"Gimnospermas",6,4,5,4,17
"Pinaceae",1,0,0,0,1
"Cupressaceae",0,0,0,0,0
"Podocarpaceae",1,0,1,0,9
"Zamiaceae",4,4,4,4,7
"Ephedraceae",0,0,0,0,0
"Taxaceae",0,0,0,0,0
"Angiospermas",551,108,15,4,1019
"Asteraceae",44,6,0,0,59
"Cactaceae",4,2,1,0,9
"Crassulaceae",4,3,0,0,10
"Euphorbiaceae",9,2,0,0,16
"Fabaceae",29,2,0,0,40
"Fagaceae",11,5,0,0,15
"Lamiaceae",10,1,0,0,17
"Rubiaceae",27,8,0,0,63
"Solanaceae",25,5,0,0,50
"Orchidaceae",16,4,1,1,26
"Asparagaceae",2,0,0,0,4
"Arecaceae",5,4,3,0,11
"Bromeliaceae",14,6,1,0,21
"Poaceae",18,0,0,0,28
"Commelinaceae",4,2,0,0,4
"Rosaceae",6,1,0,0,10
"Burseraceae",2,0,0,0,5
"Apocynaceae",9,3,0,0,22
"Campanulaceae",4,0,0,0,9
"Invertebrados no artrópodos",0,0,0,0,0
"Esponjas de mar",0,0,0,0,0
"Cnidarios",0,0,0,0,0
"Ctenóforos",0,0,0,0,0
"Chaetognatha",0,0,0,0,0
"platelmintos",0,0,0,0,0
"Moluscos",0,0,0,0,0
"Gusanos anélidos",0,0,0,0,0
"Sipuncula",0,0,0,0,0
"Rotifera",0,0,0,0,0
"Acanthocephala",0,0,0,0,0
"Briozoos",0,0,0,0,0
"Brachiopodos",0,0,0,0,0
"Tardigrados",0,0,0,0,0
"Onychophora",0,0,0,0,0
"Equinodermos",0,0,0,0,0
"Urocordados",0,0,0,0,0
"Artrópodos",26,2,1,1,33
"Crustáceos",1,0,0,0,1
"Quelicerados",0,0,0,0,0
"Miriápodos",0,0,0,0,0
"Hexápodos",25,2,1,1,32
"Vertebrados",31,4,7,3,40
"Peces",0,0,0,0,0
"Anfibios",3,0,0,0,3
"Reptiles",5,2,3,0,6
"Aves",8,2,1,2,8
"Mamíferos",15,0,3,1,23
