"Grupo","Numero_de_especies_registradas","Numero_de_especies_endemicas","Numero_de_especies_en_la_NOM-059-SEMARNAT-2010","Numero_de_especies_prioritarias","Numero_de_registros"
"Bacterias",0,0,0,0,0
"Algas",1,0,0,0,9
"Hongos",0,0,0,0,0
"Plantas no vasculares",1,0,0,0,1
"Briofitas",1,0,0,0,1
"Anthocerotophyta",0,0,0,0,0
"Marchantiophyta",0,0,0,0,0
"Plantas vasculares",43,4,2,1,50
"Pteridofitas",0,0,0,0,0
"Gimnospermas",0,0,0,0,0
"Pinaceae",0,0,0,0,0
"Cupressaceae",0,0,0,0,0
"Podocarpaceae",0,0,0,0,0
"Zamiaceae",0,0,0,0,0
"Ephedraceae",0,0,0,0,0
"Taxaceae",0,0,0,0,0
"Angiospermas",42,4,2,1,49
"Asteraceae",1,0,0,0,1
"Cactaceae",0,0,0,0,0
"Crassulaceae",0,0,0,0,0
"Euphorbiaceae",5,0,0,0,7
"Fabaceae",3,1,0,0,3
"Fagaceae",0,0,0,0,0
"Lamiaceae",2,0,0,0,2
"Rubiaceae",0,0,0,0,0
"Solanaceae",5,3,0,0,6
"Orchidaceae",0,0,0,0,0
"Asparagaceae",0,0,0,0,0
"Arecaceae",0,0,0,0,0
"Bromeliaceae",0,0,0,0,0
"Poaceae",1,0,0,0,1
"Commelinaceae",0,0,0,0,0
"Rosaceae",0,0,0,0,0
"Burseraceae",1,0,0,0,2
"Apocynaceae",2,0,0,0,2
"Campanulaceae",0,0,0,0,0
"Invertebrados no artrópodos",0,0,0,0,0
"Esponjas de mar",0,0,0,0,0
"Cnidarios",0,0,0,0,0
"Ctenóforos",0,0,0,0,0
"Chaetognatha",0,0,0,0,0
"platelmintos",0,0,0,0,0
"Moluscos",0,0,0,0,0
"Gusanos anélidos",0,0,0,0,0
"Sipuncula",0,0,0,0,0
"Rotifera",0,0,0,0,0
"Acanthocephala",0,0,0,0,0
"Briozoos",0,0,0,0,0
"Brachiopodos",0,0,0,0,0
"Tardigrados",0,0,0,0,0
"Onychophora",0,0,0,0,0
"Equinodermos",0,0,0,0,0
"Urocordados",0,0,0,0,0
"Artrópodos",7,0,0,0,12
"Crustáceos",6,0,0,0,7
"Quelicerados",0,0,0,0,0
"Miriápodos",0,0,0,0,0
"Hexápodos",1,0,0,0,5
"Vertebrados",45,0,15,4,65
"Peces",0,0,0,0,0
"Anfibios",0,0,0,0,0
"Reptiles",2,0,1,1,2
"Aves",42,0,14,3,57
"Mamíferos",1,0,0,0,6
