"Grupo","Numero_de_especies_registradas","Numero_de_especies_endemicas","Numero_de_especies_en_la_NOM-059-SEMARNAT-2010","Numero_de_especies_prioritarias","Numero_de_registros"
"Bacterias",0,0,0,0,0
"Algas",0,0,0,0,0
"Hongos",5,0,0,0,7
"Plantas no vasculares",0,0,0,0,0
"Briofitas",0,0,0,0,0
"Anthocerotophyta",0,0,0,0,0
"Marchantiophyta",0,0,0,0,0
"Plantas vasculares",378,31,11,5,1049
"Pteridofitas",0,0,0,0,0
"Gimnospermas",4,3,2,1,16
"Pinaceae",1,1,0,0,1
"Cupressaceae",0,0,0,0,0
"Podocarpaceae",0,0,0,0,0
"Zamiaceae",3,2,2,1,15
"Ephedraceae",0,0,0,0,0
"Taxaceae",0,0,0,0,0
"Angiospermas",369,28,9,4,1024
"Asteraceae",24,1,0,0,59
"Cactaceae",1,0,0,0,4
"Crassulaceae",0,0,0,0,0
"Euphorbiaceae",16,2,0,0,24
"Fabaceae",49,3,0,0,155
"Fagaceae",0,0,0,0,0
"Lamiaceae",8,0,0,0,28
"Rubiaceae",11,2,0,0,36
"Solanaceae",8,0,0,0,38
"Orchidaceae",8,1,0,0,10
"Asparagaceae",1,1,0,0,4
"Arecaceae",8,5,3,0,30
"Bromeliaceae",3,2,0,0,6
"Poaceae",22,1,0,0,31
"Commelinaceae",2,0,0,0,2
"Rosaceae",0,0,0,0,0
"Burseraceae",1,0,0,0,12
"Apocynaceae",16,0,0,0,47
"Campanulaceae",0,0,0,0,0
"Invertebrados no artrópodos",84,0,0,0,131
"Esponjas de mar",0,0,0,0,0
"Cnidarios",0,0,0,0,0
"Ctenóforos",0,0,0,0,0
"Chaetognatha",0,0,0,0,0
"platelmintos",0,0,0,0,0
"Moluscos",80,0,0,0,127
"Gusanos anélidos",4,0,0,0,4
"Sipuncula",0,0,0,0,0
"Rotifera",0,0,0,0,0
"Acanthocephala",0,0,0,0,0
"Briozoos",0,0,0,0,0
"Brachiopodos",0,0,0,0,0
"Tardigrados",0,0,0,0,0
"Onychophora",0,0,0,0,0
"Equinodermos",0,0,0,0,0
"Urocordados",0,0,0,0,0
"Artrópodos",83,2,3,1,670
"Crustáceos",3,2,2,0,4
"Quelicerados",0,0,0,0,0
"Miriápodos",0,0,0,0,0
"Hexápodos",80,0,1,1,666
"Vertebrados",205,8,44,21,504
"Peces",40,0,2,2,65
"Anfibios",7,0,1,0,37
"Reptiles",21,1,8,2,105
"Aves",122,6,31,14,257
"Mamíferos",15,1,2,3,40
