"Grupo","Numero_de_especies_registradas","Numero_de_especies_endemicas","Numero_de_especies_en_la_NOM-059-SEMARNAT-2010","Numero_de_especies_prioritarias","Numero_de_registros"
"Bacterias",0,0,0,0,0
"Algas",9,0,0,0,26
"Hongos",27,0,0,0,38
"Plantas no vasculares",16,0,0,0,30
"Briofitas",16,0,0,0,30
"Anthocerotophyta",0,0,0,0,0
"Marchantiophyta",0,0,0,0,0
"Plantas vasculares",440,16,6,1,1547
"Pteridofitas",0,0,0,0,0
"Gimnospermas",5,1,3,0,52
"Pinaceae",1,0,1,0,3
"Cupressaceae",3,1,2,0,29
"Podocarpaceae",0,0,0,0,0
"Zamiaceae",0,0,0,0,0
"Ephedraceae",1,0,0,0,20
"Taxaceae",0,0,0,0,0
"Angiospermas",428,15,3,1,1472
"Asteraceae",77,2,0,0,240
"Cactaceae",14,3,2,1,100
"Crassulaceae",4,0,0,0,40
"Euphorbiaceae",10,1,0,0,38
"Fabaceae",31,0,1,0,86
"Fagaceae",8,3,0,0,22
"Lamiaceae",11,0,0,0,65
"Rubiaceae",1,0,0,0,2
"Solanaceae",11,0,0,0,25
"Orchidaceae",0,0,0,0,0
"Asparagaceae",5,1,0,0,30
"Arecaceae",0,0,0,0,0
"Bromeliaceae",0,0,0,0,0
"Poaceae",21,1,0,0,47
"Commelinaceae",0,0,0,0,0
"Rosaceae",8,0,0,0,52
"Burseraceae",0,0,0,0,0
"Apocynaceae",6,0,0,0,11
"Campanulaceae",1,0,0,0,1
"Invertebrados no artrópodos",8,0,0,0,9
"Esponjas de mar",0,0,0,0,0
"Cnidarios",0,0,0,0,0
"Ctenóforos",0,0,0,0,0
"Chaetognatha",0,0,0,0,0
"platelmintos",0,0,0,0,0
"Moluscos",8,0,0,0,9
"Gusanos anélidos",0,0,0,0,0
"Sipuncula",0,0,0,0,0
"Rotifera",0,0,0,0,0
"Acanthocephala",0,0,0,0,0
"Briozoos",0,0,0,0,0
"Brachiopodos",0,0,0,0,0
"Tardigrados",0,0,0,0,0
"Onychophora",0,0,0,0,0
"Equinodermos",0,0,0,0,0
"Urocordados",0,0,0,0,0
"Artrópodos",77,0,0,0,177
"Crustáceos",5,0,0,0,17
"Quelicerados",9,0,0,0,18
"Miriápodos",0,0,0,0,0
"Hexápodos",63,0,0,0,142
"Vertebrados",275,17,46,26,3041
"Peces",56,0,0,0,94
"Anfibios",13,0,3,1,115
"Reptiles",48,11,23,3,227
"Aves",136,4,16,22,2486
"Mamíferos",22,2,4,0,119
