"Grupo","Numero_de_especies_registradas","Numero_de_especies_endemicas","Numero_de_especies_en_la_NOM-059-SEMARNAT-2010","Numero_de_especies_prioritarias","Numero_de_registros"
"Bacterias",0,0,0,0,0
"Algas",0,0,0,0,0
"Hongos",1,0,0,0,1
"Plantas no vasculares",0,0,0,0,0
"Briofitas",0,0,0,0,0
"Anthocerotophyta",0,0,0,0,0
"Marchantiophyta",0,0,0,0,0
"Plantas vasculares",255,60,4,2,332
"Pteridofitas",0,0,0,0,0
"Gimnospermas",2,2,2,0,2
"Pinaceae",1,1,1,0,1
"Cupressaceae",0,0,0,0,0
"Podocarpaceae",0,0,0,0,0
"Zamiaceae",1,1,1,0,1
"Ephedraceae",0,0,0,0,0
"Taxaceae",0,0,0,0,0
"Angiospermas",248,58,2,2,325
"Asteraceae",27,14,0,0,43
"Cactaceae",3,2,1,0,4
"Crassulaceae",1,1,0,0,1
"Euphorbiaceae",9,1,0,0,11
"Fabaceae",45,7,0,1,71
"Fagaceae",2,2,0,0,4
"Lamiaceae",3,1,0,0,3
"Rubiaceae",5,1,1,0,5
"Solanaceae",3,0,0,0,4
"Orchidaceae",1,0,0,0,1
"Asparagaceae",0,0,0,0,0
"Arecaceae",0,0,0,0,0
"Bromeliaceae",7,1,0,0,8
"Poaceae",18,5,0,0,26
"Commelinaceae",4,0,0,0,4
"Rosaceae",0,0,0,0,0
"Burseraceae",3,3,0,0,3
"Apocynaceae",8,1,0,0,9
"Campanulaceae",1,0,0,0,1
"Invertebrados no artrópodos",0,0,0,0,0
"Esponjas de mar",0,0,0,0,0
"Cnidarios",0,0,0,0,0
"Ctenóforos",0,0,0,0,0
"Chaetognatha",0,0,0,0,0
"platelmintos",0,0,0,0,0
"Moluscos",0,0,0,0,0
"Gusanos anélidos",0,0,0,0,0
"Sipuncula",0,0,0,0,0
"Rotifera",0,0,0,0,0
"Acanthocephala",0,0,0,0,0
"Briozoos",0,0,0,0,0
"Brachiopodos",0,0,0,0,0
"Tardigrados",0,0,0,0,0
"Onychophora",0,0,0,0,0
"Equinodermos",0,0,0,0,0
"Urocordados",0,0,0,0,0
"Artrópodos",36,0,0,0,58
"Crustáceos",0,0,0,0,0
"Quelicerados",3,0,0,0,3
"Miriápodos",0,0,0,0,0
"Hexápodos",33,0,0,0,55
"Vertebrados",122,22,32,21,228
"Peces",0,0,0,0,0
"Anfibios",2,2,1,0,2
"Reptiles",16,7,9,2,17
"Aves",94,10,21,17,176
"Mamíferos",10,3,1,2,33
