"Grupo","Numero_de_especies_registradas","Numero_de_especies_endemicas","Numero_de_especies_en_la_NOM-059-SEMARNAT-2010","Numero_de_especies_prioritarias","Numero_de_registros"
"Bacterias",8,0,0,0,30
"Algas",12,0,0,0,28
"Hongos",205,0,3,0,565
"Plantas no vasculares",30,0,0,0,49
"Briofitas",26,0,0,0,45
"Anthocerotophyta",0,0,0,0,0
"Marchantiophyta",4,0,0,0,4
"Plantas vasculares",2147,635,40,21,11238
"Pteridofitas",0,0,0,0,0
"Gimnospermas",22,9,4,3,205
"Pinaceae",16,6,2,1,166
"Cupressaceae",5,2,1,1,35
"Podocarpaceae",0,0,0,0,0
"Zamiaceae",1,1,1,1,4
"Ephedraceae",0,0,0,0,0
"Taxaceae",0,0,0,0,0
"Angiospermas",2044,618,35,18,10792
"Asteraceae",309,108,0,0,1293
"Cactaceae",44,19,7,5,327
"Crassulaceae",12,6,0,0,65
"Euphorbiaceae",98,42,0,0,646
"Fabaceae",212,48,1,2,1127
"Fagaceae",30,17,0,1,439
"Lamiaceae",59,27,0,0,400
"Rubiaceae",31,8,0,0,83
"Solanaceae",54,7,0,0,423
"Orchidaceae",37,24,2,1,125
"Asparagaceae",35,25,3,1,250
"Arecaceae",4,2,3,0,9
"Bromeliaceae",8,1,0,0,29
"Poaceae",178,53,1,0,1176
"Commelinaceae",19,10,0,0,174
"Rosaceae",15,4,0,0,98
"Burseraceae",13,5,1,1,128
"Apocynaceae",55,26,0,0,354
"Campanulaceae",6,1,0,0,22
"Invertebrados no artrópodos",91,0,0,0,139
"Esponjas de mar",0,0,0,0,0
"Cnidarios",0,0,0,0,0
"Ctenóforos",0,0,0,0,0
"Chaetognatha",0,0,0,0,0
"platelmintos",0,0,0,0,0
"Moluscos",91,0,0,0,139
"Gusanos anélidos",0,0,0,0,0
"Sipuncula",0,0,0,0,0
"Rotifera",0,0,0,0,0
"Acanthocephala",0,0,0,0,0
"Briozoos",0,0,0,0,0
"Brachiopodos",0,0,0,0,0
"Tardigrados",0,0,0,0,0
"Onychophora",0,0,0,0,0
"Equinodermos",0,0,0,0,0
"Urocordados",0,0,0,0,0
"Artrópodos",545,23,2,1,4048
"Crustáceos",18,0,0,0,34
"Quelicerados",13,0,1,0,262
"Miriápodos",0,0,0,0,0
"Hexápodos",514,23,1,1,3752
"Vertebrados",559,95,121,47,11090
"Peces",88,0,11,1,216
"Anfibios",40,15,11,0,1394
"Reptiles",131,44,51,4,2939
"Aves",209,23,40,36,5007
"Mamíferos",91,13,8,6,1534
