"Grupo","Numero_de_especies_registradas","Numero_de_especies_endemicas","Numero_de_especies_en_la_NOM-059-SEMARNAT-2010","Numero_de_especies_prioritarias","Numero_de_registros"
"Bacterias",0,0,0,0,0
"Algas",0,0,0,0,0
"Hongos",0,0,0,0,0
"Plantas no vasculares",0,0,0,0,0
"Briofitas",0,0,0,0,0
"Anthocerotophyta",0,0,0,0,0
"Marchantiophyta",0,0,0,0,0
"Plantas vasculares",581,198,18,11,1145
"Pteridofitas",0,0,0,0,0
"Gimnospermas",0,0,0,0,0
"Pinaceae",0,0,0,0,0
"Cupressaceae",0,0,0,0,0
"Podocarpaceae",0,0,0,0,0
"Zamiaceae",0,0,0,0,0
"Ephedraceae",0,0,0,0,0
"Taxaceae",0,0,0,0,0
"Angiospermas",572,198,16,11,1133
"Asteraceae",58,27,1,0,95
"Cactaceae",8,6,1,1,13
"Crassulaceae",2,2,0,0,3
"Euphorbiaceae",25,12,1,0,43
"Fabaceae",68,16,2,0,122
"Fagaceae",15,12,0,1,38
"Lamiaceae",21,12,0,0,71
"Rubiaceae",14,7,0,0,35
"Solanaceae",10,4,0,0,13
"Orchidaceae",22,14,2,2,47
"Asparagaceae",7,5,1,0,12
"Arecaceae",0,0,0,0,0
"Bromeliaceae",4,2,0,0,4
"Poaceae",7,0,0,0,20
"Commelinaceae",7,3,0,0,11
"Rosaceae",3,1,0,0,6
"Burseraceae",11,6,2,1,30
"Apocynaceae",11,2,0,0,25
"Campanulaceae",0,0,0,0,0
"Invertebrados no artrópodos",1,0,0,0,1
"Esponjas de mar",0,0,0,0,0
"Cnidarios",1,0,0,0,1
"Ctenóforos",0,0,0,0,0
"Chaetognatha",0,0,0,0,0
"platelmintos",0,0,0,0,0
"Moluscos",0,0,0,0,0
"Gusanos anélidos",0,0,0,0,0
"Sipuncula",0,0,0,0,0
"Rotifera",0,0,0,0,0
"Acanthocephala",0,0,0,0,0
"Briozoos",0,0,0,0,0
"Brachiopodos",0,0,0,0,0
"Tardigrados",0,0,0,0,0
"Onychophora",0,0,0,0,0
"Equinodermos",0,0,0,0,0
"Urocordados",0,0,0,0,0
"Artrópodos",110,4,0,0,1292
"Crustáceos",0,0,0,0,0
"Quelicerados",1,0,0,0,1
"Miriápodos",0,0,0,0,0
"Hexápodos",109,4,0,0,1291
"Vertebrados",134,29,20,15,301
"Peces",11,0,1,0,14
"Anfibios",13,8,1,0,39
"Reptiles",19,11,8,1,52
"Aves",65,8,8,11,106
"Mamíferos",26,2,2,3,90
