"Grupo","Numero_de_especies_registradas","Numero_de_especies_endemicas","Numero_de_especies_en_la_NOM-059-SEMARNAT-2010","Numero_de_especies_prioritarias","Numero_de_registros"
"Bacterias",0,0,0,0,0
"Algas",0,0,0,0,0
"Hongos",1,0,0,0,2
"Plantas no vasculares",0,0,0,0,0
"Briofitas",0,0,0,0,0
"Anthocerotophyta",0,0,0,0,0
"Marchantiophyta",0,0,0,0,0
"Plantas vasculares",486,97,14,8,870
"Pteridofitas",0,0,0,0,0
"Gimnospermas",6,1,0,1,7
"Pinaceae",6,1,0,1,7
"Cupressaceae",0,0,0,0,0
"Podocarpaceae",0,0,0,0,0
"Zamiaceae",0,0,0,0,0
"Ephedraceae",0,0,0,0,0
"Taxaceae",0,0,0,0,0
"Angiospermas",456,96,13,7,818
"Asteraceae",25,10,0,0,27
"Cactaceae",5,3,0,0,8
"Crassulaceae",0,0,0,0,0
"Euphorbiaceae",11,5,0,0,14
"Fabaceae",90,18,2,1,153
"Fagaceae",4,3,0,1,5
"Lamiaceae",8,4,0,0,14
"Rubiaceae",12,3,1,0,23
"Solanaceae",3,0,0,0,5
"Orchidaceae",3,1,0,0,5
"Asparagaceae",2,1,0,0,2
"Arecaceae",0,0,0,0,0
"Bromeliaceae",4,2,0,0,7
"Poaceae",7,0,0,0,9
"Commelinaceae",1,1,0,0,2
"Rosaceae",0,0,0,0,0
"Burseraceae",8,5,1,1,26
"Apocynaceae",14,2,0,0,38
"Campanulaceae",0,0,0,0,0
"Invertebrados no artrópodos",0,0,0,0,0
"Esponjas de mar",0,0,0,0,0
"Cnidarios",0,0,0,0,0
"Ctenóforos",0,0,0,0,0
"Chaetognatha",0,0,0,0,0
"platelmintos",0,0,0,0,0
"Moluscos",0,0,0,0,0
"Gusanos anélidos",0,0,0,0,0
"Sipuncula",0,0,0,0,0
"Rotifera",0,0,0,0,0
"Acanthocephala",0,0,0,0,0
"Briozoos",0,0,0,0,0
"Brachiopodos",0,0,0,0,0
"Tardigrados",0,0,0,0,0
"Onychophora",0,0,0,0,0
"Equinodermos",0,0,0,0,0
"Urocordados",0,0,0,0,0
"Artrópodos",39,1,0,0,116
"Crustáceos",13,0,0,0,78
"Quelicerados",1,0,0,0,1
"Miriápodos",0,0,0,0,0
"Hexápodos",25,1,0,0,37
"Vertebrados",79,19,25,12,241
"Peces",8,0,1,1,9
"Anfibios",4,3,1,0,49
"Reptiles",21,9,8,3,82
"Aves",43,7,13,7,97
"Mamíferos",3,0,2,1,4
