"Grupo","Numero_de_especies_registradas","Numero_de_especies_endemicas","Numero_de_especies_en_la_NOM-059-SEMARNAT-2010","Numero_de_especies_prioritarias","Numero_de_registros"
"Bacterias",1,0,0,0,1
"Algas",0,0,0,0,0
"Hongos",1,0,0,0,1
"Plantas no vasculares",5,0,0,0,5
"Briofitas",2,0,0,0,2
"Anthocerotophyta",0,0,0,0,0
"Marchantiophyta",3,0,0,0,3
"Plantas vasculares",796,83,33,10,1507
"Pteridofitas",0,0,0,0,0
"Gimnospermas",6,3,4,2,12
"Pinaceae",1,0,0,0,1
"Cupressaceae",1,1,1,0,1
"Podocarpaceae",1,0,1,0,4
"Zamiaceae",3,2,2,2,6
"Ephedraceae",0,0,0,0,0
"Taxaceae",0,0,0,0,0
"Angiospermas",709,79,28,8,1326
"Asteraceae",32,4,1,0,41
"Cactaceae",2,0,0,0,4
"Crassulaceae",1,1,0,0,1
"Euphorbiaceae",15,3,1,0,23
"Fabaceae",60,7,1,1,93
"Fagaceae",7,4,0,1,13
"Lamiaceae",9,2,0,0,13
"Rubiaceae",35,1,3,0,68
"Solanaceae",22,1,0,0,49
"Orchidaceae",44,13,4,0,73
"Asparagaceae",6,4,0,0,13
"Arecaceae",11,6,8,0,34
"Bromeliaceae",18,6,1,0,36
"Poaceae",11,0,0,0,20
"Commelinaceae",6,1,0,0,9
"Rosaceae",1,0,0,0,3
"Burseraceae",1,0,0,0,1
"Apocynaceae",12,1,0,0,22
"Campanulaceae",1,0,0,0,2
"Invertebrados no artrópodos",1,0,0,0,1
"Esponjas de mar",0,0,0,0,0
"Cnidarios",0,0,0,0,0
"Ctenóforos",0,0,0,0,0
"Chaetognatha",0,0,0,0,0
"platelmintos",0,0,0,0,0
"Moluscos",1,0,0,0,1
"Gusanos anélidos",0,0,0,0,0
"Sipuncula",0,0,0,0,0
"Rotifera",0,0,0,0,0
"Acanthocephala",0,0,0,0,0
"Briozoos",0,0,0,0,0
"Brachiopodos",0,0,0,0,0
"Tardigrados",0,0,0,0,0
"Onychophora",0,0,0,0,0
"Equinodermos",0,0,0,0,0
"Urocordados",0,0,0,0,0
"Artrópodos",102,2,0,0,719
"Crustáceos",2,0,0,0,2
"Quelicerados",1,0,0,0,1
"Miriápodos",0,0,0,0,0
"Hexápodos",99,2,0,0,716
"Vertebrados",392,22,105,36,3456
"Peces",38,0,1,2,155
"Anfibios",23,4,5,0,210
"Reptiles",50,5,17,5,586
"Aves",193,9,71,26,1861
"Mamíferos",88,4,11,3,644
