"Grupo","Numero_de_especies_registradas","Numero_de_especies_endemicas","Numero_de_especies_en_la_NOM-059-SEMARNAT-2010","Numero_de_especies_prioritarias","Numero_de_registros"
"Bacterias",0,0,0,0,0
"Algas",137,0,0,0,369
"Hongos",109,0,1,0,237
"Plantas no vasculares",89,0,0,0,265
"Briofitas",89,0,0,0,265
"Anthocerotophyta",0,0,0,0,0
"Marchantiophyta",0,0,0,0,0
"Plantas vasculares",1978,725,37,20,7447
"Pteridofitas",0,0,0,0,0
"Gimnospermas",32,14,6,6,223
"Pinaceae",23,10,4,5,182
"Cupressaceae",8,3,1,0,38
"Podocarpaceae",0,0,0,0,0
"Zamiaceae",1,1,1,1,3
"Ephedraceae",0,0,0,0,0
"Taxaceae",0,0,0,0,0
"Angiospermas",1891,705,31,14,7131
"Asteraceae",306,142,0,0,1030
"Cactaceae",26,15,4,2,111
"Crassulaceae",12,11,0,0,37
"Euphorbiaceae",77,30,1,0,194
"Fabaceae",203,50,1,1,859
"Fagaceae",29,22,0,1,211
"Lamiaceae",59,39,0,0,190
"Rubiaceae",24,7,0,0,60
"Solanaceae",29,6,0,0,159
"Orchidaceae",40,25,2,2,80
"Asparagaceae",28,22,0,0,92
"Arecaceae",5,3,2,0,17
"Bromeliaceae",13,6,0,0,29
"Poaceae",184,73,1,0,1107
"Commelinaceae",24,13,0,0,103
"Rosaceae",21,8,0,0,69
"Burseraceae",6,3,0,0,38
"Apocynaceae",27,9,0,0,95
"Campanulaceae",14,4,0,0,50
"Invertebrados no artrópodos",63,0,0,0,90
"Esponjas de mar",0,0,0,0,0
"Cnidarios",0,0,0,0,0
"Ctenóforos",0,0,0,0,0
"Chaetognatha",0,0,0,0,0
"platelmintos",5,0,0,0,10
"Moluscos",42,0,0,0,50
"Gusanos anélidos",14,0,0,0,24
"Sipuncula",0,0,0,0,0
"Rotifera",0,0,0,0,0
"Acanthocephala",2,0,0,0,6
"Briozoos",0,0,0,0,0
"Brachiopodos",0,0,0,0,0
"Tardigrados",0,0,0,0,0
"Onychophora",0,0,0,0,0
"Equinodermos",0,0,0,0,0
"Urocordados",0,0,0,0,0
"Artrópodos",529,16,0,0,2066
"Crustáceos",27,0,0,0,49
"Quelicerados",10,0,0,0,51
"Miriápodos",0,0,0,0,0
"Hexápodos",492,16,0,0,1966
"Vertebrados",585,127,134,51,10744
"Peces",78,0,9,5,177
"Anfibios",48,24,12,0,1646
"Reptiles",120,57,48,9,1420
"Aves",231,26,52,32,6330
"Mamíferos",108,20,13,5,1171
