"Grupo","Numero_de_especies_registradas","Numero_de_especies_endemicas","Numero_de_especies_en_la_NOM-059-SEMARNAT-2010","Numero_de_especies_prioritarias","Numero_de_registros"
"Bacterias",0,0,0,0,0
"Algas",0,0,0,0,0
"Hongos",88,0,1,0,169
"Plantas no vasculares",106,0,0,0,566
"Briofitas",106,0,0,0,566
"Anthocerotophyta",0,0,0,0,0
"Marchantiophyta",0,0,0,0,0
"Plantas vasculares",1513,487,49,15,4970
"Pteridofitas",0,0,0,0,0
"Gimnospermas",5,4,3,1,11
"Pinaceae",3,2,1,1,9
"Cupressaceae",1,1,1,0,1
"Podocarpaceae",0,0,0,0,0
"Zamiaceae",1,1,1,0,1
"Ephedraceae",0,0,0,0,0
"Taxaceae",0,0,0,0,0
"Angiospermas",1465,480,44,14,4869
"Asteraceae",153,75,0,0,448
"Cactaceae",8,4,0,0,9
"Crassulaceae",3,2,0,0,18
"Euphorbiaceae",68,29,3,0,225
"Fabaceae",167,41,2,1,496
"Fagaceae",18,13,0,1,87
"Lamiaceae",35,21,1,0,65
"Rubiaceae",38,12,2,0,202
"Solanaceae",43,9,0,0,147
"Orchidaceae",39,21,5,1,50
"Asparagaceae",14,12,2,1,25
"Arecaceae",3,2,2,0,19
"Bromeliaceae",23,12,0,0,68
"Poaceae",148,38,4,0,545
"Commelinaceae",19,6,0,0,52
"Rosaceae",9,4,0,0,15
"Burseraceae",11,6,1,1,55
"Apocynaceae",28,10,0,0,82
"Campanulaceae",3,1,0,0,6
"Invertebrados no artrópodos",10,0,0,0,19
"Esponjas de mar",0,0,0,0,0
"Cnidarios",0,0,0,0,0
"Ctenóforos",0,0,0,0,0
"Chaetognatha",0,0,0,0,0
"platelmintos",7,0,0,0,15
"Moluscos",2,0,0,0,2
"Gusanos anélidos",0,0,0,0,0
"Sipuncula",0,0,0,0,0
"Rotifera",0,0,0,0,0
"Acanthocephala",1,0,0,0,2
"Briozoos",0,0,0,0,0
"Brachiopodos",0,0,0,0,0
"Tardigrados",0,0,0,0,0
"Onychophora",0,0,0,0,0
"Equinodermos",0,0,0,0,0
"Urocordados",0,0,0,0,0
"Artrópodos",272,12,0,0,2496
"Crustáceos",6,0,0,0,17
"Quelicerados",10,0,0,0,40
"Miriápodos",0,0,0,0,0
"Hexápodos",256,12,0,0,2439
"Vertebrados",305,70,79,31,2711
"Peces",13,0,2,2,40
"Anfibios",25,15,9,0,178
"Reptiles",49,29,23,3,195
"Aves",170,17,41,22,2066
"Mamíferos",48,9,4,4,232
