"Grupo","Numero_de_especies_registradas","Numero_de_especies_endemicas","Numero_de_especies_en_la_NOM-059-SEMARNAT-2010","Numero_de_especies_prioritarias","Numero_de_registros"
"Bacterias",0,0,0,0,0
"Algas",0,0,0,0,0
"Hongos",15,0,1,0,21
"Plantas no vasculares",5,0,0,0,5
"Briofitas",5,0,0,0,5
"Anthocerotophyta",0,0,0,0,0
"Marchantiophyta",0,0,0,0,0
"Plantas vasculares",1444,492,22,15,3925
"Pteridofitas",0,0,0,0,0
"Gimnospermas",26,11,5,6,206
"Pinaceae",19,8,3,5,175
"Cupressaceae",7,3,2,1,31
"Podocarpaceae",0,0,0,0,0
"Zamiaceae",0,0,0,0,0
"Ephedraceae",0,0,0,0,0
"Taxaceae",0,0,0,0,0
"Angiospermas",1373,477,17,9,3608
"Asteraceae",202,92,0,0,461
"Cactaceae",28,20,4,2,64
"Crassulaceae",12,9,0,0,18
"Euphorbiaceae",63,28,1,0,170
"Fabaceae",139,28,2,1,353
"Fagaceae",29,22,0,1,195
"Lamiaceae",42,24,0,0,123
"Rubiaceae",29,10,0,0,58
"Solanaceae",36,7,0,0,82
"Orchidaceae",11,6,0,0,19
"Asparagaceae",13,9,0,0,31
"Arecaceae",2,2,2,0,3
"Bromeliaceae",6,3,0,0,14
"Poaceae",103,33,0,0,362
"Commelinaceae",12,8,0,0,31
"Rosaceae",15,3,0,0,42
"Burseraceae",8,4,0,0,22
"Apocynaceae",25,13,0,0,60
"Campanulaceae",7,2,0,0,19
"Invertebrados no artrópodos",16,0,0,0,18
"Esponjas de mar",0,0,0,0,0
"Cnidarios",0,0,0,0,0
"Ctenóforos",0,0,0,0,0
"Chaetognatha",0,0,0,0,0
"platelmintos",2,0,0,0,2
"Moluscos",14,0,0,0,16
"Gusanos anélidos",0,0,0,0,0
"Sipuncula",0,0,0,0,0
"Rotifera",0,0,0,0,0
"Acanthocephala",0,0,0,0,0
"Briozoos",0,0,0,0,0
"Brachiopodos",0,0,0,0,0
"Tardigrados",0,0,0,0,0
"Onychophora",0,0,0,0,0
"Equinodermos",0,0,0,0,0
"Urocordados",0,0,0,0,0
"Artrópodos",78,4,0,0,222
"Crustáceos",6,0,0,0,9
"Quelicerados",3,0,0,0,5
"Miriápodos",0,0,0,0,0
"Hexápodos",69,4,0,0,208
"Vertebrados",269,71,73,24,1311
"Peces",19,0,9,2,48
"Anfibios",21,10,5,0,178
"Reptiles",56,26,28,3,231
"Aves",106,20,26,15,287
"Mamíferos",67,15,5,4,567
