"Grupo","Numero_de_especies_registradas","Numero_de_especies_endemicas","Numero_de_especies_en_la_NOM-059-SEMARNAT-2010","Numero_de_especies_prioritarias","Numero_de_registros"
"Bacterias",0,0,0,0,0
"Algas",0,0,0,0,0
"Hongos",0,0,0,0,0
"Plantas no vasculares",4,0,0,0,4
"Briofitas",4,0,0,0,4
"Anthocerotophyta",0,0,0,0,0
"Marchantiophyta",0,0,0,0,0
"Plantas vasculares",398,51,18,7,619
"Pteridofitas",0,0,0,0,0
"Gimnospermas",2,2,2,2,2
"Pinaceae",0,0,0,0,0
"Cupressaceae",0,0,0,0,0
"Podocarpaceae",0,0,0,0,0
"Zamiaceae",2,2,2,2,2
"Ephedraceae",0,0,0,0,0
"Taxaceae",0,0,0,0,0
"Angiospermas",360,47,13,4,559
"Asteraceae",22,4,0,0,29
"Cactaceae",0,0,0,0,0
"Crassulaceae",0,0,0,0,0
"Euphorbiaceae",6,1,0,0,10
"Fabaceae",25,1,1,0,34
"Fagaceae",2,1,0,0,3
"Lamiaceae",5,0,0,0,5
"Rubiaceae",35,8,1,0,68
"Solanaceae",17,1,0,0,28
"Orchidaceae",21,8,2,1,29
"Asparagaceae",1,0,0,0,5
"Arecaceae",7,2,3,0,14
"Bromeliaceae",10,4,0,0,12
"Poaceae",6,0,0,0,7
"Commelinaceae",1,0,0,0,1
"Rosaceae",1,0,0,0,1
"Burseraceae",1,0,0,0,2
"Apocynaceae",9,1,0,0,17
"Campanulaceae",2,0,0,0,2
"Invertebrados no artrópodos",0,0,0,0,0
"Esponjas de mar",0,0,0,0,0
"Cnidarios",0,0,0,0,0
"Ctenóforos",0,0,0,0,0
"Chaetognatha",0,0,0,0,0
"platelmintos",0,0,0,0,0
"Moluscos",0,0,0,0,0
"Gusanos anélidos",0,0,0,0,0
"Sipuncula",0,0,0,0,0
"Rotifera",0,0,0,0,0
"Acanthocephala",0,0,0,0,0
"Briozoos",0,0,0,0,0
"Brachiopodos",0,0,0,0,0
"Tardigrados",0,0,0,0,0
"Onychophora",0,0,0,0,0
"Equinodermos",0,0,0,0,0
"Urocordados",0,0,0,0,0
"Artrópodos",43,4,1,0,608
"Crustáceos",1,0,0,0,1
"Quelicerados",2,0,0,0,2
"Miriápodos",0,0,0,0,0
"Hexápodos",40,4,1,0,605
"Vertebrados",33,3,13,1,41
"Peces",0,0,0,0,0
"Anfibios",1,1,1,0,1
"Reptiles",6,1,2,0,10
"Aves",25,1,10,1,29
"Mamíferos",1,0,0,0,1
