"Grupo","Numero_de_especies_registradas","Numero_de_especies_endemicas","Numero_de_especies_en_la_NOM-059-SEMARNAT-2010","Numero_de_especies_prioritarias","Numero_de_registros"
"Bacterias",1,0,0,0,5
"Algas",50,0,0,0,58
"Hongos",144,0,1,0,220
"Plantas no vasculares",118,0,0,0,343
"Briofitas",114,0,0,0,338
"Anthocerotophyta",0,0,0,0,0
"Marchantiophyta",4,0,0,0,5
"Plantas vasculares",2844,850,68,30,19366
"Pteridofitas",0,0,0,0,0
"Gimnospermas",31,12,11,11,381
"Pinaceae",18,8,6,7,264
"Cupressaceae",6,1,0,1,59
"Podocarpaceae",1,0,1,0,1
"Zamiaceae",3,2,3,3,38
"Ephedraceae",2,1,0,0,4
"Taxaceae",1,0,1,0,15
"Angiospermas",2675,823,57,19,18358
"Asteraceae",398,154,3,0,2695
"Cactaceae",94,49,24,7,603
"Crassulaceae",35,23,1,0,201
"Euphorbiaceae",115,37,0,0,1017
"Fabaceae",221,51,2,2,1659
"Fagaceae",57,41,0,1,518
"Lamiaceae",94,46,0,0,623
"Rubiaceae",40,7,0,0,238
"Solanaceae",66,14,0,0,509
"Orchidaceae",45,25,4,3,166
"Asparagaceae",45,36,4,0,297
"Arecaceae",6,5,3,0,67
"Bromeliaceae",17,6,0,0,132
"Poaceae",244,60,1,0,1878
"Commelinaceae",20,12,0,0,233
"Rosaceae",38,12,0,0,176
"Burseraceae",2,0,0,0,7
"Apocynaceae",45,9,0,0,281
"Campanulaceae",14,5,0,0,128
"Invertebrados no artrópodos",90,0,0,0,215
"Esponjas de mar",0,0,0,0,0
"Cnidarios",2,0,0,0,3
"Ctenóforos",0,0,0,0,0
"Chaetognatha",0,0,0,0,0
"platelmintos",3,0,0,0,5
"Moluscos",76,0,0,0,160
"Gusanos anélidos",8,0,0,0,46
"Sipuncula",0,0,0,0,0
"Rotifera",0,0,0,0,0
"Acanthocephala",0,0,0,0,0
"Briozoos",0,0,0,0,0
"Brachiopodos",0,0,0,0,0
"Tardigrados",0,0,0,0,0
"Onychophora",0,0,0,0,0
"Equinodermos",1,0,0,0,1
"Urocordados",0,0,0,0,0
"Artrópodos",979,24,2,1,4945
"Crustáceos",101,0,1,0,711
"Quelicerados",44,0,0,0,164
"Miriápodos",1,0,0,0,1
"Hexápodos",833,24,1,1,4069
"Vertebrados",632,80,156,60,11410
"Peces",96,0,13,4,918
"Anfibios",49,21,20,1,1507
"Reptiles",127,35,47,3,1968
"Aves",244,14,62,45,4834
"Mamíferos",116,10,14,7,2183
