"Grupo","Numero_de_especies_registradas","Numero_de_especies_endemicas","Numero_de_especies_en_la_NOM-059-SEMARNAT-2010","Numero_de_especies_prioritarias","Numero_de_registros"
"Bacterias",0,0,0,0,0
"Algas",0,0,0,0,0
"Hongos",2,0,0,0,2
"Plantas no vasculares",10,0,0,0,17
"Briofitas",10,0,0,0,17
"Anthocerotophyta",0,0,0,0,0
"Marchantiophyta",0,0,0,0,0
"Plantas vasculares",127,10,4,2,174
"Pteridofitas",0,0,0,0,0
"Gimnospermas",0,0,0,0,0
"Pinaceae",0,0,0,0,0
"Cupressaceae",0,0,0,0,0
"Podocarpaceae",0,0,0,0,0
"Zamiaceae",0,0,0,0,0
"Ephedraceae",0,0,0,0,0
"Taxaceae",0,0,0,0,0
"Angiospermas",126,10,4,2,172
"Asteraceae",16,0,0,0,20
"Cactaceae",1,0,0,0,1
"Crassulaceae",0,0,0,0,0
"Euphorbiaceae",10,2,0,0,11
"Fabaceae",21,1,0,0,25
"Fagaceae",1,0,0,0,3
"Lamiaceae",2,0,0,0,3
"Rubiaceae",3,0,0,0,3
"Solanaceae",2,1,0,0,2
"Orchidaceae",1,0,0,0,1
"Asparagaceae",0,0,0,0,0
"Arecaceae",2,2,1,0,3
"Bromeliaceae",0,0,0,0,0
"Poaceae",3,0,0,0,4
"Commelinaceae",1,0,0,0,3
"Rosaceae",0,0,0,0,0
"Burseraceae",0,0,0,0,0
"Apocynaceae",3,0,0,0,13
"Campanulaceae",0,0,0,0,0
"Invertebrados no artrópodos",0,0,0,0,0
"Esponjas de mar",0,0,0,0,0
"Cnidarios",0,0,0,0,0
"Ctenóforos",0,0,0,0,0
"Chaetognatha",0,0,0,0,0
"platelmintos",0,0,0,0,0
"Moluscos",0,0,0,0,0
"Gusanos anélidos",0,0,0,0,0
"Sipuncula",0,0,0,0,0
"Rotifera",0,0,0,0,0
"Acanthocephala",0,0,0,0,0
"Briozoos",0,0,0,0,0
"Brachiopodos",0,0,0,0,0
"Tardigrados",0,0,0,0,0
"Onychophora",0,0,0,0,0
"Equinodermos",0,0,0,0,0
"Urocordados",0,0,0,0,0
"Artrópodos",50,0,0,0,98
"Crustáceos",16,0,0,0,26
"Quelicerados",1,0,0,0,1
"Miriápodos",0,0,0,0,0
"Hexápodos",33,0,0,0,71
"Vertebrados",74,8,17,9,128
"Peces",10,0,1,0,47
"Anfibios",11,3,4,1,12
"Reptiles",8,2,2,1,9
"Aves",42,3,10,7,57
"Mamíferos",3,0,0,0,3
