"Grupo","Numero_de_especies_registradas","Numero_de_especies_endemicas","Numero_de_especies_en_la_NOM-059-SEMARNAT-2010","Numero_de_especies_prioritarias","Numero_de_registros"
"Bacterias",0,0,0,0,0
"Algas",0,0,0,0,0
"Hongos",0,0,0,0,0
"Plantas no vasculares",0,0,0,0,0
"Briofitas",0,0,0,0,0
"Anthocerotophyta",0,0,0,0,0
"Marchantiophyta",0,0,0,0,0
"Plantas vasculares",115,36,3,0,180
"Pteridofitas",0,0,0,0,0
"Gimnospermas",0,0,0,0,0
"Pinaceae",0,0,0,0,0
"Cupressaceae",0,0,0,0,0
"Podocarpaceae",0,0,0,0,0
"Zamiaceae",0,0,0,0,0
"Ephedraceae",0,0,0,0,0
"Taxaceae",0,0,0,0,0
"Angiospermas",115,36,3,0,180
"Asteraceae",6,0,0,0,9
"Cactaceae",2,2,0,0,2
"Crassulaceae",0,0,0,0,0
"Euphorbiaceae",6,4,0,0,8
"Fabaceae",24,3,2,0,32
"Fagaceae",2,2,0,0,2
"Lamiaceae",0,0,0,0,0
"Rubiaceae",5,2,0,0,8
"Solanaceae",5,2,0,0,5
"Orchidaceae",0,0,0,0,0
"Asparagaceae",0,0,0,0,0
"Arecaceae",0,0,0,0,0
"Bromeliaceae",1,0,0,0,1
"Poaceae",4,0,0,0,9
"Commelinaceae",0,0,0,0,0
"Rosaceae",0,0,0,0,0
"Burseraceae",6,6,0,0,21
"Apocynaceae",6,1,0,0,8
"Campanulaceae",0,0,0,0,0
"Invertebrados no artrópodos",2,0,0,0,2
"Esponjas de mar",0,0,0,0,0
"Cnidarios",0,0,0,0,0
"Ctenóforos",0,0,0,0,0
"Chaetognatha",0,0,0,0,0
"platelmintos",0,0,0,0,0
"Moluscos",2,0,0,0,2
"Gusanos anélidos",0,0,0,0,0
"Sipuncula",0,0,0,0,0
"Rotifera",0,0,0,0,0
"Acanthocephala",0,0,0,0,0
"Briozoos",0,0,0,0,0
"Brachiopodos",0,0,0,0,0
"Tardigrados",0,0,0,0,0
"Onychophora",0,0,0,0,0
"Equinodermos",0,0,0,0,0
"Urocordados",0,0,0,0,0
"Artrópodos",0,0,0,0,0
"Crustáceos",0,0,0,0,0
"Quelicerados",0,0,0,0,0
"Miriápodos",0,0,0,0,0
"Hexápodos",0,0,0,0,0
"Vertebrados",22,7,6,5,35
"Peces",0,0,0,0,0
"Anfibios",2,2,0,0,3
"Reptiles",6,1,4,4,15
"Aves",14,4,2,1,17
"Mamíferos",0,0,0,0,0
