"Grupo","Numero_de_especies_registradas","Numero_de_especies_endemicas","Numero_de_especies_en_la_NOM-059-SEMARNAT-2010","Numero_de_especies_prioritarias","Numero_de_registros"
"Bacterias",5,0,0,0,10
"Algas",9,0,0,0,53
"Hongos",27,0,1,0,41
"Plantas no vasculares",78,0,0,0,112
"Briofitas",72,0,0,0,104
"Anthocerotophyta",0,0,0,0,0
"Marchantiophyta",6,0,0,0,8
"Plantas vasculares",2654,899,77,39,10525
"Pteridofitas",0,0,0,0,0
"Gimnospermas",25,13,10,11,161
"Pinaceae",15,7,2,4,120
"Cupressaceae",2,0,0,1,17
"Podocarpaceae",1,0,1,0,1
"Zamiaceae",7,6,7,6,23
"Ephedraceae",0,0,0,0,0
"Taxaceae",0,0,0,0,0
"Angiospermas",2551,880,65,28,10240
"Asteraceae",281,113,0,0,899
"Cactaceae",48,32,4,4,232
"Crassulaceae",27,23,2,0,44
"Euphorbiaceae",113,51,2,0,387
"Fabaceae",340,72,2,2,2037
"Fagaceae",28,22,0,2,210
"Lamiaceae",63,28,0,0,172
"Rubiaceae",56,19,2,0,170
"Solanaceae",68,16,0,0,250
"Orchidaceae",97,63,16,7,184
"Asparagaceae",39,32,6,2,225
"Arecaceae",3,3,1,0,10
"Bromeliaceae",53,29,5,0,144
"Poaceae",117,24,1,0,308
"Commelinaceae",25,13,0,0,83
"Rosaceae",21,7,0,0,38
"Burseraceae",34,26,1,1,821
"Apocynaceae",58,16,0,0,375
"Campanulaceae",9,2,0,0,14
"Invertebrados no artrópodos",21,0,0,0,36
"Esponjas de mar",0,0,0,0,0
"Cnidarios",1,0,0,0,2
"Ctenóforos",0,0,0,0,0
"Chaetognatha",0,0,0,0,0
"platelmintos",6,0,0,0,12
"Moluscos",14,0,0,0,22
"Gusanos anélidos",0,0,0,0,0
"Sipuncula",0,0,0,0,0
"Rotifera",0,0,0,0,0
"Acanthocephala",0,0,0,0,0
"Briozoos",0,0,0,0,0
"Brachiopodos",0,0,0,0,0
"Tardigrados",0,0,0,0,0
"Onychophora",0,0,0,0,0
"Equinodermos",0,0,0,0,0
"Urocordados",0,0,0,0,0
"Artrópodos",808,27,1,1,5556
"Crustáceos",27,0,0,0,76
"Quelicerados",19,0,0,0,76
"Miriápodos",0,0,0,0,0
"Hexápodos",762,27,1,1,5404
"Vertebrados",650,180,205,54,9973
"Peces",36,0,2,3,137
"Anfibios",80,48,36,2,1473
"Reptiles",180,88,88,12,4965
"Aves",216,19,58,27,2279
"Mamíferos",138,25,21,10,1119
