"Grupo","Numero_de_especies_registradas","Numero_de_especies_endemicas","Numero_de_especies_en_la_NOM-059-SEMARNAT-2010","Numero_de_especies_prioritarias","Numero_de_registros"
"Bacterias",0,0,0,0,0
"Algas",0,0,0,0,0
"Hongos",0,0,0,0,0
"Plantas no vasculares",0,0,0,0,0
"Briofitas",0,0,0,0,0
"Anthocerotophyta",0,0,0,0,0
"Marchantiophyta",0,0,0,0,0
"Plantas vasculares",206,53,9,3,292
"Pteridofitas",0,0,0,0,0
"Gimnospermas",1,1,1,1,1
"Pinaceae",0,0,0,0,0
"Cupressaceae",0,0,0,0,0
"Podocarpaceae",0,0,0,0,0
"Zamiaceae",1,1,1,1,1
"Ephedraceae",0,0,0,0,0
"Taxaceae",0,0,0,0,0
"Angiospermas",204,52,8,2,290
"Asteraceae",13,3,0,0,13
"Cactaceae",0,0,0,0,0
"Crassulaceae",1,1,0,0,1
"Euphorbiaceae",2,2,0,0,2
"Fabaceae",51,8,0,0,75
"Fagaceae",1,1,0,1,1
"Lamiaceae",2,1,0,0,2
"Rubiaceae",3,2,0,0,4
"Solanaceae",5,0,0,0,8
"Orchidaceae",2,1,1,0,3
"Asparagaceae",5,5,1,0,7
"Arecaceae",0,0,0,0,0
"Bromeliaceae",1,1,0,0,1
"Poaceae",5,4,1,0,8
"Commelinaceae",2,0,0,0,4
"Rosaceae",0,0,0,0,0
"Burseraceae",9,4,0,0,13
"Apocynaceae",7,0,0,0,12
"Campanulaceae",0,0,0,0,0
"Invertebrados no artrópodos",0,0,0,0,0
"Esponjas de mar",0,0,0,0,0
"Cnidarios",0,0,0,0,0
"Ctenóforos",0,0,0,0,0
"Chaetognatha",0,0,0,0,0
"platelmintos",0,0,0,0,0
"Moluscos",0,0,0,0,0
"Gusanos anélidos",0,0,0,0,0
"Sipuncula",0,0,0,0,0
"Rotifera",0,0,0,0,0
"Acanthocephala",0,0,0,0,0
"Briozoos",0,0,0,0,0
"Brachiopodos",0,0,0,0,0
"Tardigrados",0,0,0,0,0
"Onychophora",0,0,0,0,0
"Equinodermos",0,0,0,0,0
"Urocordados",0,0,0,0,0
"Artrópodos",24,0,0,0,128
"Crustáceos",2,0,0,0,3
"Quelicerados",0,0,0,0,0
"Miriápodos",0,0,0,0,0
"Hexápodos",22,0,0,0,125
"Vertebrados",80,21,22,6,175
"Peces",17,0,1,1,17
"Anfibios",3,2,0,0,52
"Reptiles",27,12,10,1,67
"Aves",29,7,10,4,34
"Mamíferos",4,0,1,0,5
