"Grupo","Numero_de_especies_registradas","Numero_de_especies_endemicas","Numero_de_especies_en_la_NOM-059-SEMARNAT-2010","Numero_de_especies_prioritarias","Numero_de_registros"
"Bacterias",0,0,0,0,0
"Algas",0,0,0,0,0
"Hongos",10,0,0,0,10
"Plantas no vasculares",10,0,0,0,13
"Briofitas",10,0,0,0,13
"Anthocerotophyta",0,0,0,0,0
"Marchantiophyta",0,0,0,0,0
"Plantas vasculares",892,179,38,17,1800
"Pteridofitas",0,0,0,0,0
"Gimnospermas",7,3,3,3,46
"Pinaceae",4,0,0,1,8
"Cupressaceae",0,0,0,0,0
"Podocarpaceae",0,0,0,0,0
"Zamiaceae",3,3,3,2,38
"Ephedraceae",0,0,0,0,0
"Taxaceae",0,0,0,0,0
"Angiospermas",833,175,33,14,1648
"Asteraceae",82,21,2,0,150
"Cactaceae",1,0,0,0,1
"Crassulaceae",1,1,0,0,1
"Euphorbiaceae",19,4,0,0,43
"Fabaceae",115,12,2,1,253
"Fagaceae",7,4,0,1,14
"Lamiaceae",15,5,0,0,27
"Rubiaceae",25,6,0,0,45
"Solanaceae",21,1,0,0,27
"Orchidaceae",54,32,8,3,101
"Asparagaceae",3,0,0,0,6
"Arecaceae",4,3,3,0,12
"Bromeliaceae",11,6,1,0,29
"Poaceae",55,8,1,0,130
"Commelinaceae",11,2,0,0,35
"Rosaceae",1,0,0,0,1
"Burseraceae",7,4,1,1,17
"Apocynaceae",15,2,0,0,27
"Campanulaceae",3,0,0,0,16
"Invertebrados no artrópodos",19,0,0,0,38
"Esponjas de mar",0,0,0,0,0
"Cnidarios",0,0,0,0,0
"Ctenóforos",0,0,0,0,0
"Chaetognatha",0,0,0,0,0
"platelmintos",1,0,0,0,4
"Moluscos",1,0,0,0,1
"Gusanos anélidos",17,0,0,0,33
"Sipuncula",0,0,0,0,0
"Rotifera",0,0,0,0,0
"Acanthocephala",0,0,0,0,0
"Briozoos",0,0,0,0,0
"Brachiopodos",0,0,0,0,0
"Tardigrados",0,0,0,0,0
"Onychophora",0,0,0,0,0
"Equinodermos",0,0,0,0,0
"Urocordados",0,0,0,0,0
"Artrópodos",788,26,1,1,6659
"Crustáceos",14,0,0,0,22
"Quelicerados",14,0,0,0,33
"Miriápodos",0,0,0,0,0
"Hexápodos",760,26,1,1,6604
"Vertebrados",323,76,96,29,3310
"Peces",13,0,2,1,20
"Anfibios",34,19,15,2,367
"Reptiles",64,33,29,6,288
"Aves",171,17,47,18,2407
"Mamíferos",41,7,3,2,228
