"Grupo","Numero_de_especies_registradas","Numero_de_especies_endemicas","Numero_de_especies_en_la_NOM-059-SEMARNAT-2010","Numero_de_especies_prioritarias","Numero_de_registros"
"Bacterias",2,0,0,0,4
"Algas",7,0,0,0,12
"Hongos",80,0,2,0,134
"Plantas no vasculares",187,0,0,0,480
"Briofitas",183,0,0,0,475
"Anthocerotophyta",0,0,0,0,0
"Marchantiophyta",4,0,0,0,5
"Plantas vasculares",2224,452,61,27,7635
"Pteridofitas",2,0,2,0,14
"Gimnospermas",22,12,11,9,83
"Pinaceae",13,7,3,4,39
"Cupressaceae",2,1,1,0,2
"Podocarpaceae",1,0,1,0,16
"Zamiaceae",5,4,5,5,21
"Ephedraceae",0,0,0,0,0
"Taxaceae",1,0,1,0,5
"Angiospermas",2027,429,41,17,7022
"Asteraceae",226,60,1,0,564
"Cactaceae",10,4,3,1,28
"Crassulaceae",13,10,0,0,26
"Euphorbiaceae",58,15,0,0,144
"Fabaceae",181,16,1,1,567
"Fagaceae",37,25,0,1,249
"Lamiaceae",45,13,0,0,140
"Rubiaceae",74,15,2,0,252
"Solanaceae",73,16,0,0,312
"Orchidaceae",49,24,8,4,142
"Asparagaceae",13,9,1,0,53
"Arecaceae",7,7,5,0,21
"Bromeliaceae",31,9,3,0,91
"Poaceae",98,10,1,0,233
"Commelinaceae",14,3,0,0,59
"Rosaceae",29,7,0,0,94
"Burseraceae",4,1,0,0,24
"Apocynaceae",42,6,0,0,179
"Campanulaceae",15,2,0,0,57
"Invertebrados no artrópodos",111,0,0,0,139
"Esponjas de mar",0,0,0,0,0
"Cnidarios",1,0,0,0,1
"Ctenóforos",0,0,0,0,0
"Chaetognatha",0,0,0,0,0
"platelmintos",11,0,0,0,14
"Moluscos",95,0,0,0,117
"Gusanos anélidos",4,0,0,0,7
"Sipuncula",0,0,0,0,0
"Rotifera",0,0,0,0,0
"Acanthocephala",0,0,0,0,0
"Briozoos",0,0,0,0,0
"Brachiopodos",0,0,0,0,0
"Tardigrados",0,0,0,0,0
"Onychophora",0,0,0,0,0
"Equinodermos",0,0,0,0,0
"Urocordados",0,0,0,0,0
"Artrópodos",590,21,1,1,2687
"Crustáceos",76,0,0,0,374
"Quelicerados",27,0,0,0,85
"Miriápodos",1,0,0,0,2
"Hexápodos",486,21,1,1,2226
"Vertebrados",566,80,119,46,4568
"Peces",125,0,1,4,588
"Anfibios",50,24,23,3,325
"Reptiles",98,34,34,6,703
"Aves",193,6,49,28,2036
"Mamíferos",100,16,12,5,916
