"Grupo","Numero_de_especies_registradas","Numero_de_especies_endemicas","Numero_de_especies_en_la_NOM-059-SEMARNAT-2010","Numero_de_especies_prioritarias","Numero_de_registros"
"Bacterias",0,0,0,0,0
"Algas",1,0,0,0,1
"Hongos",5,0,0,0,6
"Plantas no vasculares",4,0,0,0,4
"Briofitas",3,0,0,0,3
"Anthocerotophyta",0,0,0,0,0
"Marchantiophyta",1,0,0,0,1
"Plantas vasculares",981,115,37,16,2373
"Pteridofitas",1,0,1,0,1
"Gimnospermas",6,2,5,5,17
"Pinaceae",1,0,0,1,5
"Cupressaceae",0,0,0,0,0
"Podocarpaceae",0,0,0,0,0
"Zamiaceae",5,2,5,4,12
"Ephedraceae",0,0,0,0,0
"Taxaceae",0,0,0,0,0
"Angiospermas",904,109,31,11,2220
"Asteraceae",64,6,1,0,138
"Cactaceae",2,0,0,0,3
"Crassulaceae",2,2,0,0,2
"Euphorbiaceae",28,7,2,0,66
"Fabaceae",102,8,2,1,252
"Fagaceae",12,4,0,1,19
"Lamiaceae",12,1,0,0,24
"Rubiaceae",35,4,0,0,81
"Solanaceae",20,0,0,0,55
"Orchidaceae",38,16,2,2,43
"Asparagaceae",7,6,1,0,11
"Arecaceae",7,2,6,0,23
"Bromeliaceae",11,6,2,0,17
"Poaceae",58,7,0,0,187
"Commelinaceae",7,0,0,0,16
"Rosaceae",1,0,0,0,3
"Burseraceae",2,1,0,0,8
"Apocynaceae",24,2,0,0,47
"Campanulaceae",3,0,0,0,3
"Invertebrados no artrópodos",1,0,0,0,1
"Esponjas de mar",0,0,0,0,0
"Cnidarios",0,0,0,0,0
"Ctenóforos",0,0,0,0,0
"Chaetognatha",0,0,0,0,0
"platelmintos",0,0,0,0,0
"Moluscos",1,0,0,0,1
"Gusanos anélidos",0,0,0,0,0
"Sipuncula",0,0,0,0,0
"Rotifera",0,0,0,0,0
"Acanthocephala",0,0,0,0,0
"Briozoos",0,0,0,0,0
"Brachiopodos",0,0,0,0,0
"Tardigrados",0,0,0,0,0
"Onychophora",0,0,0,0,0
"Equinodermos",0,0,0,0,0
"Urocordados",0,0,0,0,0
"Artrópodos",165,3,0,0,515
"Crustáceos",11,0,0,0,23
"Quelicerados",6,0,0,0,15
"Miriápodos",1,0,0,0,1
"Hexápodos",147,3,0,0,476
"Vertebrados",618,38,150,57,12024
"Peces",121,0,2,3,799
"Anfibios",51,11,16,1,1113
"Reptiles",102,14,42,11,2011
"Aves",237,8,73,34,6732
"Mamíferos",107,5,17,8,1369
