"Grupo","Numero_de_especies_registradas","Numero_de_especies_endemicas","Numero_de_especies_en_la_NOM-059-SEMARNAT-2010","Numero_de_especies_prioritarias","Numero_de_registros"
"Bacterias",2,0,0,0,4
"Algas",31,1,0,0,73
"Hongos",54,0,0,0,154
"Plantas no vasculares",0,0,0,0,0
"Briofitas",0,0,0,0,0
"Anthocerotophyta",0,0,0,0,0
"Marchantiophyta",0,0,0,0,0
"Plantas vasculares",764,146,10,3,4851
"Pteridofitas",0,0,0,0,0
"Gimnospermas",3,0,1,0,15
"Pinaceae",1,0,1,0,2
"Cupressaceae",0,0,0,0,0
"Podocarpaceae",0,0,0,0,0
"Zamiaceae",0,0,0,0,0
"Ephedraceae",2,0,0,0,13
"Taxaceae",0,0,0,0,0
"Angiospermas",734,145,9,3,4743
"Asteraceae",106,13,0,0,883
"Cactaceae",37,22,5,1,322
"Crassulaceae",7,2,0,0,48
"Euphorbiaceae",38,12,0,0,295
"Fabaceae",64,10,0,0,410
"Fagaceae",7,4,0,0,36
"Lamiaceae",13,6,0,0,149
"Rubiaceae",3,1,1,0,5
"Solanaceae",19,0,0,0,126
"Orchidaceae",0,0,0,0,0
"Asparagaceae",15,9,1,0,109
"Arecaceae",2,1,0,0,22
"Bromeliaceae",1,0,0,0,13
"Poaceae",53,11,0,0,226
"Commelinaceae",2,0,0,0,3
"Rosaceae",5,0,0,0,72
"Burseraceae",4,2,0,0,34
"Apocynaceae",16,3,0,0,73
"Campanulaceae",1,0,0,0,2
"Invertebrados no artrópodos",97,2,0,1,323
"Esponjas de mar",0,0,0,0,0
"Cnidarios",2,0,0,0,2
"Ctenóforos",0,0,0,0,0
"Chaetognatha",0,0,0,0,0
"platelmintos",1,0,0,0,1
"Moluscos",93,2,0,1,319
"Gusanos anélidos",0,0,0,0,0
"Sipuncula",0,0,0,0,0
"Rotifera",0,0,0,0,0
"Acanthocephala",1,0,0,0,1
"Briozoos",0,0,0,0,0
"Brachiopodos",0,0,0,0,0
"Tardigrados",0,0,0,0,0
"Onychophora",0,0,0,0,0
"Equinodermos",0,0,0,0,0
"Urocordados",0,0,0,0,0
"Artrópodos",93,1,0,0,323
"Crustáceos",13,0,0,0,18
"Quelicerados",6,0,0,0,6
"Miriápodos",1,0,0,0,1
"Hexápodos",73,1,0,0,298
"Vertebrados",358,30,80,47,13818
"Peces",66,0,1,3,1127
"Anfibios",7,0,2,0,106
"Reptiles",62,18,35,8,800
"Aves",165,6,26,27,11357
"Mamíferos",58,6,16,9,428
