"Grupo","Numero_de_especies_registradas","Numero_de_especies_endemicas","Numero_de_especies_en_la_NOM-059-SEMARNAT-2010","Numero_de_especies_prioritarias","Numero_de_registros"
"Bacterias",0,0,0,0,0
"Algas",0,0,0,0,0
"Hongos",0,0,0,0,0
"Plantas no vasculares",0,0,0,0,0
"Briofitas",0,0,0,0,0
"Anthocerotophyta",0,0,0,0,0
"Marchantiophyta",0,0,0,0,0
"Plantas vasculares",252,44,7,2,519
"Pteridofitas",0,0,0,0,0
"Gimnospermas",0,0,0,0,0
"Pinaceae",0,0,0,0,0
"Cupressaceae",0,0,0,0,0
"Podocarpaceae",0,0,0,0,0
"Zamiaceae",0,0,0,0,0
"Ephedraceae",0,0,0,0,0
"Taxaceae",0,0,0,0,0
"Angiospermas",242,44,7,2,507
"Asteraceae",31,6,0,0,51
"Cactaceae",17,2,5,1,27
"Crassulaceae",1,0,0,0,1
"Euphorbiaceae",7,2,0,0,21
"Fabaceae",11,2,0,0,16
"Fagaceae",2,0,0,0,2
"Lamiaceae",3,0,0,0,5
"Rubiaceae",3,1,0,0,3
"Solanaceae",5,0,0,0,7
"Orchidaceae",1,1,0,0,1
"Asparagaceae",7,5,1,1,104
"Arecaceae",0,0,0,0,0
"Bromeliaceae",0,0,0,0,0
"Poaceae",35,10,0,0,63
"Commelinaceae",1,0,0,0,1
"Rosaceae",2,1,0,0,2
"Burseraceae",0,0,0,0,0
"Apocynaceae",4,0,0,0,5
"Campanulaceae",0,0,0,0,0
"Invertebrados no artrópodos",3,0,0,0,4
"Esponjas de mar",0,0,0,0,0
"Cnidarios",0,0,0,0,0
"Ctenóforos",0,0,0,0,0
"Chaetognatha",0,0,0,0,0
"platelmintos",0,0,0,0,0
"Moluscos",2,0,0,0,3
"Gusanos anélidos",0,0,0,0,0
"Sipuncula",0,0,0,0,0
"Rotifera",0,0,0,0,0
"Acanthocephala",0,0,0,0,0
"Briozoos",0,0,0,0,0
"Brachiopodos",0,0,0,0,0
"Tardigrados",0,0,0,0,0
"Onychophora",0,0,0,0,0
"Equinodermos",1,0,0,0,1
"Urocordados",0,0,0,0,0
"Artrópodos",7,0,0,0,9
"Crustáceos",3,0,0,0,3
"Quelicerados",0,0,0,0,0
"Miriápodos",1,0,0,0,1
"Hexápodos",3,0,0,0,5
"Vertebrados",34,4,9,1,95
"Peces",1,0,1,0,2
"Anfibios",3,0,0,0,3
"Reptiles",16,1,8,0,32
"Aves",2,0,0,0,3
"Mamíferos",12,3,0,1,55
