"Grupo","Numero_de_especies_registradas","Numero_de_especies_endemicas","Numero_de_especies_en_la_NOM-059-SEMARNAT-2010","Numero_de_especies_prioritarias","Numero_de_registros"
"Bacterias",0,0,0,0,0
"Algas",0,0,0,0,0
"Hongos",14,0,0,0,21
"Plantas no vasculares",13,0,0,0,24
"Briofitas",12,0,0,0,23
"Anthocerotophyta",0,0,0,0,0
"Marchantiophyta",1,0,0,0,1
"Plantas vasculares",310,10,6,1,1229
"Pteridofitas",0,0,0,0,0
"Gimnospermas",9,1,4,0,82
"Pinaceae",4,0,3,0,54
"Cupressaceae",1,1,1,0,14
"Podocarpaceae",0,0,0,0,0
"Zamiaceae",0,0,0,0,0
"Ephedraceae",4,0,0,0,14
"Taxaceae",0,0,0,0,0
"Angiospermas",299,9,2,1,1142
"Asteraceae",51,1,0,0,224
"Cactaceae",9,2,1,1,47
"Crassulaceae",2,0,0,0,2
"Euphorbiaceae",9,2,0,0,39
"Fabaceae",27,0,0,0,84
"Fagaceae",4,0,0,0,38
"Lamiaceae",7,0,0,0,29
"Rubiaceae",3,0,0,0,10
"Solanaceae",5,0,0,0,17
"Orchidaceae",0,0,0,0,0
"Asparagaceae",8,3,1,0,36
"Arecaceae",0,0,0,0,0
"Bromeliaceae",0,0,0,0,0
"Poaceae",21,0,0,0,78
"Commelinaceae",0,0,0,0,0
"Rosaceae",5,0,0,0,22
"Burseraceae",1,0,0,0,2
"Apocynaceae",1,0,0,0,5
"Campanulaceae",3,0,0,0,5
"Invertebrados no artrópodos",0,0,0,0,0
"Esponjas de mar",0,0,0,0,0
"Cnidarios",0,0,0,0,0
"Ctenóforos",0,0,0,0,0
"Chaetognatha",0,0,0,0,0
"platelmintos",0,0,0,0,0
"Moluscos",0,0,0,0,0
"Gusanos anélidos",0,0,0,0,0
"Sipuncula",0,0,0,0,0
"Rotifera",0,0,0,0,0
"Acanthocephala",0,0,0,0,0
"Briozoos",0,0,0,0,0
"Brachiopodos",0,0,0,0,0
"Tardigrados",0,0,0,0,0
"Onychophora",0,0,0,0,0
"Equinodermos",0,0,0,0,0
"Urocordados",0,0,0,0,0
"Artrópodos",22,0,0,0,31
"Crustáceos",0,0,0,0,0
"Quelicerados",1,0,0,0,1
"Miriápodos",0,0,0,0,0
"Hexápodos",21,0,0,0,30
"Vertebrados",77,4,21,7,266
"Peces",0,0,0,0,0
"Anfibios",7,0,3,0,33
"Reptiles",32,3,13,3,120
"Aves",25,1,5,3,84
"Mamíferos",13,0,0,1,29
