"Grupo","Numero_de_especies_registradas","Numero_de_especies_endemicas","Numero_de_especies_en_la_NOM-059-SEMARNAT-2010","Numero_de_especies_prioritarias","Numero_de_registros"
"Bacterias",4,0,0,0,4
"Algas",9,0,0,0,10
"Hongos",6,0,0,0,8
"Plantas no vasculares",0,0,0,0,0
"Briofitas",0,0,0,0,0
"Anthocerotophyta",0,0,0,0,0
"Marchantiophyta",0,0,0,0,0
"Plantas vasculares",319,79,14,7,587
"Pteridofitas",0,0,0,0,0
"Gimnospermas",0,0,0,0,0
"Pinaceae",0,0,0,0,0
"Cupressaceae",0,0,0,0,0
"Podocarpaceae",0,0,0,0,0
"Zamiaceae",0,0,0,0,0
"Ephedraceae",0,0,0,0,0
"Taxaceae",0,0,0,0,0
"Angiospermas",317,79,14,7,585
"Asteraceae",32,14,0,0,55
"Cactaceae",4,2,0,0,13
"Crassulaceae",0,0,0,0,0
"Euphorbiaceae",20,10,1,0,27
"Fabaceae",55,11,1,0,106
"Fagaceae",0,0,0,0,0
"Lamiaceae",1,0,0,0,1
"Rubiaceae",2,1,0,0,5
"Solanaceae",3,0,0,0,3
"Orchidaceae",5,4,0,0,10
"Asparagaceae",1,1,0,0,1
"Arecaceae",1,1,1,0,2
"Bromeliaceae",2,0,0,0,3
"Poaceae",29,4,0,0,74
"Commelinaceae",2,0,0,0,9
"Rosaceae",1,0,0,0,1
"Burseraceae",2,2,1,1,4
"Apocynaceae",6,0,0,0,14
"Campanulaceae",0,0,0,0,0
"Invertebrados no artrópodos",70,0,0,0,96
"Esponjas de mar",0,0,0,0,0
"Cnidarios",6,0,0,0,13
"Ctenóforos",0,0,0,0,0
"Chaetognatha",0,0,0,0,0
"platelmintos",0,0,0,0,0
"Moluscos",63,0,0,0,82
"Gusanos anélidos",1,0,0,0,1
"Sipuncula",0,0,0,0,0
"Rotifera",0,0,0,0,0
"Acanthocephala",0,0,0,0,0
"Briozoos",0,0,0,0,0
"Brachiopodos",0,0,0,0,0
"Tardigrados",0,0,0,0,0
"Onychophora",0,0,0,0,0
"Equinodermos",0,0,0,0,0
"Urocordados",0,0,0,0,0
"Artrópodos",92,4,0,0,198
"Crustáceos",4,0,0,0,7
"Quelicerados",4,0,0,0,5
"Miriápodos",0,0,0,0,0
"Hexápodos",84,4,0,0,186
"Vertebrados",274,41,53,25,5742
"Peces",26,0,0,0,30
"Anfibios",7,4,0,0,89
"Reptiles",26,14,13,4,144
"Aves",186,17,39,19,5359
"Mamíferos",29,6,1,2,120
