"Grupo","Numero_de_especies_registradas","Numero_de_especies_endemicas","Numero_de_especies_en_la_NOM-059-SEMARNAT-2010","Numero_de_especies_prioritarias","Numero_de_registros"
"Bacterias",0,0,0,0,0
"Algas",0,0,0,0,0
"Hongos",0,0,0,0,0
"Plantas no vasculares",0,0,0,0,0
"Briofitas",0,0,0,0,0
"Anthocerotophyta",0,0,0,0,0
"Marchantiophyta",0,0,0,0,0
"Plantas vasculares",143,34,2,2,197
"Pteridofitas",0,0,0,0,0
"Gimnospermas",0,0,0,0,0
"Pinaceae",0,0,0,0,0
"Cupressaceae",0,0,0,0,0
"Podocarpaceae",0,0,0,0,0
"Zamiaceae",0,0,0,0,0
"Ephedraceae",0,0,0,0,0
"Taxaceae",0,0,0,0,0
"Angiospermas",142,34,2,2,195
"Asteraceae",14,4,0,0,18
"Cactaceae",5,3,0,0,5
"Crassulaceae",0,0,0,0,0
"Euphorbiaceae",13,3,0,0,17
"Fabaceae",21,3,1,1,29
"Fagaceae",0,0,0,0,0
"Lamiaceae",0,0,0,0,0
"Rubiaceae",2,0,0,0,3
"Solanaceae",5,0,0,0,10
"Orchidaceae",0,0,0,0,0
"Asparagaceae",0,0,0,0,0
"Arecaceae",1,0,0,0,1
"Bromeliaceae",0,0,0,0,0
"Poaceae",8,1,0,0,12
"Commelinaceae",1,0,0,0,1
"Rosaceae",0,0,0,0,0
"Burseraceae",2,1,0,0,2
"Apocynaceae",6,3,0,0,7
"Campanulaceae",0,0,0,0,0
"Invertebrados no artrópodos",22,0,0,0,23
"Esponjas de mar",0,0,0,0,0
"Cnidarios",0,0,0,0,0
"Ctenóforos",0,0,0,0,0
"Chaetognatha",0,0,0,0,0
"platelmintos",0,0,0,0,0
"Moluscos",20,0,0,0,21
"Gusanos anélidos",2,0,0,0,2
"Sipuncula",0,0,0,0,0
"Rotifera",0,0,0,0,0
"Acanthocephala",0,0,0,0,0
"Briozoos",0,0,0,0,0
"Brachiopodos",0,0,0,0,0
"Tardigrados",0,0,0,0,0
"Onychophora",0,0,0,0,0
"Equinodermos",0,0,0,0,0
"Urocordados",0,0,0,0,0
"Artrópodos",29,1,0,0,32
"Crustáceos",19,0,0,0,19
"Quelicerados",1,0,0,0,1
"Miriápodos",0,0,0,0,0
"Hexápodos",9,1,0,0,12
"Vertebrados",56,5,16,4,113
"Peces",26,0,0,0,26
"Anfibios",1,0,1,0,1
"Reptiles",12,4,7,2,68
"Aves",17,1,8,2,18
"Mamíferos",0,0,0,0,0
