"Grupo","Numero_de_especies_registradas","Numero_de_especies_endemicas","Numero_de_especies_en_la_NOM-059-SEMARNAT-2010","Numero_de_especies_prioritarias","Numero_de_registros"
"Bacterias",0,0,0,0,0
"Algas",1,0,0,0,1
"Hongos",2,0,0,0,2
"Plantas no vasculares",0,0,0,0,0
"Briofitas",0,0,0,0,0
"Anthocerotophyta",0,0,0,0,0
"Marchantiophyta",0,0,0,0,0
"Plantas vasculares",262,7,4,3,969
"Pteridofitas",0,0,0,0,0
"Gimnospermas",3,0,0,0,16
"Pinaceae",0,0,0,0,0
"Cupressaceae",0,0,0,0,0
"Podocarpaceae",0,0,0,0,0
"Zamiaceae",0,0,0,0,0
"Ephedraceae",3,0,0,0,16
"Taxaceae",0,0,0,0,0
"Angiospermas",258,7,4,3,952
"Asteraceae",42,0,0,0,125
"Cactaceae",14,1,3,2,163
"Crassulaceae",2,0,0,0,7
"Euphorbiaceae",16,1,0,0,73
"Fabaceae",18,0,1,1,70
"Fagaceae",0,0,0,0,0
"Lamiaceae",5,0,0,0,31
"Rubiaceae",1,0,0,0,1
"Solanaceae",9,0,0,0,37
"Orchidaceae",0,0,0,0,0
"Asparagaceae",4,1,0,0,15
"Arecaceae",0,0,0,0,0
"Bromeliaceae",0,0,0,0,0
"Poaceae",26,1,0,0,122
"Commelinaceae",0,0,0,0,0
"Rosaceae",0,0,0,0,0
"Burseraceae",1,0,0,0,10
"Apocynaceae",5,0,0,0,10
"Campanulaceae",0,0,0,0,0
"Invertebrados no artrópodos",18,0,0,0,32
"Esponjas de mar",0,0,0,0,0
"Cnidarios",0,0,0,0,0
"Ctenóforos",0,0,0,0,0
"Chaetognatha",0,0,0,0,0
"platelmintos",0,0,0,0,0
"Moluscos",16,0,0,0,30
"Gusanos anélidos",1,0,0,0,1
"Sipuncula",1,0,0,0,1
"Rotifera",0,0,0,0,0
"Acanthocephala",0,0,0,0,0
"Briozoos",0,0,0,0,0
"Brachiopodos",0,0,0,0,0
"Tardigrados",0,0,0,0,0
"Onychophora",0,0,0,0,0
"Equinodermos",0,0,0,0,0
"Urocordados",0,0,0,0,0
"Artrópodos",26,0,0,0,83
"Crustáceos",1,0,0,0,1
"Quelicerados",0,0,0,0,0
"Miriápodos",0,0,0,0,0
"Hexápodos",25,0,0,0,82
"Vertebrados",141,7,29,17,667
"Peces",2,0,0,0,3
"Anfibios",1,0,0,0,15
"Reptiles",28,1,14,2,101
"Aves",81,4,11,13,264
"Mamíferos",29,2,4,2,284
