"Grupo","Numero_de_especies_registradas","Numero_de_especies_endemicas","Numero_de_especies_en_la_NOM-059-SEMARNAT-2010","Numero_de_especies_prioritarias","Numero_de_registros"
"Bacterias",0,0,0,0,0
"Algas",0,0,0,0,0
"Hongos",0,0,0,0,0
"Plantas no vasculares",0,0,0,0,0
"Briofitas",0,0,0,0,0
"Anthocerotophyta",0,0,0,0,0
"Marchantiophyta",0,0,0,0,0
"Plantas vasculares",199,35,3,2,485
"Pteridofitas",0,0,0,0,0
"Gimnospermas",2,1,1,0,6
"Pinaceae",0,0,0,0,0
"Cupressaceae",1,1,1,0,2
"Podocarpaceae",0,0,0,0,0
"Zamiaceae",0,0,0,0,0
"Ephedraceae",1,0,0,0,4
"Taxaceae",0,0,0,0,0
"Angiospermas",193,34,2,2,474
"Asteraceae",28,3,0,0,66
"Cactaceae",14,11,2,1,57
"Crassulaceae",0,0,0,0,0
"Euphorbiaceae",12,3,0,0,34
"Fabaceae",18,2,0,0,35
"Fagaceae",3,2,0,0,13
"Lamiaceae",3,1,0,0,6
"Rubiaceae",1,0,0,0,1
"Solanaceae",5,0,0,0,6
"Orchidaceae",0,0,0,0,0
"Asparagaceae",4,2,0,0,15
"Arecaceae",0,0,0,0,0
"Bromeliaceae",1,0,0,0,1
"Poaceae",7,1,0,0,14
"Commelinaceae",0,0,0,0,0
"Rosaceae",1,0,0,0,1
"Burseraceae",2,1,0,0,4
"Apocynaceae",2,0,0,0,2
"Campanulaceae",0,0,0,0,0
"Invertebrados no artrópodos",0,0,0,0,0
"Esponjas de mar",0,0,0,0,0
"Cnidarios",0,0,0,0,0
"Ctenóforos",0,0,0,0,0
"Chaetognatha",0,0,0,0,0
"platelmintos",0,0,0,0,0
"Moluscos",0,0,0,0,0
"Gusanos anélidos",0,0,0,0,0
"Sipuncula",0,0,0,0,0
"Rotifera",0,0,0,0,0
"Acanthocephala",0,0,0,0,0
"Briozoos",0,0,0,0,0
"Brachiopodos",0,0,0,0,0
"Tardigrados",0,0,0,0,0
"Onychophora",0,0,0,0,0
"Equinodermos",0,0,0,0,0
"Urocordados",0,0,0,0,0
"Artrópodos",13,1,0,0,17
"Crustáceos",3,0,0,0,4
"Quelicerados",0,0,0,0,0
"Miriápodos",0,0,0,0,0
"Hexápodos",10,1,0,0,13
"Vertebrados",63,12,27,11,232
"Peces",0,0,0,0,0
"Anfibios",3,0,1,0,8
"Reptiles",34,11,20,5,166
"Aves",18,1,4,4,40
"Mamíferos",8,0,2,2,18
