"Grupo","Numero_de_especies_registradas","Numero_de_especies_endemicas","Numero_de_especies_en_la_NOM-059-SEMARNAT-2010","Numero_de_especies_prioritarias","Numero_de_registros"
"Bacterias",0,0,0,0,0
"Algas",0,0,0,0,0
"Hongos",15,0,0,0,18
"Plantas no vasculares",0,0,0,0,0
"Briofitas",0,0,0,0,0
"Anthocerotophyta",0,0,0,0,0
"Marchantiophyta",0,0,0,0,0
"Plantas vasculares",230,54,2,3,534
"Pteridofitas",0,0,0,0,0
"Gimnospermas",0,0,0,0,0
"Pinaceae",0,0,0,0,0
"Cupressaceae",0,0,0,0,0
"Podocarpaceae",0,0,0,0,0
"Zamiaceae",0,0,0,0,0
"Ephedraceae",0,0,0,0,0
"Taxaceae",0,0,0,0,0
"Angiospermas",224,53,2,3,526
"Asteraceae",32,6,0,0,76
"Cactaceae",15,10,1,1,52
"Crassulaceae",0,0,0,0,0
"Euphorbiaceae",19,7,0,0,36
"Fabaceae",26,2,1,1,84
"Fagaceae",1,0,0,0,3
"Lamiaceae",6,4,0,0,16
"Rubiaceae",2,1,0,0,3
"Solanaceae",4,0,0,0,7
"Orchidaceae",0,0,0,0,0
"Asparagaceae",3,2,0,0,4
"Arecaceae",0,0,0,0,0
"Bromeliaceae",0,0,0,0,0
"Poaceae",12,2,0,0,16
"Commelinaceae",0,0,0,0,0
"Rosaceae",1,0,0,0,1
"Burseraceae",3,1,0,0,3
"Apocynaceae",0,0,0,0,0
"Campanulaceae",0,0,0,0,0
"Invertebrados no artrópodos",2,0,0,0,2
"Esponjas de mar",0,0,0,0,0
"Cnidarios",0,0,0,0,0
"Ctenóforos",0,0,0,0,0
"Chaetognatha",0,0,0,0,0
"platelmintos",1,0,0,0,1
"Moluscos",1,0,0,0,1
"Gusanos anélidos",0,0,0,0,0
"Sipuncula",0,0,0,0,0
"Rotifera",0,0,0,0,0
"Acanthocephala",0,0,0,0,0
"Briozoos",0,0,0,0,0
"Brachiopodos",0,0,0,0,0
"Tardigrados",0,0,0,0,0
"Onychophora",0,0,0,0,0
"Equinodermos",0,0,0,0,0
"Urocordados",0,0,0,0,0
"Artrópodos",13,0,0,0,26
"Crustáceos",0,0,0,0,0
"Quelicerados",0,0,0,0,0
"Miriápodos",0,0,0,0,0
"Hexápodos",13,0,0,0,26
"Vertebrados",45,8,15,3,142
"Peces",0,0,0,0,0
"Anfibios",2,0,1,0,7
"Reptiles",22,4,11,2,72
"Aves",12,1,1,0,27
"Mamíferos",9,3,2,1,36
