"Grupo","Numero_de_especies_registradas","Numero_de_especies_endemicas","Numero_de_especies_en_la_NOM-059-SEMARNAT-2010","Numero_de_especies_prioritarias","Numero_de_registros"
"Bacterias",0,0,0,0,0
"Algas",0,0,0,0,0
"Hongos",0,0,0,0,0
"Plantas no vasculares",0,0,0,0,0
"Briofitas",0,0,0,0,0
"Anthocerotophyta",0,0,0,0,0
"Marchantiophyta",0,0,0,0,0
"Plantas vasculares",245,57,13,8,468
"Pteridofitas",0,0,0,0,0
"Gimnospermas",0,0,0,0,0
"Pinaceae",0,0,0,0,0
"Cupressaceae",0,0,0,0,0
"Podocarpaceae",0,0,0,0,0
"Zamiaceae",0,0,0,0,0
"Ephedraceae",0,0,0,0,0
"Taxaceae",0,0,0,0,0
"Angiospermas",244,57,13,8,466
"Asteraceae",13,5,0,0,20
"Cactaceae",4,2,0,1,8
"Crassulaceae",1,1,0,0,1
"Euphorbiaceae",10,3,1,0,14
"Fabaceae",59,10,2,0,148
"Fagaceae",1,0,0,0,1
"Lamiaceae",3,1,0,0,6
"Rubiaceae",7,4,0,0,14
"Solanaceae",4,1,0,0,6
"Orchidaceae",0,0,0,0,0
"Asparagaceae",3,1,0,0,4
"Arecaceae",0,0,0,0,0
"Bromeliaceae",2,1,0,0,3
"Poaceae",2,0,0,0,3
"Commelinaceae",0,0,0,0,0
"Rosaceae",0,0,0,0,0
"Burseraceae",11,6,1,1,33
"Apocynaceae",9,1,0,0,12
"Campanulaceae",0,0,0,0,0
"Invertebrados no artrópodos",3,0,0,0,6
"Esponjas de mar",0,0,0,0,0
"Cnidarios",0,0,0,0,0
"Ctenóforos",0,0,0,0,0
"Chaetognatha",0,0,0,0,0
"platelmintos",0,0,0,0,0
"Moluscos",3,0,0,0,6
"Gusanos anélidos",0,0,0,0,0
"Sipuncula",0,0,0,0,0
"Rotifera",0,0,0,0,0
"Acanthocephala",0,0,0,0,0
"Briozoos",0,0,0,0,0
"Brachiopodos",0,0,0,0,0
"Tardigrados",0,0,0,0,0
"Onychophora",0,0,0,0,0
"Equinodermos",0,0,0,0,0
"Urocordados",0,0,0,0,0
"Artrópodos",24,0,0,0,201
"Crustáceos",5,0,0,0,10
"Quelicerados",0,0,0,0,0
"Miriápodos",0,0,0,0,0
"Hexápodos",19,0,0,0,191
"Vertebrados",146,21,29,15,702
"Peces",0,0,0,0,0
"Anfibios",3,1,0,0,10
"Reptiles",16,8,3,0,40
"Aves",112,9,25,13,629
"Mamíferos",15,3,1,2,23
