"Grupo","Numero_de_especies_registradas","Numero_de_especies_endemicas","Numero_de_especies_en_la_NOM-059-SEMARNAT-2010","Numero_de_especies_prioritarias","Numero_de_registros"
"Bacterias",4,0,0,0,13
"Algas",1,0,0,0,1
"Hongos",2,0,0,0,2
"Plantas no vasculares",0,0,0,0,0
"Briofitas",0,0,0,0,0
"Anthocerotophyta",0,0,0,0,0
"Marchantiophyta",0,0,0,0,0
"Plantas vasculares",138,36,5,3,238
"Pteridofitas",0,0,0,0,0
"Gimnospermas",1,1,1,0,1
"Pinaceae",0,0,0,0,0
"Cupressaceae",0,0,0,0,0
"Podocarpaceae",0,0,0,0,0
"Zamiaceae",1,1,1,0,1
"Ephedraceae",0,0,0,0,0
"Taxaceae",0,0,0,0,0
"Angiospermas",136,35,4,3,236
"Asteraceae",2,0,0,0,8
"Cactaceae",7,4,1,1,31
"Crassulaceae",0,0,0,0,0
"Euphorbiaceae",13,7,1,0,21
"Fabaceae",27,5,0,1,35
"Fagaceae",0,0,0,0,0
"Lamiaceae",3,0,0,0,5
"Rubiaceae",0,0,0,0,0
"Solanaceae",2,0,0,0,3
"Orchidaceae",0,0,0,0,0
"Asparagaceae",0,0,0,0,0
"Arecaceae",0,0,0,0,0
"Bromeliaceae",0,0,0,0,0
"Poaceae",7,1,0,0,7
"Commelinaceae",1,0,0,0,1
"Rosaceae",0,0,0,0,0
"Burseraceae",3,3,1,1,3
"Apocynaceae",3,0,0,0,8
"Campanulaceae",0,0,0,0,0
"Invertebrados no artrópodos",11,0,0,0,31
"Esponjas de mar",0,0,0,0,0
"Cnidarios",9,0,0,0,28
"Ctenóforos",0,0,0,0,0
"Chaetognatha",0,0,0,0,0
"platelmintos",0,0,0,0,0
"Moluscos",1,0,0,0,2
"Gusanos anélidos",1,0,0,0,1
"Sipuncula",0,0,0,0,0
"Rotifera",0,0,0,0,0
"Acanthocephala",0,0,0,0,0
"Briozoos",0,0,0,0,0
"Brachiopodos",0,0,0,0,0
"Tardigrados",0,0,0,0,0
"Onychophora",0,0,0,0,0
"Equinodermos",0,0,0,0,0
"Urocordados",0,0,0,0,0
"Artrópodos",59,0,0,0,111
"Crustáceos",20,0,0,0,42
"Quelicerados",5,0,0,0,12
"Miriápodos",0,0,0,0,0
"Hexápodos",34,0,0,0,57
"Vertebrados",185,22,39,18,1263
"Peces",6,0,0,0,7
"Anfibios",5,1,0,0,28
"Reptiles",19,10,11,3,48
"Aves",136,11,27,14,1137
"Mamíferos",19,0,1,1,43
