"Grupo","Numero_de_especies_registradas","Numero_de_especies_endemicas","Numero_de_especies_en_la_NOM-059-SEMARNAT-2010","Numero_de_especies_prioritarias","Numero_de_registros"
"Bacterias",0,0,0,0,0
"Algas",14,0,0,0,24
"Hongos",5,0,0,0,11
"Plantas no vasculares",0,0,0,0,0
"Briofitas",0,0,0,0,0
"Anthocerotophyta",0,0,0,0,0
"Marchantiophyta",0,0,0,0,0
"Plantas vasculares",385,87,2,1,925
"Pteridofitas",0,0,0,0,0
"Gimnospermas",0,0,0,0,0
"Pinaceae",0,0,0,0,0
"Cupressaceae",0,0,0,0,0
"Podocarpaceae",0,0,0,0,0
"Zamiaceae",0,0,0,0,0
"Ephedraceae",0,0,0,0,0
"Taxaceae",0,0,0,0,0
"Angiospermas",381,87,2,1,921
"Asteraceae",64,11,0,0,184
"Cactaceae",14,9,1,1,23
"Crassulaceae",1,1,0,0,1
"Euphorbiaceae",24,10,0,0,60
"Fabaceae",37,3,0,0,101
"Fagaceae",1,1,0,0,3
"Lamiaceae",5,4,0,0,11
"Rubiaceae",3,1,0,0,7
"Solanaceae",12,0,0,0,22
"Orchidaceae",0,0,0,0,0
"Asparagaceae",4,2,0,0,12
"Arecaceae",2,1,0,0,4
"Bromeliaceae",1,1,0,0,1
"Poaceae",26,3,0,0,50
"Commelinaceae",1,0,0,0,2
"Rosaceae",0,0,0,0,0
"Burseraceae",4,2,0,0,10
"Apocynaceae",9,3,0,0,15
"Campanulaceae",0,0,0,0,0
"Invertebrados no artrópodos",2,0,0,0,2
"Esponjas de mar",0,0,0,0,0
"Cnidarios",0,0,0,0,0
"Ctenóforos",0,0,0,0,0
"Chaetognatha",0,0,0,0,0
"platelmintos",0,0,0,0,0
"Moluscos",1,0,0,0,1
"Gusanos anélidos",1,0,0,0,1
"Sipuncula",0,0,0,0,0
"Rotifera",0,0,0,0,0
"Acanthocephala",0,0,0,0,0
"Briozoos",0,0,0,0,0
"Brachiopodos",0,0,0,0,0
"Tardigrados",0,0,0,0,0
"Onychophora",0,0,0,0,0
"Equinodermos",0,0,0,0,0
"Urocordados",0,0,0,0,0
"Artrópodos",25,1,0,0,82
"Crustáceos",0,0,0,0,0
"Quelicerados",2,0,0,0,2
"Miriápodos",0,0,0,0,0
"Hexápodos",23,1,0,0,80
"Vertebrados",114,17,38,14,722
"Peces",26,0,5,4,178
"Anfibios",6,0,1,1,74
"Reptiles",41,14,24,4,373
"Aves",37,2,7,4,91
"Mamíferos",4,1,1,1,6
