"Grupo","Numero_de_especies_registradas","Numero_de_especies_endemicas","Numero_de_especies_en_la_NOM-059-SEMARNAT-2010","Numero_de_especies_prioritarias","Numero_de_registros"
"Bacterias",5,0,0,0,5
"Algas",134,1,0,0,194
"Hongos",0,0,0,0,0
"Plantas no vasculares",0,0,0,0,0
"Briofitas",0,0,0,0,0
"Anthocerotophyta",0,0,0,0,0
"Marchantiophyta",0,0,0,0,0
"Plantas vasculares",109,29,3,4,220
"Pteridofitas",0,0,0,0,0
"Gimnospermas",0,0,0,0,0
"Pinaceae",0,0,0,0,0
"Cupressaceae",0,0,0,0,0
"Podocarpaceae",0,0,0,0,0
"Zamiaceae",0,0,0,0,0
"Ephedraceae",0,0,0,0,0
"Taxaceae",0,0,0,0,0
"Angiospermas",109,29,3,4,220
"Asteraceae",11,2,0,0,20
"Cactaceae",6,5,0,1,27
"Crassulaceae",0,0,0,0,0
"Euphorbiaceae",10,3,0,0,24
"Fabaceae",12,1,0,0,27
"Fagaceae",0,0,0,0,0
"Lamiaceae",0,0,0,0,0
"Rubiaceae",0,0,0,0,0
"Solanaceae",6,0,0,0,8
"Orchidaceae",0,0,0,0,0
"Asparagaceae",2,2,0,0,7
"Arecaceae",0,0,0,0,0
"Bromeliaceae",0,0,0,0,0
"Poaceae",9,1,0,0,15
"Commelinaceae",1,1,0,0,1
"Rosaceae",0,0,0,0,0
"Burseraceae",2,1,0,0,4
"Apocynaceae",4,1,0,0,5
"Campanulaceae",0,0,0,0,0
"Invertebrados no artrópodos",25,0,0,0,36
"Esponjas de mar",1,0,0,0,1
"Cnidarios",6,0,0,0,6
"Ctenóforos",0,0,0,0,0
"Chaetognatha",0,0,0,0,0
"platelmintos",0,0,0,0,0
"Moluscos",18,0,0,0,29
"Gusanos anélidos",0,0,0,0,0
"Sipuncula",0,0,0,0,0
"Rotifera",0,0,0,0,0
"Acanthocephala",0,0,0,0,0
"Briozoos",0,0,0,0,0
"Brachiopodos",0,0,0,0,0
"Tardigrados",0,0,0,0,0
"Onychophora",0,0,0,0,0
"Equinodermos",0,0,0,0,0
"Urocordados",0,0,0,0,0
"Artrópodos",17,0,0,0,25
"Crustáceos",9,0,0,0,11
"Quelicerados",0,0,0,0,0
"Miriápodos",0,0,0,0,0
"Hexápodos",8,0,0,0,14
"Vertebrados",116,12,27,12,423
"Peces",25,0,2,1,36
"Anfibios",3,0,0,1,29
"Reptiles",14,7,9,2,48
"Aves",65,3,12,7,291
"Mamíferos",9,2,4,1,19
