"Grupo","Numero_de_especies_registradas","Numero_de_especies_endemicas","Numero_de_especies_en_la_NOM-059-SEMARNAT-2010","Numero_de_especies_prioritarias","Numero_de_registros"
"Bacterias",0,0,0,0,0
"Algas",0,0,0,0,0
"Hongos",0,0,0,0,0
"Plantas no vasculares",0,0,0,0,0
"Briofitas",0,0,0,0,0
"Anthocerotophyta",0,0,0,0,0
"Marchantiophyta",0,0,0,0,0
"Plantas vasculares",62,13,3,1,88
"Pteridofitas",0,0,0,0,0
"Gimnospermas",0,0,0,0,0
"Pinaceae",0,0,0,0,0
"Cupressaceae",0,0,0,0,0
"Podocarpaceae",0,0,0,0,0
"Zamiaceae",0,0,0,0,0
"Ephedraceae",0,0,0,0,0
"Taxaceae",0,0,0,0,0
"Angiospermas",62,13,3,1,88
"Asteraceae",10,4,0,0,18
"Cactaceae",1,1,1,0,1
"Crassulaceae",0,0,0,0,0
"Euphorbiaceae",3,0,0,0,5
"Fabaceae",3,0,0,0,4
"Fagaceae",0,0,0,0,0
"Lamiaceae",1,0,0,0,2
"Rubiaceae",0,0,0,0,0
"Solanaceae",1,0,0,0,2
"Orchidaceae",0,0,0,0,0
"Asparagaceae",1,0,0,0,1
"Arecaceae",0,0,0,0,0
"Bromeliaceae",2,0,0,0,2
"Poaceae",6,0,0,0,13
"Commelinaceae",0,0,0,0,0
"Rosaceae",0,0,0,0,0
"Burseraceae",0,0,0,0,0
"Apocynaceae",4,2,0,0,4
"Campanulaceae",0,0,0,0,0
"Invertebrados no artrópodos",0,0,0,0,0
"Esponjas de mar",0,0,0,0,0
"Cnidarios",0,0,0,0,0
"Ctenóforos",0,0,0,0,0
"Chaetognatha",0,0,0,0,0
"platelmintos",0,0,0,0,0
"Moluscos",0,0,0,0,0
"Gusanos anélidos",0,0,0,0,0
"Sipuncula",0,0,0,0,0
"Rotifera",0,0,0,0,0
"Acanthocephala",0,0,0,0,0
"Briozoos",0,0,0,0,0
"Brachiopodos",0,0,0,0,0
"Tardigrados",0,0,0,0,0
"Onychophora",0,0,0,0,0
"Equinodermos",0,0,0,0,0
"Urocordados",0,0,0,0,0
"Artrópodos",3,0,0,0,6
"Crustáceos",0,0,0,0,0
"Quelicerados",0,0,0,0,0
"Miriápodos",0,0,0,0,0
"Hexápodos",3,0,0,0,6
"Vertebrados",30,3,4,1,39
"Peces",25,0,0,1,33
"Anfibios",1,1,0,0,1
"Reptiles",3,2,3,0,4
"Aves",0,0,0,0,0
"Mamíferos",1,0,1,0,1
