"Grupo","Numero_de_especies_registradas","Numero_de_especies_endemicas","Numero_de_especies_en_la_NOM-059-SEMARNAT-2010","Numero_de_especies_prioritarias","Numero_de_registros"
"Bacterias",0,0,0,0,0
"Algas",2,0,0,0,2
"Hongos",0,0,0,0,0
"Plantas no vasculares",2,0,0,0,2
"Briofitas",2,0,0,0,2
"Anthocerotophyta",0,0,0,0,0
"Marchantiophyta",0,0,0,0,0
"Plantas vasculares",153,12,1,2,262
"Pteridofitas",0,0,0,0,0
"Gimnospermas",1,0,0,0,1
"Pinaceae",0,0,0,0,0
"Cupressaceae",0,0,0,0,0
"Podocarpaceae",0,0,0,0,0
"Zamiaceae",0,0,0,0,0
"Ephedraceae",1,0,0,0,1
"Taxaceae",0,0,0,0,0
"Angiospermas",152,12,1,2,261
"Asteraceae",15,0,0,0,21
"Cactaceae",14,2,1,2,37
"Crassulaceae",0,0,0,0,0
"Euphorbiaceae",16,1,0,0,30
"Fabaceae",12,0,0,0,18
"Fagaceae",0,0,0,0,0
"Lamiaceae",3,0,0,0,5
"Rubiaceae",0,0,0,0,0
"Solanaceae",4,0,0,0,4
"Orchidaceae",0,0,0,0,0
"Asparagaceae",4,3,0,0,24
"Arecaceae",0,0,0,0,0
"Bromeliaceae",0,0,0,0,0
"Poaceae",12,2,0,0,17
"Commelinaceae",0,0,0,0,0
"Rosaceae",0,0,0,0,0
"Burseraceae",2,0,0,0,5
"Apocynaceae",5,2,0,0,11
"Campanulaceae",2,0,0,0,5
"Invertebrados no artrópodos",3,0,0,0,4
"Esponjas de mar",0,0,0,0,0
"Cnidarios",0,0,0,0,0
"Ctenóforos",0,0,0,0,0
"Chaetognatha",0,0,0,0,0
"platelmintos",0,0,0,0,0
"Moluscos",2,0,0,0,3
"Gusanos anélidos",0,0,0,0,0
"Sipuncula",0,0,0,0,0
"Rotifera",0,0,0,0,0
"Acanthocephala",0,0,0,0,0
"Briozoos",0,0,0,0,0
"Brachiopodos",0,0,0,0,0
"Tardigrados",0,0,0,0,0
"Onychophora",0,0,0,0,0
"Equinodermos",1,0,0,0,1
"Urocordados",0,0,0,0,0
"Artrópodos",3,0,0,0,22
"Crustáceos",0,0,0,0,0
"Quelicerados",0,0,0,0,0
"Miriápodos",0,0,0,0,0
"Hexápodos",3,0,0,0,22
"Vertebrados",33,0,11,3,88
"Peces",7,0,0,0,29
"Anfibios",0,0,0,0,0
"Reptiles",17,0,9,2,42
"Aves",2,0,1,0,3
"Mamíferos",7,0,1,1,14
