"Grupo","Numero_de_especies_registradas","Numero_de_especies_endemicas","Numero_de_especies_en_la_NOM-059-SEMARNAT-2010","Numero_de_especies_prioritarias","Numero_de_registros"
"Bacterias",0,0,0,0,0
"Algas",0,0,0,0,0
"Hongos",2,0,0,0,2
"Plantas no vasculares",0,0,0,0,0
"Briofitas",0,0,0,0,0
"Anthocerotophyta",0,0,0,0,0
"Marchantiophyta",0,0,0,0,0
"Plantas vasculares",102,17,2,2,122
"Pteridofitas",0,0,0,0,0
"Gimnospermas",0,0,0,0,0
"Pinaceae",0,0,0,0,0
"Cupressaceae",0,0,0,0,0
"Podocarpaceae",0,0,0,0,0
"Zamiaceae",0,0,0,0,0
"Ephedraceae",0,0,0,0,0
"Taxaceae",0,0,0,0,0
"Angiospermas",95,17,1,2,111
"Asteraceae",13,7,0,0,16
"Cactaceae",0,0,0,0,0
"Crassulaceae",0,0,0,0,0
"Euphorbiaceae",4,1,0,0,4
"Fabaceae",9,1,0,0,12
"Fagaceae",0,0,0,0,0
"Lamiaceae",2,1,0,0,2
"Rubiaceae",0,0,0,0,0
"Solanaceae",1,0,0,0,1
"Orchidaceae",2,0,0,0,2
"Asparagaceae",0,0,0,0,0
"Arecaceae",0,0,0,0,0
"Bromeliaceae",0,0,0,0,0
"Poaceae",10,1,0,0,11
"Commelinaceae",2,1,0,0,2
"Rosaceae",0,0,0,0,0
"Burseraceae",0,0,0,0,0
"Apocynaceae",2,0,0,0,2
"Campanulaceae",2,0,0,0,2
"Invertebrados no artrópodos",5,0,0,0,16
"Esponjas de mar",0,0,0,0,0
"Cnidarios",0,0,0,0,0
"Ctenóforos",0,0,0,0,0
"Chaetognatha",0,0,0,0,0
"platelmintos",4,0,0,0,15
"Moluscos",1,0,0,0,1
"Gusanos anélidos",0,0,0,0,0
"Sipuncula",0,0,0,0,0
"Rotifera",0,0,0,0,0
"Acanthocephala",0,0,0,0,0
"Briozoos",0,0,0,0,0
"Brachiopodos",0,0,0,0,0
"Tardigrados",0,0,0,0,0
"Onychophora",0,0,0,0,0
"Equinodermos",0,0,0,0,0
"Urocordados",0,0,0,0,0
"Artrópodos",116,0,0,0,399
"Crustáceos",12,0,0,0,26
"Quelicerados",3,0,0,0,4
"Miriápodos",0,0,0,0,0
"Hexápodos",101,0,0,0,369
"Vertebrados",200,27,41,23,4557
"Peces",0,0,0,0,0
"Anfibios",4,2,1,0,50
"Reptiles",7,4,3,2,12
"Aves",167,18,37,21,4318
"Mamíferos",22,3,0,0,177
