"Grupo","Numero_de_especies_registradas","Numero_de_especies_endemicas","Numero_de_especies_en_la_NOM-059-SEMARNAT-2010","Numero_de_especies_prioritarias","Numero_de_registros"
"Bacterias",0,0,0,0,0
"Algas",0,0,0,0,0
"Hongos",63,0,0,0,135
"Plantas no vasculares",33,0,0,0,94
"Briofitas",33,0,0,0,94
"Anthocerotophyta",0,0,0,0,0
"Marchantiophyta",0,0,0,0,0
"Plantas vasculares",738,179,13,5,2108
"Pteridofitas",0,0,0,0,0
"Gimnospermas",1,0,0,1,3
"Pinaceae",1,0,0,1,3
"Cupressaceae",0,0,0,0,0
"Podocarpaceae",0,0,0,0,0
"Zamiaceae",0,0,0,0,0
"Ephedraceae",0,0,0,0,0
"Taxaceae",0,0,0,0,0
"Angiospermas",706,177,13,4,2045
"Asteraceae",78,13,0,0,228
"Cactaceae",26,18,6,2,83
"Crassulaceae",2,1,0,0,6
"Euphorbiaceae",40,23,0,0,145
"Fabaceae",78,10,2,0,207
"Fagaceae",4,4,0,0,22
"Lamiaceae",13,9,0,0,34
"Rubiaceae",11,1,0,0,43
"Solanaceae",17,1,0,0,65
"Orchidaceae",10,5,0,0,18
"Asparagaceae",7,5,0,0,23
"Arecaceae",2,1,0,0,10
"Bromeliaceae",2,1,0,0,4
"Poaceae",70,9,0,0,141
"Commelinaceae",10,5,0,0,43
"Rosaceae",5,0,0,0,7
"Burseraceae",3,2,0,0,5
"Apocynaceae",8,3,0,0,17
"Campanulaceae",1,0,0,0,11
"Invertebrados no artrópodos",2,0,0,0,2
"Esponjas de mar",0,0,0,0,0
"Cnidarios",0,0,0,0,0
"Ctenóforos",0,0,0,0,0
"Chaetognatha",0,0,0,0,0
"platelmintos",0,0,0,0,0
"Moluscos",2,0,0,0,2
"Gusanos anélidos",0,0,0,0,0
"Sipuncula",0,0,0,0,0
"Rotifera",0,0,0,0,0
"Acanthocephala",0,0,0,0,0
"Briozoos",0,0,0,0,0
"Brachiopodos",0,0,0,0,0
"Tardigrados",0,0,0,0,0
"Onychophora",0,0,0,0,0
"Equinodermos",0,0,0,0,0
"Urocordados",0,0,0,0,0
"Artrópodos",133,8,1,0,264
"Crustáceos",4,0,0,0,5
"Quelicerados",6,0,0,0,7
"Miriápodos",0,0,0,0,0
"Hexápodos",123,8,1,0,252
"Vertebrados",309,34,59,30,2501
"Peces",99,0,1,4,148
"Anfibios",7,0,2,1,117
"Reptiles",56,24,33,5,462
"Aves",126,5,20,19,1609
"Mamíferos",21,5,3,1,165
