"Grupo","Numero_de_especies_registradas","Numero_de_especies_endemicas","Numero_de_especies_en_la_NOM-059-SEMARNAT-2010","Numero_de_especies_prioritarias","Numero_de_registros"
"Bacterias",0,0,0,0,0
"Algas",0,0,0,0,0
"Hongos",8,0,0,0,11
"Plantas no vasculares",1,0,0,0,1
"Briofitas",1,0,0,0,1
"Anthocerotophyta",0,0,0,0,0
"Marchantiophyta",0,0,0,0,0
"Plantas vasculares",148,36,3,2,242
"Pteridofitas",0,0,0,0,0
"Gimnospermas",1,0,1,0,1
"Pinaceae",1,0,1,0,1
"Cupressaceae",0,0,0,0,0
"Podocarpaceae",0,0,0,0,0
"Zamiaceae",0,0,0,0,0
"Ephedraceae",0,0,0,0,0
"Taxaceae",0,0,0,0,0
"Angiospermas",146,36,2,2,240
"Asteraceae",18,6,0,0,28
"Cactaceae",8,5,0,1,11
"Crassulaceae",0,0,0,0,0
"Euphorbiaceae",8,4,0,0,11
"Fabaceae",19,2,1,1,37
"Fagaceae",0,0,0,0,0
"Lamiaceae",4,3,0,0,11
"Rubiaceae",0,0,0,0,0
"Solanaceae",5,0,0,0,7
"Orchidaceae",0,0,0,0,0
"Asparagaceae",2,0,0,0,2
"Arecaceae",0,0,0,0,0
"Bromeliaceae",0,0,0,0,0
"Poaceae",8,1,0,0,12
"Commelinaceae",0,0,0,0,0
"Rosaceae",0,0,0,0,0
"Burseraceae",1,0,0,0,1
"Apocynaceae",2,0,0,0,6
"Campanulaceae",0,0,0,0,0
"Invertebrados no artrópodos",0,0,0,0,0
"Esponjas de mar",0,0,0,0,0
"Cnidarios",0,0,0,0,0
"Ctenóforos",0,0,0,0,0
"Chaetognatha",0,0,0,0,0
"platelmintos",0,0,0,0,0
"Moluscos",0,0,0,0,0
"Gusanos anélidos",0,0,0,0,0
"Sipuncula",0,0,0,0,0
"Rotifera",0,0,0,0,0
"Acanthocephala",0,0,0,0,0
"Briozoos",0,0,0,0,0
"Brachiopodos",0,0,0,0,0
"Tardigrados",0,0,0,0,0
"Onychophora",0,0,0,0,0
"Equinodermos",0,0,0,0,0
"Urocordados",0,0,0,0,0
"Artrópodos",13,0,0,0,15
"Crustáceos",2,0,0,0,3
"Quelicerados",2,0,0,0,2
"Miriápodos",0,0,0,0,0
"Hexápodos",9,0,0,0,10
"Vertebrados",33,2,13,8,51
"Peces",2,0,0,0,2
"Anfibios",1,0,0,0,1
"Reptiles",7,1,7,1,8
"Aves",21,1,5,6,38
"Mamíferos",2,0,1,1,2
