"Grupo","Numero_de_especies_registradas","Numero_de_especies_endemicas","Numero_de_especies_en_la_NOM-059-SEMARNAT-2010","Numero_de_especies_prioritarias","Numero_de_registros"
"Bacterias",0,0,0,0,0
"Algas",0,0,0,0,0
"Hongos",52,0,0,0,106
"Plantas no vasculares",0,0,0,0,0
"Briofitas",0,0,0,0,0
"Anthocerotophyta",0,0,0,0,0
"Marchantiophyta",0,0,0,0,0
"Plantas vasculares",244,51,3,2,561
"Pteridofitas",0,0,0,0,0
"Gimnospermas",0,0,0,0,0
"Pinaceae",0,0,0,0,0
"Cupressaceae",0,0,0,0,0
"Podocarpaceae",0,0,0,0,0
"Zamiaceae",0,0,0,0,0
"Ephedraceae",0,0,0,0,0
"Taxaceae",0,0,0,0,0
"Angiospermas",231,51,3,2,539
"Asteraceae",33,3,0,0,105
"Cactaceae",11,7,0,0,21
"Crassulaceae",2,2,0,0,6
"Euphorbiaceae",18,8,0,0,35
"Fabaceae",20,0,1,1,35
"Fagaceae",1,0,0,0,4
"Lamiaceae",4,2,0,0,10
"Rubiaceae",2,0,0,0,3
"Solanaceae",5,0,0,0,5
"Orchidaceae",0,0,0,0,0
"Asparagaceae",3,2,0,0,3
"Arecaceae",1,0,0,0,1
"Bromeliaceae",2,1,0,0,5
"Poaceae",18,3,0,0,36
"Commelinaceae",0,0,0,0,0
"Rosaceae",1,0,0,0,1
"Burseraceae",1,1,0,0,1
"Apocynaceae",3,0,0,0,6
"Campanulaceae",1,0,0,0,2
"Invertebrados no artrópodos",0,0,0,0,0
"Esponjas de mar",0,0,0,0,0
"Cnidarios",0,0,0,0,0
"Ctenóforos",0,0,0,0,0
"Chaetognatha",0,0,0,0,0
"platelmintos",0,0,0,0,0
"Moluscos",0,0,0,0,0
"Gusanos anélidos",0,0,0,0,0
"Sipuncula",0,0,0,0,0
"Rotifera",0,0,0,0,0
"Acanthocephala",0,0,0,0,0
"Briozoos",0,0,0,0,0
"Brachiopodos",0,0,0,0,0
"Tardigrados",0,0,0,0,0
"Onychophora",0,0,0,0,0
"Equinodermos",0,0,0,0,0
"Urocordados",0,0,0,0,0
"Artrópodos",8,0,0,0,9
"Crustáceos",0,0,0,0,0
"Quelicerados",1,0,0,0,2
"Miriápodos",0,0,0,0,0
"Hexápodos",7,0,0,0,7
"Vertebrados",18,6,11,1,60
"Peces",0,0,0,0,0
"Anfibios",1,0,0,1,1
"Reptiles",15,6,9,0,56
"Aves",2,0,2,0,3
"Mamíferos",0,0,0,0,0
