"Grupo","Numero_de_especies_registradas","Numero_de_especies_endemicas","Numero_de_especies_en_la_NOM-059-SEMARNAT-2010","Numero_de_especies_prioritarias","Numero_de_registros"
"Bacterias",0,0,0,0,0
"Algas",3,0,0,0,4
"Hongos",14,0,0,0,17
"Plantas no vasculares",1,0,0,0,1
"Briofitas",1,0,0,0,1
"Anthocerotophyta",0,0,0,0,0
"Marchantiophyta",0,0,0,0,0
"Plantas vasculares",410,35,15,2,957
"Pteridofitas",0,0,0,0,0
"Gimnospermas",6,1,5,0,18
"Pinaceae",3,0,3,0,6
"Cupressaceae",2,1,2,0,6
"Podocarpaceae",0,0,0,0,0
"Zamiaceae",0,0,0,0,0
"Ephedraceae",1,0,0,0,6
"Taxaceae",0,0,0,0,0
"Angiospermas",399,34,10,2,933
"Asteraceae",64,4,1,0,156
"Cactaceae",16,9,2,1,45
"Crassulaceae",9,3,1,0,25
"Euphorbiaceae",14,2,0,0,34
"Fabaceae",32,0,0,1,90
"Fagaceae",4,2,0,0,7
"Lamiaceae",9,1,0,0,19
"Rubiaceae",0,0,0,0,0
"Solanaceae",11,0,0,0,24
"Orchidaceae",0,0,0,0,0
"Asparagaceae",5,2,0,0,18
"Arecaceae",1,0,0,0,5
"Bromeliaceae",0,0,0,0,0
"Poaceae",21,1,0,0,38
"Commelinaceae",0,0,0,0,0
"Rosaceae",11,0,0,0,17
"Burseraceae",0,0,0,0,0
"Apocynaceae",5,1,0,0,11
"Campanulaceae",1,0,0,0,2
"Invertebrados no artrópodos",1,0,0,0,1
"Esponjas de mar",0,0,0,0,0
"Cnidarios",1,0,0,0,1
"Ctenóforos",0,0,0,0,0
"Chaetognatha",0,0,0,0,0
"platelmintos",0,0,0,0,0
"Moluscos",0,0,0,0,0
"Gusanos anélidos",0,0,0,0,0
"Sipuncula",0,0,0,0,0
"Rotifera",0,0,0,0,0
"Acanthocephala",0,0,0,0,0
"Briozoos",0,0,0,0,0
"Brachiopodos",0,0,0,0,0
"Tardigrados",0,0,0,0,0
"Onychophora",0,0,0,0,0
"Equinodermos",0,0,0,0,0
"Urocordados",0,0,0,0,0
"Artrópodos",31,0,0,0,98
"Crustáceos",24,0,0,0,91
"Quelicerados",0,0,0,0,0
"Miriápodos",0,0,0,0,0
"Hexápodos",7,0,0,0,7
"Vertebrados",149,8,30,15,787
"Peces",12,0,0,0,32
"Anfibios",11,0,3,1,107
"Reptiles",32,5,16,2,129
"Aves",74,0,10,11,438
"Mamíferos",20,3,1,1,81
