"Grupo","Numero_de_especies_registradas","Numero_de_especies_endemicas","Numero_de_especies_en_la_NOM-059-SEMARNAT-2010","Numero_de_especies_prioritarias","Numero_de_registros"
"Bacterias",0,0,0,0,0
"Algas",0,0,0,0,0
"Hongos",0,0,0,0,0
"Plantas no vasculares",0,0,0,0,0
"Briofitas",0,0,0,0,0
"Anthocerotophyta",0,0,0,0,0
"Marchantiophyta",0,0,0,0,0
"Plantas vasculares",193,31,0,1,544
"Pteridofitas",0,0,0,0,0
"Gimnospermas",0,0,0,0,0
"Pinaceae",0,0,0,0,0
"Cupressaceae",0,0,0,0,0
"Podocarpaceae",0,0,0,0,0
"Zamiaceae",0,0,0,0,0
"Ephedraceae",0,0,0,0,0
"Taxaceae",0,0,0,0,0
"Angiospermas",175,31,0,1,518
"Asteraceae",24,3,0,0,67
"Cactaceae",10,4,0,0,28
"Crassulaceae",0,0,0,0,0
"Euphorbiaceae",9,4,0,0,13
"Fabaceae",10,0,0,0,19
"Fagaceae",1,0,0,0,10
"Lamiaceae",2,1,0,0,10
"Rubiaceae",2,1,0,0,10
"Solanaceae",2,0,0,0,4
"Orchidaceae",0,0,0,0,0
"Asparagaceae",2,1,0,0,6
"Arecaceae",0,0,0,0,0
"Bromeliaceae",0,0,0,0,0
"Poaceae",13,2,0,0,48
"Commelinaceae",0,0,0,0,0
"Rosaceae",1,0,0,0,2
"Burseraceae",1,0,0,0,1
"Apocynaceae",2,1,0,0,2
"Campanulaceae",0,0,0,0,0
"Invertebrados no artrópodos",0,0,0,0,0
"Esponjas de mar",0,0,0,0,0
"Cnidarios",0,0,0,0,0
"Ctenóforos",0,0,0,0,0
"Chaetognatha",0,0,0,0,0
"platelmintos",0,0,0,0,0
"Moluscos",0,0,0,0,0
"Gusanos anélidos",0,0,0,0,0
"Sipuncula",0,0,0,0,0
"Rotifera",0,0,0,0,0
"Acanthocephala",0,0,0,0,0
"Briozoos",0,0,0,0,0
"Brachiopodos",0,0,0,0,0
"Tardigrados",0,0,0,0,0
"Onychophora",0,0,0,0,0
"Equinodermos",0,0,0,0,0
"Urocordados",0,0,0,0,0
"Artrópodos",1,0,0,0,1
"Crustáceos",0,0,0,0,0
"Quelicerados",0,0,0,0,0
"Miriápodos",0,0,0,0,0
"Hexápodos",1,0,0,0,1
"Vertebrados",7,0,2,2,17
"Peces",0,0,0,0,0
"Anfibios",0,0,0,0,0
"Reptiles",2,0,1,1,2
"Aves",3,0,0,0,7
"Mamíferos",2,0,1,1,8
