"Grupo","Numero_de_especies_registradas","Numero_de_especies_endemicas","Numero_de_especies_en_la_NOM-059-SEMARNAT-2010","Numero_de_especies_prioritarias","Numero_de_registros"
"Bacterias",0,0,0,0,0
"Algas",1,0,0,0,1
"Hongos",5,0,0,0,8
"Plantas no vasculares",0,0,0,0,0
"Briofitas",0,0,0,0,0
"Anthocerotophyta",0,0,0,0,0
"Marchantiophyta",0,0,0,0,0
"Plantas vasculares",89,34,2,1,169
"Pteridofitas",0,0,0,0,0
"Gimnospermas",0,0,0,0,0
"Pinaceae",0,0,0,0,0
"Cupressaceae",0,0,0,0,0
"Podocarpaceae",0,0,0,0,0
"Zamiaceae",0,0,0,0,0
"Ephedraceae",0,0,0,0,0
"Taxaceae",0,0,0,0,0
"Angiospermas",89,34,2,1,169
"Asteraceae",11,2,0,0,20
"Cactaceae",6,5,0,0,14
"Crassulaceae",0,0,0,0,0
"Euphorbiaceae",6,5,0,0,10
"Fabaceae",11,4,0,0,22
"Fagaceae",1,1,0,0,1
"Lamiaceae",1,1,0,0,5
"Rubiaceae",1,0,0,0,1
"Solanaceae",1,0,0,0,3
"Orchidaceae",0,0,0,0,0
"Asparagaceae",4,3,0,0,15
"Arecaceae",0,0,0,0,0
"Bromeliaceae",0,0,0,0,0
"Poaceae",1,1,0,0,1
"Commelinaceae",0,0,0,0,0
"Rosaceae",1,0,0,0,1
"Burseraceae",3,2,0,0,3
"Apocynaceae",1,0,0,0,1
"Campanulaceae",0,0,0,0,0
"Invertebrados no artrópodos",0,0,0,0,0
"Esponjas de mar",0,0,0,0,0
"Cnidarios",0,0,0,0,0
"Ctenóforos",0,0,0,0,0
"Chaetognatha",0,0,0,0,0
"platelmintos",0,0,0,0,0
"Moluscos",0,0,0,0,0
"Gusanos anélidos",0,0,0,0,0
"Sipuncula",0,0,0,0,0
"Rotifera",0,0,0,0,0
"Acanthocephala",0,0,0,0,0
"Briozoos",0,0,0,0,0
"Brachiopodos",0,0,0,0,0
"Tardigrados",0,0,0,0,0
"Onychophora",0,0,0,0,0
"Equinodermos",0,0,0,0,0
"Urocordados",0,0,0,0,0
"Artrópodos",28,1,0,0,71
"Crustáceos",2,0,0,0,2
"Quelicerados",1,0,0,0,3
"Miriápodos",0,0,0,0,0
"Hexápodos",25,1,0,0,66
"Vertebrados",55,6,18,8,201
"Peces",1,0,1,0,1
"Anfibios",1,0,0,0,1
"Reptiles",10,4,7,2,38
"Aves",40,2,9,5,154
"Mamíferos",3,0,1,1,7
