"Grupo","Numero_de_especies_registradas","Numero_de_especies_endemicas","Numero_de_especies_en_la_NOM-059-SEMARNAT-2010","Numero_de_especies_prioritarias","Numero_de_registros"
"Bacterias",0,0,0,0,0
"Algas",0,0,0,0,0
"Hongos",1,0,0,0,1
"Plantas no vasculares",0,0,0,0,0
"Briofitas",0,0,0,0,0
"Anthocerotophyta",0,0,0,0,0
"Marchantiophyta",0,0,0,0,0
"Plantas vasculares",291,78,5,4,656
"Pteridofitas",0,0,0,0,0
"Gimnospermas",0,0,0,0,0
"Pinaceae",0,0,0,0,0
"Cupressaceae",0,0,0,0,0
"Podocarpaceae",0,0,0,0,0
"Zamiaceae",0,0,0,0,0
"Ephedraceae",0,0,0,0,0
"Taxaceae",0,0,0,0,0
"Angiospermas",291,78,5,4,656
"Asteraceae",29,6,0,0,46
"Cactaceae",13,8,2,1,39
"Crassulaceae",0,0,0,0,0
"Euphorbiaceae",20,10,0,0,33
"Fabaceae",46,7,0,0,116
"Fagaceae",1,1,0,0,4
"Lamiaceae",5,4,0,0,18
"Rubiaceae",15,5,0,0,27
"Solanaceae",13,0,0,0,23
"Orchidaceae",0,0,0,0,0
"Asparagaceae",5,3,0,0,15
"Arecaceae",0,0,0,0,0
"Bromeliaceae",2,1,0,0,4
"Poaceae",23,0,0,0,55
"Commelinaceae",2,1,0,0,3
"Rosaceae",0,0,0,0,0
"Burseraceae",3,2,0,0,26
"Apocynaceae",3,0,0,0,9
"Campanulaceae",0,0,0,0,0
"Invertebrados no artrópodos",3,0,0,0,8
"Esponjas de mar",0,0,0,0,0
"Cnidarios",0,0,0,0,0
"Ctenóforos",0,0,0,0,0
"Chaetognatha",0,0,0,0,0
"platelmintos",0,0,0,0,0
"Moluscos",3,0,0,0,8
"Gusanos anélidos",0,0,0,0,0
"Sipuncula",0,0,0,0,0
"Rotifera",0,0,0,0,0
"Acanthocephala",0,0,0,0,0
"Briozoos",0,0,0,0,0
"Brachiopodos",0,0,0,0,0
"Tardigrados",0,0,0,0,0
"Onychophora",0,0,0,0,0
"Equinodermos",0,0,0,0,0
"Urocordados",0,0,0,0,0
"Artrópodos",69,1,0,0,134
"Crustáceos",3,0,0,0,3
"Quelicerados",5,0,0,0,16
"Miriápodos",0,0,0,0,0
"Hexápodos",61,1,0,0,115
"Vertebrados",238,26,57,36,10698
"Peces",19,0,2,2,25
"Anfibios",7,0,2,1,68
"Reptiles",44,19,27,5,248
"Aves",154,5,24,27,10272
"Mamíferos",14,2,2,1,85
