"Grupo","Numero_de_especies_registradas","Numero_de_especies_endemicas","Numero_de_especies_en_la_NOM-059-SEMARNAT-2010","Numero_de_especies_prioritarias","Numero_de_registros"
"Bacterias",0,0,0,0,0
"Algas",0,0,0,0,0
"Hongos",27,0,0,0,90
"Plantas no vasculares",0,0,0,0,0
"Briofitas",0,0,0,0,0
"Anthocerotophyta",0,0,0,0,0
"Marchantiophyta",0,0,0,0,0
"Plantas vasculares",302,63,9,6,884
"Pteridofitas",0,0,0,0,0
"Gimnospermas",0,0,0,0,0
"Pinaceae",0,0,0,0,0
"Cupressaceae",0,0,0,0,0
"Podocarpaceae",0,0,0,0,0
"Zamiaceae",0,0,0,0,0
"Ephedraceae",0,0,0,0,0
"Taxaceae",0,0,0,0,0
"Angiospermas",301,63,9,6,879
"Asteraceae",38,10,0,0,121
"Cactaceae",14,10,2,1,75
"Crassulaceae",0,0,0,0,0
"Euphorbiaceae",26,8,0,0,80
"Fabaceae",29,2,1,2,99
"Fagaceae",0,0,0,0,0
"Lamiaceae",5,3,0,0,6
"Rubiaceae",1,0,0,0,1
"Solanaceae",12,0,0,0,33
"Orchidaceae",0,0,0,0,0
"Asparagaceae",2,2,0,0,2
"Arecaceae",0,0,0,0,0
"Bromeliaceae",1,0,0,0,3
"Poaceae",25,3,0,0,111
"Commelinaceae",0,0,0,0,0
"Rosaceae",0,0,0,0,0
"Burseraceae",5,3,0,0,8
"Apocynaceae",4,1,0,0,10
"Campanulaceae",0,0,0,0,0
"Invertebrados no artrópodos",5,0,0,0,5
"Esponjas de mar",0,0,0,0,0
"Cnidarios",0,0,0,0,0
"Ctenóforos",0,0,0,0,0
"Chaetognatha",0,0,0,0,0
"platelmintos",0,0,0,0,0
"Moluscos",5,0,0,0,5
"Gusanos anélidos",0,0,0,0,0
"Sipuncula",0,0,0,0,0
"Rotifera",0,0,0,0,0
"Acanthocephala",0,0,0,0,0
"Briozoos",0,0,0,0,0
"Brachiopodos",0,0,0,0,0
"Tardigrados",0,0,0,0,0
"Onychophora",0,0,0,0,0
"Equinodermos",0,0,0,0,0
"Urocordados",0,0,0,0,0
"Artrópodos",19,1,0,0,84
"Crustáceos",0,0,0,0,0
"Quelicerados",0,0,0,0,0
"Miriápodos",0,0,0,0,0
"Hexápodos",19,1,0,0,84
"Vertebrados",147,9,36,28,699
"Peces",13,0,0,0,15
"Anfibios",3,0,1,1,28
"Reptiles",23,5,16,3,72
"Aves",99,3,16,22,572
"Mamíferos",9,1,3,2,12
