"Grupo","Numero_de_especies_registradas","Numero_de_especies_endemicas","Numero_de_especies_en_la_NOM-059-SEMARNAT-2010","Numero_de_especies_prioritarias","Numero_de_registros"
"Bacterias",14,0,0,0,86
"Algas",33,5,0,0,79
"Hongos",2,0,0,0,3
"Plantas no vasculares",0,0,0,0,0
"Briofitas",0,0,0,0,0
"Anthocerotophyta",0,0,0,0,0
"Marchantiophyta",0,0,0,0,0
"Plantas vasculares",323,71,9,6,1114
"Pteridofitas",0,0,0,0,0
"Gimnospermas",0,0,0,0,0
"Pinaceae",0,0,0,0,0
"Cupressaceae",0,0,0,0,0
"Podocarpaceae",0,0,0,0,0
"Zamiaceae",0,0,0,0,0
"Ephedraceae",0,0,0,0,0
"Taxaceae",0,0,0,0,0
"Angiospermas",323,71,9,6,1114
"Asteraceae",28,9,0,0,72
"Cactaceae",17,7,4,3,94
"Crassulaceae",0,0,0,0,0
"Euphorbiaceae",24,5,0,0,92
"Fabaceae",46,4,0,0,212
"Fagaceae",0,0,0,0,0
"Lamiaceae",4,2,0,0,4
"Rubiaceae",3,3,0,0,16
"Solanaceae",16,0,0,0,42
"Orchidaceae",0,0,0,0,0
"Asparagaceae",2,1,0,0,8
"Arecaceae",1,0,0,0,4
"Bromeliaceae",2,0,0,0,2
"Poaceae",41,6,0,0,195
"Commelinaceae",0,0,0,0,0
"Rosaceae",0,0,0,0,0
"Burseraceae",4,1,0,0,14
"Apocynaceae",12,3,0,0,34
"Campanulaceae",0,0,0,0,0
"Invertebrados no artrópodos",302,0,1,0,1007
"Esponjas de mar",5,0,0,0,5
"Cnidarios",9,0,1,0,28
"Ctenóforos",0,0,0,0,0
"Chaetognatha",0,0,0,0,0
"platelmintos",0,0,0,0,0
"Moluscos",273,0,0,0,943
"Gusanos anélidos",15,0,0,0,31
"Sipuncula",0,0,0,0,0
"Rotifera",0,0,0,0,0
"Acanthocephala",0,0,0,0,0
"Briozoos",0,0,0,0,0
"Brachiopodos",0,0,0,0,0
"Tardigrados",0,0,0,0,0
"Onychophora",0,0,0,0,0
"Equinodermos",0,0,0,0,0
"Urocordados",0,0,0,0,0
"Artrópodos",155,0,0,0,338
"Crustáceos",60,0,0,0,69
"Quelicerados",13,0,0,0,16
"Miriápodos",1,0,0,0,2
"Hexápodos",81,0,0,0,251
"Vertebrados",371,17,49,35,1787
"Peces",152,0,3,2,276
"Anfibios",3,1,0,0,5
"Reptiles",38,4,15,5,136
"Aves",147,9,24,25,1235
"Mamíferos",31,3,7,3,135
