"Grupo","Numero_de_especies_registradas","Numero_de_especies_endemicas","Numero_de_especies_en_la_NOM-059-SEMARNAT-2010","Numero_de_especies_prioritarias","Numero_de_registros"
"Bacterias",0,0,0,0,0
"Algas",4,0,0,0,4
"Hongos",1,0,0,0,2
"Plantas no vasculares",0,0,0,0,0
"Briofitas",0,0,0,0,0
"Anthocerotophyta",0,0,0,0,0
"Marchantiophyta",0,0,0,0,0
"Plantas vasculares",155,33,7,5,316
"Pteridofitas",0,0,0,0,0
"Gimnospermas",0,0,0,0,0
"Pinaceae",0,0,0,0,0
"Cupressaceae",0,0,0,0,0
"Podocarpaceae",0,0,0,0,0
"Zamiaceae",0,0,0,0,0
"Ephedraceae",0,0,0,0,0
"Taxaceae",0,0,0,0,0
"Angiospermas",155,33,7,5,316
"Asteraceae",8,4,0,0,16
"Cactaceae",14,4,2,1,60
"Crassulaceae",0,0,0,0,0
"Euphorbiaceae",8,1,0,0,18
"Fabaceae",15,1,0,0,23
"Fagaceae",0,0,0,0,0
"Lamiaceae",2,0,0,0,2
"Rubiaceae",0,0,0,0,0
"Solanaceae",5,0,0,0,12
"Orchidaceae",0,0,0,0,0
"Asparagaceae",4,2,0,0,11
"Arecaceae",3,2,1,0,6
"Bromeliaceae",1,1,0,0,9
"Poaceae",8,1,0,0,10
"Commelinaceae",1,0,0,0,1
"Rosaceae",0,0,0,0,0
"Burseraceae",1,0,0,0,2
"Apocynaceae",4,1,0,0,12
"Campanulaceae",0,0,0,0,0
"Invertebrados no artrópodos",34,0,0,0,40
"Esponjas de mar",0,0,0,0,0
"Cnidarios",3,0,0,0,5
"Ctenóforos",0,0,0,0,0
"Chaetognatha",0,0,0,0,0
"platelmintos",0,0,0,0,0
"Moluscos",29,0,0,0,33
"Gusanos anélidos",1,0,0,0,1
"Sipuncula",1,0,0,0,1
"Rotifera",0,0,0,0,0
"Acanthocephala",0,0,0,0,0
"Briozoos",0,0,0,0,0
"Brachiopodos",0,0,0,0,0
"Tardigrados",0,0,0,0,0
"Onychophora",0,0,0,0,0
"Equinodermos",0,0,0,0,0
"Urocordados",0,0,0,0,0
"Artrópodos",47,0,0,0,174
"Crustáceos",21,0,0,0,23
"Quelicerados",0,0,0,0,0
"Miriápodos",1,0,0,0,1
"Hexápodos",25,0,0,0,150
"Vertebrados",254,10,25,21,1322
"Peces",113,0,2,4,188
"Anfibios",0,0,0,0,0
"Reptiles",13,0,4,1,17
"Aves",97,6,14,14,1031
"Mamíferos",31,4,5,2,86
