"Grupo","Numero_de_especies_registradas","Numero_de_especies_endemicas","Numero_de_especies_en_la_NOM-059-SEMARNAT-2010","Numero_de_especies_prioritarias","Numero_de_registros"
"Bacterias",3,0,0,0,6
"Algas",6,0,0,0,6
"Hongos",3,0,0,0,5
"Plantas no vasculares",0,0,0,0,0
"Briofitas",0,0,0,0,0
"Anthocerotophyta",0,0,0,0,0
"Marchantiophyta",0,0,0,0,0
"Plantas vasculares",115,35,6,4,172
"Pteridofitas",0,0,0,0,0
"Gimnospermas",0,0,0,0,0
"Pinaceae",0,0,0,0,0
"Cupressaceae",0,0,0,0,0
"Podocarpaceae",0,0,0,0,0
"Zamiaceae",0,0,0,0,0
"Ephedraceae",0,0,0,0,0
"Taxaceae",0,0,0,0,0
"Angiospermas",113,35,6,4,170
"Asteraceae",4,1,1,0,5
"Cactaceae",3,1,1,0,5
"Crassulaceae",0,0,0,0,0
"Euphorbiaceae",11,9,1,0,20
"Fabaceae",23,3,0,1,34
"Fagaceae",0,0,0,0,0
"Lamiaceae",0,0,0,0,0
"Rubiaceae",4,3,0,0,5
"Solanaceae",1,1,0,0,2
"Orchidaceae",1,1,0,0,1
"Asparagaceae",1,1,0,0,1
"Arecaceae",0,0,0,0,0
"Bromeliaceae",0,0,0,0,0
"Poaceae",3,0,0,0,3
"Commelinaceae",1,0,0,0,1
"Rosaceae",0,0,0,0,0
"Burseraceae",7,4,1,1,18
"Apocynaceae",7,2,0,0,9
"Campanulaceae",0,0,0,0,0
"Invertebrados no artrópodos",25,0,0,0,29
"Esponjas de mar",0,0,0,0,0
"Cnidarios",0,0,0,0,0
"Ctenóforos",0,0,0,0,0
"Chaetognatha",0,0,0,0,0
"platelmintos",0,0,0,0,0
"Moluscos",25,0,0,0,29
"Gusanos anélidos",0,0,0,0,0
"Sipuncula",0,0,0,0,0
"Rotifera",0,0,0,0,0
"Acanthocephala",0,0,0,0,0
"Briozoos",0,0,0,0,0
"Brachiopodos",0,0,0,0,0
"Tardigrados",0,0,0,0,0
"Onychophora",0,0,0,0,0
"Equinodermos",0,0,0,0,0
"Urocordados",0,0,0,0,0
"Artrópodos",19,0,0,0,23
"Crustáceos",1,0,0,0,1
"Quelicerados",0,0,0,0,0
"Miriápodos",0,0,0,0,0
"Hexápodos",18,0,0,0,22
"Vertebrados",145,26,22,13,428
"Peces",21,0,1,0,25
"Anfibios",6,2,1,0,25
"Reptiles",15,9,7,3,36
"Aves",74,9,13,10,186
"Mamíferos",29,6,0,0,156
