"Grupo","Numero_de_especies_registradas","Numero_de_especies_endemicas","Numero_de_especies_en_la_NOM-059-SEMARNAT-2010","Numero_de_especies_prioritarias","Numero_de_registros"
"Bacterias",2,0,0,0,2
"Algas",0,0,0,0,0
"Hongos",1,0,0,0,1
"Plantas no vasculares",0,0,0,0,0
"Briofitas",0,0,0,0,0
"Anthocerotophyta",0,0,0,0,0
"Marchantiophyta",0,0,0,0,0
"Plantas vasculares",33,4,3,3,56
"Pteridofitas",0,0,0,0,0
"Gimnospermas",0,0,0,0,0
"Pinaceae",0,0,0,0,0
"Cupressaceae",0,0,0,0,0
"Podocarpaceae",0,0,0,0,0
"Zamiaceae",0,0,0,0,0
"Ephedraceae",0,0,0,0,0
"Taxaceae",0,0,0,0,0
"Angiospermas",33,4,3,3,56
"Asteraceae",5,1,0,0,5
"Cactaceae",6,1,2,2,12
"Crassulaceae",0,0,0,0,0
"Euphorbiaceae",4,1,0,0,5
"Fabaceae",2,0,0,0,5
"Fagaceae",0,0,0,0,0
"Lamiaceae",1,0,0,0,1
"Rubiaceae",0,0,0,0,0
"Solanaceae",0,0,0,0,0
"Orchidaceae",0,0,0,0,0
"Asparagaceae",0,0,0,0,0
"Arecaceae",0,0,0,0,0
"Bromeliaceae",0,0,0,0,0
"Poaceae",1,0,0,0,1
"Commelinaceae",0,0,0,0,0
"Rosaceae",0,0,0,0,0
"Burseraceae",0,0,0,0,0
"Apocynaceae",1,0,0,0,2
"Campanulaceae",0,0,0,0,0
"Invertebrados no artrópodos",14,0,0,0,14
"Esponjas de mar",12,0,0,0,12
"Cnidarios",0,0,0,0,0
"Ctenóforos",0,0,0,0,0
"Chaetognatha",0,0,0,0,0
"platelmintos",0,0,0,0,0
"Moluscos",2,0,0,0,2
"Gusanos anélidos",0,0,0,0,0
"Sipuncula",0,0,0,0,0
"Rotifera",0,0,0,0,0
"Acanthocephala",0,0,0,0,0
"Briozoos",0,0,0,0,0
"Brachiopodos",0,0,0,0,0
"Tardigrados",0,0,0,0,0
"Onychophora",0,0,0,0,0
"Equinodermos",0,0,0,0,0
"Urocordados",0,0,0,0,0
"Artrópodos",0,0,0,0,0
"Crustáceos",0,0,0,0,0
"Quelicerados",0,0,0,0,0
"Miriápodos",0,0,0,0,0
"Hexápodos",0,0,0,0,0
"Vertebrados",55,4,11,7,276
"Peces",0,0,0,0,0
"Anfibios",0,0,0,0,0
"Reptiles",11,1,4,1,147
"Aves",37,3,6,5,97
"Mamíferos",7,0,1,1,32
