"Grupo","Numero_de_especies_registradas","Numero_de_especies_endemicas","Numero_de_especies_en_la_NOM-059-SEMARNAT-2010","Numero_de_especies_prioritarias","Numero_de_registros"
"Bacterias",0,0,0,0,0
"Algas",2,0,0,0,2
"Hongos",5,0,0,0,6
"Plantas no vasculares",7,0,0,0,7
"Briofitas",6,0,0,0,6
"Anthocerotophyta",0,0,0,0,0
"Marchantiophyta",1,0,0,0,1
"Plantas vasculares",181,9,4,2,677
"Pteridofitas",0,0,0,0,0
"Gimnospermas",1,0,0,0,3
"Pinaceae",0,0,0,0,0
"Cupressaceae",0,0,0,0,0
"Podocarpaceae",0,0,0,0,0
"Zamiaceae",0,0,0,0,0
"Ephedraceae",1,0,0,0,3
"Taxaceae",0,0,0,0,0
"Angiospermas",178,9,4,2,672
"Asteraceae",25,1,0,0,95
"Cactaceae",18,5,2,2,134
"Crassulaceae",4,1,0,0,19
"Euphorbiaceae",5,0,0,0,25
"Fabaceae",11,0,0,0,34
"Fagaceae",0,0,0,0,0
"Lamiaceae",3,0,0,0,12
"Rubiaceae",0,0,0,0,0
"Solanaceae",7,0,0,0,13
"Orchidaceae",0,0,0,0,0
"Asparagaceae",5,0,0,0,34
"Arecaceae",0,0,0,0,0
"Bromeliaceae",0,0,0,0,0
"Poaceae",8,0,0,0,9
"Commelinaceae",0,0,0,0,0
"Rosaceae",3,0,0,0,19
"Burseraceae",0,0,0,0,0
"Apocynaceae",0,0,0,0,0
"Campanulaceae",0,0,0,0,0
"Invertebrados no artrópodos",3,0,0,0,4
"Esponjas de mar",0,0,0,0,0
"Cnidarios",1,0,0,0,2
"Ctenóforos",0,0,0,0,0
"Chaetognatha",0,0,0,0,0
"platelmintos",0,0,0,0,0
"Moluscos",2,0,0,0,2
"Gusanos anélidos",0,0,0,0,0
"Sipuncula",0,0,0,0,0
"Rotifera",0,0,0,0,0
"Acanthocephala",0,0,0,0,0
"Briozoos",0,0,0,0,0
"Brachiopodos",0,0,0,0,0
"Tardigrados",0,0,0,0,0
"Onychophora",0,0,0,0,0
"Equinodermos",0,0,0,0,0
"Urocordados",0,0,0,0,0
"Artrópodos",31,0,1,1,81
"Crustáceos",1,0,0,0,3
"Quelicerados",7,0,0,0,18
"Miriápodos",0,0,0,0,0
"Hexápodos",23,0,1,1,60
"Vertebrados",75,7,18,4,377
"Peces",0,0,0,0,0
"Anfibios",8,0,3,1,37
"Reptiles",23,3,8,2,83
"Aves",39,4,6,1,240
"Mamíferos",5,0,1,0,17
