"Grupo","Numero_de_especies_registradas","Numero_de_especies_endemicas","Numero_de_especies_en_la_NOM-059-SEMARNAT-2010","Numero_de_especies_prioritarias","Numero_de_registros"
"Bacterias",0,0,0,0,0
"Algas",1,1,0,0,1
"Hongos",0,0,0,0,0
"Plantas no vasculares",0,0,0,0,0
"Briofitas",0,0,0,0,0
"Anthocerotophyta",0,0,0,0,0
"Marchantiophyta",0,0,0,0,0
"Plantas vasculares",56,12,3,3,104
"Pteridofitas",0,0,0,0,0
"Gimnospermas",0,0,0,0,0
"Pinaceae",0,0,0,0,0
"Cupressaceae",0,0,0,0,0
"Podocarpaceae",0,0,0,0,0
"Zamiaceae",0,0,0,0,0
"Ephedraceae",0,0,0,0,0
"Taxaceae",0,0,0,0,0
"Angiospermas",56,12,3,3,104
"Asteraceae",6,1,0,0,6
"Cactaceae",7,3,1,1,20
"Crassulaceae",0,0,0,0,0
"Euphorbiaceae",2,0,0,0,6
"Fabaceae",8,0,1,1,23
"Fagaceae",0,0,0,0,0
"Lamiaceae",1,1,0,0,1
"Rubiaceae",0,0,0,0,0
"Solanaceae",3,1,0,0,3
"Orchidaceae",0,0,0,0,0
"Asparagaceae",1,1,0,0,2
"Arecaceae",0,0,0,0,0
"Bromeliaceae",0,0,0,0,0
"Poaceae",3,1,0,0,3
"Commelinaceae",0,0,0,0,0
"Rosaceae",0,0,0,0,0
"Burseraceae",1,1,0,0,2
"Apocynaceae",1,0,0,0,2
"Campanulaceae",1,0,0,0,1
"Invertebrados no artrópodos",3,0,0,0,5
"Esponjas de mar",0,0,0,0,0
"Cnidarios",0,0,0,0,0
"Ctenóforos",0,0,0,0,0
"Chaetognatha",0,0,0,0,0
"platelmintos",0,0,0,0,0
"Moluscos",3,0,0,0,5
"Gusanos anélidos",0,0,0,0,0
"Sipuncula",0,0,0,0,0
"Rotifera",0,0,0,0,0
"Acanthocephala",0,0,0,0,0
"Briozoos",0,0,0,0,0
"Brachiopodos",0,0,0,0,0
"Tardigrados",0,0,0,0,0
"Onychophora",0,0,0,0,0
"Equinodermos",0,0,0,0,0
"Urocordados",0,0,0,0,0
"Artrópodos",5,0,0,0,5
"Crustáceos",0,0,0,0,0
"Quelicerados",1,0,0,0,1
"Miriápodos",0,0,0,0,0
"Hexápodos",4,0,0,0,4
"Vertebrados",20,4,7,0,25
"Peces",1,0,1,0,1
"Anfibios",0,0,0,0,0
"Reptiles",4,2,2,0,5
"Aves",8,2,2,0,9
"Mamíferos",7,0,2,0,10
