"Grupo","Numero_de_especies_registradas","Numero_de_especies_endemicas","Numero_de_especies_en_la_NOM-059-SEMARNAT-2010","Numero_de_especies_prioritarias","Numero_de_registros"
"Bacterias",0,0,0,0,0
"Algas",1,0,0,0,1
"Hongos",2,0,0,0,2
"Plantas no vasculares",0,0,0,0,0
"Briofitas",0,0,0,0,0
"Anthocerotophyta",0,0,0,0,0
"Marchantiophyta",0,0,0,0,0
"Plantas vasculares",210,23,2,3,505
"Pteridofitas",0,0,0,0,0
"Gimnospermas",0,0,0,0,0
"Pinaceae",0,0,0,0,0
"Cupressaceae",0,0,0,0,0
"Podocarpaceae",0,0,0,0,0
"Zamiaceae",0,0,0,0,0
"Ephedraceae",0,0,0,0,0
"Taxaceae",0,0,0,0,0
"Angiospermas",209,23,2,3,504
"Asteraceae",34,2,0,0,82
"Cactaceae",10,5,1,1,24
"Crassulaceae",0,0,0,0,0
"Euphorbiaceae",10,1,0,0,26
"Fabaceae",21,1,0,0,48
"Fagaceae",0,0,0,0,0
"Lamiaceae",1,0,0,0,1
"Rubiaceae",0,0,0,0,0
"Solanaceae",6,0,0,0,17
"Orchidaceae",0,0,0,0,0
"Asparagaceae",2,2,0,0,6
"Arecaceae",0,0,0,0,0
"Bromeliaceae",0,0,0,0,0
"Poaceae",15,2,0,0,36
"Commelinaceae",0,0,0,0,0
"Rosaceae",0,0,0,0,0
"Burseraceae",1,0,0,0,1
"Apocynaceae",1,0,0,0,4
"Campanulaceae",0,0,0,0,0
"Invertebrados no artrópodos",20,0,0,0,46
"Esponjas de mar",0,0,0,0,0
"Cnidarios",4,0,0,0,5
"Ctenóforos",0,0,0,0,0
"Chaetognatha",0,0,0,0,0
"platelmintos",0,0,0,0,0
"Moluscos",12,0,0,0,20
"Gusanos anélidos",1,0,0,0,6
"Sipuncula",0,0,0,0,0
"Rotifera",0,0,0,0,0
"Acanthocephala",0,0,0,0,0
"Briozoos",0,0,0,0,0
"Brachiopodos",0,0,0,0,0
"Tardigrados",0,0,0,0,0
"Onychophora",0,0,0,0,0
"Equinodermos",3,0,0,0,15
"Urocordados",0,0,0,0,0
"Artrópodos",51,1,0,0,112
"Crustáceos",16,0,0,0,22
"Quelicerados",3,0,0,0,3
"Miriápodos",0,0,0,0,0
"Hexápodos",32,1,0,0,87
"Vertebrados",239,20,57,24,3076
"Peces",56,0,3,2,105
"Anfibios",6,0,1,1,79
"Reptiles",53,12,26,5,488
"Aves",112,6,22,15,2385
"Mamíferos",12,2,5,1,19
