"Grupo","Numero_de_especies_registradas","Numero_de_especies_endemicas","Numero_de_especies_en_la_NOM-059-SEMARNAT-2010","Numero_de_especies_prioritarias","Numero_de_registros"
"Bacterias",0,0,0,0,0
"Algas",0,0,0,0,0
"Hongos",21,0,0,0,26
"Plantas no vasculares",1,0,0,0,1
"Briofitas",1,0,0,0,1
"Anthocerotophyta",0,0,0,0,0
"Marchantiophyta",0,0,0,0,0
"Plantas vasculares",218,8,3,1,477
"Pteridofitas",0,0,0,0,0
"Gimnospermas",2,0,1,0,2
"Pinaceae",1,0,1,0,1
"Cupressaceae",0,0,0,0,0
"Podocarpaceae",0,0,0,0,0
"Zamiaceae",0,0,0,0,0
"Ephedraceae",1,0,0,0,1
"Taxaceae",0,0,0,0,0
"Angiospermas",210,8,2,1,468
"Asteraceae",33,0,0,0,87
"Cactaceae",4,0,1,0,5
"Crassulaceae",5,1,0,0,19
"Euphorbiaceae",3,0,0,0,3
"Fabaceae",16,0,0,1,28
"Fagaceae",4,2,0,0,10
"Lamiaceae",9,0,0,0,18
"Rubiaceae",1,0,0,0,3
"Solanaceae",5,0,0,0,6
"Orchidaceae",3,0,0,0,3
"Asparagaceae",4,2,0,0,8
"Arecaceae",0,0,0,0,0
"Bromeliaceae",0,0,0,0,0
"Poaceae",6,0,0,0,7
"Commelinaceae",1,0,0,0,2
"Rosaceae",6,0,0,0,17
"Burseraceae",0,0,0,0,0
"Apocynaceae",1,0,0,0,1
"Campanulaceae",0,0,0,0,0
"Invertebrados no artrópodos",0,0,0,0,0
"Esponjas de mar",0,0,0,0,0
"Cnidarios",0,0,0,0,0
"Ctenóforos",0,0,0,0,0
"Chaetognatha",0,0,0,0,0
"platelmintos",0,0,0,0,0
"Moluscos",0,0,0,0,0
"Gusanos anélidos",0,0,0,0,0
"Sipuncula",0,0,0,0,0
"Rotifera",0,0,0,0,0
"Acanthocephala",0,0,0,0,0
"Briozoos",0,0,0,0,0
"Brachiopodos",0,0,0,0,0
"Tardigrados",0,0,0,0,0
"Onychophora",0,0,0,0,0
"Equinodermos",0,0,0,0,0
"Urocordados",0,0,0,0,0
"Artrópodos",34,0,0,0,42
"Crustáceos",0,0,0,0,0
"Quelicerados",7,0,0,0,7
"Miriápodos",1,0,0,0,1
"Hexápodos",26,0,0,0,34
"Vertebrados",81,6,21,8,271
"Peces",1,0,0,0,1
"Anfibios",5,0,1,1,38
"Reptiles",25,4,10,2,53
"Aves",46,2,9,5,172
"Mamíferos",4,0,1,0,7
