"Grupo","Numero_de_especies_registradas","Numero_de_especies_endemicas","Numero_de_especies_en_la_NOM-059-SEMARNAT-2010","Numero_de_especies_prioritarias","Numero_de_registros"
"Bacterias",1,0,0,0,1
"Algas",3,0,0,0,12
"Hongos",17,0,0,0,34
"Plantas no vasculares",60,0,0,0,116
"Briofitas",53,0,0,0,95
"Anthocerotophyta",0,0,0,0,0
"Marchantiophyta",7,0,0,0,21
"Plantas vasculares",1304,473,40,15,5480
"Pteridofitas",0,0,0,0,0
"Gimnospermas",15,8,3,3,49
"Pinaceae",5,4,2,2,21
"Cupressaceae",6,3,1,1,13
"Podocarpaceae",0,0,0,0,0
"Zamiaceae",0,0,0,0,0
"Ephedraceae",4,1,0,0,15
"Taxaceae",0,0,0,0,0
"Angiospermas",1255,463,37,12,5355
"Asteraceae",214,77,2,0,829
"Cactaceae",94,67,24,9,1026
"Crassulaceae",28,21,1,0,95
"Euphorbiaceae",38,9,0,0,103
"Fabaceae",95,29,1,2,253
"Fagaceae",20,13,0,0,115
"Lamiaceae",34,24,0,0,144
"Rubiaceae",6,1,0,0,33
"Solanaceae",45,9,0,0,186
"Orchidaceae",6,3,1,0,10
"Asparagaceae",42,35,4,0,272
"Arecaceae",2,0,0,0,5
"Bromeliaceae",7,2,0,0,40
"Poaceae",152,44,1,0,850
"Commelinaceae",18,9,0,0,74
"Rosaceae",12,5,0,0,28
"Burseraceae",3,0,0,0,15
"Apocynaceae",24,9,0,0,91
"Campanulaceae",3,1,0,0,4
"Invertebrados no artrópodos",24,0,0,0,26
"Esponjas de mar",0,0,0,0,0
"Cnidarios",0,0,0,0,0
"Ctenóforos",0,0,0,0,0
"Chaetognatha",0,0,0,0,0
"platelmintos",0,0,0,0,0
"Moluscos",23,0,0,0,25
"Gusanos anélidos",1,0,0,0,1
"Sipuncula",0,0,0,0,0
"Rotifera",0,0,0,0,0
"Acanthocephala",0,0,0,0,0
"Briozoos",0,0,0,0,0
"Brachiopodos",0,0,0,0,0
"Tardigrados",0,0,0,0,0
"Onychophora",0,0,0,0,0
"Equinodermos",0,0,0,0,0
"Urocordados",0,0,0,0,0
"Artrópodos",360,12,1,1,1101
"Crustáceos",11,0,0,0,36
"Quelicerados",37,0,0,0,152
"Miriápodos",3,0,0,0,19
"Hexápodos",309,12,1,1,894
"Vertebrados",259,50,51,26,2194
"Peces",8,0,2,0,15
"Anfibios",20,6,6,0,215
"Reptiles",61,24,22,0,516
"Aves",108,6,16,22,970
"Mamíferos",62,14,5,4,478
