"Grupo","Numero_de_especies_registradas","Numero_de_especies_endemicas","Numero_de_especies_en_la_NOM-059-SEMARNAT-2010","Numero_de_especies_prioritarias","Numero_de_registros"
"Bacterias",1,0,0,0,1
"Algas",7,0,0,0,8
"Hongos",4,0,0,0,5
"Plantas no vasculares",1,0,0,0,1
"Briofitas",1,0,0,0,1
"Anthocerotophyta",0,0,0,0,0
"Marchantiophyta",0,0,0,0,0
"Plantas vasculares",492,79,13,10,1829
"Pteridofitas",0,0,0,0,0
"Gimnospermas",0,0,0,0,0
"Pinaceae",0,0,0,0,0
"Cupressaceae",0,0,0,0,0
"Podocarpaceae",0,0,0,0,0
"Zamiaceae",0,0,0,0,0
"Ephedraceae",0,0,0,0,0
"Taxaceae",0,0,0,0,0
"Angiospermas",489,79,13,10,1817
"Asteraceae",17,6,0,0,34
"Cactaceae",7,2,1,1,86
"Crassulaceae",0,0,0,0,0
"Euphorbiaceae",22,7,1,0,59
"Fabaceae",97,15,2,1,352
"Fagaceae",0,0,0,0,0
"Lamiaceae",6,2,0,0,22
"Rubiaceae",20,6,0,0,46
"Solanaceae",10,2,0,0,13
"Orchidaceae",2,2,0,0,5
"Asparagaceae",3,0,0,0,5
"Arecaceae",0,0,0,0,0
"Bromeliaceae",3,1,0,0,8
"Poaceae",6,1,0,0,6
"Commelinaceae",1,0,0,0,1
"Rosaceae",0,0,0,0,0
"Burseraceae",13,7,1,1,90
"Apocynaceae",11,1,0,0,58
"Campanulaceae",0,0,0,0,0
"Invertebrados no artrópodos",9,0,0,0,20
"Esponjas de mar",0,0,0,0,0
"Cnidarios",5,0,0,0,13
"Ctenóforos",0,0,0,0,0
"Chaetognatha",0,0,0,0,0
"platelmintos",0,0,0,0,0
"Moluscos",4,0,0,0,7
"Gusanos anélidos",0,0,0,0,0
"Sipuncula",0,0,0,0,0
"Rotifera",0,0,0,0,0
"Acanthocephala",0,0,0,0,0
"Briozoos",0,0,0,0,0
"Brachiopodos",0,0,0,0,0
"Tardigrados",0,0,0,0,0
"Onychophora",0,0,0,0,0
"Equinodermos",0,0,0,0,0
"Urocordados",0,0,0,0,0
"Artrópodos",161,1,1,1,553
"Crustáceos",2,0,0,0,4
"Quelicerados",2,0,0,0,2
"Miriápodos",0,0,0,0,0
"Hexápodos",157,1,1,1,547
"Vertebrados",160,15,30,15,584
"Peces",48,0,2,0,104
"Anfibios",2,2,0,0,4
"Reptiles",10,4,8,3,28
"Aves",96,8,19,11,442
"Mamíferos",4,1,1,1,6
