"Grupo","Numero_de_especies_registradas","Numero_de_especies_endemicas","Numero_de_especies_en_la_NOM-059-SEMARNAT-2010","Numero_de_especies_prioritarias","Numero_de_registros"
"Bacterias",0,0,0,0,0
"Algas",0,0,0,0,0
"Hongos",5,0,0,0,6
"Plantas no vasculares",1,0,0,0,1
"Briofitas",1,0,0,0,1
"Anthocerotophyta",0,0,0,0,0
"Marchantiophyta",0,0,0,0,0
"Plantas vasculares",620,229,20,11,1989
"Pteridofitas",0,0,0,0,0
"Gimnospermas",9,2,0,1,32
"Pinaceae",2,1,0,1,9
"Cupressaceae",3,0,0,0,6
"Podocarpaceae",0,0,0,0,0
"Zamiaceae",0,0,0,0,0
"Ephedraceae",4,1,0,0,17
"Taxaceae",0,0,0,0,0
"Angiospermas",594,226,20,10,1932
"Asteraceae",103,33,0,0,259
"Cactaceae",56,33,16,7,570
"Crassulaceae",13,9,0,0,42
"Euphorbiaceae",15,6,0,0,29
"Fabaceae",25,4,0,2,50
"Fagaceae",18,16,0,1,49
"Lamiaceae",20,10,0,0,53
"Rubiaceae",8,2,0,0,16
"Solanaceae",13,3,0,0,30
"Orchidaceae",1,1,0,0,1
"Asparagaceae",22,18,2,0,221
"Arecaceae",1,1,1,0,1
"Bromeliaceae",4,1,0,0,9
"Poaceae",70,15,0,0,152
"Commelinaceae",4,4,0,0,7
"Rosaceae",11,6,0,0,33
"Burseraceae",1,0,0,0,2
"Apocynaceae",7,1,0,0,12
"Campanulaceae",1,0,0,0,1
"Invertebrados no artrópodos",2,0,0,0,2
"Esponjas de mar",0,0,0,0,0
"Cnidarios",0,0,0,0,0
"Ctenóforos",0,0,0,0,0
"Chaetognatha",0,0,0,0,0
"platelmintos",0,0,0,0,0
"Moluscos",2,0,0,0,2
"Gusanos anélidos",0,0,0,0,0
"Sipuncula",0,0,0,0,0
"Rotifera",0,0,0,0,0
"Acanthocephala",0,0,0,0,0
"Briozoos",0,0,0,0,0
"Brachiopodos",0,0,0,0,0
"Tardigrados",0,0,0,0,0
"Onychophora",0,0,0,0,0
"Equinodermos",0,0,0,0,0
"Urocordados",0,0,0,0,0
"Artrópodos",21,0,1,1,26
"Crustáceos",0,0,0,0,0
"Quelicerados",4,0,0,0,4
"Miriápodos",1,0,0,0,1
"Hexápodos",16,0,1,1,21
"Vertebrados",123,22,19,18,395
"Peces",0,0,0,0,0
"Anfibios",5,1,0,0,10
"Reptiles",33,10,10,0,173
"Aves",58,5,7,15,136
"Mamíferos",27,6,2,3,76
