"Grupo","Numero_de_especies_registradas","Numero_de_especies_endemicas","Numero_de_especies_en_la_NOM-059-SEMARNAT-2010","Numero_de_especies_prioritarias","Numero_de_registros"
"Bacterias",1,0,0,0,2
"Algas",0,0,0,0,0
"Hongos",2,0,0,0,2
"Plantas no vasculares",10,0,0,0,14
"Briofitas",10,0,0,0,14
"Anthocerotophyta",0,0,0,0,0
"Marchantiophyta",0,0,0,0,0
"Plantas vasculares",402,130,18,9,1254
"Pteridofitas",0,0,0,0,0
"Gimnospermas",11,3,2,3,40
"Pinaceae",3,1,1,3,6
"Cupressaceae",4,1,1,0,16
"Podocarpaceae",0,0,0,0,0
"Zamiaceae",0,0,0,0,0
"Ephedraceae",4,1,0,0,18
"Taxaceae",0,0,0,0,0
"Angiospermas",380,125,16,6,1189
"Asteraceae",84,27,0,0,264
"Cactaceae",44,21,12,5,317
"Crassulaceae",3,2,0,0,3
"Euphorbiaceae",6,0,0,0,17
"Fabaceae",33,13,0,1,100
"Fagaceae",3,3,0,0,5
"Lamiaceae",10,3,0,0,23
"Rubiaceae",4,0,0,0,5
"Solanaceae",12,2,0,0,28
"Orchidaceae",1,1,0,0,1
"Asparagaceae",13,11,2,0,56
"Arecaceae",0,0,0,0,0
"Bromeliaceae",2,0,0,0,6
"Poaceae",40,8,0,0,88
"Commelinaceae",4,3,0,0,17
"Rosaceae",4,1,0,0,7
"Burseraceae",1,0,0,0,1
"Apocynaceae",3,1,0,0,5
"Campanulaceae",0,0,0,0,0
"Invertebrados no artrópodos",2,0,0,0,2
"Esponjas de mar",0,0,0,0,0
"Cnidarios",0,0,0,0,0
"Ctenóforos",0,0,0,0,0
"Chaetognatha",0,0,0,0,0
"platelmintos",1,0,0,0,1
"Moluscos",1,0,0,0,1
"Gusanos anélidos",0,0,0,0,0
"Sipuncula",0,0,0,0,0
"Rotifera",0,0,0,0,0
"Acanthocephala",0,0,0,0,0
"Briozoos",0,0,0,0,0
"Brachiopodos",0,0,0,0,0
"Tardigrados",0,0,0,0,0
"Onychophora",0,0,0,0,0
"Equinodermos",0,0,0,0,0
"Urocordados",0,0,0,0,0
"Artrópodos",27,2,1,1,88
"Crustáceos",1,0,0,0,1
"Quelicerados",1,0,0,0,1
"Miriápodos",0,0,0,0,0
"Hexápodos",25,2,1,1,86
"Vertebrados",74,6,15,8,433
"Peces",0,0,0,0,0
"Anfibios",5,0,1,0,32
"Reptiles",17,2,6,0,57
"Aves",16,1,4,5,30
"Mamíferos",36,3,4,3,314
