"Grupo","Numero_de_especies_registradas","Numero_de_especies_endemicas","Numero_de_especies_en_la_NOM-059-SEMARNAT-2010","Numero_de_especies_prioritarias","Numero_de_registros"
"Bacterias",0,0,0,0,0
"Algas",3,0,0,0,3
"Hongos",25,0,0,0,98
"Plantas no vasculares",0,0,0,0,0
"Briofitas",0,0,0,0,0
"Anthocerotophyta",0,0,0,0,0
"Marchantiophyta",0,0,0,0,0
"Plantas vasculares",453,83,12,12,3349
"Pteridofitas",0,0,0,0,0
"Gimnospermas",0,0,0,0,0
"Pinaceae",0,0,0,0,0
"Cupressaceae",0,0,0,0,0
"Podocarpaceae",0,0,0,0,0
"Zamiaceae",0,0,0,0,0
"Ephedraceae",0,0,0,0,0
"Taxaceae",0,0,0,0,0
"Angiospermas",453,83,12,12,3349
"Asteraceae",26,5,1,0,110
"Cactaceae",18,13,2,1,274
"Crassulaceae",0,0,0,0,0
"Euphorbiaceae",34,11,0,0,170
"Fabaceae",69,11,1,2,750
"Fagaceae",0,0,0,0,0
"Lamiaceae",10,3,0,0,44
"Rubiaceae",11,3,0,0,45
"Solanaceae",17,3,0,0,97
"Orchidaceae",0,0,0,0,0
"Asparagaceae",5,2,0,0,22
"Arecaceae",1,0,0,0,2
"Bromeliaceae",12,2,0,0,135
"Poaceae",13,1,0,0,40
"Commelinaceae",3,0,0,0,10
"Rosaceae",0,0,0,0,0
"Burseraceae",3,2,0,0,6
"Apocynaceae",12,3,0,0,95
"Campanulaceae",0,0,0,0,0
"Invertebrados no artrópodos",32,0,0,0,78
"Esponjas de mar",0,0,0,0,0
"Cnidarios",3,0,0,0,3
"Ctenóforos",0,0,0,0,0
"Chaetognatha",0,0,0,0,0
"platelmintos",6,0,0,0,28
"Moluscos",17,0,0,0,24
"Gusanos anélidos",6,0,0,0,23
"Sipuncula",0,0,0,0,0
"Rotifera",0,0,0,0,0
"Acanthocephala",0,0,0,0,0
"Briozoos",0,0,0,0,0
"Brachiopodos",0,0,0,0,0
"Tardigrados",0,0,0,0,0
"Onychophora",0,0,0,0,0
"Equinodermos",0,0,0,0,0
"Urocordados",0,0,0,0,0
"Artrópodos",754,5,2,1,8142
"Crustáceos",19,0,0,0,45
"Quelicerados",67,0,1,0,671
"Miriápodos",2,0,0,0,7
"Hexápodos",666,5,1,1,7419
"Vertebrados",324,52,65,38,8761
"Peces",24,0,0,1,34
"Anfibios",19,7,3,0,454
"Reptiles",55,24,19,6,1168
"Aves",188,15,39,28,6531
"Mamíferos",38,6,4,3,574
