"Grupo","Numero_de_especies_registradas","Numero_de_especies_endemicas","Numero_de_especies_en_la_NOM-059-SEMARNAT-2010","Numero_de_especies_prioritarias","Numero_de_registros"
"Bacterias",5,0,0,0,14
"Algas",0,0,0,0,0
"Hongos",4,0,0,0,6
"Plantas no vasculares",0,0,0,0,0
"Briofitas",0,0,0,0,0
"Anthocerotophyta",0,0,0,0,0
"Marchantiophyta",0,0,0,0,0
"Plantas vasculares",122,28,9,6,292
"Pteridofitas",0,0,0,0,0
"Gimnospermas",0,0,0,0,0
"Pinaceae",0,0,0,0,0
"Cupressaceae",0,0,0,0,0
"Podocarpaceae",0,0,0,0,0
"Zamiaceae",0,0,0,0,0
"Ephedraceae",0,0,0,0,0
"Taxaceae",0,0,0,0,0
"Angiospermas",122,28,9,6,292
"Asteraceae",10,2,0,0,13
"Cactaceae",9,7,2,1,64
"Crassulaceae",0,0,0,0,0
"Euphorbiaceae",6,2,0,0,8
"Fabaceae",25,5,0,1,58
"Fagaceae",0,0,0,0,0
"Lamiaceae",1,0,0,0,1
"Rubiaceae",3,2,0,0,3
"Solanaceae",6,1,0,0,6
"Orchidaceae",0,0,0,0,0
"Asparagaceae",0,0,0,0,0
"Arecaceae",0,0,0,0,0
"Bromeliaceae",4,1,0,0,20
"Poaceae",2,0,0,0,2
"Commelinaceae",1,0,0,0,1
"Rosaceae",0,0,0,0,0
"Burseraceae",0,0,0,0,0
"Apocynaceae",2,0,0,0,6
"Campanulaceae",0,0,0,0,0
"Invertebrados no artrópodos",26,0,0,0,133
"Esponjas de mar",8,0,0,0,13
"Cnidarios",1,0,0,0,1
"Ctenóforos",0,0,0,0,0
"Chaetognatha",0,0,0,0,0
"platelmintos",6,0,0,0,105
"Moluscos",9,0,0,0,11
"Gusanos anélidos",2,0,0,0,3
"Sipuncula",0,0,0,0,0
"Rotifera",0,0,0,0,0
"Acanthocephala",0,0,0,0,0
"Briozoos",0,0,0,0,0
"Brachiopodos",0,0,0,0,0
"Tardigrados",0,0,0,0,0
"Onychophora",0,0,0,0,0
"Equinodermos",0,0,0,0,0
"Urocordados",0,0,0,0,0
"Artrópodos",51,0,2,1,94
"Crustáceos",14,0,0,0,20
"Quelicerados",6,0,1,0,25
"Miriápodos",0,0,0,0,0
"Hexápodos",31,0,1,1,49
"Vertebrados",227,36,55,33,2129
"Peces",15,0,3,0,18
"Anfibios",9,4,0,0,61
"Reptiles",28,15,18,5,137
"Aves",162,15,31,25,1872
"Mamíferos",13,2,3,3,41
