"Grupo","Numero_de_especies_registradas","Numero_de_especies_endemicas","Numero_de_especies_en_la_NOM-059-SEMARNAT-2010","Numero_de_especies_prioritarias","Numero_de_registros"
"Bacterias",0,0,0,0,0
"Algas",0,0,0,0,0
"Hongos",0,0,0,0,0
"Plantas no vasculares",0,0,0,0,0
"Briofitas",0,0,0,0,0
"Anthocerotophyta",0,0,0,0,0
"Marchantiophyta",0,0,0,0,0
"Plantas vasculares",57,10,3,4,114
"Pteridofitas",0,0,0,0,0
"Gimnospermas",0,0,0,0,0
"Pinaceae",0,0,0,0,0
"Cupressaceae",0,0,0,0,0
"Podocarpaceae",0,0,0,0,0
"Zamiaceae",0,0,0,0,0
"Ephedraceae",0,0,0,0,0
"Taxaceae",0,0,0,0,0
"Angiospermas",57,10,3,4,114
"Asteraceae",6,1,0,0,6
"Cactaceae",4,2,1,2,8
"Crassulaceae",0,0,0,0,0
"Euphorbiaceae",5,1,0,0,15
"Fabaceae",7,0,0,0,10
"Fagaceae",0,0,0,0,0
"Lamiaceae",2,1,0,0,4
"Rubiaceae",0,0,0,0,0
"Solanaceae",0,0,0,0,0
"Orchidaceae",0,0,0,0,0
"Asparagaceae",0,0,0,0,0
"Arecaceae",0,0,0,0,0
"Bromeliaceae",0,0,0,0,0
"Poaceae",3,0,0,0,5
"Commelinaceae",0,0,0,0,0
"Rosaceae",0,0,0,0,0
"Burseraceae",2,1,0,0,13
"Apocynaceae",0,0,0,0,0
"Campanulaceae",0,0,0,0,0
"Invertebrados no artrópodos",1,0,0,0,1
"Esponjas de mar",0,0,0,0,0
"Cnidarios",0,0,0,0,0
"Ctenóforos",0,0,0,0,0
"Chaetognatha",0,0,0,0,0
"platelmintos",0,0,0,0,0
"Moluscos",1,0,0,0,1
"Gusanos anélidos",0,0,0,0,0
"Sipuncula",0,0,0,0,0
"Rotifera",0,0,0,0,0
"Acanthocephala",0,0,0,0,0
"Briozoos",0,0,0,0,0
"Brachiopodos",0,0,0,0,0
"Tardigrados",0,0,0,0,0
"Onychophora",0,0,0,0,0
"Equinodermos",0,0,0,0,0
"Urocordados",0,0,0,0,0
"Artrópodos",5,0,0,0,6
"Crustáceos",0,0,0,0,0
"Quelicerados",1,0,0,0,1
"Miriápodos",0,0,0,0,0
"Hexápodos",4,0,0,0,5
"Vertebrados",115,4,16,12,623
"Peces",23,0,1,0,29
"Anfibios",0,0,0,0,0
"Reptiles",10,1,4,1,82
"Aves",80,3,10,10,510
"Mamíferos",2,0,1,1,2
