"Grupo","Numero_de_especies_registradas","Numero_de_especies_endemicas","Numero_de_especies_en_la_NOM-059-SEMARNAT-2010","Numero_de_especies_prioritarias","Numero_de_registros"
"Bacterias",0,0,0,0,0
"Algas",0,0,0,0,0
"Hongos",7,0,0,0,8
"Plantas no vasculares",16,0,1,0,33
"Briofitas",16,0,1,0,33
"Anthocerotophyta",0,0,0,0,0
"Marchantiophyta",0,0,0,0,0
"Plantas vasculares",451,135,12,9,1476
"Pteridofitas",0,0,0,0,0
"Gimnospermas",2,1,0,0,4
"Pinaceae",0,0,0,0,0
"Cupressaceae",0,0,0,0,0
"Podocarpaceae",0,0,0,0,0
"Zamiaceae",0,0,0,0,0
"Ephedraceae",2,1,0,0,4
"Taxaceae",0,0,0,0,0
"Angiospermas",446,134,12,9,1469
"Asteraceae",99,31,1,0,290
"Cactaceae",50,31,9,6,293
"Crassulaceae",6,5,0,0,15
"Euphorbiaceae",8,0,0,0,20
"Fabaceae",32,5,0,2,100
"Fagaceae",6,4,0,1,10
"Lamiaceae",7,3,0,0,21
"Rubiaceae",4,1,0,0,16
"Solanaceae",12,2,0,0,37
"Orchidaceae",0,0,0,0,0
"Asparagaceae",18,13,2,0,54
"Arecaceae",1,0,0,0,1
"Bromeliaceae",1,0,0,0,2
"Poaceae",84,17,0,0,358
"Commelinaceae",4,4,0,0,6
"Rosaceae",2,0,0,0,2
"Burseraceae",0,0,0,0,0
"Apocynaceae",3,0,0,0,8
"Campanulaceae",1,0,0,0,1
"Invertebrados no artrópodos",1,0,0,0,22
"Esponjas de mar",0,0,0,0,0
"Cnidarios",0,0,0,0,0
"Ctenóforos",0,0,0,0,0
"Chaetognatha",0,0,0,0,0
"platelmintos",0,0,0,0,0
"Moluscos",0,0,0,0,0
"Gusanos anélidos",0,0,0,0,0
"Sipuncula",0,0,0,0,0
"Rotifera",1,0,0,0,22
"Acanthocephala",0,0,0,0,0
"Briozoos",0,0,0,0,0
"Brachiopodos",0,0,0,0,0
"Tardigrados",0,0,0,0,0
"Onychophora",0,0,0,0,0
"Equinodermos",0,0,0,0,0
"Urocordados",0,0,0,0,0
"Artrópodos",43,0,0,0,92
"Crustáceos",5,0,0,0,22
"Quelicerados",2,0,0,0,2
"Miriápodos",0,0,0,0,0
"Hexápodos",36,0,0,0,68
"Vertebrados",169,33,26,22,1111
"Peces",0,0,0,0,0
"Anfibios",8,2,1,0,54
"Reptiles",36,14,12,0,151
"Aves",79,6,11,20,637
"Mamíferos",46,11,2,2,269
