"Grupo","Numero_de_especies_registradas","Numero_de_especies_endemicas","Numero_de_especies_en_la_NOM-059-SEMARNAT-2010","Numero_de_especies_prioritarias","Numero_de_registros"
"Bacterias",0,0,0,0,0
"Algas",0,0,0,0,0
"Hongos",0,0,0,0,0
"Plantas no vasculares",0,0,0,0,0
"Briofitas",0,0,0,0,0
"Anthocerotophyta",0,0,0,0,0
"Marchantiophyta",0,0,0,0,0
"Plantas vasculares",117,40,1,1,213
"Pteridofitas",0,0,0,0,0
"Gimnospermas",0,0,0,0,0
"Pinaceae",0,0,0,0,0
"Cupressaceae",0,0,0,0,0
"Podocarpaceae",0,0,0,0,0
"Zamiaceae",0,0,0,0,0
"Ephedraceae",0,0,0,0,0
"Taxaceae",0,0,0,0,0
"Angiospermas",116,40,1,1,212
"Asteraceae",18,6,0,0,34
"Cactaceae",4,3,1,0,4
"Crassulaceae",0,0,0,0,0
"Euphorbiaceae",13,7,0,0,30
"Fabaceae",9,1,0,0,21
"Fagaceae",0,0,0,0,0
"Lamiaceae",0,0,0,0,0
"Rubiaceae",1,0,0,0,2
"Solanaceae",1,0,0,0,1
"Orchidaceae",0,0,0,0,0
"Asparagaceae",1,1,0,0,1
"Arecaceae",1,1,0,0,4
"Bromeliaceae",1,1,0,0,2
"Poaceae",11,1,0,0,19
"Commelinaceae",2,1,0,0,2
"Rosaceae",0,0,0,0,0
"Burseraceae",0,0,0,0,0
"Apocynaceae",2,2,0,0,6
"Campanulaceae",0,0,0,0,0
"Invertebrados no artrópodos",2,0,0,0,2
"Esponjas de mar",0,0,0,0,0
"Cnidarios",0,0,0,0,0
"Ctenóforos",0,0,0,0,0
"Chaetognatha",0,0,0,0,0
"platelmintos",0,0,0,0,0
"Moluscos",1,0,0,0,1
"Gusanos anélidos",1,0,0,0,1
"Sipuncula",0,0,0,0,0
"Rotifera",0,0,0,0,0
"Acanthocephala",0,0,0,0,0
"Briozoos",0,0,0,0,0
"Brachiopodos",0,0,0,0,0
"Tardigrados",0,0,0,0,0
"Onychophora",0,0,0,0,0
"Equinodermos",0,0,0,0,0
"Urocordados",0,0,0,0,0
"Artrópodos",12,1,0,0,12
"Crustáceos",0,0,0,0,0
"Quelicerados",6,0,0,0,6
"Miriápodos",0,0,0,0,0
"Hexápodos",6,1,0,0,6
"Vertebrados",107,10,20,12,232
"Peces",49,0,1,0,85
"Anfibios",6,0,1,1,19
"Reptiles",19,8,13,3,59
"Aves",31,2,3,7,63
"Mamíferos",2,0,2,1,6
