"Grupo","Numero_de_especies_registradas","Numero_de_especies_endemicas","Numero_de_especies_en_la_NOM-059-SEMARNAT-2010","Numero_de_especies_prioritarias","Numero_de_registros"
"Bacterias",0,0,0,0,0
"Algas",0,0,0,0,0
"Hongos",1,0,0,0,1
"Plantas no vasculares",4,0,0,0,5
"Briofitas",4,0,0,0,5
"Anthocerotophyta",0,0,0,0,0
"Marchantiophyta",0,0,0,0,0
"Plantas vasculares",269,63,4,4,782
"Pteridofitas",0,0,0,0,0
"Gimnospermas",0,0,0,0,0
"Pinaceae",0,0,0,0,0
"Cupressaceae",0,0,0,0,0
"Podocarpaceae",0,0,0,0,0
"Zamiaceae",0,0,0,0,0
"Ephedraceae",0,0,0,0,0
"Taxaceae",0,0,0,0,0
"Angiospermas",267,63,4,4,780
"Asteraceae",56,19,0,0,112
"Cactaceae",20,13,4,3,41
"Crassulaceae",0,0,0,0,0
"Euphorbiaceae",8,1,0,0,10
"Fabaceae",19,1,0,1,130
"Fagaceae",1,1,0,0,1
"Lamiaceae",2,0,0,0,2
"Rubiaceae",3,0,0,0,5
"Solanaceae",12,2,0,0,80
"Orchidaceae",0,0,0,0,0
"Asparagaceae",8,4,0,0,22
"Arecaceae",0,0,0,0,0
"Bromeliaceae",1,0,0,0,2
"Poaceae",76,15,0,0,255
"Commelinaceae",1,0,0,0,4
"Rosaceae",0,0,0,0,0
"Burseraceae",1,0,0,0,1
"Apocynaceae",3,0,0,0,10
"Campanulaceae",0,0,0,0,0
"Invertebrados no artrópodos",0,0,0,0,0
"Esponjas de mar",0,0,0,0,0
"Cnidarios",0,0,0,0,0
"Ctenóforos",0,0,0,0,0
"Chaetognatha",0,0,0,0,0
"platelmintos",0,0,0,0,0
"Moluscos",0,0,0,0,0
"Gusanos anélidos",0,0,0,0,0
"Sipuncula",0,0,0,0,0
"Rotifera",0,0,0,0,0
"Acanthocephala",0,0,0,0,0
"Briozoos",0,0,0,0,0
"Brachiopodos",0,0,0,0,0
"Tardigrados",0,0,0,0,0
"Onychophora",0,0,0,0,0
"Equinodermos",0,0,0,0,0
"Urocordados",0,0,0,0,0
"Artrópodos",66,3,0,0,209
"Crustáceos",4,0,0,0,14
"Quelicerados",2,0,0,0,2
"Miriápodos",0,0,0,0,0
"Hexápodos",60,3,0,0,193
"Vertebrados",108,22,25,15,332
"Peces",1,0,1,0,1
"Anfibios",8,3,4,0,23
"Reptiles",20,9,10,0,58
"Aves",53,1,9,15,146
"Mamíferos",26,9,1,0,104
