"Grupo","Numero_de_especies_registradas","Numero_de_especies_endemicas","Numero_de_especies_en_la_NOM-059-SEMARNAT-2010","Numero_de_especies_prioritarias","Numero_de_registros"
"Bacterias",0,0,0,0,0
"Algas",0,0,0,0,0
"Hongos",1,0,0,0,1
"Plantas no vasculares",0,0,0,0,0
"Briofitas",0,0,0,0,0
"Anthocerotophyta",0,0,0,0,0
"Marchantiophyta",0,0,0,0,0
"Plantas vasculares",108,24,5,4,196
"Pteridofitas",0,0,0,0,0
"Gimnospermas",0,0,0,0,0
"Pinaceae",0,0,0,0,0
"Cupressaceae",0,0,0,0,0
"Podocarpaceae",0,0,0,0,0
"Zamiaceae",0,0,0,0,0
"Ephedraceae",0,0,0,0,0
"Taxaceae",0,0,0,0,0
"Angiospermas",108,24,5,4,196
"Asteraceae",5,2,0,0,9
"Cactaceae",9,4,0,1,21
"Crassulaceae",0,0,0,0,0
"Euphorbiaceae",2,2,0,0,4
"Fabaceae",21,2,0,0,36
"Fagaceae",0,0,0,0,0
"Lamiaceae",2,1,0,0,3
"Rubiaceae",2,1,0,0,2
"Solanaceae",3,1,0,0,4
"Orchidaceae",0,0,0,0,0
"Asparagaceae",4,3,2,0,19
"Arecaceae",0,0,0,0,0
"Bromeliaceae",4,1,0,0,8
"Poaceae",4,1,0,0,6
"Commelinaceae",1,0,0,0,2
"Rosaceae",0,0,0,0,0
"Burseraceae",0,0,0,0,0
"Apocynaceae",1,0,0,0,2
"Campanulaceae",0,0,0,0,0
"Invertebrados no artrópodos",1,0,0,0,1
"Esponjas de mar",0,0,0,0,0
"Cnidarios",0,0,0,0,0
"Ctenóforos",0,0,0,0,0
"Chaetognatha",0,0,0,0,0
"platelmintos",0,0,0,0,0
"Moluscos",1,0,0,0,1
"Gusanos anélidos",0,0,0,0,0
"Sipuncula",0,0,0,0,0
"Rotifera",0,0,0,0,0
"Acanthocephala",0,0,0,0,0
"Briozoos",0,0,0,0,0
"Brachiopodos",0,0,0,0,0
"Tardigrados",0,0,0,0,0
"Onychophora",0,0,0,0,0
"Equinodermos",0,0,0,0,0
"Urocordados",0,0,0,0,0
"Artrópodos",14,0,0,0,20
"Crustáceos",1,0,0,0,1
"Quelicerados",2,0,0,0,2
"Miriápodos",0,0,0,0,0
"Hexápodos",11,0,0,0,17
"Vertebrados",61,14,19,7,163
"Peces",2,0,0,0,3
"Anfibios",7,3,1,0,22
"Reptiles",12,6,6,4,21
"Aves",25,3,8,2,40
"Mamíferos",15,2,4,1,77
