"Grupo","Numero_de_especies_registradas","Numero_de_especies_endemicas","Numero_de_especies_en_la_NOM-059-SEMARNAT-2010","Numero_de_especies_prioritarias","Numero_de_registros"
"Bacterias",0,0,0,0,0
"Algas",0,0,0,0,0
"Hongos",0,0,0,0,0
"Plantas no vasculares",0,0,0,0,0
"Briofitas",0,0,0,0,0
"Anthocerotophyta",0,0,0,0,0
"Marchantiophyta",0,0,0,0,0
"Plantas vasculares",139,35,5,3,280
"Pteridofitas",0,0,0,0,0
"Gimnospermas",0,0,0,0,0
"Pinaceae",0,0,0,0,0
"Cupressaceae",0,0,0,0,0
"Podocarpaceae",0,0,0,0,0
"Zamiaceae",0,0,0,0,0
"Ephedraceae",0,0,0,0,0
"Taxaceae",0,0,0,0,0
"Angiospermas",139,35,5,3,280
"Asteraceae",3,0,0,0,5
"Cactaceae",1,1,0,0,1
"Crassulaceae",0,0,0,0,0
"Euphorbiaceae",9,5,0,0,13
"Fabaceae",24,5,1,0,44
"Fagaceae",0,0,0,0,0
"Lamiaceae",1,1,0,0,2
"Rubiaceae",9,4,1,0,17
"Solanaceae",2,1,0,0,7
"Orchidaceae",0,0,0,0,0
"Asparagaceae",1,1,0,0,1
"Arecaceae",1,1,0,0,1
"Bromeliaceae",1,1,0,0,1
"Poaceae",2,0,0,0,4
"Commelinaceae",1,0,0,0,2
"Rosaceae",0,0,0,0,0
"Burseraceae",8,5,0,0,34
"Apocynaceae",7,0,0,0,13
"Campanulaceae",0,0,0,0,0
"Invertebrados no artrópodos",1,0,0,0,1
"Esponjas de mar",0,0,0,0,0
"Cnidarios",0,0,0,0,0
"Ctenóforos",0,0,0,0,0
"Chaetognatha",0,0,0,0,0
"platelmintos",0,0,0,0,0
"Moluscos",1,0,0,0,1
"Gusanos anélidos",0,0,0,0,0
"Sipuncula",0,0,0,0,0
"Rotifera",0,0,0,0,0
"Acanthocephala",0,0,0,0,0
"Briozoos",0,0,0,0,0
"Brachiopodos",0,0,0,0,0
"Tardigrados",0,0,0,0,0
"Onychophora",0,0,0,0,0
"Equinodermos",0,0,0,0,0
"Urocordados",0,0,0,0,0
"Artrópodos",2,0,1,1,2
"Crustáceos",0,0,0,0,0
"Quelicerados",0,0,0,0,0
"Miriápodos",0,0,0,0,0
"Hexápodos",2,0,1,1,2
"Vertebrados",10,4,3,1,10
"Peces",0,0,0,0,0
"Anfibios",1,1,0,0,1
"Reptiles",1,0,1,1,1
"Aves",8,3,2,0,8
"Mamíferos",0,0,0,0,0
