"Grupo","Numero_de_especies_registradas","Numero_de_especies_endemicas","Numero_de_especies_en_la_NOM-059-SEMARNAT-2010","Numero_de_especies_prioritarias","Numero_de_registros"
"Bacterias",0,0,0,0,0
"Algas",0,0,0,0,0
"Hongos",0,0,0,0,0
"Plantas no vasculares",0,0,0,0,0
"Briofitas",0,0,0,0,0
"Anthocerotophyta",0,0,0,0,0
"Marchantiophyta",0,0,0,0,0
"Plantas vasculares",11,1,1,0,24
"Pteridofitas",0,0,0,0,0
"Gimnospermas",0,0,0,0,0
"Pinaceae",0,0,0,0,0
"Cupressaceae",0,0,0,0,0
"Podocarpaceae",0,0,0,0,0
"Zamiaceae",0,0,0,0,0
"Ephedraceae",0,0,0,0,0
"Taxaceae",0,0,0,0,0
"Angiospermas",11,1,1,0,24
"Asteraceae",0,0,0,0,0
"Cactaceae",2,1,1,0,2
"Crassulaceae",0,0,0,0,0
"Euphorbiaceae",2,0,0,0,3
"Fabaceae",0,0,0,0,0
"Fagaceae",0,0,0,0,0
"Lamiaceae",0,0,0,0,0
"Rubiaceae",0,0,0,0,0
"Solanaceae",0,0,0,0,0
"Orchidaceae",0,0,0,0,0
"Asparagaceae",0,0,0,0,0
"Arecaceae",0,0,0,0,0
"Bromeliaceae",0,0,0,0,0
"Poaceae",1,0,0,0,5
"Commelinaceae",0,0,0,0,0
"Rosaceae",0,0,0,0,0
"Burseraceae",0,0,0,0,0
"Apocynaceae",0,0,0,0,0
"Campanulaceae",1,0,0,0,4
"Invertebrados no artrópodos",0,0,0,0,0
"Esponjas de mar",0,0,0,0,0
"Cnidarios",0,0,0,0,0
"Ctenóforos",0,0,0,0,0
"Chaetognatha",0,0,0,0,0
"platelmintos",0,0,0,0,0
"Moluscos",0,0,0,0,0
"Gusanos anélidos",0,0,0,0,0
"Sipuncula",0,0,0,0,0
"Rotifera",0,0,0,0,0
"Acanthocephala",0,0,0,0,0
"Briozoos",0,0,0,0,0
"Brachiopodos",0,0,0,0,0
"Tardigrados",0,0,0,0,0
"Onychophora",0,0,0,0,0
"Equinodermos",0,0,0,0,0
"Urocordados",0,0,0,0,0
"Artrópodos",6,0,0,0,7
"Crustáceos",0,0,0,0,0
"Quelicerados",0,0,0,0,0
"Miriápodos",0,0,0,0,0
"Hexápodos",6,0,0,0,7
"Vertebrados",22,4,9,3,25
"Peces",0,0,0,0,0
"Anfibios",0,0,0,0,0
"Reptiles",4,0,2,0,5
"Aves",15,2,4,1,16
"Mamíferos",3,2,3,2,4
