"Grupo","Numero_de_especies_registradas","Numero_de_especies_endemicas","Numero_de_especies_en_la_NOM-059-SEMARNAT-2010","Numero_de_especies_prioritarias","Numero_de_registros"
"Bacterias",0,0,0,0,0
"Algas",0,0,0,0,0
"Hongos",0,0,0,0,0
"Plantas no vasculares",0,0,0,0,0
"Briofitas",0,0,0,0,0
"Anthocerotophyta",0,0,0,0,0
"Marchantiophyta",0,0,0,0,0
"Plantas vasculares",93,26,2,3,134
"Pteridofitas",0,0,0,0,0
"Gimnospermas",0,0,0,0,0
"Pinaceae",0,0,0,0,0
"Cupressaceae",0,0,0,0,0
"Podocarpaceae",0,0,0,0,0
"Zamiaceae",0,0,0,0,0
"Ephedraceae",0,0,0,0,0
"Taxaceae",0,0,0,0,0
"Angiospermas",93,26,2,3,134
"Asteraceae",3,0,0,0,4
"Cactaceae",7,6,0,1,19
"Crassulaceae",0,0,0,0,0
"Euphorbiaceae",8,4,0,0,15
"Fabaceae",19,3,0,1,28
"Fagaceae",0,0,0,0,0
"Lamiaceae",1,0,0,0,2
"Rubiaceae",0,0,0,0,0
"Solanaceae",5,2,0,0,5
"Orchidaceae",0,0,0,0,0
"Asparagaceae",2,0,0,0,3
"Arecaceae",0,0,0,0,0
"Bromeliaceae",2,0,0,0,2
"Poaceae",8,1,0,0,10
"Commelinaceae",0,0,0,0,0
"Rosaceae",0,0,0,0,0
"Burseraceae",1,1,0,0,1
"Apocynaceae",4,1,0,0,4
"Campanulaceae",0,0,0,0,0
"Invertebrados no artrópodos",8,0,0,0,15
"Esponjas de mar",0,0,0,0,0
"Cnidarios",2,0,0,0,2
"Ctenóforos",0,0,0,0,0
"Chaetognatha",0,0,0,0,0
"platelmintos",0,0,0,0,0
"Moluscos",6,0,0,0,13
"Gusanos anélidos",0,0,0,0,0
"Sipuncula",0,0,0,0,0
"Rotifera",0,0,0,0,0
"Acanthocephala",0,0,0,0,0
"Briozoos",0,0,0,0,0
"Brachiopodos",0,0,0,0,0
"Tardigrados",0,0,0,0,0
"Onychophora",0,0,0,0,0
"Equinodermos",0,0,0,0,0
"Urocordados",0,0,0,0,0
"Artrópodos",9,0,0,0,16
"Crustáceos",6,0,0,0,13
"Quelicerados",0,0,0,0,0
"Miriápodos",0,0,0,0,0
"Hexápodos",3,0,0,0,3
"Vertebrados",84,10,20,10,169
"Peces",1,0,0,0,2
"Anfibios",0,0,0,0,0
"Reptiles",7,3,3,1,13
"Aves",69,6,15,8,137
"Mamíferos",7,1,2,1,17
