"Grupo","Numero_de_especies_registradas","Numero_de_especies_endemicas","Numero_de_especies_en_la_NOM-059-SEMARNAT-2010","Numero_de_especies_prioritarias","Numero_de_registros"
"Bacterias",0,0,0,0,0
"Algas",11,0,0,0,15
"Hongos",1,0,0,0,1
"Plantas no vasculares",0,0,0,0,0
"Briofitas",0,0,0,0,0
"Anthocerotophyta",0,0,0,0,0
"Marchantiophyta",0,0,0,0,0
"Plantas vasculares",102,5,1,0,201
"Pteridofitas",0,0,0,0,0
"Gimnospermas",1,0,0,0,4
"Pinaceae",0,0,0,0,0
"Cupressaceae",0,0,0,0,0
"Podocarpaceae",0,0,0,0,0
"Zamiaceae",0,0,0,0,0
"Ephedraceae",1,0,0,0,4
"Taxaceae",0,0,0,0,0
"Angiospermas",98,5,1,0,190
"Asteraceae",20,1,1,0,43
"Cactaceae",1,0,0,0,2
"Crassulaceae",2,1,0,0,4
"Euphorbiaceae",2,0,0,0,3
"Fabaceae",4,0,0,0,4
"Fagaceae",0,0,0,0,0
"Lamiaceae",2,1,0,0,4
"Rubiaceae",0,0,0,0,0
"Solanaceae",1,0,0,0,1
"Orchidaceae",1,0,0,0,2
"Asparagaceae",2,0,0,0,3
"Arecaceae",0,0,0,0,0
"Bromeliaceae",0,0,0,0,0
"Poaceae",6,0,0,0,8
"Commelinaceae",0,0,0,0,0
"Rosaceae",2,0,0,0,2
"Burseraceae",0,0,0,0,0
"Apocynaceae",0,0,0,0,0
"Campanulaceae",0,0,0,0,0
"Invertebrados no artrópodos",0,0,0,0,0
"Esponjas de mar",0,0,0,0,0
"Cnidarios",0,0,0,0,0
"Ctenóforos",0,0,0,0,0
"Chaetognatha",0,0,0,0,0
"platelmintos",0,0,0,0,0
"Moluscos",0,0,0,0,0
"Gusanos anélidos",0,0,0,0,0
"Sipuncula",0,0,0,0,0
"Rotifera",0,0,0,0,0
"Acanthocephala",0,0,0,0,0
"Briozoos",0,0,0,0,0
"Brachiopodos",0,0,0,0,0
"Tardigrados",0,0,0,0,0
"Onychophora",0,0,0,0,0
"Equinodermos",0,0,0,0,0
"Urocordados",0,0,0,0,0
"Artrópodos",1,0,0,0,1
"Crustáceos",0,0,0,0,0
"Quelicerados",0,0,0,0,0
"Miriápodos",0,0,0,0,0
"Hexápodos",1,0,0,0,1
"Vertebrados",14,0,5,1,17
"Peces",0,0,0,0,0
"Anfibios",4,0,1,0,5
"Reptiles",4,0,2,0,6
"Aves",6,0,2,1,6
"Mamíferos",0,0,0,0,0
