"Grupo","Numero_de_especies_registradas","Numero_de_especies_endemicas","Numero_de_especies_en_la_NOM-059-SEMARNAT-2010","Numero_de_especies_prioritarias","Numero_de_registros"
"Bacterias",0,0,0,0,0
"Algas",0,0,0,0,0
"Hongos",0,0,0,0,0
"Plantas no vasculares",0,0,0,0,0
"Briofitas",0,0,0,0,0
"Anthocerotophyta",0,0,0,0,0
"Marchantiophyta",0,0,0,0,0
"Plantas vasculares",177,11,4,2,762
"Pteridofitas",0,0,0,0,0
"Gimnospermas",2,1,1,0,5
"Pinaceae",0,0,0,0,0
"Cupressaceae",1,1,1,0,2
"Podocarpaceae",0,0,0,0,0
"Zamiaceae",0,0,0,0,0
"Ephedraceae",1,0,0,0,3
"Taxaceae",0,0,0,0,0
"Angiospermas",171,10,3,2,751
"Asteraceae",27,0,0,0,97
"Cactaceae",12,3,2,0,125
"Crassulaceae",1,0,0,0,1
"Euphorbiaceae",10,2,0,0,33
"Fabaceae",23,0,1,2,135
"Fagaceae",1,0,0,0,2
"Lamiaceae",2,0,0,0,5
"Rubiaceae",0,0,0,0,0
"Solanaceae",3,0,0,0,8
"Orchidaceae",0,0,0,0,0
"Asparagaceae",1,0,0,0,2
"Arecaceae",1,0,0,0,1
"Bromeliaceae",0,0,0,0,0
"Poaceae",9,1,0,0,17
"Commelinaceae",0,0,0,0,0
"Rosaceae",3,0,0,0,3
"Burseraceae",2,1,0,0,15
"Apocynaceae",1,0,0,0,10
"Campanulaceae",0,0,0,0,0
"Invertebrados no artrópodos",4,0,0,0,4
"Esponjas de mar",0,0,0,0,0
"Cnidarios",0,0,0,0,0
"Ctenóforos",0,0,0,0,0
"Chaetognatha",0,0,0,0,0
"platelmintos",0,0,0,0,0
"Moluscos",3,0,0,0,3
"Gusanos anélidos",1,0,0,0,1
"Sipuncula",0,0,0,0,0
"Rotifera",0,0,0,0,0
"Acanthocephala",0,0,0,0,0
"Briozoos",0,0,0,0,0
"Brachiopodos",0,0,0,0,0
"Tardigrados",0,0,0,0,0
"Onychophora",0,0,0,0,0
"Equinodermos",0,0,0,0,0
"Urocordados",0,0,0,0,0
"Artrópodos",23,0,0,0,67
"Crustáceos",2,0,0,0,2
"Quelicerados",0,0,0,0,0
"Miriápodos",0,0,0,0,0
"Hexápodos",21,0,0,0,65
"Vertebrados",64,5,27,6,291
"Peces",10,0,1,1,27
"Anfibios",1,0,0,0,2
"Reptiles",35,4,20,3,239
"Aves",7,0,2,0,9
"Mamíferos",11,1,4,2,14
