"Grupo","Numero_de_especies_registradas","Numero_de_especies_endemicas","Numero_de_especies_en_la_NOM_059_SEMARNAT_2010","Numero_de_especies_prioritarias","Numero_de_registros"
"Bacterias",0,0,0,0,0
"Algas",0,0,0,0,0
"Hongos",112,0,2,0,721
"Plantas no vasculares",19,0,0,0,24
"Briofitas",17,0,0,0,22
"Anthocerotophyta",0,0,0,0,0
"Marchantiophyta",2,0,0,0,2
"Plantas vasculares",1619,211,66,11,7149
"Pteridofitas",3,0,2,0,8
"Gimnospermas",8,1,2,2,36
"Pinaceae",6,1,1,2,23
"Cupressaceae",1,0,0,0,11
"Podocarpaceae",1,0,1,0,2
"Zamiaceae",0,0,0,0,0
"Ephedraceae",0,0,0,0,0
"Taxaceae",0,0,0,0,0
"Angiospermas",1389,205,54,8,6435
"Asteraceae",183,10,0,0,643
"Cactaceae",5,1,0,0,6
"Crassulaceae",3,2,0,0,7
"Euphorbiaceae",25,6,2,0,63
"Fabaceae",34,3,1,0,61
"Fagaceae",5,1,0,1,35
"Lamiaceae",30,6,0,0,115
"Rubiaceae",84,3,3,0,557
"Solanaceae",65,2,0,0,404
"Orchidaceae",119,56,17,2,456
"Asparagaceae",8,6,0,0,87
"Arecaceae",18,10,11,1,105
"Bromeliaceae",29,12,6,0,97
"Poaceae",47,9,0,0,129
"Commelinaceae",15,4,0,0,57
"Rosaceae",24,1,0,0,126
"Burseraceae",0,0,0,0,0
"Apocynaceae",16,2,0,0,29
"Campanulaceae",7,0,0,0,73
"Invertebrados no artrópodos",1,0,0,0,1
"Esponjas de mar",0,0,0,0,0
"Cnidarios",0,0,0,0,0
"Ctenóforos",0,0,0,0,0
"Chaetognatha",0,0,0,0,0
"platelmintos",1,0,0,0,1
"Moluscos",0,0,0,0,0
"Gusanos anélidos",0,0,0,0,0
"Sipuncula",0,0,0,0,0
"Rotifera",0,0,0,0,0
"Acanthocephala",0,0,0,0,0
"Briozoos",0,0,0,0,0
"Brachiopodos",0,0,0,0,0
"Tardigrados",0,0,0,0,0
"Onychophora",0,0,0,0,0
"Equinodermos",0,0,0,0,0
"Urocordados",0,0,0,0,0
"Artrópodos",179,5,0,0,4921
"Crustáceos",0,0,0,0,0
"Quelicerados",58,0,0,0,3890
"Miriápodos",0,0,0,0,0
"Hexápodos",121,5,0,0,1031
"Vertebrados",208,22,80,10,2804
"Peces",0,0,0,0,0
"Anfibios",30,6,15,1,851
"Reptiles",38,8,11,0,260
"Aves",94,4,46,9,1468
"Mamíferos",46,4,8,0,225
