"Grupo","Numero_de_especies_registradas","Numero_de_especies_endemicas","Numero_de_especies_en_la_NOM_059_SEMARNAT_2010","Numero_de_especies_prioritarias","Numero_de_registros"
"Bacterias",0,0,0,0,0
"Algas",0,0,0,0,0
"Hongos",2,0,0,0,2
"Plantas no vasculares",0,0,0,0,0
"Briofitas",0,0,0,0,0
"Anthocerotophyta",0,0,0,0,0
"Marchantiophyta",0,0,0,0,0
"Plantas vasculares",103,31,3,1,141
"Pteridofitas",0,0,0,0,0
"Gimnospermas",0,0,0,0,0
"Pinaceae",0,0,0,0,0
"Cupressaceae",0,0,0,0,0
"Podocarpaceae",0,0,0,0,0
"Zamiaceae",0,0,0,0,0
"Ephedraceae",0,0,0,0,0
"Taxaceae",0,0,0,0,0
"Angiospermas",101,31,3,1,139
"Asteraceae",14,1,0,0,17
"Cactaceae",5,4,1,0,13
"Crassulaceae",0,0,0,0,0
"Euphorbiaceae",2,1,0,0,3
"Fabaceae",17,5,0,0,21
"Fagaceae",0,0,0,0,0
"Lamiaceae",0,0,0,0,0
"Rubiaceae",3,1,0,0,3
"Solanaceae",3,1,0,0,3
"Orchidaceae",5,5,1,1,5
"Asparagaceae",2,1,0,0,2
"Arecaceae",0,0,0,0,0
"Bromeliaceae",7,3,0,0,12
"Poaceae",2,1,0,0,4
"Commelinaceae",0,0,0,0,0
"Rosaceae",2,0,0,0,2
"Burseraceae",2,1,0,0,2
"Apocynaceae",2,1,0,0,2
"Campanulaceae",0,0,0,0,0
"Invertebrados no artrópodos",0,0,0,0,0
"Esponjas de mar",0,0,0,0,0
"Cnidarios",0,0,0,0,0
"Ctenóforos",0,0,0,0,0
"Chaetognatha",0,0,0,0,0
"platelmintos",0,0,0,0,0
"Moluscos",0,0,0,0,0
"Gusanos anélidos",0,0,0,0,0
"Sipuncula",0,0,0,0,0
"Rotifera",0,0,0,0,0
"Acanthocephala",0,0,0,0,0
"Briozoos",0,0,0,0,0
"Brachiopodos",0,0,0,0,0
"Tardigrados",0,0,0,0,0
"Onychophora",0,0,0,0,0
"Equinodermos",0,0,0,0,0
"Urocordados",0,0,0,0,0
"Artrópodos",14,1,1,1,25
"Crustáceos",0,0,0,0,0
"Quelicerados",3,0,0,0,3
"Miriápodos",0,0,0,0,0
"Hexápodos",11,1,1,1,22
"Vertebrados",90,8,14,9,1349
"Peces",0,0,0,0,0
"Anfibios",7,2,2,1,13
"Reptiles",3,1,0,0,6
"Aves",72,4,12,8,1314
"Mamíferos",8,1,0,0,16
