"Grupo","Numero_de_especies_registradas","Numero_de_especies_endemicas","Numero_de_especies_en_la_NOM_059_SEMARNAT_2010","Numero_de_especies_prioritarias","Numero_de_registros"
"Bacterias",0,0,0,0,0
"Algas",0,0,0,0,0
"Hongos",20,0,2,0,23
"Plantas no vasculares",156,0,0,0,557
"Briofitas",152,0,0,0,551
"Anthocerotophyta",0,0,0,0,0
"Marchantiophyta",4,0,0,0,6
"Plantas vasculares",555,130,16,5,1129
"Pteridofitas",0,0,0,0,0
"Gimnospermas",9,6,3,2,53
"Pinaceae",7,5,1,2,28
"Cupressaceae",1,1,1,0,1
"Podocarpaceae",1,0,1,0,24
"Zamiaceae",0,0,0,0,0
"Ephedraceae",0,0,0,0,0
"Taxaceae",0,0,0,0,0
"Angiospermas",506,121,11,2,1008
"Asteraceae",57,13,0,0,98
"Cactaceae",0,0,0,0,0
"Crassulaceae",4,3,0,0,7
"Euphorbiaceae",10,3,0,0,18
"Fabaceae",40,6,1,0,97
"Fagaceae",29,22,0,1,64
"Lamiaceae",15,5,0,0,20
"Rubiaceae",14,2,0,0,26
"Solanaceae",15,5,0,0,40
"Orchidaceae",18,9,2,0,36
"Asparagaceae",2,2,1,0,8
"Arecaceae",1,1,1,0,2
"Bromeliaceae",8,3,1,0,18
"Poaceae",39,7,0,0,70
"Commelinaceae",3,1,0,0,4
"Rosaceae",11,2,0,0,18
"Burseraceae",2,0,0,0,4
"Apocynaceae",5,1,0,0,10
"Campanulaceae",1,0,0,0,5
"Invertebrados no artrópodos",36,0,0,0,91
"Esponjas de mar",0,0,0,0,0
"Cnidarios",0,0,0,0,0
"Ctenóforos",0,0,0,0,0
"Chaetognatha",0,0,0,0,0
"platelmintos",0,0,0,0,0
"Moluscos",36,0,0,0,91
"Gusanos anélidos",0,0,0,0,0
"Sipuncula",0,0,0,0,0
"Rotifera",0,0,0,0,0
"Acanthocephala",0,0,0,0,0
"Briozoos",0,0,0,0,0
"Brachiopodos",0,0,0,0,0
"Tardigrados",0,0,0,0,0
"Onychophora",0,0,0,0,0
"Equinodermos",0,0,0,0,0
"Urocordados",0,0,0,0,0
"Artrópodos",261,28,1,1,674
"Crustáceos",4,0,0,0,7
"Quelicerados",5,0,0,0,5
"Miriápodos",0,0,0,0,0
"Hexápodos",252,28,1,1,662
"Vertebrados",188,62,60,12,1202
"Peces",8,0,0,0,16
"Anfibios",35,25,19,2,420
"Reptiles",38,22,17,0,235
"Aves",77,5,19,9,254
"Mamíferos",30,10,5,1,277
