"Grupo","Numero_de_especies_registradas","Numero_de_especies_endemicas","Numero_de_especies_en_la_NOM_059_SEMARNAT_2010","Numero_de_especies_prioritarias","Numero_de_registros"
"Bacterias",1,0,0,0,1
"Algas",87,4,0,0,127
"Hongos",1,0,0,0,1
"Plantas no vasculares",0,0,0,0,0
"Briofitas",0,0,0,0,0
"Anthocerotophyta",0,0,0,0,0
"Marchantiophyta",0,0,0,0,0
"Plantas vasculares",374,91,12,7,2854
"Pteridofitas",0,0,0,0,0
"Gimnospermas",2,0,0,0,10
"Pinaceae",0,0,0,0,0
"Cupressaceae",0,0,0,0,0
"Podocarpaceae",0,0,0,0,0
"Zamiaceae",0,0,0,0,0
"Ephedraceae",2,0,0,0,10
"Taxaceae",0,0,0,0,0
"Angiospermas",367,91,12,7,2828
"Asteraceae",49,7,0,0,358
"Cactaceae",25,15,3,1,368
"Crassulaceae",0,0,0,0,0
"Euphorbiaceae",26,14,0,0,192
"Fabaceae",26,2,1,2,291
"Fagaceae",0,0,0,0,0
"Lamiaceae",3,2,0,0,39
"Rubiaceae",5,2,2,0,60
"Solanaceae",11,0,0,0,42
"Orchidaceae",0,0,0,0,0
"Asparagaceae",2,1,0,0,9
"Arecaceae",2,1,0,0,2
"Bromeliaceae",0,0,0,0,0
"Poaceae",26,4,0,0,217
"Commelinaceae",0,0,0,0,0
"Rosaceae",0,0,0,0,0
"Burseraceae",5,3,0,0,94
"Apocynaceae",14,4,0,0,61
"Campanulaceae",0,0,0,0,0
"Invertebrados no artrópodos",306,1,1,0,1453
"Esponjas de mar",12,0,0,0,16
"Cnidarios",29,0,1,0,184
"Ctenóforos",1,0,0,0,1
"Chaetognatha",0,0,0,0,0
"platelmintos",7,0,0,0,8
"Moluscos",164,1,0,0,1071
"Gusanos anélidos",91,0,0,0,164
"Sipuncula",0,0,0,0,0
"Rotifera",0,0,0,0,0
"Acanthocephala",1,0,0,0,1
"Briozoos",0,0,0,0,0
"Brachiopodos",0,0,0,0,0
"Tardigrados",0,0,0,0,0
"Onychophora",0,0,0,0,0
"Equinodermos",1,0,0,0,8
"Urocordados",0,0,0,0,0
"Artrópodos",222,1,0,0,881
"Crustáceos",165,0,0,0,760
"Quelicerados",18,0,0,0,25
"Miriápodos",0,0,0,0,0
"Hexápodos",39,1,0,0,96
"Vertebrados",580,40,95,43,9883
"Peces",343,0,6,8,2269
"Anfibios",7,0,2,1,443
"Reptiles",76,28,48,9,3090
"Aves",131,6,23,20,3732
"Mamíferos",23,6,16,5,349
