"Grupo","Numero_de_especies_registradas","Numero_de_especies_endemicas","Numero_de_especies_en_la_NOM_059_SEMARNAT_2010","Numero_de_especies_prioritarias","Numero_de_registros"
"Bacterias",0,0,0,0,0
"Algas",0,0,0,0,0
"Hongos",4,0,0,0,4
"Plantas no vasculares",16,0,0,0,20
"Briofitas",15,0,0,0,19
"Anthocerotophyta",0,0,0,0,0
"Marchantiophyta",1,0,0,0,1
"Plantas vasculares",1761,265,48,17,5552
"Pteridofitas",1,0,1,0,3
"Gimnospermas",12,4,6,7,73
"Pinaceae",5,0,0,1,33
"Cupressaceae",1,0,0,1,2
"Podocarpaceae",0,0,0,0,0
"Zamiaceae",6,4,6,5,38
"Ephedraceae",0,0,0,0,0
"Taxaceae",0,0,0,0,0
"Angiospermas",1567,253,36,8,5049
"Asteraceae",168,23,0,0,506
"Cactaceae",9,1,0,0,23
"Crassulaceae",2,2,0,0,2
"Euphorbiaceae",53,12,2,0,159
"Fabaceae",199,22,6,0,703
"Fagaceae",13,6,0,1,81
"Lamiaceae",19,5,0,0,62
"Rubiaceae",56,9,0,0,159
"Solanaceae",36,3,0,0,117
"Orchidaceae",91,43,4,2,183
"Asparagaceae",9,6,2,0,18
"Arecaceae",13,4,8,1,39
"Bromeliaceae",40,18,5,0,120
"Poaceae",82,16,0,0,248
"Commelinaceae",11,0,0,0,39
"Rosaceae",6,1,0,0,10
"Burseraceae",6,3,0,0,38
"Apocynaceae",41,5,0,0,118
"Campanulaceae",2,0,0,0,4
"Invertebrados no artrópodos",0,0,0,0,0
"Esponjas de mar",0,0,0,0,0
"Cnidarios",0,0,0,0,0
"Ctenóforos",0,0,0,0,0
"Chaetognatha",0,0,0,0,0
"platelmintos",0,0,0,0,0
"Moluscos",0,0,0,0,0
"Gusanos anélidos",0,0,0,0,0
"Sipuncula",0,0,0,0,0
"Rotifera",0,0,0,0,0
"Acanthocephala",0,0,0,0,0
"Briozoos",0,0,0,0,0
"Brachiopodos",0,0,0,0,0
"Tardigrados",0,0,0,0,0
"Onychophora",0,0,0,0,0
"Equinodermos",0,0,0,0,0
"Urocordados",0,0,0,0,0
"Artrópodos",223,14,0,0,478
"Crustáceos",2,0,0,0,3
"Quelicerados",6,0,0,0,9
"Miriápodos",1,0,0,0,1
"Hexápodos",214,14,0,0,465
"Vertebrados",433,55,143,34,5655
"Peces",17,0,4,3,52
"Anfibios",55,17,21,0,1020
"Reptiles",102,24,40,7,1207
"Aves",155,5,61,17,2167
"Mamíferos",104,9,17,7,1209
