"Grupo","Numero_de_especies_registradas","Numero_de_especies_endemicas","Numero_de_especies_en_la_NOM_059_SEMARNAT_2010","Numero_de_especies_prioritarias","Numero_de_registros"
"Bacterias",1,0,0,0,2
"Algas",1,0,0,0,1
"Hongos",45,0,1,0,63
"Plantas no vasculares",38,0,0,0,54
"Briofitas",37,0,0,0,53
"Anthocerotophyta",0,0,0,0,0
"Marchantiophyta",1,0,0,0,1
"Plantas vasculares",1334,472,36,13,5738
"Pteridofitas",0,0,0,0,0
"Gimnospermas",31,11,7,6,399
"Pinaceae",17,8,5,5,343
"Cupressaceae",10,2,1,1,45
"Podocarpaceae",0,0,0,0,0
"Zamiaceae",0,0,0,0,0
"Ephedraceae",3,1,0,0,9
"Taxaceae",1,0,1,0,2
"Angiospermas",1260,457,29,7,5179
"Asteraceae",262,109,0,0,1171
"Cactaceae",48,30,18,4,257
"Crassulaceae",23,13,0,0,100
"Euphorbiaceae",30,14,0,0,108
"Fabaceae",88,27,0,1,340
"Fagaceae",33,28,0,1,177
"Lamiaceae",39,20,0,0,167
"Rubiaceae",17,0,0,0,43
"Solanaceae",28,8,0,0,71
"Orchidaceae",12,6,0,0,23
"Asparagaceae",30,22,4,1,128
"Arecaceae",1,1,1,0,2
"Bromeliaceae",6,2,0,0,21
"Poaceae",112,24,0,0,379
"Commelinaceae",12,9,0,0,35
"Rosaceae",32,9,0,0,137
"Burseraceae",1,0,0,0,1
"Apocynaceae",16,3,0,0,31
"Campanulaceae",7,2,0,0,25
"Invertebrados no artrópodos",11,0,0,0,11
"Esponjas de mar",0,0,0,0,0
"Cnidarios",0,0,0,0,0
"Ctenóforos",0,0,0,0,0
"Chaetognatha",0,0,0,0,0
"platelmintos",0,0,0,0,0
"Moluscos",11,0,0,0,11
"Gusanos anélidos",0,0,0,0,0
"Sipuncula",0,0,0,0,0
"Rotifera",0,0,0,0,0
"Acanthocephala",0,0,0,0,0
"Briozoos",0,0,0,0,0
"Brachiopodos",0,0,0,0,0
"Tardigrados",0,0,0,0,0
"Onychophora",0,0,0,0,0
"Equinodermos",0,0,0,0,0
"Urocordados",0,0,0,0,0
"Artrópodos",109,1,1,1,269
"Crustáceos",1,0,0,0,1
"Quelicerados",2,0,0,0,3
"Miriápodos",1,0,0,0,2
"Hexápodos",105,1,1,1,263
"Vertebrados",182,41,54,11,2013
"Peces",16,0,8,0,97
"Anfibios",12,4,3,0,146
"Reptiles",48,20,18,0,438
"Aves",73,9,18,8,1085
"Mamíferos",33,8,7,3,247
