"Grupo","Numero_de_especies_registradas","Numero_de_especies_endemicas","Numero_de_especies_en_la_NOM_059_SEMARNAT_2010","Numero_de_especies_prioritarias","Numero_de_registros"
"Bacterias",0,0,0,0,0
"Algas",0,0,0,0,0
"Hongos",414,0,9,0,1610
"Plantas no vasculares",81,0,1,0,189
"Briofitas",79,0,1,0,186
"Anthocerotophyta",0,0,0,0,0
"Marchantiophyta",2,0,0,0,3
"Plantas vasculares",2927,1198,65,28,17000
"Pteridofitas",0,0,0,0,0
"Gimnospermas",31,16,8,5,2142
"Pinaceae",22,12,4,4,1874
"Cupressaceae",6,2,1,0,248
"Podocarpaceae",1,0,1,0,5
"Zamiaceae",2,2,2,1,15
"Ephedraceae",0,0,0,0,0
"Taxaceae",0,0,0,0,0
"Angiospermas",2828,1175,54,23,14643
"Asteraceae",491,259,1,0,2249
"Cactaceae",46,34,6,6,202
"Crassulaceae",17,14,0,0,33
"Euphorbiaceae",75,41,1,0,263
"Fabaceae",302,93,2,2,1032
"Fagaceae",43,33,0,2,1640
"Lamiaceae",73,47,0,0,320
"Rubiaceae",60,18,2,0,271
"Solanaceae",63,19,0,0,423
"Orchidaceae",68,43,7,4,160
"Asparagaceae",47,39,8,1,216
"Arecaceae",4,3,1,0,7
"Bromeliaceae",17,10,0,0,47
"Poaceae",278,101,3,0,2236
"Commelinaceae",28,14,0,0,119
"Rosaceae",23,7,0,0,81
"Burseraceae",16,9,1,1,156
"Apocynaceae",48,21,1,0,167
"Campanulaceae",16,4,0,0,147
"Invertebrados no artrópodos",18,0,0,0,34
"Esponjas de mar",0,0,0,0,0
"Cnidarios",1,0,0,0,1
"Ctenóforos",0,0,0,0,0
"Chaetognatha",0,0,0,0,0
"platelmintos",3,0,0,0,14
"Moluscos",10,0,0,0,12
"Gusanos anélidos",2,0,0,0,2
"Sipuncula",0,0,0,0,0
"Rotifera",0,0,0,0,0
"Acanthocephala",2,0,0,0,5
"Briozoos",0,0,0,0,0
"Brachiopodos",0,0,0,0,0
"Tardigrados",0,0,0,0,0
"Onychophora",0,0,0,0,0
"Equinodermos",0,0,0,0,0
"Urocordados",0,0,0,0,0
"Artrópodos",502,42,2,1,4353
"Crustáceos",31,0,0,0,210
"Quelicerados",13,0,1,0,22
"Miriápodos",1,0,0,0,1
"Hexápodos",457,42,1,1,4120
"Vertebrados",528,130,118,47,5660
"Peces",65,0,5,5,511
"Anfibios",38,23,12,1,304
"Reptiles",93,52,42,3,593
"Aves",203,26,48,29,3220
"Mamíferos",129,29,11,9,1032
