"Grupo","Numero_de_especies_registradas","Numero_de_especies_endemicas","Numero_de_especies_en_la_NOM_059_SEMARNAT_2010","Numero_de_especies_prioritarias","Numero_de_registros"
"Bacterias",18,0,0,0,49
"Algas",91,0,0,0,367
"Hongos",0,0,0,0,0
"Plantas no vasculares",0,0,0,0,0
"Briofitas",0,0,0,0,0
"Anthocerotophyta",0,0,0,0,0
"Marchantiophyta",0,0,0,0,0
"Plantas vasculares",54,2,5,4,255
"Pteridofitas",0,0,0,0,0
"Gimnospermas",0,0,0,0,0
"Pinaceae",0,0,0,0,0
"Cupressaceae",0,0,0,0,0
"Podocarpaceae",0,0,0,0,0
"Zamiaceae",0,0,0,0,0
"Ephedraceae",0,0,0,0,0
"Taxaceae",0,0,0,0,0
"Angiospermas",54,2,5,4,255
"Asteraceae",4,0,0,0,13
"Cactaceae",0,0,0,0,0
"Crassulaceae",0,0,0,0,0
"Euphorbiaceae",3,1,0,0,13
"Fabaceae",1,0,0,0,10
"Fagaceae",0,0,0,0,0
"Lamiaceae",0,0,0,0,0
"Rubiaceae",4,0,0,0,14
"Solanaceae",0,0,0,0,0
"Orchidaceae",0,0,0,0,0
"Asparagaceae",1,0,0,0,1
"Arecaceae",0,0,0,0,0
"Bromeliaceae",0,0,0,0,0
"Poaceae",8,0,0,0,25
"Commelinaceae",0,0,0,0,0
"Rosaceae",0,0,0,0,0
"Burseraceae",0,0,0,0,0
"Apocynaceae",2,0,0,0,3
"Campanulaceae",0,0,0,0,0
"Invertebrados no artrópodos",259,0,8,2,1097
"Esponjas de mar",1,0,0,0,1
"Cnidarios",83,0,8,2,790
"Ctenóforos",0,0,0,0,0
"Chaetognatha",9,0,0,0,9
"platelmintos",2,0,0,0,2
"Moluscos",128,0,0,0,240
"Gusanos anélidos",34,0,0,0,53
"Sipuncula",0,0,0,0,0
"Rotifera",0,0,0,0,0
"Acanthocephala",0,0,0,0,0
"Briozoos",0,0,0,0,0
"Brachiopodos",0,0,0,0,0
"Tardigrados",0,0,0,0,0
"Onychophora",0,0,0,0,0
"Equinodermos",1,0,0,0,1
"Urocordados",1,0,0,0,1
"Artrópodos",100,0,0,0,209
"Crustáceos",100,0,0,0,209
"Quelicerados",0,0,0,0,0
"Miriápodos",0,0,0,0,0
"Hexápodos",0,0,0,0,0
"Vertebrados",247,0,29,16,2469
"Peces",169,0,8,5,903
"Anfibios",0,0,0,0,0
"Reptiles",10,0,7,4,87
"Aves",66,0,12,6,1477
"Mamíferos",2,0,2,1,2
