"Grupo","Numero_de_especies_registradas","Numero_de_especies_endemicas","Numero_de_especies_en_la_NOM_059_SEMARNAT_2010","Numero_de_especies_prioritarias","Numero_de_registros"
"Bacterias",20,0,0,0,180
"Algas",124,0,0,0,329
"Hongos",3,0,0,0,15
"Plantas no vasculares",17,0,0,0,58
"Briofitas",17,0,0,0,58
"Anthocerotophyta",0,0,0,0,0
"Marchantiophyta",0,0,0,0,0
"Plantas vasculares",90,7,5,2,160
"Pteridofitas",0,0,0,0,0
"Gimnospermas",0,0,0,0,0
"Pinaceae",0,0,0,0,0
"Cupressaceae",0,0,0,0,0
"Podocarpaceae",0,0,0,0,0
"Zamiaceae",0,0,0,0,0
"Ephedraceae",0,0,0,0,0
"Taxaceae",0,0,0,0,0
"Angiospermas",90,7,5,2,160
"Asteraceae",6,1,0,0,15
"Cactaceae",0,0,0,0,0
"Crassulaceae",0,0,0,0,0
"Euphorbiaceae",4,0,0,0,7
"Fabaceae",10,2,0,0,18
"Fagaceae",0,0,0,0,0
"Lamiaceae",2,0,0,0,3
"Rubiaceae",4,0,0,0,6
"Solanaceae",2,0,0,0,4
"Orchidaceae",1,0,0,0,1
"Asparagaceae",0,0,0,0,0
"Arecaceae",3,0,1,0,4
"Bromeliaceae",0,0,0,0,0
"Poaceae",6,0,0,0,6
"Commelinaceae",0,0,0,0,0
"Rosaceae",0,0,0,0,0
"Burseraceae",1,0,0,0,3
"Apocynaceae",7,1,0,0,13
"Campanulaceae",0,0,0,0,0
"Invertebrados no artrópodos",38,0,1,0,43
"Esponjas de mar",2,0,0,0,2
"Cnidarios",13,0,1,0,15
"Ctenóforos",0,0,0,0,0
"Chaetognatha",0,0,0,0,0
"platelmintos",0,0,0,0,0
"Moluscos",19,0,0,0,22
"Gusanos anélidos",4,0,0,0,4
"Sipuncula",0,0,0,0,0
"Rotifera",0,0,0,0,0
"Acanthocephala",0,0,0,0,0
"Briozoos",0,0,0,0,0
"Brachiopodos",0,0,0,0,0
"Tardigrados",0,0,0,0,0
"Onychophora",0,0,0,0,0
"Equinodermos",0,0,0,0,0
"Urocordados",0,0,0,0,0
"Artrópodos",17,0,0,0,29
"Crustáceos",9,0,0,0,11
"Quelicerados",1,0,0,0,1
"Miriápodos",0,0,0,0,0
"Hexápodos",7,0,0,0,17
"Vertebrados",206,9,38,19,1676
"Peces",79,0,3,2,127
"Anfibios",3,0,0,0,34
"Reptiles",21,1,14,7,155
"Aves",95,5,15,9,1334
"Mamíferos",8,3,6,1,26
