"Grupo","Numero_de_especies_registradas","Numero_de_especies_endemicas","Numero_de_especies_en_la_NOM_059_SEMARNAT_2010","Numero_de_especies_prioritarias","Numero_de_registros"
"Bacterias",0,0,0,0,0
"Algas",0,0,0,0,0
"Hongos",4,0,0,0,4
"Plantas no vasculares",0,0,0,0,0
"Briofitas",0,0,0,0,0
"Anthocerotophyta",0,0,0,0,0
"Marchantiophyta",0,0,0,0,0
"Plantas vasculares",131,19,8,2,206
"Pteridofitas",0,0,0,0,0
"Gimnospermas",1,1,1,0,1
"Pinaceae",0,0,0,0,0
"Cupressaceae",0,0,0,0,0
"Podocarpaceae",0,0,0,0,0
"Zamiaceae",1,1,1,0,1
"Ephedraceae",0,0,0,0,0
"Taxaceae",0,0,0,0,0
"Angiospermas",129,17,7,2,204
"Asteraceae",4,0,0,0,6
"Cactaceae",4,0,0,0,6
"Crassulaceae",0,0,0,0,0
"Euphorbiaceae",8,3,1,0,12
"Fabaceae",14,3,0,0,19
"Fagaceae",0,0,0,0,0
"Lamiaceae",0,0,0,0,0
"Rubiaceae",5,0,0,0,8
"Solanaceae",1,0,0,0,1
"Orchidaceae",1,0,0,0,1
"Asparagaceae",1,1,0,0,2
"Arecaceae",1,1,1,0,1
"Bromeliaceae",4,0,0,0,4
"Poaceae",3,0,0,0,3
"Commelinaceae",1,0,0,0,3
"Rosaceae",0,0,0,0,0
"Burseraceae",0,0,0,0,0
"Apocynaceae",3,0,0,0,10
"Campanulaceae",0,0,0,0,0
"Invertebrados no artrópodos",2,0,0,0,5
"Esponjas de mar",0,0,0,0,0
"Cnidarios",0,0,0,0,0
"Ctenóforos",0,0,0,0,0
"Chaetognatha",0,0,0,0,0
"platelmintos",0,0,0,0,0
"Moluscos",2,0,0,0,5
"Gusanos anélidos",0,0,0,0,0
"Sipuncula",0,0,0,0,0
"Rotifera",0,0,0,0,0
"Acanthocephala",0,0,0,0,0
"Briozoos",0,0,0,0,0
"Brachiopodos",0,0,0,0,0
"Tardigrados",0,0,0,0,0
"Onychophora",0,0,0,0,0
"Equinodermos",0,0,0,0,0
"Urocordados",0,0,0,0,0
"Artrópodos",39,0,0,0,63
"Crustáceos",0,0,0,0,0
"Quelicerados",3,0,0,0,3
"Miriápodos",0,0,0,0,0
"Hexápodos",36,0,0,0,60
"Vertebrados",31,11,8,1,40
"Peces",1,0,0,0,1
"Anfibios",4,0,0,0,5
"Reptiles",19,10,8,1,23
"Aves",1,1,0,0,1
"Mamíferos",6,0,0,0,10
