"Grupo","Numero_de_especies_registradas","Numero_de_especies_endemicas","Numero_de_especies_en_la_NOM_059_SEMARNAT_2010","Numero_de_especies_prioritarias","Numero_de_registros"
"Bacterias",4,0,0,0,8
"Algas",180,2,0,0,492
"Hongos",0,0,0,0,0
"Plantas no vasculares",0,0,0,0,0
"Briofitas",0,0,0,0,0
"Anthocerotophyta",0,0,0,0,0
"Marchantiophyta",0,0,0,0,0
"Plantas vasculares",191,51,7,7,413
"Pteridofitas",0,0,0,0,0
"Gimnospermas",0,0,0,0,0
"Pinaceae",0,0,0,0,0
"Cupressaceae",0,0,0,0,0
"Podocarpaceae",0,0,0,0,0
"Zamiaceae",0,0,0,0,0
"Ephedraceae",0,0,0,0,0
"Taxaceae",0,0,0,0,0
"Angiospermas",189,51,7,7,410
"Asteraceae",18,2,0,0,31
"Cactaceae",9,8,1,1,26
"Crassulaceae",1,0,0,0,1
"Euphorbiaceae",16,7,0,0,43
"Fabaceae",20,4,1,1,56
"Fagaceae",0,0,0,0,0
"Lamiaceae",2,2,0,0,4
"Rubiaceae",3,1,0,0,6
"Solanaceae",6,0,0,0,8
"Orchidaceae",0,0,0,0,0
"Asparagaceae",1,1,0,0,3
"Arecaceae",0,0,0,0,0
"Bromeliaceae",0,0,0,0,0
"Poaceae",16,2,0,0,42
"Commelinaceae",0,0,0,0,0
"Rosaceae",0,0,0,0,0
"Burseraceae",3,2,0,0,7
"Apocynaceae",4,1,0,0,5
"Campanulaceae",0,0,0,0,0
"Invertebrados no artrópodos",251,0,1,0,801
"Esponjas de mar",17,0,0,0,26
"Cnidarios",28,0,1,0,109
"Ctenóforos",0,0,0,0,0
"Chaetognatha",0,0,0,0,0
"platelmintos",1,0,0,0,1
"Moluscos",136,0,0,0,414
"Gusanos anélidos",67,0,0,0,247
"Sipuncula",2,0,0,0,4
"Rotifera",0,0,0,0,0
"Acanthocephala",0,0,0,0,0
"Briozoos",0,0,0,0,0
"Brachiopodos",0,0,0,0,0
"Tardigrados",0,0,0,0,0
"Onychophora",0,0,0,0,0
"Equinodermos",0,0,0,0,0
"Urocordados",0,0,0,0,0
"Artrópodos",34,0,0,0,53
"Crustáceos",33,0,0,0,52
"Quelicerados",0,0,0,0,0
"Miriápodos",0,0,0,0,0
"Hexápodos",1,0,0,0,1
"Vertebrados",443,13,49,23,1869
"Peces",332,0,8,6,1179
"Anfibios",0,0,0,0,0
"Reptiles",17,7,14,4,124
"Aves",75,4,14,9,449
"Mamíferos",19,2,13,4,117
