"Grupo","Numero_de_especies_registradas","Numero_de_especies_endemicas","Numero_de_especies_en_la_NOM_059_SEMARNAT_2010","Numero_de_especies_prioritarias","Numero_de_registros"
"Bacterias",0,0,0,0,0
"Algas",220,0,0,0,821
"Hongos",16,0,0,0,21
"Plantas no vasculares",0,0,0,0,0
"Briofitas",0,0,0,0,0
"Anthocerotophyta",0,0,0,0,0
"Marchantiophyta",0,0,0,0,0
"Plantas vasculares",104,22,4,2,169
"Pteridofitas",0,0,0,0,0
"Gimnospermas",1,1,1,0,1
"Pinaceae",0,0,0,0,0
"Cupressaceae",0,0,0,0,0
"Podocarpaceae",0,0,0,0,0
"Zamiaceae",1,1,1,0,1
"Ephedraceae",0,0,0,0,0
"Taxaceae",0,0,0,0,0
"Angiospermas",99,20,3,2,164
"Asteraceae",4,2,0,0,4
"Cactaceae",0,0,0,0,0
"Crassulaceae",0,0,0,0,0
"Euphorbiaceae",10,5,0,0,13
"Fabaceae",26,3,0,0,46
"Fagaceae",0,0,0,0,0
"Lamiaceae",1,1,0,0,1
"Rubiaceae",2,1,0,0,2
"Solanaceae",2,0,0,0,2
"Orchidaceae",0,0,0,0,0
"Asparagaceae",0,0,0,0,0
"Arecaceae",0,0,0,0,0
"Bromeliaceae",0,0,0,0,0
"Poaceae",12,1,0,0,48
"Commelinaceae",1,0,0,0,1
"Rosaceae",0,0,0,0,0
"Burseraceae",0,0,0,0,0
"Apocynaceae",1,0,0,0,1
"Campanulaceae",0,0,0,0,0
"Invertebrados no artrópodos",116,0,0,0,332
"Esponjas de mar",4,0,0,0,9
"Cnidarios",45,0,0,0,70
"Ctenóforos",0,0,0,0,0
"Chaetognatha",6,0,0,0,6
"platelmintos",1,0,0,0,1
"Moluscos",48,0,0,0,226
"Gusanos anélidos",4,0,0,0,7
"Sipuncula",0,0,0,0,0
"Rotifera",0,0,0,0,0
"Acanthocephala",0,0,0,0,0
"Briozoos",0,0,0,0,0
"Brachiopodos",0,0,0,0,0
"Tardigrados",0,0,0,0,0
"Onychophora",0,0,0,0,0
"Equinodermos",0,0,0,0,0
"Urocordados",8,0,0,0,13
"Artrópodos",111,0,0,0,164
"Crustáceos",97,0,0,0,132
"Quelicerados",2,0,0,0,2
"Miriápodos",0,0,0,0,0
"Hexápodos",12,0,0,0,30
"Vertebrados",406,9,37,21,2560
"Peces",308,0,3,1,1754
"Anfibios",0,0,0,0,0
"Reptiles",9,2,7,4,12
"Aves",60,4,14,11,258
"Mamíferos",29,3,13,5,536
