"Grupo","Numero_de_especies_registradas","Numero_de_especies_endemicas","Numero_de_especies_en_la_NOM_059_SEMARNAT_2010","Numero_de_especies_prioritarias","Numero_de_registros"
"Bacterias",0,0,0,0,0
"Algas",0,0,0,0,0
"Hongos",0,0,0,0,0
"Plantas no vasculares",1,0,0,0,1
"Briofitas",1,0,0,0,1
"Anthocerotophyta",0,0,0,0,0
"Marchantiophyta",0,0,0,0,0
"Plantas vasculares",170,65,3,9,306
"Pteridofitas",0,0,0,0,0
"Gimnospermas",3,0,0,2,3
"Pinaceae",3,0,0,2,3
"Cupressaceae",0,0,0,0,0
"Podocarpaceae",0,0,0,0,0
"Zamiaceae",0,0,0,0,0
"Ephedraceae",0,0,0,0,0
"Taxaceae",0,0,0,0,0
"Angiospermas",165,65,3,7,301
"Asteraceae",27,6,0,0,41
"Cactaceae",27,22,3,5,99
"Crassulaceae",6,4,0,0,9
"Euphorbiaceae",5,1,0,0,9
"Fabaceae",6,0,0,1,10
"Fagaceae",11,9,0,1,17
"Lamiaceae",2,1,0,0,2
"Rubiaceae",0,0,0,0,0
"Solanaceae",4,1,0,0,6
"Orchidaceae",1,1,0,0,2
"Asparagaceae",11,9,0,0,18
"Arecaceae",0,0,0,0,0
"Bromeliaceae",3,1,0,0,3
"Poaceae",9,0,0,0,9
"Commelinaceae",0,0,0,0,0
"Rosaceae",1,0,0,0,1
"Burseraceae",1,0,0,0,1
"Apocynaceae",0,0,0,0,0
"Campanulaceae",1,0,0,0,1
"Invertebrados no artrópodos",0,0,0,0,0
"Esponjas de mar",0,0,0,0,0
"Cnidarios",0,0,0,0,0
"Ctenóforos",0,0,0,0,0
"Chaetognatha",0,0,0,0,0
"platelmintos",0,0,0,0,0
"Moluscos",0,0,0,0,0
"Gusanos anélidos",0,0,0,0,0
"Sipuncula",0,0,0,0,0
"Rotifera",0,0,0,0,0
"Acanthocephala",0,0,0,0,0
"Briozoos",0,0,0,0,0
"Brachiopodos",0,0,0,0,0
"Tardigrados",0,0,0,0,0
"Onychophora",0,0,0,0,0
"Equinodermos",0,0,0,0,0
"Urocordados",0,0,0,0,0
"Artrópodos",22,1,0,0,31
"Crustáceos",6,0,0,0,7
"Quelicerados",0,0,0,0,0
"Miriápodos",0,0,0,0,0
"Hexápodos",16,1,0,0,24
"Vertebrados",56,13,11,1,142
"Peces",9,0,1,0,23
"Anfibios",9,3,2,0,27
"Reptiles",12,7,4,0,54
"Aves",17,2,4,1,26
"Mamíferos",9,1,0,0,12
