"Grupo","Numero_de_especies_registradas","Numero_de_especies_endemicas","Numero_de_especies_en_la_NOM_059_SEMARNAT_2010","Numero_de_especies_prioritarias","Numero_de_registros"
"Bacterias",0,0,0,0,0
"Algas",0,0,0,0,0
"Hongos",10,0,0,0,12
"Plantas no vasculares",36,0,0,0,102
"Briofitas",36,0,0,0,102
"Anthocerotophyta",0,0,0,0,0
"Marchantiophyta",0,0,0,0,0
"Plantas vasculares",713,200,19,11,1462
"Pteridofitas",0,0,0,0,0
"Gimnospermas",7,3,3,4,35
"Pinaceae",3,1,0,0,11
"Cupressaceae",1,0,0,1,8
"Podocarpaceae",0,0,0,0,0
"Zamiaceae",3,2,3,3,16
"Ephedraceae",0,0,0,0,0
"Taxaceae",0,0,0,0,0
"Angiospermas",639,190,16,7,1327
"Asteraceae",84,26,1,0,151
"Cactaceae",28,17,6,2,73
"Crassulaceae",9,7,0,0,27
"Euphorbiaceae",31,10,0,0,84
"Fabaceae",66,9,1,1,139
"Fagaceae",19,11,0,0,48
"Lamiaceae",14,5,0,0,34
"Rubiaceae",8,1,0,0,16
"Solanaceae",12,2,0,0,20
"Orchidaceae",14,7,3,3,18
"Asparagaceae",17,11,1,0,38
"Arecaceae",5,4,3,0,28
"Bromeliaceae",6,2,0,0,8
"Poaceae",53,10,0,0,132
"Commelinaceae",5,3,0,0,10
"Rosaceae",2,0,0,0,2
"Burseraceae",0,0,0,0,0
"Apocynaceae",11,4,0,0,30
"Campanulaceae",6,2,0,0,18
"Invertebrados no artrópodos",10,0,0,0,12
"Esponjas de mar",0,0,0,0,0
"Cnidarios",0,0,0,0,0
"Ctenóforos",0,0,0,0,0
"Chaetognatha",0,0,0,0,0
"platelmintos",0,0,0,0,0
"Moluscos",9,0,0,0,11
"Gusanos anélidos",0,0,0,0,0
"Sipuncula",0,0,0,0,0
"Rotifera",0,0,0,0,0
"Acanthocephala",0,0,0,0,0
"Briozoos",0,0,0,0,0
"Brachiopodos",0,0,0,0,0
"Tardigrados",0,0,0,0,0
"Onychophora",0,0,0,0,0
"Equinodermos",1,0,0,0,1
"Urocordados",0,0,0,0,0
"Artrópodos",242,2,1,1,516
"Crustáceos",0,0,0,0,0
"Quelicerados",9,0,0,0,18
"Miriápodos",0,0,0,0,0
"Hexápodos",233,2,1,1,498
"Vertebrados",176,23,53,16,817
"Peces",11,0,3,1,37
"Anfibios",12,4,3,0,55
"Reptiles",35,9,10,1,125
"Aves",90,8,34,13,490
"Mamíferos",28,2,3,1,110
