"Grupo","Numero_de_especies_registradas","Numero_de_especies_endemicas","Numero_de_especies_en_la_NOM_059_SEMARNAT_2010","Numero_de_especies_prioritarias","Numero_de_registros"
"Bacterias",0,0,0,0,0
"Algas",0,0,0,0,0
"Hongos",0,0,0,0,0
"Plantas no vasculares",0,0,0,0,0
"Briofitas",0,0,0,0,0
"Anthocerotophyta",0,0,0,0,0
"Marchantiophyta",0,0,0,0,0
"Plantas vasculares",34,6,0,1,44
"Pteridofitas",0,0,0,0,0
"Gimnospermas",0,0,0,0,0
"Pinaceae",0,0,0,0,0
"Cupressaceae",0,0,0,0,0
"Podocarpaceae",0,0,0,0,0
"Zamiaceae",0,0,0,0,0
"Ephedraceae",0,0,0,0,0
"Taxaceae",0,0,0,0,0
"Angiospermas",33,6,0,1,43
"Asteraceae",5,1,0,0,5
"Cactaceae",1,1,0,1,2
"Crassulaceae",0,0,0,0,0
"Euphorbiaceae",3,0,0,0,7
"Fabaceae",2,0,0,0,2
"Fagaceae",3,2,0,0,6
"Lamiaceae",1,0,0,0,1
"Rubiaceae",1,0,0,0,1
"Solanaceae",1,0,0,0,1
"Orchidaceae",0,0,0,0,0
"Asparagaceae",0,0,0,0,0
"Arecaceae",0,0,0,0,0
"Bromeliaceae",0,0,0,0,0
"Poaceae",3,1,0,0,3
"Commelinaceae",0,0,0,0,0
"Rosaceae",0,0,0,0,0
"Burseraceae",1,0,0,0,1
"Apocynaceae",2,1,0,0,2
"Campanulaceae",0,0,0,0,0
"Invertebrados no artrópodos",0,0,0,0,0
"Esponjas de mar",0,0,0,0,0
"Cnidarios",0,0,0,0,0
"Ctenóforos",0,0,0,0,0
"Chaetognatha",0,0,0,0,0
"platelmintos",0,0,0,0,0
"Moluscos",0,0,0,0,0
"Gusanos anélidos",0,0,0,0,0
"Sipuncula",0,0,0,0,0
"Rotifera",0,0,0,0,0
"Acanthocephala",0,0,0,0,0
"Briozoos",0,0,0,0,0
"Brachiopodos",0,0,0,0,0
"Tardigrados",0,0,0,0,0
"Onychophora",0,0,0,0,0
"Equinodermos",0,0,0,0,0
"Urocordados",0,0,0,0,0
"Artrópodos",5,0,0,0,5
"Crustáceos",0,0,0,0,0
"Quelicerados",2,0,0,0,2
"Miriápodos",0,0,0,0,0
"Hexápodos",3,0,0,0,3
"Vertebrados",51,4,10,4,118
"Peces",5,0,4,0,6
"Anfibios",3,0,0,0,3
"Reptiles",4,2,4,0,5
"Aves",33,2,2,4,97
"Mamíferos",6,0,0,0,7
