"Grupo","Numero_de_especies_registradas","Numero_de_especies_endemicas","Numero_de_especies_en_la_NOM_059_SEMARNAT_2010","Numero_de_especies_prioritarias","Numero_de_registros"
"Bacterias",0,0,0,0,0
"Algas",0,0,0,0,0
"Hongos",21,0,2,0,30
"Plantas no vasculares",2,0,0,0,2
"Briofitas",2,0,0,0,2
"Anthocerotophyta",0,0,0,0,0
"Marchantiophyta",0,0,0,0,0
"Plantas vasculares",212,60,5,2,363
"Pteridofitas",0,0,0,0,0
"Gimnospermas",6,3,2,2,34
"Pinaceae",5,2,1,2,33
"Cupressaceae",1,1,1,0,1
"Podocarpaceae",0,0,0,0,0
"Zamiaceae",0,0,0,0,0
"Ephedraceae",0,0,0,0,0
"Taxaceae",0,0,0,0,0
"Angiospermas",197,57,3,0,313
"Asteraceae",24,9,1,0,30
"Cactaceae",1,1,0,0,9
"Crassulaceae",2,2,0,0,3
"Euphorbiaceae",4,0,0,0,6
"Fabaceae",11,1,0,0,18
"Fagaceae",0,0,0,0,0
"Lamiaceae",10,6,0,0,20
"Rubiaceae",3,1,0,0,3
"Solanaceae",9,6,0,0,30
"Orchidaceae",14,9,1,0,21
"Asparagaceae",1,0,0,0,1
"Arecaceae",0,0,0,0,0
"Bromeliaceae",1,0,0,0,3
"Poaceae",21,4,0,0,28
"Commelinaceae",2,1,0,0,2
"Rosaceae",9,3,0,0,14
"Burseraceae",0,0,0,0,0
"Apocynaceae",4,2,0,0,6
"Campanulaceae",1,0,0,0,3
"Invertebrados no artrópodos",0,0,0,0,0
"Esponjas de mar",0,0,0,0,0
"Cnidarios",0,0,0,0,0
"Ctenóforos",0,0,0,0,0
"Chaetognatha",0,0,0,0,0
"platelmintos",0,0,0,0,0
"Moluscos",0,0,0,0,0
"Gusanos anélidos",0,0,0,0,0
"Sipuncula",0,0,0,0,0
"Rotifera",0,0,0,0,0
"Acanthocephala",0,0,0,0,0
"Briozoos",0,0,0,0,0
"Brachiopodos",0,0,0,0,0
"Tardigrados",0,0,0,0,0
"Onychophora",0,0,0,0,0
"Equinodermos",0,0,0,0,0
"Urocordados",0,0,0,0,0
"Artrópodos",26,1,0,0,47
"Crustáceos",0,0,0,0,0
"Quelicerados",0,0,0,0,0
"Miriápodos",0,0,0,0,0
"Hexápodos",26,1,0,0,47
"Vertebrados",91,24,16,2,370
"Peces",0,0,0,0,0
"Anfibios",6,4,3,0,9
"Reptiles",10,8,3,0,19
"Aves",48,7,8,1,168
"Mamíferos",27,5,2,1,174
