"Grupo","Numero_de_especies_registradas","Numero_de_especies_endemicas","Numero_de_especies_en_la_NOM_059_SEMARNAT_2010","Numero_de_especies_prioritarias","Numero_de_registros"
"Bacterias",0,0,0,0,0
"Algas",0,0,0,0,0
"Hongos",3,0,0,0,3
"Plantas no vasculares",1,0,0,0,1
"Briofitas",1,0,0,0,1
"Anthocerotophyta",0,0,0,0,0
"Marchantiophyta",0,0,0,0,0
"Plantas vasculares",87,24,1,1,152
"Pteridofitas",0,0,0,0,0
"Gimnospermas",0,0,0,0,0
"Pinaceae",0,0,0,0,0
"Cupressaceae",0,0,0,0,0
"Podocarpaceae",0,0,0,0,0
"Zamiaceae",0,0,0,0,0
"Ephedraceae",0,0,0,0,0
"Taxaceae",0,0,0,0,0
"Angiospermas",87,24,1,1,152
"Asteraceae",6,0,0,0,6
"Cactaceae",5,2,0,1,6
"Crassulaceae",4,2,0,0,5
"Euphorbiaceae",6,0,0,0,10
"Fabaceae",8,3,0,0,11
"Fagaceae",0,0,0,0,0
"Lamiaceae",2,0,0,0,2
"Rubiaceae",2,0,0,0,4
"Solanaceae",0,0,0,0,0
"Orchidaceae",5,3,0,0,12
"Asparagaceae",2,2,1,0,3
"Arecaceae",0,0,0,0,0
"Bromeliaceae",1,0,0,0,1
"Poaceae",9,0,0,0,21
"Commelinaceae",2,0,0,0,4
"Rosaceae",0,0,0,0,0
"Burseraceae",1,0,0,0,1
"Apocynaceae",1,0,0,0,2
"Campanulaceae",0,0,0,0,0
"Invertebrados no artrópodos",0,0,0,0,0
"Esponjas de mar",0,0,0,0,0
"Cnidarios",0,0,0,0,0
"Ctenóforos",0,0,0,0,0
"Chaetognatha",0,0,0,0,0
"platelmintos",0,0,0,0,0
"Moluscos",0,0,0,0,0
"Gusanos anélidos",0,0,0,0,0
"Sipuncula",0,0,0,0,0
"Rotifera",0,0,0,0,0
"Acanthocephala",0,0,0,0,0
"Briozoos",0,0,0,0,0
"Brachiopodos",0,0,0,0,0
"Tardigrados",0,0,0,0,0
"Onychophora",0,0,0,0,0
"Equinodermos",0,0,0,0,0
"Urocordados",0,0,0,0,0
"Artrópodos",65,1,0,0,112
"Crustáceos",0,0,0,0,0
"Quelicerados",8,0,0,0,15
"Miriápodos",1,0,0,0,1
"Hexápodos",56,1,0,0,96
"Vertebrados",38,11,13,1,81
"Peces",0,0,0,0,0
"Anfibios",5,4,3,1,12
"Reptiles",6,3,2,0,10
"Aves",16,2,7,0,26
"Mamíferos",11,2,1,0,33
