"Grupo","Numero_de_especies_registradas","Numero_de_especies_endemicas","Numero_de_especies_en_la_NOM_059_SEMARNAT_2010","Numero_de_especies_prioritarias","Numero_de_registros"
"Bacterias",0,0,0,0,0
"Algas",0,0,0,0,0
"Hongos",1,0,0,0,1
"Plantas no vasculares",0,0,0,0,0
"Briofitas",0,0,0,0,0
"Anthocerotophyta",0,0,0,0,0
"Marchantiophyta",0,0,0,0,0
"Plantas vasculares",70,31,0,0,104
"Pteridofitas",0,0,0,0,0
"Gimnospermas",0,0,0,0,0
"Pinaceae",0,0,0,0,0
"Cupressaceae",0,0,0,0,0
"Podocarpaceae",0,0,0,0,0
"Zamiaceae",0,0,0,0,0
"Ephedraceae",0,0,0,0,0
"Taxaceae",0,0,0,0,0
"Angiospermas",59,31,0,0,87
"Asteraceae",16,10,0,0,22
"Cactaceae",1,1,0,0,1
"Crassulaceae",0,0,0,0,0
"Euphorbiaceae",2,0,0,0,2
"Fabaceae",5,2,0,0,6
"Fagaceae",3,3,0,0,8
"Lamiaceae",3,2,0,0,5
"Rubiaceae",1,0,0,0,1
"Solanaceae",1,1,0,0,6
"Orchidaceae",0,0,0,0,0
"Asparagaceae",0,0,0,0,0
"Arecaceae",0,0,0,0,0
"Bromeliaceae",0,0,0,0,0
"Poaceae",3,2,0,0,5
"Commelinaceae",0,0,0,0,0
"Rosaceae",0,0,0,0,0
"Burseraceae",1,0,0,0,1
"Apocynaceae",2,1,0,0,2
"Campanulaceae",0,0,0,0,0
"Invertebrados no artrópodos",0,0,0,0,0
"Esponjas de mar",0,0,0,0,0
"Cnidarios",0,0,0,0,0
"Ctenóforos",0,0,0,0,0
"Chaetognatha",0,0,0,0,0
"platelmintos",0,0,0,0,0
"Moluscos",0,0,0,0,0
"Gusanos anélidos",0,0,0,0,0
"Sipuncula",0,0,0,0,0
"Rotifera",0,0,0,0,0
"Acanthocephala",0,0,0,0,0
"Briozoos",0,0,0,0,0
"Brachiopodos",0,0,0,0,0
"Tardigrados",0,0,0,0,0
"Onychophora",0,0,0,0,0
"Equinodermos",0,0,0,0,0
"Urocordados",0,0,0,0,0
"Artrópodos",11,0,0,0,13
"Crustáceos",0,0,0,0,0
"Quelicerados",1,0,0,0,2
"Miriápodos",0,0,0,0,0
"Hexápodos",10,0,0,0,11
"Vertebrados",51,9,5,3,142
"Peces",0,0,0,0,0
"Anfibios",2,1,0,0,4
"Reptiles",4,3,0,0,9
"Aves",34,3,4,2,112
"Mamíferos",11,2,1,1,17
