"Grupo","Numero_de_especies_registradas","Numero_de_especies_endemicas","Numero_de_especies_en_la_NOM_059_SEMARNAT_2010","Numero_de_especies_prioritarias","Numero_de_registros"
"Bacterias",0,0,0,0,0
"Algas",0,0,0,0,0
"Hongos",0,0,0,0,0
"Plantas no vasculares",0,0,0,0,0
"Briofitas",0,0,0,0,0
"Anthocerotophyta",0,0,0,0,0
"Marchantiophyta",0,0,0,0,0
"Plantas vasculares",38,0,2,2,54
"Pteridofitas",0,0,0,0,0
"Gimnospermas",0,0,0,0,0
"Pinaceae",0,0,0,0,0
"Cupressaceae",0,0,0,0,0
"Podocarpaceae",0,0,0,0,0
"Zamiaceae",0,0,0,0,0
"Ephedraceae",0,0,0,0,0
"Taxaceae",0,0,0,0,0
"Angiospermas",38,0,2,2,54
"Asteraceae",4,0,0,0,4
"Cactaceae",6,0,0,0,15
"Crassulaceae",0,0,0,0,0
"Euphorbiaceae",3,0,0,0,4
"Fabaceae",2,0,0,0,2
"Fagaceae",0,0,0,0,0
"Lamiaceae",0,0,0,0,0
"Rubiaceae",0,0,0,0,0
"Solanaceae",0,0,0,0,0
"Orchidaceae",0,0,0,0,0
"Asparagaceae",0,0,0,0,0
"Arecaceae",1,0,0,0,1
"Bromeliaceae",0,0,0,0,0
"Poaceae",7,0,0,0,11
"Commelinaceae",0,0,0,0,0
"Rosaceae",0,0,0,0,0
"Burseraceae",1,0,0,0,1
"Apocynaceae",2,0,0,0,2
"Campanulaceae",0,0,0,0,0
"Invertebrados no artrópodos",8,0,0,0,10
"Esponjas de mar",0,0,0,0,0
"Cnidarios",0,0,0,0,0
"Ctenóforos",0,0,0,0,0
"Chaetognatha",0,0,0,0,0
"platelmintos",0,0,0,0,0
"Moluscos",8,0,0,0,10
"Gusanos anélidos",0,0,0,0,0
"Sipuncula",0,0,0,0,0
"Rotifera",0,0,0,0,0
"Acanthocephala",0,0,0,0,0
"Briozoos",0,0,0,0,0
"Brachiopodos",0,0,0,0,0
"Tardigrados",0,0,0,0,0
"Onychophora",0,0,0,0,0
"Equinodermos",0,0,0,0,0
"Urocordados",0,0,0,0,0
"Artrópodos",20,0,0,0,22
"Crustáceos",3,0,0,0,3
"Quelicerados",5,0,0,0,6
"Miriápodos",0,0,0,0,0
"Hexápodos",12,0,0,0,13
"Vertebrados",164,7,18,24,4315
"Peces",22,0,0,0,27
"Anfibios",0,0,0,0,0
"Reptiles",6,1,1,0,10
"Aves",135,6,17,24,4277
"Mamíferos",1,0,0,0,1
