"Grupo","Numero_de_especies_registradas","Numero_de_especies_endemicas","Numero_de_especies_en_la_NOM_059_SEMARNAT_2010","Numero_de_especies_prioritarias","Numero_de_registros"
"Bacterias",0,0,0,0,0
"Algas",0,0,0,0,0
"Hongos",5,0,0,0,6
"Plantas no vasculares",0,0,0,0,0
"Briofitas",0,0,0,0,0
"Anthocerotophyta",0,0,0,0,0
"Marchantiophyta",0,0,0,0,0
"Plantas vasculares",92,35,1,0,161
"Pteridofitas",0,0,0,0,0
"Gimnospermas",2,1,1,0,2
"Pinaceae",1,0,0,0,1
"Cupressaceae",1,1,1,0,1
"Podocarpaceae",0,0,0,0,0
"Zamiaceae",0,0,0,0,0
"Ephedraceae",0,0,0,0,0
"Taxaceae",0,0,0,0,0
"Angiospermas",84,34,0,0,153
"Asteraceae",13,4,0,0,19
"Cactaceae",2,2,0,0,5
"Crassulaceae",1,1,0,0,1
"Euphorbiaceae",2,0,0,0,3
"Fabaceae",5,0,0,0,11
"Fagaceae",4,3,0,0,10
"Lamiaceae",3,2,0,0,5
"Rubiaceae",1,0,0,0,1
"Solanaceae",5,2,0,0,12
"Orchidaceae",4,3,0,0,5
"Asparagaceae",3,2,0,0,12
"Arecaceae",0,0,0,0,0
"Bromeliaceae",3,2,0,0,7
"Poaceae",3,2,0,0,3
"Commelinaceae",1,0,0,0,1
"Rosaceae",1,1,0,0,1
"Burseraceae",0,0,0,0,0
"Apocynaceae",4,3,0,0,7
"Campanulaceae",0,0,0,0,0
"Invertebrados no artrópodos",0,0,0,0,0
"Esponjas de mar",0,0,0,0,0
"Cnidarios",0,0,0,0,0
"Ctenóforos",0,0,0,0,0
"Chaetognatha",0,0,0,0,0
"platelmintos",0,0,0,0,0
"Moluscos",0,0,0,0,0
"Gusanos anélidos",0,0,0,0,0
"Sipuncula",0,0,0,0,0
"Rotifera",0,0,0,0,0
"Acanthocephala",0,0,0,0,0
"Briozoos",0,0,0,0,0
"Brachiopodos",0,0,0,0,0
"Tardigrados",0,0,0,0,0
"Onychophora",0,0,0,0,0
"Equinodermos",0,0,0,0,0
"Urocordados",0,0,0,0,0
"Artrópodos",2,0,0,0,2
"Crustáceos",0,0,0,0,0
"Quelicerados",0,0,0,0,0
"Miriápodos",0,0,0,0,0
"Hexápodos",2,0,0,0,2
"Vertebrados",10,1,0,0,17
"Peces",0,0,0,0,0
"Anfibios",1,0,0,0,2
"Reptiles",1,1,0,0,1
"Aves",6,0,0,0,8
"Mamíferos",2,0,0,0,6
