"Grupo","Numero_de_especies_registradas","Numero_de_especies_endemicas","Numero_de_especies_en_la_NOM_059_SEMARNAT_2010","Numero_de_especies_prioritarias","Numero_de_registros"
"Bacterias",0,0,0,0,0
"Algas",0,0,0,0,0
"Hongos",4,0,0,0,4
"Plantas no vasculares",4,0,0,0,4
"Briofitas",4,0,0,0,4
"Anthocerotophyta",0,0,0,0,0
"Marchantiophyta",0,0,0,0,0
"Plantas vasculares",47,5,0,0,53
"Pteridofitas",0,0,0,0,0
"Gimnospermas",0,0,0,0,0
"Pinaceae",0,0,0,0,0
"Cupressaceae",0,0,0,0,0
"Podocarpaceae",0,0,0,0,0
"Zamiaceae",0,0,0,0,0
"Ephedraceae",0,0,0,0,0
"Taxaceae",0,0,0,0,0
"Angiospermas",46,5,0,0,50
"Asteraceae",12,1,0,0,13
"Cactaceae",1,0,0,0,1
"Crassulaceae",0,0,0,0,0
"Euphorbiaceae",0,0,0,0,0
"Fabaceae",2,0,0,0,2
"Fagaceae",0,0,0,0,0
"Lamiaceae",2,0,0,0,2
"Rubiaceae",2,0,0,0,3
"Solanaceae",0,0,0,0,0
"Orchidaceae",3,2,0,0,3
"Asparagaceae",0,0,0,0,0
"Arecaceae",0,0,0,0,0
"Bromeliaceae",1,1,0,0,1
"Poaceae",3,0,0,0,3
"Commelinaceae",0,0,0,0,0
"Rosaceae",2,0,0,0,2
"Burseraceae",0,0,0,0,0
"Apocynaceae",0,0,0,0,0
"Campanulaceae",0,0,0,0,0
"Invertebrados no artrópodos",1,0,0,0,2
"Esponjas de mar",0,0,0,0,0
"Cnidarios",0,0,0,0,0
"Ctenóforos",0,0,0,0,0
"Chaetognatha",0,0,0,0,0
"platelmintos",0,0,0,0,0
"Moluscos",0,0,0,0,0
"Gusanos anélidos",0,0,0,0,0
"Sipuncula",0,0,0,0,0
"Rotifera",1,0,0,0,2
"Acanthocephala",0,0,0,0,0
"Briozoos",0,0,0,0,0
"Brachiopodos",0,0,0,0,0
"Tardigrados",0,0,0,0,0
"Onychophora",0,0,0,0,0
"Equinodermos",0,0,0,0,0
"Urocordados",0,0,0,0,0
"Artrópodos",21,3,0,0,357
"Crustáceos",1,0,0,0,3
"Quelicerados",0,0,0,0,0
"Miriápodos",0,0,0,0,0
"Hexápodos",20,3,0,0,354
"Vertebrados",39,4,7,3,88
"Peces",1,0,1,1,4
"Anfibios",4,0,1,0,8
"Reptiles",5,1,1,1,8
"Aves",16,1,4,1,28
"Mamíferos",13,2,0,0,40
