"Grupo","Numero_de_especies_registradas","Numero_de_especies_endemicas","Numero_de_especies_en_la_NOM_059_SEMARNAT_2010","Numero_de_especies_prioritarias","Numero_de_registros"
"Bacterias",0,0,0,0,0
"Algas",0,0,0,0,0
"Hongos",0,0,0,0,0
"Plantas no vasculares",0,0,0,0,0
"Briofitas",0,0,0,0,0
"Anthocerotophyta",0,0,0,0,0
"Marchantiophyta",0,0,0,0,0
"Plantas vasculares",70,31,1,1,87
"Pteridofitas",0,0,0,0,0
"Gimnospermas",0,0,0,0,0
"Pinaceae",0,0,0,0,0
"Cupressaceae",0,0,0,0,0
"Podocarpaceae",0,0,0,0,0
"Zamiaceae",0,0,0,0,0
"Ephedraceae",0,0,0,0,0
"Taxaceae",0,0,0,0,0
"Angiospermas",65,31,1,1,81
"Asteraceae",14,7,0,0,18
"Cactaceae",0,0,0,0,0
"Crassulaceae",0,0,0,0,0
"Euphorbiaceae",1,0,0,0,1
"Fabaceae",3,0,0,0,5
"Fagaceae",1,1,0,0,1
"Lamiaceae",1,0,0,0,2
"Rubiaceae",1,0,0,0,1
"Solanaceae",2,1,0,0,2
"Orchidaceae",4,3,1,1,4
"Asparagaceae",0,0,0,0,0
"Arecaceae",0,0,0,0,0
"Bromeliaceae",1,1,0,0,2
"Poaceae",6,2,0,0,6
"Commelinaceae",2,0,0,0,2
"Rosaceae",0,0,0,0,0
"Burseraceae",1,1,0,0,2
"Apocynaceae",1,1,0,0,1
"Campanulaceae",1,0,0,0,2
"Invertebrados no artrópodos",0,0,0,0,0
"Esponjas de mar",0,0,0,0,0
"Cnidarios",0,0,0,0,0
"Ctenóforos",0,0,0,0,0
"Chaetognatha",0,0,0,0,0
"platelmintos",0,0,0,0,0
"Moluscos",0,0,0,0,0
"Gusanos anélidos",0,0,0,0,0
"Sipuncula",0,0,0,0,0
"Rotifera",0,0,0,0,0
"Acanthocephala",0,0,0,0,0
"Briozoos",0,0,0,0,0
"Brachiopodos",0,0,0,0,0
"Tardigrados",0,0,0,0,0
"Onychophora",0,0,0,0,0
"Equinodermos",0,0,0,0,0
"Urocordados",0,0,0,0,0
"Artrópodos",2,0,0,0,2
"Crustáceos",0,0,0,0,0
"Quelicerados",1,0,0,0,1
"Miriápodos",0,0,0,0,0
"Hexápodos",1,0,0,0,1
"Vertebrados",2,1,0,0,2
"Peces",0,0,0,0,0
"Anfibios",1,1,0,0,1
"Reptiles",1,0,0,0,1
"Aves",0,0,0,0,0
"Mamíferos",0,0,0,0,0
