"Grupo","Numero_de_especies_registradas","Numero_de_especies_endemicas","Numero_de_especies_en_la_NOM_059_SEMARNAT_2010","Numero_de_especies_prioritarias","Numero_de_registros"
"Bacterias",0,0,0,0,0
"Algas",0,0,0,0,0
"Hongos",26,0,4,0,49
"Plantas no vasculares",100,0,0,0,318
"Briofitas",96,0,0,0,311
"Anthocerotophyta",0,0,0,0,0
"Marchantiophyta",4,0,0,0,7
"Plantas vasculares",307,123,6,2,880
"Pteridofitas",0,0,0,0,0
"Gimnospermas",9,5,2,2,17
"Pinaceae",8,4,1,2,16
"Cupressaceae",1,1,1,0,1
"Podocarpaceae",0,0,0,0,0
"Zamiaceae",0,0,0,0,0
"Ephedraceae",0,0,0,0,0
"Taxaceae",0,0,0,0,0
"Angiospermas",291,118,4,0,856
"Asteraceae",74,33,1,0,245
"Cactaceae",0,0,0,0,0
"Crassulaceae",1,1,0,0,1
"Euphorbiaceae",0,0,0,0,0
"Fabaceae",9,4,0,0,9
"Fagaceae",4,4,0,0,14
"Lamiaceae",13,9,0,0,58
"Rubiaceae",5,0,0,0,6
"Solanaceae",11,4,0,0,69
"Orchidaceae",4,0,1,0,4
"Asparagaceae",1,1,1,0,2
"Arecaceae",0,0,0,0,0
"Bromeliaceae",0,0,0,0,0
"Poaceae",35,12,0,0,100
"Commelinaceae",3,0,0,0,4
"Rosaceae",12,6,0,0,39
"Burseraceae",0,0,0,0,0
"Apocynaceae",0,0,0,0,0
"Campanulaceae",0,0,0,0,0
"Invertebrados no artrópodos",2,0,0,0,12
"Esponjas de mar",0,0,0,0,0
"Cnidarios",0,0,0,0,0
"Ctenóforos",0,0,0,0,0
"Chaetognatha",0,0,0,0,0
"platelmintos",0,0,0,0,0
"Moluscos",1,0,0,0,1
"Gusanos anélidos",1,0,0,0,11
"Sipuncula",0,0,0,0,0
"Rotifera",0,0,0,0,0
"Acanthocephala",0,0,0,0,0
"Briozoos",0,0,0,0,0
"Brachiopodos",0,0,0,0,0
"Tardigrados",0,0,0,0,0
"Onychophora",0,0,0,0,0
"Equinodermos",0,0,0,0,0
"Urocordados",0,0,0,0,0
"Artrópodos",41,4,0,0,94
"Crustáceos",0,0,0,0,0
"Quelicerados",1,0,0,0,1
"Miriápodos",0,0,0,0,0
"Hexápodos",40,4,0,0,93
"Vertebrados",76,32,25,4,595
"Peces",0,0,0,0,0
"Anfibios",9,9,7,1,64
"Reptiles",13,10,7,1,42
"Aves",33,5,8,1,177
"Mamíferos",21,8,3,1,312
