"Grupo","Numero_de_especies_registradas","Numero_de_especies_endemicas","Numero_de_especies_en_la_NOM_059_SEMARNAT_2010","Numero_de_especies_prioritarias","Numero_de_registros"
"Bacterias",0,0,0,0,0
"Algas",0,0,0,0,0
"Hongos",3,0,0,0,4
"Plantas no vasculares",16,0,0,0,20
"Briofitas",16,0,0,0,20
"Anthocerotophyta",0,0,0,0,0
"Marchantiophyta",0,0,0,0,0
"Plantas vasculares",464,50,17,5,752
"Pteridofitas",0,0,0,0,0
"Gimnospermas",2,1,1,2,4
"Pinaceae",0,0,0,0,0
"Cupressaceae",0,0,0,0,0
"Podocarpaceae",0,0,0,0,0
"Zamiaceae",2,1,1,2,4
"Ephedraceae",0,0,0,0,0
"Taxaceae",0,0,0,0,0
"Angiospermas",401,45,13,2,670
"Asteraceae",26,1,0,0,39
"Cactaceae",3,2,0,0,5
"Crassulaceae",0,0,0,0,0
"Euphorbiaceae",10,1,0,0,13
"Fabaceae",20,0,0,0,26
"Fagaceae",2,0,0,0,6
"Lamiaceae",7,1,0,0,9
"Rubiaceae",16,1,0,0,36
"Solanaceae",16,0,0,0,30
"Orchidaceae",34,12,2,0,53
"Asparagaceae",2,1,0,0,3
"Arecaceae",5,3,4,1,11
"Bromeliaceae",17,5,2,0,24
"Poaceae",13,0,0,0,16
"Commelinaceae",2,0,0,0,3
"Rosaceae",1,0,0,0,1
"Burseraceae",0,0,0,0,0
"Apocynaceae",5,0,0,0,7
"Campanulaceae",0,0,0,0,0
"Invertebrados no artrópodos",0,0,0,0,0
"Esponjas de mar",0,0,0,0,0
"Cnidarios",0,0,0,0,0
"Ctenóforos",0,0,0,0,0
"Chaetognatha",0,0,0,0,0
"platelmintos",0,0,0,0,0
"Moluscos",0,0,0,0,0
"Gusanos anélidos",0,0,0,0,0
"Sipuncula",0,0,0,0,0
"Rotifera",0,0,0,0,0
"Acanthocephala",0,0,0,0,0
"Briozoos",0,0,0,0,0
"Brachiopodos",0,0,0,0,0
"Tardigrados",0,0,0,0,0
"Onychophora",0,0,0,0,0
"Equinodermos",0,0,0,0,0
"Urocordados",0,0,0,0,0
"Artrópodos",44,2,0,0,278
"Crustáceos",0,0,0,0,0
"Quelicerados",1,0,0,0,1
"Miriápodos",0,0,0,0,0
"Hexápodos",43,2,0,0,277
"Vertebrados",134,18,44,7,939
"Peces",0,0,0,0,0
"Anfibios",33,10,10,2,553
"Reptiles",33,5,11,1,102
"Aves",54,2,23,3,235
"Mamíferos",14,1,0,1,49
