"Grupo","Numero_de_especies_registradas","Numero_de_especies_endemicas","Numero_de_especies_en_la_NOM_059_SEMARNAT_2010","Numero_de_especies_prioritarias","Numero_de_registros"
"Bacterias",0,0,0,0,0
"Algas",0,0,0,0,0
"Hongos",0,0,0,0,0
"Plantas no vasculares",0,0,0,0,0
"Briofitas",0,0,0,0,0
"Anthocerotophyta",0,0,0,0,0
"Marchantiophyta",0,0,0,0,0
"Plantas vasculares",68,20,0,2,79
"Pteridofitas",0,0,0,0,0
"Gimnospermas",0,0,0,0,0
"Pinaceae",0,0,0,0,0
"Cupressaceae",0,0,0,0,0
"Podocarpaceae",0,0,0,0,0
"Zamiaceae",0,0,0,0,0
"Ephedraceae",0,0,0,0,0
"Taxaceae",0,0,0,0,0
"Angiospermas",66,20,0,2,77
"Asteraceae",5,3,0,0,7
"Cactaceae",1,0,0,0,2
"Crassulaceae",0,0,0,0,0
"Euphorbiaceae",3,0,0,0,4
"Fabaceae",6,1,0,0,7
"Fagaceae",0,0,0,0,0
"Lamiaceae",3,2,0,0,3
"Rubiaceae",2,1,0,0,2
"Solanaceae",1,1,0,0,1
"Orchidaceae",0,0,0,0,0
"Asparagaceae",1,1,0,0,1
"Arecaceae",0,0,0,0,0
"Bromeliaceae",1,0,0,0,2
"Poaceae",1,0,0,0,1
"Commelinaceae",1,0,0,0,1
"Rosaceae",0,0,0,0,0
"Burseraceae",0,0,0,0,0
"Apocynaceae",1,1,0,0,1
"Campanulaceae",1,0,0,0,1
"Invertebrados no artrópodos",0,0,0,0,0
"Esponjas de mar",0,0,0,0,0
"Cnidarios",0,0,0,0,0
"Ctenóforos",0,0,0,0,0
"Chaetognatha",0,0,0,0,0
"platelmintos",0,0,0,0,0
"Moluscos",0,0,0,0,0
"Gusanos anélidos",0,0,0,0,0
"Sipuncula",0,0,0,0,0
"Rotifera",0,0,0,0,0
"Acanthocephala",0,0,0,0,0
"Briozoos",0,0,0,0,0
"Brachiopodos",0,0,0,0,0
"Tardigrados",0,0,0,0,0
"Onychophora",0,0,0,0,0
"Equinodermos",0,0,0,0,0
"Urocordados",0,0,0,0,0
"Artrópodos",22,1,1,1,27
"Crustáceos",0,0,0,0,0
"Quelicerados",1,0,0,0,3
"Miriápodos",0,0,0,0,0
"Hexápodos",21,1,1,1,24
"Vertebrados",75,19,12,7,138
"Peces",0,0,0,0,0
"Anfibios",6,3,0,0,7
"Reptiles",13,6,1,0,18
"Aves",43,9,11,6,95
"Mamíferos",13,1,0,1,18
