"Grupo","Numero_de_especies_registradas","Numero_de_especies_endemicas","Numero_de_especies_en_la_NOM_059_SEMARNAT_2010","Numero_de_especies_prioritarias","Numero_de_registros"
"Bacterias",11,0,0,0,75
"Algas",495,4,0,0,3447
"Hongos",96,0,0,0,530
"Plantas no vasculares",0,0,0,0,0
"Briofitas",0,0,0,0,0
"Anthocerotophyta",0,0,0,0,0
"Marchantiophyta",0,0,0,0,0
"Plantas vasculares",1058,189,21,7,11786
"Pteridofitas",0,0,0,0,0
"Gimnospermas",4,0,1,0,18
"Pinaceae",1,0,1,0,2
"Cupressaceae",0,0,0,0,0
"Podocarpaceae",0,0,0,0,0
"Zamiaceae",0,0,0,0,0
"Ephedraceae",3,0,0,0,16
"Taxaceae",0,0,0,0,0
"Angiospermas",1023,188,20,7,11590
"Asteraceae",157,21,0,0,2202
"Cactaceae",45,25,7,1,599
"Crassulaceae",7,2,0,0,82
"Euphorbiaceae",55,21,0,0,589
"Fabaceae",93,12,1,1,1082
"Fagaceae",5,2,0,0,58
"Lamiaceae",17,10,0,0,276
"Rubiaceae",6,2,1,0,31
"Solanaceae",23,0,0,0,278
"Orchidaceae",2,0,0,0,2
"Asparagaceae",14,6,1,0,201
"Arecaceae",4,1,0,0,27
"Bromeliaceae",1,0,0,0,17
"Poaceae",76,14,0,0,520
"Commelinaceae",1,0,0,0,11
"Rosaceae",5,0,0,0,90
"Burseraceae",5,2,0,0,92
"Apocynaceae",19,6,0,0,176
"Campanulaceae",3,0,0,0,8
"Invertebrados no artrópodos",264,2,1,1,1776
"Esponjas de mar",13,0,0,0,16
"Cnidarios",25,0,1,0,38
"Ctenóforos",0,0,0,0,0
"Chaetognatha",0,0,0,0,0
"platelmintos",14,0,0,0,19
"Moluscos",203,2,0,1,1690
"Gusanos anélidos",7,0,0,0,11
"Sipuncula",0,0,0,0,0
"Rotifera",0,0,0,0,0
"Acanthocephala",1,0,0,0,1
"Briozoos",0,0,0,0,0
"Brachiopodos",0,0,0,0,0
"Tardigrados",0,0,0,0,0
"Onychophora",0,0,0,0,0
"Equinodermos",1,0,0,0,1
"Urocordados",0,0,0,0,0
"Artrópodos",208,5,0,0,778
"Crustáceos",56,0,0,0,89
"Quelicerados",9,0,0,0,14
"Miriápodos",1,0,0,0,1
"Hexápodos",142,5,0,0,674
"Vertebrados",721,45,118,70,42023
"Peces",347,0,6,14,11192
"Anfibios",12,2,2,1,519
"Reptiles",88,29,47,10,3338
"Aves",201,8,39,32,24027
"Mamíferos",73,6,24,13,2947
