"Grupo","Numero_de_especies_registradas","Numero_de_especies_endemicas","Numero_de_especies_en_la_NOM_059_SEMARNAT_2010","Numero_de_especies_prioritarias","Numero_de_registros"
"Bacterias",0,0,0,0,0
"Algas",0,0,0,0,0
"Hongos",103,0,8,0,389
"Plantas no vasculares",136,0,2,0,392
"Briofitas",135,0,2,0,390
"Anthocerotophyta",0,0,0,0,0
"Marchantiophyta",1,0,0,0,2
"Plantas vasculares",984,358,24,8,2769
"Pteridofitas",0,0,0,0,0
"Gimnospermas",12,7,3,3,98
"Pinaceae",8,5,1,2,91
"Cupressaceae",3,1,1,0,6
"Podocarpaceae",0,0,0,0,0
"Zamiaceae",1,1,1,1,1
"Ephedraceae",0,0,0,0,0
"Taxaceae",0,0,0,0,0
"Angiospermas",869,343,20,5,2524
"Asteraceae",165,78,0,0,499
"Cactaceae",1,1,0,0,2
"Crassulaceae",10,8,0,0,21
"Euphorbiaceae",9,2,0,0,16
"Fabaceae",46,18,1,0,66
"Fagaceae",17,14,0,0,127
"Lamiaceae",35,23,0,0,103
"Rubiaceae",15,6,1,0,34
"Solanaceae",27,9,0,0,153
"Orchidaceae",52,33,5,4,68
"Asparagaceae",10,9,3,1,27
"Arecaceae",0,0,0,0,0
"Bromeliaceae",8,4,0,0,8
"Poaceae",80,24,0,0,346
"Commelinaceae",9,3,0,0,35
"Rosaceae",21,8,0,0,82
"Burseraceae",1,1,0,0,1
"Apocynaceae",9,3,0,0,12
"Campanulaceae",8,1,0,0,31
"Invertebrados no artrópodos",4,0,0,0,5
"Esponjas de mar",0,0,0,0,0
"Cnidarios",0,0,0,0,0
"Ctenóforos",0,0,0,0,0
"Chaetognatha",0,0,0,0,0
"platelmintos",1,0,0,0,1
"Moluscos",2,0,0,0,3
"Gusanos anélidos",0,0,0,0,0
"Sipuncula",0,0,0,0,0
"Rotifera",0,0,0,0,0
"Acanthocephala",1,0,0,0,1
"Briozoos",0,0,0,0,0
"Brachiopodos",0,0,0,0,0
"Tardigrados",0,0,0,0,0
"Onychophora",0,0,0,0,0
"Equinodermos",0,0,0,0,0
"Urocordados",0,0,0,0,0
"Artrópodos",89,4,1,1,203
"Crustáceos",2,0,0,0,2
"Quelicerados",7,0,0,0,10
"Miriápodos",0,0,0,0,0
"Hexápodos",80,4,1,1,191
"Vertebrados",118,57,46,12,1247
"Peces",5,0,2,1,18
"Anfibios",15,13,11,1,558
"Reptiles",35,29,16,3,386
"Aves",40,7,14,4,131
"Mamíferos",23,8,3,3,154
