"Grupo","Numero_de_especies_registradas","Numero_de_especies_endemicas","Numero_de_especies_en_la_NOM_059_SEMARNAT_2010","Numero_de_especies_prioritarias","Numero_de_registros"
"Bacterias",0,0,0,0,0
"Algas",0,0,0,0,0
"Hongos",21,0,0,0,44
"Plantas no vasculares",1,0,0,0,1
"Briofitas",1,0,0,0,1
"Anthocerotophyta",0,0,0,0,0
"Marchantiophyta",0,0,0,0,0
"Plantas vasculares",307,112,8,5,509
"Pteridofitas",0,0,0,0,0
"Gimnospermas",1,0,0,1,13
"Pinaceae",1,0,0,1,13
"Cupressaceae",0,0,0,0,0
"Podocarpaceae",0,0,0,0,0
"Zamiaceae",0,0,0,0,0
"Ephedraceae",0,0,0,0,0
"Taxaceae",0,0,0,0,0
"Angiospermas",292,111,8,4,481
"Asteraceae",54,19,0,0,84
"Cactaceae",17,15,4,3,22
"Crassulaceae",12,10,0,0,24
"Euphorbiaceae",8,5,0,0,9
"Fabaceae",19,0,0,0,27
"Fagaceae",11,9,0,0,38
"Lamiaceae",11,5,0,0,25
"Rubiaceae",4,1,0,0,9
"Solanaceae",4,3,0,0,9
"Orchidaceae",3,3,1,1,3
"Asparagaceae",6,4,1,0,12
"Arecaceae",0,0,0,0,0
"Bromeliaceae",3,1,0,0,4
"Poaceae",30,4,0,0,46
"Commelinaceae",4,1,0,0,4
"Rosaceae",4,0,0,0,6
"Burseraceae",1,1,0,0,1
"Apocynaceae",3,1,0,0,4
"Campanulaceae",0,0,0,0,0
"Invertebrados no artrópodos",0,0,0,0,0
"Esponjas de mar",0,0,0,0,0
"Cnidarios",0,0,0,0,0
"Ctenóforos",0,0,0,0,0
"Chaetognatha",0,0,0,0,0
"platelmintos",0,0,0,0,0
"Moluscos",0,0,0,0,0
"Gusanos anélidos",0,0,0,0,0
"Sipuncula",0,0,0,0,0
"Rotifera",0,0,0,0,0
"Acanthocephala",0,0,0,0,0
"Briozoos",0,0,0,0,0
"Brachiopodos",0,0,0,0,0
"Tardigrados",0,0,0,0,0
"Onychophora",0,0,0,0,0
"Equinodermos",0,0,0,0,0
"Urocordados",0,0,0,0,0
"Artrópodos",15,0,1,1,95
"Crustáceos",0,0,0,0,0
"Quelicerados",2,0,0,0,8
"Miriápodos",0,0,0,0,0
"Hexápodos",13,0,1,1,87
"Vertebrados",13,3,2,0,20
"Peces",0,0,0,0,0
"Anfibios",1,0,0,0,6
"Reptiles",4,2,0,0,4
"Aves",7,1,2,0,9
"Mamíferos",1,0,0,0,1
