"Grupo","Numero_de_especies_registradas","Numero_de_especies_endemicas","Numero_de_especies_en_la_NOM_059_SEMARNAT_2010","Numero_de_especies_prioritarias","Numero_de_registros"
"Bacterias",0,0,0,0,0
"Algas",0,0,0,0,0
"Hongos",1,0,0,0,1
"Plantas no vasculares",0,0,0,0,0
"Briofitas",0,0,0,0,0
"Anthocerotophyta",0,0,0,0,0
"Marchantiophyta",0,0,0,0,0
"Plantas vasculares",118,29,0,2,169
"Pteridofitas",0,0,0,0,0
"Gimnospermas",0,0,0,0,0
"Pinaceae",0,0,0,0,0
"Cupressaceae",0,0,0,0,0
"Podocarpaceae",0,0,0,0,0
"Zamiaceae",0,0,0,0,0
"Ephedraceae",0,0,0,0,0
"Taxaceae",0,0,0,0,0
"Angiospermas",118,29,0,2,169
"Asteraceae",22,6,0,0,26
"Cactaceae",5,5,0,2,15
"Crassulaceae",0,0,0,0,0
"Euphorbiaceae",4,0,0,0,5
"Fabaceae",8,2,0,0,10
"Fagaceae",1,1,0,0,2
"Lamiaceae",0,0,0,0,0
"Rubiaceae",3,0,0,0,5
"Solanaceae",1,1,0,0,1
"Orchidaceae",1,1,0,0,1
"Asparagaceae",1,1,0,0,1
"Arecaceae",0,0,0,0,0
"Bromeliaceae",1,0,0,0,1
"Poaceae",22,4,0,0,33
"Commelinaceae",2,0,0,0,2
"Rosaceae",1,0,0,0,1
"Burseraceae",0,0,0,0,0
"Apocynaceae",0,0,0,0,0
"Campanulaceae",2,1,0,0,2
"Invertebrados no artrópodos",2,0,0,0,2
"Esponjas de mar",0,0,0,0,0
"Cnidarios",0,0,0,0,0
"Ctenóforos",0,0,0,0,0
"Chaetognatha",0,0,0,0,0
"platelmintos",0,0,0,0,0
"Moluscos",0,0,0,0,0
"Gusanos anélidos",2,0,0,0,2
"Sipuncula",0,0,0,0,0
"Rotifera",0,0,0,0,0
"Acanthocephala",0,0,0,0,0
"Briozoos",0,0,0,0,0
"Brachiopodos",0,0,0,0,0
"Tardigrados",0,0,0,0,0
"Onychophora",0,0,0,0,0
"Equinodermos",0,0,0,0,0
"Urocordados",0,0,0,0,0
"Artrópodos",9,0,0,0,16
"Crustáceos",3,0,0,0,10
"Quelicerados",2,0,0,0,2
"Miriápodos",0,0,0,0,0
"Hexápodos",4,0,0,0,4
"Vertebrados",41,11,10,12,108
"Peces",1,0,0,0,1
"Anfibios",8,6,5,2,41
"Reptiles",4,3,2,0,6
"Aves",27,1,3,10,59
"Mamíferos",1,1,0,0,1
