"Grupo","Numero_de_especies_registradas","Numero_de_especies_endemicas","Numero_de_especies_en_la_NOM_059_SEMARNAT_2010","Numero_de_especies_prioritarias","Numero_de_registros"
"Bacterias",0,0,0,0,0
"Algas",0,0,0,0,0
"Hongos",6,0,0,0,6
"Plantas no vasculares",1,0,0,0,1
"Briofitas",1,0,0,0,1
"Anthocerotophyta",0,0,0,0,0
"Marchantiophyta",0,0,0,0,0
"Plantas vasculares",89,32,0,0,104
"Pteridofitas",0,0,0,0,0
"Gimnospermas",1,0,0,0,2
"Pinaceae",1,0,0,0,2
"Cupressaceae",0,0,0,0,0
"Podocarpaceae",0,0,0,0,0
"Zamiaceae",0,0,0,0,0
"Ephedraceae",0,0,0,0,0
"Taxaceae",0,0,0,0,0
"Angiospermas",83,32,0,0,97
"Asteraceae",19,3,0,0,22
"Cactaceae",0,0,0,0,0
"Crassulaceae",0,0,0,0,0
"Euphorbiaceae",2,0,0,0,4
"Fabaceae",11,4,0,0,11
"Fagaceae",5,5,0,0,9
"Lamiaceae",4,3,0,0,4
"Rubiaceae",2,0,0,0,2
"Solanaceae",1,0,0,0,1
"Orchidaceae",3,2,0,0,3
"Asparagaceae",1,0,0,0,1
"Arecaceae",0,0,0,0,0
"Bromeliaceae",0,0,0,0,0
"Poaceae",7,3,0,0,7
"Commelinaceae",0,0,0,0,0
"Rosaceae",0,0,0,0,0
"Burseraceae",0,0,0,0,0
"Apocynaceae",1,1,0,0,1
"Campanulaceae",1,1,0,0,1
"Invertebrados no artrópodos",0,0,0,0,0
"Esponjas de mar",0,0,0,0,0
"Cnidarios",0,0,0,0,0
"Ctenóforos",0,0,0,0,0
"Chaetognatha",0,0,0,0,0
"platelmintos",0,0,0,0,0
"Moluscos",0,0,0,0,0
"Gusanos anélidos",0,0,0,0,0
"Sipuncula",0,0,0,0,0
"Rotifera",0,0,0,0,0
"Acanthocephala",0,0,0,0,0
"Briozoos",0,0,0,0,0
"Brachiopodos",0,0,0,0,0
"Tardigrados",0,0,0,0,0
"Onychophora",0,0,0,0,0
"Equinodermos",0,0,0,0,0
"Urocordados",0,0,0,0,0
"Artrópodos",1,0,0,0,1
"Crustáceos",0,0,0,0,0
"Quelicerados",0,0,0,0,0
"Miriápodos",0,0,0,0,0
"Hexápodos",1,0,0,0,1
"Vertebrados",16,4,5,1,28
"Peces",5,0,2,0,11
"Anfibios",2,2,2,1,6
"Reptiles",2,2,1,0,4
"Aves",7,0,0,0,7
"Mamíferos",0,0,0,0,0
