"Grupo","Numero_de_especies_registradas","Numero_de_especies_endemicas","Numero_de_especies_en_la_NOM_059_SEMARNAT_2010","Numero_de_especies_prioritarias","Numero_de_registros"
"Bacterias",0,0,0,0,0
"Algas",0,0,0,0,0
"Hongos",7,0,1,0,8
"Plantas no vasculares",6,0,0,0,6
"Briofitas",6,0,0,0,6
"Anthocerotophyta",0,0,0,0,0
"Marchantiophyta",0,0,0,0,0
"Plantas vasculares",110,36,1,0,159
"Pteridofitas",0,0,0,0,0
"Gimnospermas",6,5,1,0,7
"Pinaceae",4,3,0,0,4
"Cupressaceae",2,2,1,0,3
"Podocarpaceae",0,0,0,0,0
"Zamiaceae",0,0,0,0,0
"Ephedraceae",0,0,0,0,0
"Taxaceae",0,0,0,0,0
"Angiospermas",102,31,0,0,150
"Asteraceae",20,8,0,0,29
"Cactaceae",0,0,0,0,0
"Crassulaceae",2,2,0,0,2
"Euphorbiaceae",1,0,0,0,1
"Fabaceae",8,3,0,0,13
"Fagaceae",3,3,0,0,7
"Lamiaceae",2,0,0,0,2
"Rubiaceae",0,0,0,0,0
"Solanaceae",6,2,0,0,11
"Orchidaceae",0,0,0,0,0
"Asparagaceae",2,2,0,0,8
"Arecaceae",0,0,0,0,0
"Bromeliaceae",0,0,0,0,0
"Poaceae",23,3,0,0,33
"Commelinaceae",1,0,0,0,1
"Rosaceae",1,0,0,0,1
"Burseraceae",0,0,0,0,0
"Apocynaceae",0,0,0,0,0
"Campanulaceae",1,0,0,0,2
"Invertebrados no artrópodos",3,0,0,0,21
"Esponjas de mar",0,0,0,0,0
"Cnidarios",0,0,0,0,0
"Ctenóforos",0,0,0,0,0
"Chaetognatha",0,0,0,0,0
"platelmintos",3,0,0,0,21
"Moluscos",0,0,0,0,0
"Gusanos anélidos",0,0,0,0,0
"Sipuncula",0,0,0,0,0
"Rotifera",0,0,0,0,0
"Acanthocephala",0,0,0,0,0
"Briozoos",0,0,0,0,0
"Brachiopodos",0,0,0,0,0
"Tardigrados",0,0,0,0,0
"Onychophora",0,0,0,0,0
"Equinodermos",0,0,0,0,0
"Urocordados",0,0,0,0,0
"Artrópodos",51,2,1,1,115
"Crustáceos",2,0,0,0,2
"Quelicerados",0,0,0,0,0
"Miriápodos",0,0,0,0,0
"Hexápodos",49,2,1,1,113
"Vertebrados",77,27,20,15,506
"Peces",11,0,1,2,97
"Anfibios",14,11,9,1,199
"Reptiles",15,13,8,0,79
"Aves",27,0,1,11,100
"Mamíferos",10,3,1,1,31
