"Grupo","Numero_de_especies_registradas","Numero_de_especies_endemicas","Numero_de_especies_en_la_NOM_059_SEMARNAT_2010","Numero_de_especies_prioritarias","Numero_de_registros"
"Bacterias",4,0,0,0,4
"Algas",160,3,0,0,252
"Hongos",0,0,0,0,0
"Plantas no vasculares",0,0,0,0,0
"Briofitas",0,0,0,0,0
"Anthocerotophyta",0,0,0,0,0
"Marchantiophyta",0,0,0,0,0
"Plantas vasculares",92,24,4,3,202
"Pteridofitas",0,0,0,0,0
"Gimnospermas",0,0,0,0,0
"Pinaceae",0,0,0,0,0
"Cupressaceae",0,0,0,0,0
"Podocarpaceae",0,0,0,0,0
"Zamiaceae",0,0,0,0,0
"Ephedraceae",0,0,0,0,0
"Taxaceae",0,0,0,0,0
"Angiospermas",92,24,4,3,202
"Asteraceae",10,3,0,0,22
"Cactaceae",6,5,0,1,24
"Crassulaceae",0,0,0,0,0
"Euphorbiaceae",8,2,0,0,23
"Fabaceae",10,1,0,0,24
"Fagaceae",0,0,0,0,0
"Lamiaceae",0,0,0,0,0
"Rubiaceae",0,0,0,0,0
"Solanaceae",5,0,0,0,7
"Orchidaceae",0,0,0,0,0
"Asparagaceae",1,1,0,0,8
"Arecaceae",0,0,0,0,0
"Bromeliaceae",0,0,0,0,0
"Poaceae",6,0,0,0,16
"Commelinaceae",0,0,0,0,0
"Rosaceae",0,0,0,0,0
"Burseraceae",2,1,0,0,4
"Apocynaceae",4,1,0,0,7
"Campanulaceae",0,0,0,0,0
"Invertebrados no artrópodos",72,0,0,0,219
"Esponjas de mar",4,0,0,0,4
"Cnidarios",19,0,0,0,104
"Ctenóforos",0,0,0,0,0
"Chaetognatha",0,0,0,0,0
"platelmintos",0,0,0,0,0
"Moluscos",30,0,0,0,80
"Gusanos anélidos",19,0,0,0,31
"Sipuncula",0,0,0,0,0
"Rotifera",0,0,0,0,0
"Acanthocephala",0,0,0,0,0
"Briozoos",0,0,0,0,0
"Brachiopodos",0,0,0,0,0
"Tardigrados",0,0,0,0,0
"Onychophora",0,0,0,0,0
"Equinodermos",0,0,0,0,0
"Urocordados",0,0,0,0,0
"Artrópodos",40,0,0,0,77
"Crustáceos",32,0,0,0,66
"Quelicerados",0,0,0,0,0
"Miriápodos",0,0,0,0,0
"Hexápodos",8,0,0,0,11
"Vertebrados",259,9,23,12,1581
"Peces",169,0,3,0,1208
"Anfibios",3,0,0,1,11
"Reptiles",9,4,6,1,36
"Aves",72,4,11,9,318
"Mamíferos",6,1,3,1,8
