"Grupo","Numero_de_especies_registradas","Numero_de_especies_endemicas","Numero_de_especies_en_la_NOM_059_SEMARNAT_2010","Numero_de_especies_prioritarias","Numero_de_registros"
"Bacterias",0,0,0,0,0
"Algas",0,0,0,0,0
"Hongos",13,0,2,0,14
"Plantas no vasculares",37,0,0,0,100
"Briofitas",37,0,0,0,100
"Anthocerotophyta",0,0,0,0,0
"Marchantiophyta",0,0,0,0,0
"Plantas vasculares",394,162,3,2,745
"Pteridofitas",0,0,0,0,0
"Gimnospermas",0,0,0,0,0
"Pinaceae",0,0,0,0,0
"Cupressaceae",0,0,0,0,0
"Podocarpaceae",0,0,0,0,0
"Zamiaceae",0,0,0,0,0
"Ephedraceae",0,0,0,0,0
"Taxaceae",0,0,0,0,0
"Angiospermas",389,162,3,2,738
"Asteraceae",86,40,0,0,187
"Cactaceae",7,7,1,2,10
"Crassulaceae",6,4,0,0,16
"Euphorbiaceae",11,3,0,0,15
"Fabaceae",29,6,0,0,45
"Fagaceae",9,8,0,0,41
"Lamiaceae",7,4,0,0,13
"Rubiaceae",6,1,0,0,9
"Solanaceae",8,3,0,0,14
"Orchidaceae",5,3,0,0,11
"Asparagaceae",10,8,1,0,28
"Arecaceae",0,0,0,0,0
"Bromeliaceae",2,0,0,0,8
"Poaceae",42,13,0,0,69
"Commelinaceae",3,2,0,0,4
"Rosaceae",3,1,0,0,4
"Burseraceae",0,0,0,0,0
"Apocynaceae",7,7,0,0,12
"Campanulaceae",3,1,0,0,5
"Invertebrados no artrópodos",0,0,0,0,0
"Esponjas de mar",0,0,0,0,0
"Cnidarios",0,0,0,0,0
"Ctenóforos",0,0,0,0,0
"Chaetognatha",0,0,0,0,0
"platelmintos",0,0,0,0,0
"Moluscos",0,0,0,0,0
"Gusanos anélidos",0,0,0,0,0
"Sipuncula",0,0,0,0,0
"Rotifera",0,0,0,0,0
"Acanthocephala",0,0,0,0,0
"Briozoos",0,0,0,0,0
"Brachiopodos",0,0,0,0,0
"Tardigrados",0,0,0,0,0
"Onychophora",0,0,0,0,0
"Equinodermos",0,0,0,0,0
"Urocordados",0,0,0,0,0
"Artrópodos",15,1,0,0,16
"Crustáceos",0,0,0,0,0
"Quelicerados",2,0,0,0,2
"Miriápodos",0,0,0,0,0
"Hexápodos",13,1,0,0,14
"Vertebrados",35,14,8,1,71
"Peces",0,0,0,0,0
"Anfibios",4,3,1,0,17
"Reptiles",10,8,5,0,22
"Aves",19,3,2,1,29
"Mamíferos",2,0,0,0,3
