"Grupo","Numero_de_especies_registradas","Numero_de_especies_endemicas","Numero_de_especies_en_la_NOM_059_SEMARNAT_2010","Numero_de_especies_prioritarias","Numero_de_registros"
"Bacterias",0,0,0,0,0
"Algas",0,0,0,0,0
"Hongos",1,0,0,0,1
"Plantas no vasculares",4,0,0,0,6
"Briofitas",4,0,0,0,6
"Anthocerotophyta",0,0,0,0,0
"Marchantiophyta",0,0,0,0,0
"Plantas vasculares",213,31,4,7,288
"Pteridofitas",0,0,0,0,0
"Gimnospermas",1,1,1,0,2
"Pinaceae",0,0,0,0,0
"Cupressaceae",0,0,0,0,0
"Podocarpaceae",0,0,0,0,0
"Zamiaceae",1,1,1,0,2
"Ephedraceae",0,0,0,0,0
"Taxaceae",0,0,0,0,0
"Angiospermas",208,30,3,7,281
"Asteraceae",10,2,0,0,13
"Cactaceae",1,1,0,1,1
"Crassulaceae",0,0,0,0,0
"Euphorbiaceae",8,4,0,0,9
"Fabaceae",32,2,0,0,53
"Fagaceae",0,0,0,0,0
"Lamiaceae",4,1,0,0,4
"Rubiaceae",8,0,0,0,14
"Solanaceae",5,1,0,0,6
"Orchidaceae",0,0,0,0,0
"Asparagaceae",0,0,0,0,0
"Arecaceae",2,1,1,0,2
"Bromeliaceae",7,1,0,0,15
"Poaceae",7,1,0,0,11
"Commelinaceae",3,0,0,0,4
"Rosaceae",1,0,0,0,1
"Burseraceae",1,1,0,0,1
"Apocynaceae",3,0,0,0,4
"Campanulaceae",1,0,0,0,2
"Invertebrados no artrópodos",2,0,0,0,2
"Esponjas de mar",0,0,0,0,0
"Cnidarios",0,0,0,0,0
"Ctenóforos",0,0,0,0,0
"Chaetognatha",0,0,0,0,0
"platelmintos",0,0,0,0,0
"Moluscos",2,0,0,0,2
"Gusanos anélidos",0,0,0,0,0
"Sipuncula",0,0,0,0,0
"Rotifera",0,0,0,0,0
"Acanthocephala",0,0,0,0,0
"Briozoos",0,0,0,0,0
"Brachiopodos",0,0,0,0,0
"Tardigrados",0,0,0,0,0
"Onychophora",0,0,0,0,0
"Equinodermos",0,0,0,0,0
"Urocordados",0,0,0,0,0
"Artrópodos",60,1,1,1,129
"Crustáceos",2,0,0,0,2
"Quelicerados",8,0,0,0,16
"Miriápodos",0,0,0,0,0
"Hexápodos",50,1,1,1,111
"Vertebrados",246,41,61,30,4501
"Peces",11,0,0,0,13
"Anfibios",16,10,4,0,65
"Reptiles",26,13,14,7,89
"Aves",174,16,41,22,4304
"Mamíferos",19,2,2,1,30
