"Grupo","Numero_de_especies_registradas","Numero_de_especies_endemicas","Numero_de_especies_en_la_NOM_059_SEMARNAT_2010","Numero_de_especies_prioritarias","Numero_de_registros"
"Bacterias",18,0,0,0,24
"Algas",114,7,0,0,1930
"Hongos",82,0,0,0,280
"Plantas no vasculares",21,0,0,0,51
"Briofitas",17,0,0,0,44
"Anthocerotophyta",0,0,0,0,0
"Marchantiophyta",4,0,0,0,7
"Plantas vasculares",214,18,11,0,4774
"Pteridofitas",0,0,0,0,0
"Gimnospermas",4,2,3,0,79
"Pinaceae",2,0,1,0,10
"Cupressaceae",2,2,2,0,69
"Podocarpaceae",0,0,0,0,0
"Zamiaceae",0,0,0,0,0
"Ephedraceae",0,0,0,0,0
"Taxaceae",0,0,0,0,0
"Angiospermas",202,16,8,0,4648
"Asteraceae",33,1,0,0,1321
"Cactaceae",4,3,3,0,38
"Crassulaceae",2,0,0,0,68
"Euphorbiaceae",2,1,0,0,47
"Fabaceae",13,0,0,0,520
"Fagaceae",3,0,0,0,96
"Lamiaceae",2,1,0,0,5
"Rubiaceae",2,0,0,0,51
"Solanaceae",11,0,0,0,92
"Orchidaceae",0,0,0,0,0
"Asparagaceae",3,1,0,0,108
"Arecaceae",1,1,1,0,39
"Bromeliaceae",0,0,0,0,0
"Poaceae",12,1,0,0,72
"Commelinaceae",0,0,0,0,0
"Rosaceae",1,0,0,0,3
"Burseraceae",0,0,0,0,0
"Apocynaceae",0,0,0,0,0
"Campanulaceae",1,0,0,0,32
"Invertebrados no artrópodos",40,0,0,1,91
"Esponjas de mar",2,0,0,0,2
"Cnidarios",4,0,0,0,14
"Ctenóforos",0,0,0,0,0
"Chaetognatha",0,0,0,0,0
"platelmintos",7,0,0,0,39
"Moluscos",25,0,0,1,34
"Gusanos anélidos",1,0,0,0,1
"Sipuncula",0,0,0,0,0
"Rotifera",0,0,0,0,0
"Acanthocephala",0,0,0,0,0
"Briozoos",0,0,0,0,0
"Brachiopodos",0,0,0,0,0
"Tardigrados",0,0,0,0,0
"Onychophora",0,0,0,0,0
"Equinodermos",1,0,0,0,1
"Urocordados",0,0,0,0,0
"Artrópodos",28,0,0,0,51
"Crustáceos",17,0,0,0,23
"Quelicerados",1,0,0,0,3
"Miriápodos",0,0,0,0,0
"Hexápodos",10,0,0,0,25
"Vertebrados",300,6,27,12,5535
"Peces",232,0,6,2,3446
"Anfibios",0,0,0,0,0
"Reptiles",2,1,2,1,3
"Aves",61,5,14,5,1994
"Mamíferos",5,0,5,4,92
