"Grupo","Numero_de_especies_registradas","Numero_de_especies_endemicas","Numero_de_especies_en_la_NOM_059_SEMARNAT_2010","Numero_de_especies_prioritarias","Numero_de_registros"
"Bacterias",1,0,0,0,1
"Algas",1,0,0,0,1
"Hongos",44,0,1,0,100
"Plantas no vasculares",4,0,0,0,5
"Briofitas",4,0,0,0,5
"Anthocerotophyta",0,0,0,0,0
"Marchantiophyta",0,0,0,0,0
"Plantas vasculares",190,56,7,2,389
"Pteridofitas",0,0,0,0,0
"Gimnospermas",2,0,0,0,5
"Pinaceae",1,0,0,0,1
"Cupressaceae",1,0,0,0,4
"Podocarpaceae",0,0,0,0,0
"Zamiaceae",0,0,0,0,0
"Ephedraceae",0,0,0,0,0
"Taxaceae",0,0,0,0,0
"Angiospermas",170,56,7,2,340
"Asteraceae",19,7,0,0,30
"Cactaceae",16,6,4,1,43
"Crassulaceae",7,5,0,0,32
"Euphorbiaceae",5,2,0,0,7
"Fabaceae",11,1,0,0,16
"Fagaceae",5,3,0,0,9
"Lamiaceae",7,0,0,0,11
"Rubiaceae",1,0,0,0,1
"Solanaceae",2,0,0,0,4
"Orchidaceae",0,0,0,0,0
"Asparagaceae",13,9,2,1,40
"Arecaceae",1,1,1,0,2
"Bromeliaceae",0,0,0,0,0
"Poaceae",9,3,0,0,16
"Commelinaceae",2,2,0,0,3
"Rosaceae",2,1,0,0,2
"Burseraceae",0,0,0,0,0
"Apocynaceae",3,1,0,0,4
"Campanulaceae",0,0,0,0,0
"Invertebrados no artrópodos",2,0,0,0,3
"Esponjas de mar",0,0,0,0,0
"Cnidarios",0,0,0,0,0
"Ctenóforos",0,0,0,0,0
"Chaetognatha",0,0,0,0,0
"platelmintos",0,0,0,0,0
"Moluscos",2,0,0,0,3
"Gusanos anélidos",0,0,0,0,0
"Sipuncula",0,0,0,0,0
"Rotifera",0,0,0,0,0
"Acanthocephala",0,0,0,0,0
"Briozoos",0,0,0,0,0
"Brachiopodos",0,0,0,0,0
"Tardigrados",0,0,0,0,0
"Onychophora",0,0,0,0,0
"Equinodermos",0,0,0,0,0
"Urocordados",0,0,0,0,0
"Artrópodos",17,0,1,1,24
"Crustáceos",0,0,0,0,0
"Quelicerados",3,0,0,0,4
"Miriápodos",0,0,0,0,0
"Hexápodos",14,0,1,1,20
"Vertebrados",36,9,11,4,60
"Peces",1,0,0,0,1
"Anfibios",3,1,1,0,8
"Reptiles",13,3,6,1,25
"Aves",14,4,4,3,17
"Mamíferos",5,1,0,0,9
