"Grupo","Numero_de_especies_registradas","Numero_de_especies_endemicas","Numero_de_especies_en_la_NOM_059_SEMARNAT_2010","Numero_de_especies_prioritarias","Numero_de_registros"
"Bacterias",2,0,0,0,2
"Algas",4,0,0,0,8
"Hongos",6,0,0,0,11
"Plantas no vasculares",9,0,0,0,18
"Briofitas",9,0,0,0,18
"Anthocerotophyta",0,0,0,0,0
"Marchantiophyta",0,0,0,0,0
"Plantas vasculares",382,37,3,4,831
"Pteridofitas",0,0,0,0,0
"Gimnospermas",0,0,0,0,0
"Pinaceae",0,0,0,0,0
"Cupressaceae",0,0,0,0,0
"Podocarpaceae",0,0,0,0,0
"Zamiaceae",0,0,0,0,0
"Ephedraceae",0,0,0,0,0
"Taxaceae",0,0,0,0,0
"Angiospermas",376,37,3,4,824
"Asteraceae",33,0,0,0,55
"Cactaceae",2,1,0,0,2
"Crassulaceae",0,0,0,0,0
"Euphorbiaceae",28,6,0,0,47
"Fabaceae",45,6,0,1,90
"Fagaceae",0,0,0,0,0
"Lamiaceae",8,0,0,0,13
"Rubiaceae",11,1,0,0,18
"Solanaceae",18,2,0,0,37
"Orchidaceae",2,2,1,1,4
"Asparagaceae",0,0,0,0,0
"Arecaceae",1,0,0,0,1
"Bromeliaceae",4,1,0,0,6
"Poaceae",30,5,0,0,148
"Commelinaceae",5,0,0,0,12
"Rosaceae",0,0,0,0,0
"Burseraceae",0,0,0,0,0
"Apocynaceae",9,2,0,0,24
"Campanulaceae",1,0,0,0,1
"Invertebrados no artrópodos",7,0,0,0,7
"Esponjas de mar",0,0,0,0,0
"Cnidarios",0,0,0,0,0
"Ctenóforos",0,0,0,0,0
"Chaetognatha",0,0,0,0,0
"platelmintos",0,0,0,0,0
"Moluscos",3,0,0,0,3
"Gusanos anélidos",0,0,0,0,0
"Sipuncula",0,0,0,0,0
"Rotifera",4,0,0,0,4
"Acanthocephala",0,0,0,0,0
"Briozoos",0,0,0,0,0
"Brachiopodos",0,0,0,0,0
"Tardigrados",0,0,0,0,0
"Onychophora",0,0,0,0,0
"Equinodermos",0,0,0,0,0
"Urocordados",0,0,0,0,0
"Artrópodos",5,0,0,0,10
"Crustáceos",5,0,0,0,10
"Quelicerados",0,0,0,0,0
"Miriápodos",0,0,0,0,0
"Hexápodos",0,0,0,0,0
"Vertebrados",110,7,26,7,536
"Peces",16,0,8,2,279
"Anfibios",7,0,2,1,24
"Reptiles",10,1,2,0,34
"Aves",67,5,13,3,181
"Mamíferos",10,1,1,1,18
