"Grupo","Numero_de_especies_registradas","Numero_de_especies_endemicas","Numero_de_especies_en_la_NOM_059_SEMARNAT_2010","Numero_de_especies_prioritarias","Numero_de_registros"
"Bacterias",0,0,0,0,0
"Algas",0,0,0,0,0
"Hongos",0,0,0,0,0
"Plantas no vasculares",0,0,0,0,0
"Briofitas",0,0,0,0,0
"Anthocerotophyta",0,0,0,0,0
"Marchantiophyta",0,0,0,0,0
"Plantas vasculares",8,4,0,0,8
"Pteridofitas",0,0,0,0,0
"Gimnospermas",0,0,0,0,0
"Pinaceae",0,0,0,0,0
"Cupressaceae",0,0,0,0,0
"Podocarpaceae",0,0,0,0,0
"Zamiaceae",0,0,0,0,0
"Ephedraceae",0,0,0,0,0
"Taxaceae",0,0,0,0,0
"Angiospermas",8,4,0,0,8
"Asteraceae",0,0,0,0,0
"Cactaceae",0,0,0,0,0
"Crassulaceae",1,1,0,0,1
"Euphorbiaceae",0,0,0,0,0
"Fabaceae",0,0,0,0,0
"Fagaceae",0,0,0,0,0
"Lamiaceae",0,0,0,0,0
"Rubiaceae",0,0,0,0,0
"Solanaceae",0,0,0,0,0
"Orchidaceae",1,1,0,0,1
"Asparagaceae",0,0,0,0,0
"Arecaceae",0,0,0,0,0
"Bromeliaceae",2,2,0,0,2
"Poaceae",0,0,0,0,0
"Commelinaceae",0,0,0,0,0
"Rosaceae",0,0,0,0,0
"Burseraceae",0,0,0,0,0
"Apocynaceae",0,0,0,0,0
"Campanulaceae",0,0,0,0,0
"Invertebrados no artrópodos",0,0,0,0,0
"Esponjas de mar",0,0,0,0,0
"Cnidarios",0,0,0,0,0
"Ctenóforos",0,0,0,0,0
"Chaetognatha",0,0,0,0,0
"platelmintos",0,0,0,0,0
"Moluscos",0,0,0,0,0
"Gusanos anélidos",0,0,0,0,0
"Sipuncula",0,0,0,0,0
"Rotifera",0,0,0,0,0
"Acanthocephala",0,0,0,0,0
"Briozoos",0,0,0,0,0
"Brachiopodos",0,0,0,0,0
"Tardigrados",0,0,0,0,0
"Onychophora",0,0,0,0,0
"Equinodermos",0,0,0,0,0
"Urocordados",0,0,0,0,0
"Artrópodos",10,0,0,0,19
"Crustáceos",0,0,0,0,0
"Quelicerados",1,0,0,0,1
"Miriápodos",0,0,0,0,0
"Hexápodos",9,0,0,0,18
"Vertebrados",56,7,21,3,286
"Peces",0,0,0,0,0
"Anfibios",3,1,2,0,8
"Reptiles",5,2,1,0,11
"Aves",42,1,17,3,243
"Mamíferos",6,3,1,0,24
