"Grupo","Numero_de_especies_registradas","Numero_de_especies_endemicas","Numero_de_especies_en_la_NOM_059_SEMARNAT_2010","Numero_de_especies_prioritarias","Numero_de_registros"
"Bacterias",0,0,0,0,0
"Algas",0,0,0,0,0
"Hongos",105,0,0,0,347
"Plantas no vasculares",14,0,0,0,22
"Briofitas",14,0,0,0,22
"Anthocerotophyta",0,0,0,0,0
"Marchantiophyta",0,0,0,0,0
"Plantas vasculares",322,47,2,1,787
"Pteridofitas",0,0,0,0,0
"Gimnospermas",11,2,1,1,48
"Pinaceae",7,2,1,1,37
"Cupressaceae",3,0,0,0,6
"Podocarpaceae",0,0,0,0,0
"Zamiaceae",0,0,0,0,0
"Ephedraceae",1,0,0,0,5
"Taxaceae",0,0,0,0,0
"Angiospermas",307,45,1,0,735
"Asteraceae",50,3,0,0,84
"Cactaceae",13,0,0,0,32
"Crassulaceae",1,0,0,0,1
"Euphorbiaceae",12,1,0,0,25
"Fabaceae",19,0,0,0,39
"Fagaceae",9,2,0,0,21
"Lamiaceae",6,0,0,0,6
"Rubiaceae",1,0,0,0,3
"Solanaceae",8,1,0,0,17
"Orchidaceae",2,2,0,0,2
"Asparagaceae",8,7,0,0,16
"Arecaceae",0,0,0,0,0
"Bromeliaceae",0,0,0,0,0
"Poaceae",70,19,0,0,295
"Commelinaceae",3,2,0,0,6
"Rosaceae",5,0,0,0,9
"Burseraceae",0,0,0,0,0
"Apocynaceae",11,0,0,0,24
"Campanulaceae",0,0,0,0,0
"Invertebrados no artrópodos",2,0,0,0,2
"Esponjas de mar",0,0,0,0,0
"Cnidarios",0,0,0,0,0
"Ctenóforos",0,0,0,0,0
"Chaetognatha",0,0,0,0,0
"platelmintos",0,0,0,0,0
"Moluscos",2,0,0,0,2
"Gusanos anélidos",0,0,0,0,0
"Sipuncula",0,0,0,0,0
"Rotifera",0,0,0,0,0
"Acanthocephala",0,0,0,0,0
"Briozoos",0,0,0,0,0
"Brachiopodos",0,0,0,0,0
"Tardigrados",0,0,0,0,0
"Onychophora",0,0,0,0,0
"Equinodermos",0,0,0,0,0
"Urocordados",0,0,0,0,0
"Artrópodos",107,1,1,1,284
"Crustáceos",0,0,0,0,0
"Quelicerados",33,0,0,0,151
"Miriápodos",2,0,0,0,6
"Hexápodos",72,1,1,1,127
"Vertebrados",245,16,54,34,3950
"Peces",0,0,0,0,0
"Anfibios",13,1,5,0,106
"Reptiles",54,2,18,0,864
"Aves",116,11,24,30,2510
"Mamíferos",62,2,7,4,470
