"Grupo","Numero_de_especies_registradas","Numero_de_especies_endemicas","Numero_de_especies_en_la_NOM_059_SEMARNAT_2010","Numero_de_especies_prioritarias","Numero_de_registros"
"Bacterias",5,0,0,0,11
"Algas",79,0,0,0,79
"Hongos",3,0,0,0,3
"Plantas no vasculares",0,0,0,0,0
"Briofitas",0,0,0,0,0
"Anthocerotophyta",0,0,0,0,0
"Marchantiophyta",0,0,0,0,0
"Plantas vasculares",52,5,4,6,87
"Pteridofitas",0,0,0,0,0
"Gimnospermas",0,0,0,0,0
"Pinaceae",0,0,0,0,0
"Cupressaceae",0,0,0,0,0
"Podocarpaceae",0,0,0,0,0
"Zamiaceae",0,0,0,0,0
"Ephedraceae",0,0,0,0,0
"Taxaceae",0,0,0,0,0
"Angiospermas",52,5,4,6,87
"Asteraceae",0,0,0,0,0
"Cactaceae",2,1,0,1,2
"Crassulaceae",0,0,0,0,0
"Euphorbiaceae",2,0,0,0,3
"Fabaceae",7,0,0,1,13
"Fagaceae",0,0,0,0,0
"Lamiaceae",0,0,0,0,0
"Rubiaceae",3,0,0,0,4
"Solanaceae",1,1,0,0,1
"Orchidaceae",0,0,0,0,0
"Asparagaceae",0,0,0,0,0
"Arecaceae",1,1,0,0,1
"Bromeliaceae",0,0,0,0,0
"Poaceae",0,0,0,0,0
"Commelinaceae",0,0,0,0,0
"Rosaceae",0,0,0,0,0
"Burseraceae",0,0,0,0,0
"Apocynaceae",4,0,0,0,4
"Campanulaceae",0,0,0,0,0
"Invertebrados no artrópodos",3,0,0,0,3
"Esponjas de mar",0,0,0,0,0
"Cnidarios",0,0,0,0,0
"Ctenóforos",0,0,0,0,0
"Chaetognatha",0,0,0,0,0
"platelmintos",0,0,0,0,0
"Moluscos",1,0,0,0,1
"Gusanos anélidos",2,0,0,0,2
"Sipuncula",0,0,0,0,0
"Rotifera",0,0,0,0,0
"Acanthocephala",0,0,0,0,0
"Briozoos",0,0,0,0,0
"Brachiopodos",0,0,0,0,0
"Tardigrados",0,0,0,0,0
"Onychophora",0,0,0,0,0
"Equinodermos",0,0,0,0,0
"Urocordados",0,0,0,0,0
"Artrópodos",61,0,0,0,117
"Crustáceos",10,0,0,0,14
"Quelicerados",0,0,0,0,0
"Miriápodos",0,0,0,0,0
"Hexápodos",51,0,0,0,103
"Vertebrados",203,17,32,14,874
"Peces",72,0,0,2,384
"Anfibios",7,1,3,0,39
"Reptiles",26,8,10,3,91
"Aves",89,7,18,8,316
"Mamíferos",9,1,1,1,44
