"Grupo","Numero_de_especies_registradas","Numero_de_especies_endemicas","Numero_de_especies_en_la_NOM_059_SEMARNAT_2010","Numero_de_especies_prioritarias","Numero_de_registros"
"Bacterias",0,0,0,0,0
"Algas",0,0,0,0,0
"Hongos",58,0,0,0,150
"Plantas no vasculares",61,0,0,0,117
"Briofitas",59,0,0,0,115
"Anthocerotophyta",0,0,0,0,0
"Marchantiophyta",2,0,0,0,2
"Plantas vasculares",431,182,10,5,1044
"Pteridofitas",0,0,0,0,0
"Gimnospermas",14,8,3,3,60
"Pinaceae",9,4,0,2,30
"Cupressaceae",3,2,1,0,14
"Podocarpaceae",0,0,0,0,0
"Zamiaceae",2,2,2,1,16
"Ephedraceae",0,0,0,0,0
"Taxaceae",0,0,0,0,0
"Angiospermas",395,171,7,2,949
"Asteraceae",60,29,0,0,114
"Cactaceae",7,7,3,1,14
"Crassulaceae",8,2,0,0,17
"Euphorbiaceae",10,5,0,0,18
"Fabaceae",23,5,0,0,86
"Fagaceae",24,18,0,1,118
"Lamiaceae",31,18,0,0,90
"Rubiaceae",7,3,1,0,12
"Solanaceae",10,3,0,0,80
"Orchidaceae",2,1,0,0,2
"Asparagaceae",8,6,0,0,16
"Arecaceae",2,2,1,0,4
"Bromeliaceae",5,2,0,0,9
"Poaceae",27,6,0,0,57
"Commelinaceae",9,3,0,0,12
"Rosaceae",7,3,0,0,13
"Burseraceae",0,0,0,0,0
"Apocynaceae",6,3,0,0,11
"Campanulaceae",0,0,0,0,0
"Invertebrados no artrópodos",2,0,0,0,2
"Esponjas de mar",0,0,0,0,0
"Cnidarios",0,0,0,0,0
"Ctenóforos",0,0,0,0,0
"Chaetognatha",0,0,0,0,0
"platelmintos",1,0,0,0,1
"Moluscos",1,0,0,0,1
"Gusanos anélidos",0,0,0,0,0
"Sipuncula",0,0,0,0,0
"Rotifera",0,0,0,0,0
"Acanthocephala",0,0,0,0,0
"Briozoos",0,0,0,0,0
"Brachiopodos",0,0,0,0,0
"Tardigrados",0,0,0,0,0
"Onychophora",0,0,0,0,0
"Equinodermos",0,0,0,0,0
"Urocordados",0,0,0,0,0
"Artrópodos",110,7,0,0,535
"Crustáceos",0,0,0,0,0
"Quelicerados",1,0,0,0,1
"Miriápodos",0,0,0,0,0
"Hexápodos",109,7,0,0,534
"Vertebrados",81,35,20,12,339
"Peces",0,0,0,0,0
"Anfibios",11,10,8,1,50
"Reptiles",23,16,9,0,184
"Aves",29,2,2,11,51
"Mamíferos",18,7,1,0,54
