"Grupo","Numero_de_especies_registradas","Numero_de_especies_endemicas","Numero_de_especies_en_la_NOM_059_SEMARNAT_2010","Numero_de_especies_prioritarias","Numero_de_registros"
"Bacterias",0,0,0,0,0
"Algas",0,0,0,0,0
"Hongos",5,0,0,0,8
"Plantas no vasculares",18,0,0,0,20
"Briofitas",18,0,0,0,20
"Anthocerotophyta",0,0,0,0,0
"Marchantiophyta",0,0,0,0,0
"Plantas vasculares",106,52,4,1,150
"Pteridofitas",0,0,0,0,0
"Gimnospermas",0,0,0,0,0
"Pinaceae",0,0,0,0,0
"Cupressaceae",0,0,0,0,0
"Podocarpaceae",0,0,0,0,0
"Zamiaceae",0,0,0,0,0
"Ephedraceae",0,0,0,0,0
"Taxaceae",0,0,0,0,0
"Angiospermas",102,51,4,1,145
"Asteraceae",4,0,0,0,4
"Cactaceae",2,2,0,0,2
"Crassulaceae",3,2,0,0,3
"Euphorbiaceae",2,0,0,0,4
"Fabaceae",15,5,0,0,19
"Fagaceae",5,5,0,0,7
"Lamiaceae",4,3,0,0,5
"Rubiaceae",1,1,0,0,1
"Solanaceae",3,2,0,0,5
"Orchidaceae",17,10,4,1,24
"Asparagaceae",4,3,0,0,12
"Arecaceae",0,0,0,0,0
"Bromeliaceae",3,2,0,0,4
"Poaceae",0,0,0,0,0
"Commelinaceae",2,1,0,0,9
"Rosaceae",4,0,0,0,4
"Burseraceae",1,1,0,0,1
"Apocynaceae",5,2,0,0,6
"Campanulaceae",1,0,0,0,2
"Invertebrados no artrópodos",0,0,0,0,0
"Esponjas de mar",0,0,0,0,0
"Cnidarios",0,0,0,0,0
"Ctenóforos",0,0,0,0,0
"Chaetognatha",0,0,0,0,0
"platelmintos",0,0,0,0,0
"Moluscos",0,0,0,0,0
"Gusanos anélidos",0,0,0,0,0
"Sipuncula",0,0,0,0,0
"Rotifera",0,0,0,0,0
"Acanthocephala",0,0,0,0,0
"Briozoos",0,0,0,0,0
"Brachiopodos",0,0,0,0,0
"Tardigrados",0,0,0,0,0
"Onychophora",0,0,0,0,0
"Equinodermos",0,0,0,0,0
"Urocordados",0,0,0,0,0
"Artrópodos",11,0,0,0,12
"Crustáceos",0,0,0,0,0
"Quelicerados",0,0,0,0,0
"Miriápodos",0,0,0,0,0
"Hexápodos",11,0,0,0,12
"Vertebrados",59,19,13,3,128
"Peces",0,0,0,0,0
"Anfibios",6,5,3,0,13
"Reptiles",7,7,5,0,25
"Aves",33,7,4,3,68
"Mamíferos",13,0,1,0,22
