"Grupo","Numero_de_especies_registradas","Numero_de_especies_endemicas","Numero_de_especies_en_la_NOM_059_SEMARNAT_2010","Numero_de_especies_prioritarias","Numero_de_registros"
"Bacterias",7,0,0,0,39
"Algas",0,0,0,0,0
"Hongos",0,0,0,0,0
"Plantas no vasculares",0,0,0,0,0
"Briofitas",0,0,0,0,0
"Anthocerotophyta",0,0,0,0,0
"Marchantiophyta",0,0,0,0,0
"Plantas vasculares",52,4,7,4,80
"Pteridofitas",0,0,0,0,0
"Gimnospermas",0,0,0,0,0
"Pinaceae",0,0,0,0,0
"Cupressaceae",0,0,0,0,0
"Podocarpaceae",0,0,0,0,0
"Zamiaceae",0,0,0,0,0
"Ephedraceae",0,0,0,0,0
"Taxaceae",0,0,0,0,0
"Angiospermas",52,4,7,4,80
"Asteraceae",3,0,0,0,5
"Cactaceae",1,0,0,0,1
"Crassulaceae",0,0,0,0,0
"Euphorbiaceae",0,0,0,0,0
"Fabaceae",7,1,0,0,10
"Fagaceae",0,0,0,0,0
"Lamiaceae",0,0,0,0,0
"Rubiaceae",4,0,0,0,5
"Solanaceae",1,0,0,0,5
"Orchidaceae",2,2,0,0,2
"Asparagaceae",1,0,0,0,1
"Arecaceae",0,0,0,0,0
"Bromeliaceae",0,0,0,0,0
"Poaceae",5,0,0,0,8
"Commelinaceae",0,0,0,0,0
"Rosaceae",0,0,0,0,0
"Burseraceae",0,0,0,0,0
"Apocynaceae",0,0,0,0,0
"Campanulaceae",0,0,0,0,0
"Invertebrados no artrópodos",2,0,0,0,2
"Esponjas de mar",0,0,0,0,0
"Cnidarios",0,0,0,0,0
"Ctenóforos",0,0,0,0,0
"Chaetognatha",0,0,0,0,0
"platelmintos",0,0,0,0,0
"Moluscos",2,0,0,0,2
"Gusanos anélidos",0,0,0,0,0
"Sipuncula",0,0,0,0,0
"Rotifera",0,0,0,0,0
"Acanthocephala",0,0,0,0,0
"Briozoos",0,0,0,0,0
"Brachiopodos",0,0,0,0,0
"Tardigrados",0,0,0,0,0
"Onychophora",0,0,0,0,0
"Equinodermos",0,0,0,0,0
"Urocordados",0,0,0,0,0
"Artrópodos",15,0,0,0,19
"Crustáceos",1,0,0,0,1
"Quelicerados",0,0,0,0,0
"Miriápodos",0,0,0,0,0
"Hexápodos",14,0,0,0,18
"Vertebrados",121,4,32,15,361
"Peces",19,0,1,1,21
"Anfibios",3,0,1,1,5
"Reptiles",11,0,8,4,28
"Aves",84,4,22,8,296
"Mamíferos",4,0,0,1,11
