"Grupo","Numero_de_especies_registradas","Numero_de_especies_endemicas","Numero_de_especies_en_la_NOM_059_SEMARNAT_2010","Numero_de_especies_prioritarias","Numero_de_registros"
"Bacterias",0,0,0,0,0
"Algas",0,0,0,0,0
"Hongos",0,0,0,0,0
"Plantas no vasculares",1,0,0,0,1
"Briofitas",1,0,0,0,1
"Anthocerotophyta",0,0,0,0,0
"Marchantiophyta",0,0,0,0,0
"Plantas vasculares",19,9,2,0,29
"Pteridofitas",0,0,0,0,0
"Gimnospermas",0,0,0,0,0
"Pinaceae",0,0,0,0,0
"Cupressaceae",0,0,0,0,0
"Podocarpaceae",0,0,0,0,0
"Zamiaceae",0,0,0,0,0
"Ephedraceae",0,0,0,0,0
"Taxaceae",0,0,0,0,0
"Angiospermas",19,9,2,0,29
"Asteraceae",3,0,0,0,4
"Cactaceae",1,1,0,0,1
"Crassulaceae",1,0,0,0,1
"Euphorbiaceae",0,0,0,0,0
"Fabaceae",2,1,0,0,4
"Fagaceae",2,1,0,0,2
"Lamiaceae",0,0,0,0,0
"Rubiaceae",0,0,0,0,0
"Solanaceae",1,0,0,0,2
"Orchidaceae",2,2,1,0,4
"Asparagaceae",0,0,0,0,0
"Arecaceae",0,0,0,0,0
"Bromeliaceae",0,0,0,0,0
"Poaceae",1,1,0,0,1
"Commelinaceae",0,0,0,0,0
"Rosaceae",0,0,0,0,0
"Burseraceae",2,2,0,0,2
"Apocynaceae",0,0,0,0,0
"Campanulaceae",0,0,0,0,0
"Invertebrados no artrópodos",0,0,0,0,0
"Esponjas de mar",0,0,0,0,0
"Cnidarios",0,0,0,0,0
"Ctenóforos",0,0,0,0,0
"Chaetognatha",0,0,0,0,0
"platelmintos",0,0,0,0,0
"Moluscos",0,0,0,0,0
"Gusanos anélidos",0,0,0,0,0
"Sipuncula",0,0,0,0,0
"Rotifera",0,0,0,0,0
"Acanthocephala",0,0,0,0,0
"Briozoos",0,0,0,0,0
"Brachiopodos",0,0,0,0,0
"Tardigrados",0,0,0,0,0
"Onychophora",0,0,0,0,0
"Equinodermos",0,0,0,0,0
"Urocordados",0,0,0,0,0
"Artrópodos",0,0,0,0,0
"Crustáceos",0,0,0,0,0
"Quelicerados",0,0,0,0,0
"Miriápodos",0,0,0,0,0
"Hexápodos",0,0,0,0,0
"Vertebrados",6,1,1,1,8
"Peces",1,0,0,0,2
"Anfibios",1,0,0,1,1
"Reptiles",1,1,1,0,2
"Aves",0,0,0,0,0
"Mamíferos",3,0,0,0,3
