"Grupo","Numero_de_especies_registradas","Numero_de_especies_endemicas","Numero_de_especies_en_la_NOM_059_SEMARNAT_2010","Numero_de_especies_prioritarias","Numero_de_registros"
"Bacterias",0,0,0,0,0
"Algas",0,0,0,0,0
"Hongos",5,0,0,0,6
"Plantas no vasculares",0,0,0,0,0
"Briofitas",0,0,0,0,0
"Anthocerotophyta",0,0,0,0,0
"Marchantiophyta",0,0,0,0,0
"Plantas vasculares",475,108,12,12,2486
"Pteridofitas",0,0,0,0,0
"Gimnospermas",0,0,0,0,0
"Pinaceae",0,0,0,0,0
"Cupressaceae",0,0,0,0,0
"Podocarpaceae",0,0,0,0,0
"Zamiaceae",0,0,0,0,0
"Ephedraceae",0,0,0,0,0
"Taxaceae",0,0,0,0,0
"Angiospermas",475,108,12,12,2486
"Asteraceae",30,8,0,0,71
"Cactaceae",18,12,2,1,278
"Crassulaceae",0,0,0,0,0
"Euphorbiaceae",35,13,0,0,175
"Fabaceae",81,15,0,1,495
"Fagaceae",0,0,0,0,0
"Lamiaceae",7,2,0,0,32
"Rubiaceae",5,3,0,0,22
"Solanaceae",14,5,0,0,41
"Orchidaceae",1,1,0,0,2
"Asparagaceae",6,3,0,0,27
"Arecaceae",1,0,0,0,1
"Bromeliaceae",8,3,0,0,68
"Poaceae",26,2,0,0,44
"Commelinaceae",1,0,0,0,5
"Rosaceae",0,0,0,0,0
"Burseraceae",5,4,1,1,17
"Apocynaceae",13,4,0,0,88
"Campanulaceae",0,0,0,0,0
"Invertebrados no artrópodos",19,0,0,0,31
"Esponjas de mar",0,0,0,0,0
"Cnidarios",2,0,0,0,2
"Ctenóforos",0,0,0,0,0
"Chaetognatha",0,0,0,0,0
"platelmintos",1,0,0,0,1
"Moluscos",16,0,0,0,28
"Gusanos anélidos",0,0,0,0,0
"Sipuncula",0,0,0,0,0
"Rotifera",0,0,0,0,0
"Acanthocephala",0,0,0,0,0
"Briozoos",0,0,0,0,0
"Brachiopodos",0,0,0,0,0
"Tardigrados",0,0,0,0,0
"Onychophora",0,0,0,0,0
"Equinodermos",0,0,0,0,0
"Urocordados",0,0,0,0,0
"Artrópodos",89,0,1,0,223
"Crustáceos",8,0,0,0,27
"Quelicerados",8,0,1,0,16
"Miriápodos",0,0,0,0,0
"Hexápodos",73,0,0,0,180
"Vertebrados",279,39,60,30,3097
"Peces",12,0,2,1,47
"Anfibios",15,6,1,0,89
"Reptiles",44,17,18,5,326
"Aves",164,13,32,20,1693
"Mamíferos",44,3,7,4,942
