"Grupo","Numero_de_especies_registradas","Numero_de_especies_endemicas","Numero_de_especies_en_la_NOM_059_SEMARNAT_2010","Numero_de_especies_prioritarias","Numero_de_registros"
"Bacterias",0,0,0,0,0
"Algas",0,0,0,0,0
"Hongos",27,0,0,0,35
"Plantas no vasculares",4,0,0,0,5
"Briofitas",3,0,0,0,4
"Anthocerotophyta",0,0,0,0,0
"Marchantiophyta",1,0,0,0,1
"Plantas vasculares",219,103,9,6,415
"Pteridofitas",0,0,0,0,0
"Gimnospermas",12,4,5,4,42
"Pinaceae",9,4,4,4,37
"Cupressaceae",2,0,0,0,2
"Podocarpaceae",0,0,0,0,0
"Zamiaceae",0,0,0,0,0
"Ephedraceae",0,0,0,0,0
"Taxaceae",1,0,1,0,3
"Angiospermas",202,99,4,2,362
"Asteraceae",34,23,0,0,57
"Cactaceae",1,1,0,1,1
"Crassulaceae",6,3,0,0,11
"Euphorbiaceae",1,1,0,0,1
"Fabaceae",13,6,0,0,17
"Fagaceae",11,9,0,1,19
"Lamiaceae",6,3,0,0,14
"Rubiaceae",2,0,0,0,4
"Solanaceae",5,5,0,0,13
"Orchidaceae",1,1,0,0,7
"Asparagaceae",3,3,0,0,11
"Arecaceae",0,0,0,0,0
"Bromeliaceae",1,1,0,0,7
"Poaceae",28,13,0,0,52
"Commelinaceae",5,2,0,0,5
"Rosaceae",3,0,0,0,6
"Burseraceae",0,0,0,0,0
"Apocynaceae",1,1,0,0,1
"Campanulaceae",3,1,0,0,5
"Invertebrados no artrópodos",2,0,0,0,4
"Esponjas de mar",0,0,0,0,0
"Cnidarios",0,0,0,0,0
"Ctenóforos",0,0,0,0,0
"Chaetognatha",0,0,0,0,0
"platelmintos",0,0,0,0,0
"Moluscos",2,0,0,0,4
"Gusanos anélidos",0,0,0,0,0
"Sipuncula",0,0,0,0,0
"Rotifera",0,0,0,0,0
"Acanthocephala",0,0,0,0,0
"Briozoos",0,0,0,0,0
"Brachiopodos",0,0,0,0,0
"Tardigrados",0,0,0,0,0
"Onychophora",0,0,0,0,0
"Equinodermos",0,0,0,0,0
"Urocordados",0,0,0,0,0
"Artrópodos",6,0,1,1,11
"Crustáceos",0,0,0,0,0
"Quelicerados",1,0,0,0,4
"Miriápodos",0,0,0,0,0
"Hexápodos",5,0,1,1,7
"Vertebrados",32,15,5,1,88
"Peces",0,0,0,0,0
"Anfibios",3,3,1,0,21
"Reptiles",12,9,3,0,26
"Aves",11,3,0,0,32
"Mamíferos",6,0,1,1,9
