"Grupo","Numero_de_especies_registradas","Numero_de_especies_endemicas","Numero_de_especies_en_la_NOM_059_SEMARNAT_2010","Numero_de_especies_prioritarias","Numero_de_registros"
"Bacterias",0,0,0,0,0
"Algas",1,0,0,0,1
"Hongos",139,0,2,0,448
"Plantas no vasculares",26,0,0,0,38
"Briofitas",24,0,0,0,36
"Anthocerotophyta",0,0,0,0,0
"Marchantiophyta",2,0,0,0,2
"Plantas vasculares",245,76,3,3,886
"Pteridofitas",0,0,0,0,0
"Gimnospermas",12,4,2,2,378
"Pinaceae",11,4,2,2,365
"Cupressaceae",1,0,0,0,13
"Podocarpaceae",0,0,0,0,0
"Zamiaceae",0,0,0,0,0
"Ephedraceae",0,0,0,0,0
"Taxaceae",0,0,0,0,0
"Angiospermas",231,72,1,1,506
"Asteraceae",55,15,0,0,91
"Cactaceae",4,1,0,0,6
"Crassulaceae",2,0,0,0,3
"Euphorbiaceae",3,0,0,0,3
"Fabaceae",11,2,0,0,19
"Fagaceae",12,8,0,1,37
"Lamiaceae",8,1,0,0,11
"Rubiaceae",5,0,0,0,5
"Solanaceae",3,1,0,0,27
"Orchidaceae",0,0,0,0,0
"Asparagaceae",0,0,0,0,0
"Arecaceae",0,0,0,0,0
"Bromeliaceae",0,0,0,0,0
"Poaceae",58,23,1,0,205
"Commelinaceae",1,1,0,0,3
"Rosaceae",1,0,0,0,2
"Burseraceae",0,0,0,0,0
"Apocynaceae",2,0,0,0,2
"Campanulaceae",1,0,0,0,1
"Invertebrados no artrópodos",0,0,0,0,0
"Esponjas de mar",0,0,0,0,0
"Cnidarios",0,0,0,0,0
"Ctenóforos",0,0,0,0,0
"Chaetognatha",0,0,0,0,0
"platelmintos",0,0,0,0,0
"Moluscos",0,0,0,0,0
"Gusanos anélidos",0,0,0,0,0
"Sipuncula",0,0,0,0,0
"Rotifera",0,0,0,0,0
"Acanthocephala",0,0,0,0,0
"Briozoos",0,0,0,0,0
"Brachiopodos",0,0,0,0,0
"Tardigrados",0,0,0,0,0
"Onychophora",0,0,0,0,0
"Equinodermos",0,0,0,0,0
"Urocordados",0,0,0,0,0
"Artrópodos",25,0,0,0,152
"Crustáceos",0,0,0,0,0
"Quelicerados",1,0,0,0,1
"Miriápodos",0,0,0,0,0
"Hexápodos",24,0,0,0,151
"Vertebrados",92,16,27,6,670
"Peces",9,0,5,0,61
"Anfibios",10,4,4,0,388
"Reptiles",18,6,6,0,72
"Aves",37,5,9,5,99
"Mamíferos",18,1,3,1,50
