"Grupo","Numero_de_especies_registradas","Numero_de_especies_endemicas","Numero_de_especies_en_la_NOM_059_SEMARNAT_2010","Numero_de_especies_prioritarias","Numero_de_registros"
"Bacterias",0,0,0,0,0
"Algas",0,0,0,0,0
"Hongos",181,0,0,0,547
"Plantas no vasculares",2,0,0,0,3
"Briofitas",2,0,0,0,3
"Anthocerotophyta",0,0,0,0,0
"Marchantiophyta",0,0,0,0,0
"Plantas vasculares",1075,311,16,11,3862
"Pteridofitas",0,0,0,0,0
"Gimnospermas",10,6,3,4,64
"Pinaceae",7,4,1,1,15
"Cupressaceae",1,0,0,1,33
"Podocarpaceae",0,0,0,0,0
"Zamiaceae",2,2,2,2,16
"Ephedraceae",0,0,0,0,0
"Taxaceae",0,0,0,0,0
"Angiospermas",1017,300,13,7,3659
"Asteraceae",121,39,1,0,350
"Cactaceae",25,14,2,1,134
"Crassulaceae",3,2,0,0,5
"Euphorbiaceae",64,29,0,0,373
"Fabaceae",111,21,0,0,311
"Fagaceae",10,6,0,0,86
"Lamiaceae",19,10,0,0,101
"Rubiaceae",21,9,0,0,40
"Solanaceae",39,5,0,0,161
"Orchidaceae",18,9,0,1,54
"Asparagaceae",14,8,1,0,45
"Arecaceae",3,3,3,0,25
"Bromeliaceae",7,2,0,0,15
"Poaceae",114,27,1,0,555
"Commelinaceae",14,6,0,0,62
"Rosaceae",4,2,0,0,16
"Burseraceae",8,3,0,0,36
"Apocynaceae",28,15,0,0,78
"Campanulaceae",6,0,0,0,11
"Invertebrados no artrópodos",2,0,0,0,2
"Esponjas de mar",0,0,0,0,0
"Cnidarios",0,0,0,0,0
"Ctenóforos",0,0,0,0,0
"Chaetognatha",0,0,0,0,0
"platelmintos",0,0,0,0,0
"Moluscos",2,0,0,0,2
"Gusanos anélidos",0,0,0,0,0
"Sipuncula",0,0,0,0,0
"Rotifera",0,0,0,0,0
"Acanthocephala",0,0,0,0,0
"Briozoos",0,0,0,0,0
"Brachiopodos",0,0,0,0,0
"Tardigrados",0,0,0,0,0
"Onychophora",0,0,0,0,0
"Equinodermos",0,0,0,0,0
"Urocordados",0,0,0,0,0
"Artrópodos",207,1,1,1,1019
"Crustáceos",0,0,0,0,0
"Quelicerados",7,0,0,0,14
"Miriápodos",0,0,0,0,0
"Hexápodos",200,1,1,1,1005
"Vertebrados",333,69,75,32,11629
"Peces",16,0,6,2,41
"Anfibios",29,10,7,0,1476
"Reptiles",79,32,31,2,2912
"Aves",144,18,28,24,6581
"Mamíferos",65,9,3,4,619
