"Grupo","Numero_de_especies_registradas","Numero_de_especies_endemicas","Numero_de_especies_en_la_NOM_059_SEMARNAT_2010","Numero_de_especies_prioritarias","Numero_de_registros"
"Bacterias",2,0,0,0,2
"Algas",3,0,0,0,5
"Hongos",147,0,1,0,228
"Plantas no vasculares",229,0,0,0,618
"Briofitas",200,0,0,0,551
"Anthocerotophyta",0,0,0,0,0
"Marchantiophyta",29,0,0,0,67
"Plantas vasculares",2301,490,57,14,8730
"Pteridofitas",1,0,1,0,7
"Gimnospermas",11,5,3,2,48
"Pinaceae",6,3,0,1,19
"Cupressaceae",4,2,2,1,28
"Podocarpaceae",0,0,0,0,0
"Zamiaceae",0,0,0,0,0
"Ephedraceae",0,0,0,0,0
"Taxaceae",1,0,1,0,1
"Angiospermas",2058,472,44,11,7597
"Asteraceae",260,63,4,0,1049
"Cactaceae",10,6,2,0,31
"Crassulaceae",16,12,0,0,49
"Euphorbiaceae",48,17,1,0,132
"Fabaceae",148,19,1,1,544
"Fagaceae",27,19,0,1,111
"Lamiaceae",57,18,0,0,216
"Rubiaceae",59,13,2,0,227
"Solanaceae",70,15,0,0,427
"Orchidaceae",96,52,8,4,205
"Asparagaceae",17,13,0,0,42
"Arecaceae",8,6,6,0,24
"Bromeliaceae",40,14,2,0,168
"Poaceae",214,38,1,0,953
"Commelinaceae",26,3,0,0,109
"Rosaceae",24,4,0,0,75
"Burseraceae",3,0,0,0,3
"Apocynaceae",45,10,0,0,199
"Campanulaceae",10,0,0,0,41
"Invertebrados no artrópodos",54,0,0,0,84
"Esponjas de mar",0,0,0,0,0
"Cnidarios",0,0,0,0,0
"Ctenóforos",0,0,0,0,0
"Chaetognatha",0,0,0,0,0
"platelmintos",0,0,0,0,0
"Moluscos",54,0,0,0,84
"Gusanos anélidos",0,0,0,0,0
"Sipuncula",0,0,0,0,0
"Rotifera",0,0,0,0,0
"Acanthocephala",0,0,0,0,0
"Briozoos",0,0,0,0,0
"Brachiopodos",0,0,0,0,0
"Tardigrados",0,0,0,0,0
"Onychophora",0,0,0,0,0
"Equinodermos",0,0,0,0,0
"Urocordados",0,0,0,0,0
"Artrópodos",847,54,1,1,2079
"Crustáceos",5,0,0,0,8
"Quelicerados",23,0,0,0,43
"Miriápodos",22,9,0,0,23
"Hexápodos",797,45,1,1,2005
"Vertebrados",448,118,140,41,11296
"Peces",7,0,0,0,24
"Anfibios",65,39,33,2,6402
"Reptiles",112,51,44,5,3044
"Aves",162,11,47,27,1129
"Mamíferos",102,17,16,7,697
