"Grupo","Numero_de_especies_registradas","Numero_de_especies_endemicas","Numero_de_especies_en_la_NOM_059_SEMARNAT_2010","Numero_de_especies_prioritarias","Numero_de_registros"
"Bacterias",1,0,0,0,2
"Algas",52,0,0,0,96
"Hongos",0,0,0,0,0
"Plantas no vasculares",3,0,0,0,3
"Briofitas",3,0,0,0,3
"Anthocerotophyta",0,0,0,0,0
"Marchantiophyta",0,0,0,0,0
"Plantas vasculares",63,1,7,4,138
"Pteridofitas",0,0,0,0,0
"Gimnospermas",0,0,0,0,0
"Pinaceae",0,0,0,0,0
"Cupressaceae",0,0,0,0,0
"Podocarpaceae",0,0,0,0,0
"Zamiaceae",0,0,0,0,0
"Ephedraceae",0,0,0,0,0
"Taxaceae",0,0,0,0,0
"Angiospermas",63,1,7,4,138
"Asteraceae",5,0,0,0,16
"Cactaceae",0,0,0,0,0
"Crassulaceae",0,0,0,0,0
"Euphorbiaceae",2,0,0,0,3
"Fabaceae",5,0,0,0,9
"Fagaceae",0,0,0,0,0
"Lamiaceae",0,0,0,0,0
"Rubiaceae",5,1,0,0,9
"Solanaceae",1,0,0,0,2
"Orchidaceae",0,0,0,0,0
"Asparagaceae",0,0,0,0,0
"Arecaceae",0,0,0,0,0
"Bromeliaceae",0,0,0,0,0
"Poaceae",7,0,0,0,10
"Commelinaceae",2,0,0,0,3
"Rosaceae",0,0,0,0,0
"Burseraceae",1,0,0,0,1
"Apocynaceae",0,0,0,0,0
"Campanulaceae",0,0,0,0,0
"Invertebrados no artrópodos",163,0,5,2,1391
"Esponjas de mar",33,0,0,0,553
"Cnidarios",36,0,5,2,648
"Ctenóforos",0,0,0,0,0
"Chaetognatha",0,0,0,0,0
"platelmintos",0,0,0,0,0
"Moluscos",36,0,0,0,55
"Gusanos anélidos",56,0,0,0,130
"Sipuncula",0,0,0,0,0
"Rotifera",0,0,0,0,0
"Acanthocephala",0,0,0,0,0
"Briozoos",0,0,0,0,0
"Brachiopodos",0,0,0,0,0
"Tardigrados",0,0,0,0,0
"Onychophora",0,0,0,0,0
"Equinodermos",2,0,0,0,5
"Urocordados",0,0,0,0,0
"Artrópodos",109,0,0,0,354
"Crustáceos",109,0,0,0,354
"Quelicerados",0,0,0,0,0
"Miriápodos",0,0,0,0,0
"Hexápodos",0,0,0,0,0
"Vertebrados",194,0,14,3,7139
"Peces",177,0,9,1,7112
"Anfibios",0,0,0,0,0
"Reptiles",5,0,2,2,14
"Aves",10,0,3,0,11
"Mamíferos",2,0,0,0,2
