"Grupo","Datos_insuficientes_(DD)","Preocupacion_menor_(LC)","Casi_amenazado_(NT)","Vulnerable_(VU)","En_peligro_(EN)","En_peligro_critico_(CR)_","Extinto_en_estado_silvestre_(EW)","Extinto_(EX)","No_enlistadas"
"Hongos",0,0,0,0,0,0,0,0,100
"Plantas",0.1846,4.3371,0.1538,0.7075,0.2461,0.0308,0,0,94.3402
"Invertebrados",0.1685,2.1061,0.0842,0.1685,0,0,0,0,97.4726
"Peces",3.7313,57.4627,5.2239,0.7463,0.7463,0,0,0,32.0896
"Anfibios",0,40.9639,7.2289,10.8434,15.6627,19.2771,0,0,6.0241
"Reptiles",7.9439,57.0093,1.8692,3.7383,1.8692,1.8692,0,0,25.7009
"Aves",0,89.0411,4.1096,1.7123,0.6849,0,0,0,4.4521
"Mamíferos",1.3158,80.9211,4.6053,3.2895,4.6053,0,0,0,5.2632
