"Grupo","Datos_insuficientes_(DD)","Preocupacion_menor_(LC)","Casi_amenazado_(NT)","Vulnerable_(VU)","En_peligro_(EN)","En_peligro_critico_(CR)_","Extinto_en_estado_silvestre_(EW)","Extinto_(EX)","No_enlistadas"
"Hongos",0,0,0,0,0,0,0,0,100
"Plantas",0.1092,3.933,0.1639,0.7101,0.2549,0.0182,0,0,94.8106
"Invertebrados",0.248,2.3974,0.1653,0.1929,0.0551,0,0,0,96.9413
"Peces",5.0093,69.0167,1.8553,2.0408,0.5566,0.7421,0.1855,0,20.5937
"Anfibios",4.8544,45.6311,8.7379,11.6505,10.6796,9.7087,0,0,8.7379
"Reptiles",8.642,63.3745,1.6461,2.8807,1.2346,1.2346,0,0,20.9877
"Aves",0.289,85.2601,5.4913,1.4451,1.1561,0.578,0,0,5.7803
"Mamíferos",1.4925,80.597,3.4826,2.9851,4.4776,0.4975,0,0,6.4677
