"Grupo","Datos_insuficientes_(DD)","Preocupacion_menor_(LC)","Casi_amenazado_(NT)","Vulnerable_(VU)","En_peligro_(EN)","En_peligro_critico_(CR)_","Extinto_en_estado_silvestre_(EW)","Extinto_(EX)","No_enlistadas"
"Hongos",0,0,0,0,0,0,0,0,100
"Plantas",0.2253,4.4389,0.1803,0.7436,0.2253,0.0451,0,0,94.1415
"Invertebrados",0.3447,2.6096,0,0.1477,0,0.0492,0,0,96.8488
"Peces",4.3011,30.1075,2.1505,5.3763,1.0753,1.0753,0,0,55.914
"Anfibios",4.7619,61.9048,4.7619,11.1111,6.3492,3.1746,0,0,7.9365
"Reptiles",2.5,61.875,1.875,2.5,2.5,0.625,0,0,28.125
"Aves",0,88.6447,4.7619,1.0989,1.0989,0,0,0,4.3956
"Mamíferos",2.2901,82.4427,3.0534,0.7634,2.2901,0.7634,0,0,8.3969
