﻿Annio,Acum_Sup
1917,1529
1936,68733.62563
1937,143216.1112
1938,240920.6118
1939,252857.3911
1940,274049.972
1941,274055.3988
1942,274584.3988
1947,353205.0788
1954,353230.2895
1959,359655.7822
1962,364665.2683
1964,365193.2683
1980,365387.4383
1981,395515.4803
1982,400702.3806
1987,540818.9449
1988,3125078.611
1989,3848263.736
1990,3967441.026
1991,3973480.425
1992,4397043.736
1993,6046356.486
1994,7712656.108
1995,8024834.129
1996,8262542.034
1997,8646109.482
1998,9359645.63
1999,9762958.09
2000,15591700.99
2001,16028686.66
2002,20218712.76
2003,20801059.82
2005,22179290.04
2007,23295448.47
2008,23349746.78
2009,24687613.84
2010,24821468.23
2012,24927326.6
2013,24980917.28
2015,24990043.63
2016,75828330.38
2017,90838011.17
