"anio","ha_cont_a","ha_mar_a","ha_ins_a","cumcont","cummar","cumins"
"1917",1517,0,0,1517,0,0
"1935",39639,0,0,41156,0,0
"1936",130724,0,0,171880,0,0
"1937",507736,113,0,679616,113,0
"1938",247627,0,0,927243,113,0
"1939",435006,0,0,1362249,113,0
"1940",37760,0,0,1400009,113,0
"1941",139558,0,0,1539567,113,0
"1942",473,0,0,1540040,113,0
"1947",73353,0,0,1613393,113,0
"1949",4109028,0,0,5722421,113,0
"1959",6435,0,0,5728856,113,0
"1962",5070,0,0,5733926,113,0
"1964",346,0,0,5734272,113,0
"1972",37036,61143,1422,5771308,61256,1422
"1973",228,3727,0,5771536,64983,1422
"1975",3629,0,0,5775165,64983,1422
"1977",62740,0,0,5837905,64983,1422
"1978",333290,5984,359600,6171195,70967,361022
"1979",553367,0,0,6724562,70967,361022
"1980",2679104,892,146,9403666,71859,361168
"1981",71382,1,0,9475048,71860,361168
"1982",121832,0,0,9596880,71860,361168
"1985",137373,0,0,9734253,71860,361168
"1986",371356,154470,1214,10105609,226330,362382
"1987",139335,0,0,10244944,226330,362382
"1988",2187309,387897,8414,12432253,614227,370796
"1989",719194,0,0,13151447,614227,370796
"1990",123348,0,0,13274795,614227,370796
"1991",5984,0,0,13280779,614227,370796
"1992",414978,67777,17,13695757,682004,370813
"1993",1225052,538511,15316,14920809,1220515,386129
"1994",1186170,773998,17665,16106979,1994513,403794
"1995",283860,37985,63,16390839,2032498,403857
"1996",93226,349458,22166,16484065,2381956,426023
"1997",476344,0,0,16960409,2381956,426023
"1998",662104,53803,268,17622513,2435759,426291
"1999",324106,197587,523,17946619,2633346,426814
"2000",774155,648381,23622,18720774,3281727,450436
"2001",26621,0,0,18747395,3281727,450436
"2002",91982,31568,357,18839377,3313295,450793
"2003",188722,0,0,19028099,3313295,450793
"2004",297098,70,0,19325197,3313365,450793
"2005",583351,733518,46553,19908548,4046883,497346
"2006",459741,123,0,20368289,4047006,497346
"2007",551157,434216,704,20919446,4481222,498050
"2008",248628,115267,1016,21168074,4596489,499066
"2009",1055170,319288,35,22223244,4915777,499101
"2010",215694,21194,4279,22438938,4936971,503380
"2011",235506,86,20728,22674444,4937057,524108
"2012",269427,32925,5757,22943871,4969982,529865
"2013",950490,1471,5,23894361,4971453,529870
"2014",96440,3,0,23990801,4971456,529870
"2015",32591,0,0,24023392,4971456,529870
"2016",398130,50495363,92780,24421522,55466819,622650
"2017",133468,14814860,15236,24554990,70281679,637886
"2018",213331,0,0,24768321,70281679,637886
"2019",57049,9,0,24825370,70281688,637886
"2020",4432,0,0,24829802,70281688,637886
"2021",41441,0,0,24871243,70281688,637886
"0",107026,0,0,24978269,70281688,637886
