"Grupo","Numero_de_especies_registradas","Icono"
"Bacterias",1,"Biod_bacteria.png"
"Algas",0,"alga.png"
"Hongos",230,"Biod_hongo.png"
"Plantas no vasculares",225,"Biod_briofitas.png"
"Plantas vasculares",4371,"Biod_angiospermas.png"
"Invertebrados no artrópodos",282,"invertebrado_no_artropodo.png"
"Invertebrados artrópodos",1412,"invertebrados_artropodos.png"
"Vertebrados",706,"Biod_mamiferos.png"
