"Grupo","Numero_de_especies_registradas","Icono"
"Bacterias",27,"Biod_bacteria.png"
"Algas",423,"alga.png"
"Hongos",303,"Biod_hongo.png"
"Plantas no vasculares",144,"Biod_briofitas.png"
"Plantas vasculares",2568,"Biod_angiospermas.png"
"Invertebrados no artrópodos",406,"invertebrado_no_artropodo.png"
"Invertebrados artrópodos",1009,"invertebrados_artropodos.png"
"Vertebrados",1076,"Biod_mamiferos.png"
