"Grupo","Numero_de_especies_registradas","Icono"
"Bacterias",35,"Biod_bacteria.png"
"Algas",132,"alga.png"
"Hongos",397,"Biod_hongo.png"
"Plantas no vasculares",554,"Biod_briofitas.png"
"Plantas vasculares",5804,"Biod_angiospermas.png"
"Invertebrados no artrópodos",131,"invertebrado_no_artropodo.png"
"Invertebrados artrópodos",2671,"invertebrados_artropodos.png"
"Vertebrados",785,"Biod_mamiferos.png"
