"Grupo","Numero_de_especies_registradas","Icono"
"Bacterias",0,"Biod_bacteria.png"
"Algas",1,"alga.png"
"Hongos",417,"Biod_hongo.png"
"Plantas no vasculares",177,"Biod_briofitas.png"
"Plantas vasculares",4083,"Biod_angiospermas.png"
"Invertebrados no artrópodos",185,"invertebrado_no_artropodo.png"
"Invertebrados artrópodos",1413,"invertebrados_artropodos.png"
"Vertebrados",783,"Biod_mamiferos.png"
