"Grupo","Menor","Media","Alta","No_enlistadas"
"Hongos",0,0,0,100
"Plantas",0,0.1502,0.3378,99.512
"Invertebrados",0,0,0.0469,99.9531
"Peces",0.1323,0.5291,1.7196,97.619
"Anfibios",5,0,0,95
"Reptiles",0,0,8.2803,91.7197
"Aves",1.581,9.4862,3.9526,84.9802
"Mamíferos",0,1.6807,10.084,88.2353
