"Grupo","Menor","Media","Alta","No_enlistadas"
"Hongos",0,0,0,100
"Plantas",0,0.1356,0.6326,99.2318
"Invertebrados",0,0,0.0573,99.9427
"Peces",0,1.087,2.1739,96.7391
"Anfibios",3.5714,0,7.1429,89.2857
"Reptiles",0,0,9.375,90.625
"Aves",1.2448,8.2988,4.9793,85.4772
"Mamíferos",0.7812,0,7.0312,92.1875
