"Grupo","Menor","Media","Alta","No_enlistadas"
"Hongos",0,0,0,100
"Plantas",0,0.1737,0.2895,99.5368
"Invertebrados",0,0,0.0644,99.9356
"Peces",0,4.6729,4.6729,90.6542
"Anfibios",0,0,0,100
"Reptiles",0,0,1.7857,98.2143
"Aves",1.9512,14.6341,7.3171,76.0976
"Mamíferos",0,0,5.0725,94.9275
