"Grupo","Menor","Media","Alta","No_enlistadas"
"Hongos",0,0,0,100
"Plantas",0,0.3085,0.6556,99.0359
"Invertebrados",0,0,0.0725,99.9275
"Peces",0.3333,1.3333,1,97.3333
"Anfibios",2.1739,0,2.1739,95.6522
"Reptiles",0,1.5267,6.8702,91.6031
"Aves",1.4134,6.7138,5.3004,86.5724
"Mamíferos",0,0,4.9296,95.0704
