"Grupo","Sujeta_a_proteccion_especial_(Pr)","Amenazada_(A)","En_peligro_de_extincion_(P)","Probablemente_extinta_en_medio_silvestre_(E)","No_enlistadas"
"Hongos",0,1.3043,0,0,98.6957
"Plantas",0.9791,0.6092,0.3264,0,98.0853
"Invertebrados",0.059,0,0,0,99.941
"Peces",3.8462,28.2051,12.8205,1.2821,53.8462
"Anfibios",32.1429,1.7857,0,0,66.0714
"Reptiles",21.3018,12.426,2.3669,0,63.9053
"Aves",11.1607,8.0357,2.6786,0.4464,77.6786
"Mamíferos",2.7933,4.4693,1.676,0,91.0615
