"Grupo","Sujeta_a_proteccion_especial_(Pr)","Amenazada_(A)","En_peligro_de_extincion_(P)","Probablemente_extinta_en_medio_silvestre_(E)","No_enlistadas"
"Hongos",0,2.714,0,0,97.286
"Plantas",0.8547,0.7009,0.4103,0,98.0342
"Invertebrados",0.0402,0.0804,0.0402,0,99.8392
"Peces",2.2727,9.0909,11.3636,0,77.2727
"Anfibios",32.0513,12.8205,3.8462,0,51.2821
"Reptiles",23.8806,15.6716,2.2388,0,58.209
"Aves",11.3122,9.9548,4.0724,0,74.6606
"Mamíferos",5.1282,6.4103,5.7692,0,82.6923
