"Grupo","Sujeta_a_proteccion_especial_(Pr)","Amenazada_(A)","En_peligro_de_extincion_(P)","Probablemente_extinta_en_medio_silvestre_(E)","No_enlistadas"
"Hongos",0,0.9804,0.9804,0,98.0392
"Plantas",0.9481,0.976,0.2231,0,97.8528
"Invertebrados",0.0548,0.0548,0,0,99.8904
"Peces",1.2308,2.7692,0.9231,0,95.0769
"Anfibios",29.0909,5.4545,0,0,65.4545
"Reptiles",30.0654,12.4183,2.6144,0,54.902
"Aves",12.9338,8.8328,4.7319,0.3155,73.1861
"Mamíferos",5.298,5.298,3.3113,0,86.0927
