"Grupo","Sujeta_a_proteccion_especial_(Pr)","Amenazada_(A)","En_peligro_de_extincion_(P)","Probablemente_extinta_en_medio_silvestre_(E)","No_enlistadas"
"Hongos",0,1.0638,0,0,98.9362
"Plantas",0.7382,1.4329,0.0868,0,97.7421
"Invertebrados",0.1891,0.2269,0.0378,0,99.5461
"Peces",3.4667,1.6,2.1333,0,92.8
"Anfibios",31.25,0,0,0,68.75
"Reptiles",23.5714,11.4286,5.7143,0,59.2857
"Aves",16.7883,12.4088,4.3796,0,66.4234
"Mamíferos",5.9829,11.9658,7.6923,0,74.359
