"Grupo","Sujeta_a_proteccion_especial_(Pr)","Amenazada_(A)","En_peligro_de_extincion_(P)","Probablemente_extinta_en_medio_silvestre_(E)","No_enlistadas"
"Hongos",0,0,0,0,100
"Plantas",0.6778,1.4008,0.2711,0,97.6502
"Invertebrados",0.0573,0.2864,0.1145,0,99.5418
"Peces",1.6304,2.1739,2.1739,0,94.0217
"Anfibios",28.5714,0,0,0,71.4286
"Reptiles",23.4375,9.375,5.4688,0,61.7188
"Aves",13.5802,9.0535,4.1152,0,73.251
"Mamíferos",8.5938,6.25,7.8125,0,77.3438
