"Grupo","Sujeta_a_proteccion_especial_(Pr)","Amenazada_(A)","En_peligro_de_extincion_(P)","Probablemente_extinta_en_medio_silvestre_(E)","No_enlistadas"
"Hongos",0,2.5974,0,0,97.4026
"Plantas",1.0472,1.0282,0.2856,0,97.639
"Invertebrados",0.1534,0,0,0,99.8466
"Peces",4.878,31.7073,0,2.439,60.9756
"Anfibios",22.5,10,2.5,0,65
"Reptiles",23.6486,15.5405,1.3514,0,59.4595
"Aves",10.241,7.8313,4.2169,0.6024,77.1084
"Mamíferos",2.7972,4.1958,2.0979,0,90.9091
