﻿Id;Formacion;Repre_Cont
1;Herbazal de altitud;5.89
2;Matorral espinoso;1.33
3;Desierto absoluto;1.04
4;Matorral bajo de altitud;10.41
5;Bosque espinoso;3.13
6;Bosque laurifolio;15.94
7;Matorral bajo desértico;0.67
8;Bosque caducifolio;2.14
9;Bosque resinoso;11.79
10;Estepas y pastizales;5.06
11;Bosque siempreverde;30.45
12;Matorral desértico;2.04
13;Matorral esclerofilo;1.12
14;Bosque esclerofilo;2.12
