"Grupo","Menor","Media","Alta","No_enlistadas"
"Hongos",0,0,0,100
"Plantas",0.0615,0.2153,0.7995,98.9237
"Invertebrados",0,0,0.0842,99.9158
"Peces",1.4925,0.7463,2.2388,95.5224
"Anfibios",1.2048,0,1.2048,97.5904
"Reptiles",0.4673,0.4673,7.4766,91.5888
"Aves",1.3746,6.1856,6.8729,85.567
"Mamíferos",1.3245,0.6623,6.6225,91.3907
