"Grupo","Menor","Media","Alta","No_enlistadas"
"Hongos",0,0,0,100
"Plantas",0.0117,0.1985,0.724,99.0657
"Invertebrados",0,0,0.0392,99.9608
"Peces",1.9802,2.6403,3.6304,91.7492
"Anfibios",1.1173,0,1.676,97.2067
"Reptiles",0.6135,0.3067,3.9877,95.092
"Aves",1.1429,6.8571,7.4286,84.5714
"Mamíferos",0.7812,0.3906,4.6875,94.1406
