"Grupo","Menor","Media","Alta","No_enlistadas"
"Hongos",0,0,0,100
"Plantas",0,0.1456,0.6007,99.2537
"Invertebrados",0,0,0.0276,99.9724
"Peces",0.5566,0.9276,2.7829,95.7328
"Anfibios",0.9709,0,3.8835,95.1456
"Reptiles",0,0.4132,5.3719,94.2149
"Aves",1.1662,6.414,6.9971,85.4227
"Mamíferos",0.995,0.995,4.9751,93.0348
