"Grupo","Menor","Media","Alta","No_enlistadas"
"Hongos",0,0,0,100
"Plantas",0,0.4348,0.9783,98.587
"Invertebrados",0,0,0.084,99.916
"Peces",0.2817,0.8451,3.0986,95.7746
"Anfibios",0,0,0,100
"Reptiles",0,0.9709,10.6796,88.3495
"Aves",1.3746,8.9347,4.811,84.8797
"Mamíferos",1.0989,0,6.5934,92.3077
