"Grupo","Menor","Media","Alta","No_enlistadas"
"Hongos",0,0,0,100
"Plantas",0,0.1218,0.8526,99.0256
"Invertebrados",0,0,0.0831,99.9169
"Peces",0,1.5306,2.551,95.9184
"Anfibios",0,0,0,100
"Reptiles",0,0,11.8812,88.1188
"Aves",1.2766,9.3617,4.6809,84.6809
"Mamíferos",1.0101,0,7.0707,91.9192
