"Grupo","Menor","Media","Alta","No_enlistadas"
"Hongos",0,0,0,100
"Plantas",0.0222,0.2661,0.7761,98.9357
"Invertebrados",0,0,0.0641,99.9359
"Peces",0,6.8966,0,93.1034
"Anfibios",1.0309,0,2.0619,96.9072
"Reptiles",0.5348,0,3.7433,95.7219
"Aves",1.4151,7.5472,5.6604,85.3774
"Mamíferos",0.641,0.641,6.4103,92.3077
