"Grupo","Menor","Media","Alta","No_enlistadas"
"Hongos",0,0,0,100
"Plantas",0,0.1443,0.2405,99.6152
"Invertebrados",0,0,0.2903,99.7097
"Peces",0,0,0.8658,99.1342
"Anfibios",4.7619,0,0,95.2381
"Reptiles",0,0,5.6075,94.3925
"Aves",1.2712,10.5932,5.5085,82.6271
"Mamíferos",1.0989,1.0989,6.5934,91.2088
