"Grupo","Datos_insuficientes_(DD)","Preocupacion_menor_(LC)","Casi_amenazado_(NT)","Vulnerable_(VU)","En_peligro_(EN)","En_peligro_critico_(CR)","Extinto_en_estado_silvestre_(EW)","Extinto_(EX)","No_enlistadas"
"Hongos",0,0,0,0,0,0,0,0,100
"Plantas",0.4975,9.9502,0,0,0,0,0,0,89.5522
"Invertebrados",0,1.2788,0,0,0,0,0,0,98.7212
"Peces",13.3621,67.6724,3.8793,3.8793,1.7241,0.8621,0,0,8.6207
"Anfibios",0,100,0,0,0,0,0,0,0
"Reptiles",0,76.087,4.3478,2.1739,2.1739,2.1739,0,0,13.0435
"Aves",0,87.931,6.3218,1.7241,0,0,0,0,4.023
"Mamíferos",12.1951,78.0488,2.439,0,4.878,2.439,0,0,0
