"Grupo","Datos_insuficientes_(DD)","Preocupacion_menor_(LC)","Casi_amenazado_(NT)","Vulnerable_(VU)","En_peligro_(EN)","En_peligro_critico_(CR)","Extinto_en_estado_silvestre_(EW)","Extinto_(EX)","No_enlistadas"
"Hongos",0,0,0,0,0,0,0,0,100
"Plantas",0.5435,9.2391,0,0.5435,0,0,0,0,89.6739
"Invertebrados",0,1.3937,0,0.3484,0,0,0,0,98.2578
"Peces",4.4944,64.0449,6.7416,4.4944,2.2472,0,0,0,17.9775
"Anfibios",0,60,0,0,0,0,0,0,40
"Reptiles",0,60.8696,8.6957,4.3478,4.3478,8.6957,0,0,13.0435
"Aves",0,88.3978,5.5249,1.105,0,0,0,0,4.9724
"Mamíferos",6.6667,66.6667,0,6.6667,6.6667,0,0,0,13.3333
