"Grupo","Datos_insuficientes_(DD)","Preocupacion_menor_(LC)","Casi_amenazado_(NT)","Vulnerable_(VU)","En_peligro_(EN)","En_peligro_critico_(CR)","Extinto_en_estado_silvestre_(EW)","Extinto_(EX)","No_enlistadas"
"Hongos",0,0,0,0,0,0,0,0,100
"Plantas",0.1686,3.457,0.0843,1.0118,0.2108,0,0,0,95.0675
"Invertebrados",0,0,0,0,0,0,0,0,100
"Peces",0,0,0,0,0,0,0,0,100
"Anfibios",0,50,2.6316,18.4211,15.7895,5.2632,0,0,7.8947
"Reptiles",4.4118,60.2941,1.4706,0,0,0,0,0,33.8235
"Aves",0,89.5522,2.9851,2.2388,0.7463,0,0,0,4.4776
"Mamíferos",1.1628,80.2326,3.4884,2.3256,4.6512,1.1628,0,0,6.9767
