"Grupo","Datos_insuficientes_(DD)","Preocupacion_menor_(LC)","Casi_amenazado_(NT)","Vulnerable_(VU)","En_peligro_(EN)","En_peligro_critico_(CR)","Extinto_en_estado_silvestre_(EW)","Extinto_(EX)","No_enlistadas"
"Hongos",0,0,0,0,0,0,0,0,100
"Plantas",0.1949,4.2885,0.1949,0,0,0,0,0,95.3216
"Invertebrados",0,0,0,0,0,3.4483,0,0,96.5517
"Peces",0,0,0,0,0,0,0,0,100
"Anfibios",0,90,0,10,0,0,0,0,0
"Reptiles",0,84,4,4,4,0,0,0,4
"Aves",0,89.7959,4.0816,0,0,0,0,0,6.1224
"Mamíferos",0,92.8571,0,0,7.1429,0,0,0,0
