"Grupo","Datos_insuficientes_(DD)","Preocupacion_menor_(LC)","Casi_amenazado_(NT)","Vulnerable_(VU)","En_peligro_(EN)","En_peligro_critico_(CR)","Extinto_en_estado_silvestre_(EW)","Extinto_(EX)","No_enlistadas"
"Hongos",0,0,0,0,0,0,0,0,0
"Plantas",0.7143,11.4286,0,0.7143,0,0,0,0,87.1429
"Invertebrados",0,4.5872,0,0,0,0,0,0,95.4128
"Peces",0,0,0,0,0,0,0,0,0
"Anfibios",0,85.7143,0,0,14.2857,0,0,0,0
"Reptiles",0,63.6364,0,0,0,0,0,0,36.3636
"Aves",0,95.4545,0,0,0,0,0,0,4.5455
"Mamíferos",0,90,6.6667,0,0,0,0,0,3.3333
