"Grupo","Datos_insuficientes_(DD)","Preocupacion_menor_(LC)","Casi_amenazado_(NT)","Vulnerable_(VU)","En_peligro_(EN)","En_peligro_critico_(CR)","Extinto_en_estado_silvestre_(EW)","Extinto_(EX)","No_enlistadas"
"Hongos",0,0,0,0,0,0,0,0,0
"Plantas",1.0225,12.4744,0,0.409,0,0.2045,0,0,85.8896
"Invertebrados",0.2611,3.9164,0,1.5666,0.7833,0.2611,0,0,93.2115
"Peces",3.8462,34.6154,0,11.5385,7.6923,3.8462,0,7.6923,30.7692
"Anfibios",0,90,0,0,0,0,0,0,10
"Reptiles",0,74.2424,1.5152,1.5152,3.0303,0,0,0,19.697
"Aves",0,90.7895,2.6316,0,0,0,0,0,6.5789
"Mamíferos",0,97.2973,2.7027,0,0,0,0,0,0
