"Grupo","Datos_insuficientes_(DD)","Preocupacion_menor_(LC)","Casi_amenazado_(NT)","Vulnerable_(VU)","En_peligro_(EN)","En_peligro_critico_(CR)","Extinto_en_estado_silvestre_(EW)","Extinto_(EX)","No_enlistadas"
"Hongos",0,0,0,0,0,0,0,0,100
"Plantas",0.3584,8.6022,0.3584,0.5974,0.2389,0,0,0,89.8447
"Invertebrados",0,1.4252,0,0,0,0,0,0,98.5748
"Peces",2.8037,59.8131,3.7383,2.3364,0.9346,0.4673,0,0,29.9065
"Anfibios",0,60,5,5,15,5,0,0,10
"Reptiles",2.9851,49.2537,5.9701,1.4925,2.9851,2.9851,0,0,34.3284
"Aves",0,91.2568,3.8251,0.5464,0.5464,0,0,0,3.8251
"Mamíferos",0,83.3333,4.7619,2.381,2.381,0,0,0,7.1429
