"Grupo","Datos_insuficientes_(DD)","Preocupacion_menor_(LC)","Casi_amenazado_(NT)","Vulnerable_(VU)","En_peligro_(EN)","En_peligro_critico_(CR)","Extinto_en_estado_silvestre_(EW)","Extinto_(EX)","No_enlistadas"
"Hongos",0,0,0,0,0,0,0,0,100
"Plantas",0.4211,8,0.4211,0.2105,0.2105,0,0,0,90.7368
"Invertebrados",0.3226,1.9355,0,0.3226,0,0,0,0,97.4194
"Peces",0,61.25,2.5,1.25,5,0,0,0,30
"Anfibios",0,100,0,0,0,0,0,0,0
"Reptiles",3.3333,70,3.3333,3.3333,0,3.3333,0,0,16.6667
"Aves",0,90.625,5.2083,0,0,0,0,0,4.1667
"Mamíferos",0,84.2105,0,0,5.2632,0,0,0,10.5263
