"Grupo","Datos_insuficientes_(DD)","Preocupacion_menor_(LC)","Casi_amenazado_(NT)","Vulnerable_(VU)","En_peligro_(EN)","En_peligro_critico_(CR)","Extinto_en_estado_silvestre_(EW)","Extinto_(EX)","No_enlistadas"
"Hongos",0,0,0,0,0,0,0,0,100
"Plantas",0,5.9524,0.5952,0,0,0,0,0,93.4524
"Invertebrados",0,0,0,0,0,0,0,0,100
"Peces",0,0,0,0,0,0,0,0,0
"Anfibios",16.6667,50,8.3333,8.3333,8.3333,0,0,0,8.3333
"Reptiles",0,78.5714,0,7.1429,0,0,0,0,14.2857
"Aves",0,92.5926,3.7037,0,0,0,0,0,3.7037
"Mamíferos",0,85.7143,0,0,0,0,0,0,14.2857
