"Grupo","Datos_insuficientes_(DD)","Preocupacion_menor_(LC)","Casi_amenazado_(NT)","Vulnerable_(VU)","En_peligro_(EN)","En_peligro_critico_(CR)","Extinto_en_estado_silvestre_(EW)","Extinto_(EX)","No_enlistadas"
"Hongos",0,0,0,0,0,0,0,0,100
"Plantas",0,8.6538,0,0.9615,0,0,0,0,90.3846
"Invertebrados",1.3216,5.2863,0.4405,0,0,0,0,0,92.9515
"Peces",5.1948,69.1558,1.9481,1.9481,0,0.3247,0,0,21.4286
"Anfibios",0,0,0,0,0,0,0,0,0
"Reptiles",11.1111,33.3333,0,11.1111,11.1111,11.1111,0,0,22.2222
"Aves",0,81.6667,6.6667,3.3333,0,1.6667,0,0,6.6667
"Mamíferos",6.8966,86.2069,3.4483,0,3.4483,0,0,0,0
