"Grupo","Datos_insuficientes_(DD)","Preocupacion_menor_(LC)","Casi_amenazado_(NT)","Vulnerable_(VU)","En_peligro_(EN)","En_peligro_critico_(CR)","Extinto_en_estado_silvestre_(EW)","Extinto_(EX)","No_enlistadas"
"Hongos",0,0,0,0,0,0,0,0,100
"Plantas",0,4.3919,0.3378,1.6892,0,0,0,0,93.5811
"Invertebrados",0.3401,8.8435,0.6803,1.0204,0,0,0,0,89.1156
"Peces",2.649,66.2252,2.3179,7.947,0.6623,0.3311,0,0,19.8675
"Anfibios",0,0,0,0,0,0,0,0,0
"Reptiles",0,18.1818,0,9.0909,27.2727,9.0909,0,0,36.3636
"Aves",0,77.3585,5.6604,3.7736,0,0.9434,0.9434,0,11.3208
"Mamíferos",14.2857,85.7143,0,0,0,0,0,0,0
