"Grupo","Datos_insuficientes_(DD)","Preocupacion_menor_(LC)","Casi_amenazado_(NT)","Vulnerable_(VU)","En_peligro_(EN)","En_peligro_critico_(CR)","Extinto_en_estado_silvestre_(EW)","Extinto_(EX)","No_enlistadas"
"Hongos",0,0,0,0,0,0,0,0,100
"Plantas",0.1323,3.7037,0.5291,0.1323,0.2646,0,0,0,95.2381
"Invertebrados",0,1.1038,0,0,0,0,0,0,98.8962
"Peces",0,8.6957,0,0,0,0,0,0,91.3043
"Anfibios",0,80,0,0,0,0,0,0,20
"Reptiles",0,54.5455,3.0303,3.0303,0,0,0,0,39.3939
"Aves",0,91.1565,4.0816,1.3605,0,0,0,0,3.4014
"Mamíferos",2.2222,80,2.2222,2.2222,6.6667,0,0,0,6.6667
