"Grupo","Datos_insuficientes_(DD)","Preocupacion_menor_(LC)","Casi_amenazado_(NT)","Vulnerable_(VU)","En_peligro_(EN)","En_peligro_critico_(CR)","Extinto_en_estado_silvestre_(EW)","Extinto_(EX)","No_enlistadas"
"Hongos",0,0,0,0,0,0,0,0,100
"Plantas",0,28.5714,0,0,0,0,0,0,71.4286
"Invertebrados",0,21.7391,0,0,0,0,0,0,78.2609
"Peces",0,33.3333,0,0,0,0,0,0,66.6667
"Anfibios",0,0,0,0,0,0,0,0,0
"Reptiles",0,100,0,0,0,0,0,0,0
"Aves",0,100,0,0,0,0,0,0,0
"Mamíferos",0,0,0,0,0,0,0,0,0
