"Grupo","Datos_insuficientes_(DD)","Preocupacion_menor_(LC)","Casi_amenazado_(NT)","Vulnerable_(VU)","En_peligro_(EN)","En_peligro_critico_(CR)","Extinto_en_estado_silvestre_(EW)","Extinto_(EX)","No_enlistadas"
"Hongos",0,0,0,0,0,0,0,0,100
"Plantas",0,1.4286,0,0,0,0,0,0,98.5714
"Invertebrados",0,0,0,0,0,0,0,0,100
"Peces",0,0,0,0,0,0,0,0,0
"Anfibios",0,100,0,0,0,0,0,0,0
"Reptiles",0,100,0,0,0,0,0,0,0
"Aves",0,94.1176,2.9412,0,0,0,0,0,2.9412
"Mamíferos",0,90.9091,0,9.0909,0,0,0,0,0
