"Grupo","Datos_insuficientes_(DD)","Preocupacion_menor_(LC)","Casi_amenazado_(NT)","Vulnerable_(VU)","En_peligro_(EN)","En_peligro_critico_(CR)","Extinto_en_estado_silvestre_(EW)","Extinto_(EX)","No_enlistadas"
"Hongos",0,0,0,0,0,0,0,0,100
"Plantas",0.232,4.1763,0.464,0.6961,0.464,0,0,0,93.9675
"Invertebrados",0,2.5641,0,0,0,0,0,0,97.4359
"Peces",0,0,0,0,0,0,0,0,0
"Anfibios",0,50,25,0,12.5,0,0,0,12.5
"Reptiles",0,80,0,4,4,0,0,0,12
"Aves",0,88.0952,4.7619,0,4.7619,0,0,0,2.381
"Mamíferos",0,75,0,8.3333,16.6667,0,0,0,0
