"Grupo","Datos_insuficientes_(DD)","Preocupacion_menor_(LC)","Casi_amenazado_(NT)","Vulnerable_(VU)","En_peligro_(EN)","En_peligro_critico_(CR)","Extinto_en_estado_silvestre_(EW)","Extinto_(EX)","No_enlistadas"
"Hongos",0,0,0,0,0,0,0,0,100
"Plantas",0,9.375,0,0,0,0,0,0,90.625
"Invertebrados",0,0,0,0,0,0,0,0,100
"Peces",0,0,0,0,0,0,0,0,0
"Anfibios",0,66.6667,0,0,0,0,0,0,33.3333
"Reptiles",0,71.4286,0,0,0,0,0,0,28.5714
"Aves",0,92.3077,0,0,7.6923,0,0,0,0
"Mamíferos",0,100,0,0,0,0,0,0,0
