"Grupo","Datos_insuficientes_(DD)","Preocupacion_menor_(LC)","Casi_amenazado_(NT)","Vulnerable_(VU)","En_peligro_(EN)","En_peligro_critico_(CR)","Extinto_en_estado_silvestre_(EW)","Extinto_(EX)","No_enlistadas"
"Hongos",0,0,0,0,0,0,0,0,100
"Plantas",0.1239,5.3284,0.1239,0.4957,0.4957,0,0,0,93.4325
"Invertebrados",0,0,0,0,0,0,0,0,100
"Peces",5.5556,88.8889,0,1.8519,0,0,0,0,3.7037
"Anfibios",6.6667,73.3333,0,0,6.6667,0,0,0,13.3333
"Reptiles",0,70.2703,2.7027,2.7027,0,0,0,0,24.3243
"Aves",0,93.75,1.5625,0,1.5625,0,0,0,3.125
"Mamíferos",0,82.5,5,5,2.5,0,0,0,5
