"Grupo","Datos_insuficientes_(DD)","Preocupacion_menor_(LC)","Casi_amenazado_(NT)","Vulnerable_(VU)","En_peligro_(EN)","En_peligro_critico_(CR)","Extinto_en_estado_silvestre_(EW)","Extinto_(EX)","No_enlistadas"
"Hongos",0,0,0,0,0,0,0,0,100
"Plantas",1.0101,3.0303,0,0,1.0101,0,0,0,94.9495
"Invertebrados",0,5.5556,0,0,0,0,0,0,94.4444
"Peces",0,0,0,0,0,0,0,0,0
"Anfibios",0,50,0,0,25,0,0,0,25
"Reptiles",0,60,0,20,0,0,0,0,20
"Aves",0,78.5714,14.2857,7.1429,0,0,0,0,0
"Mamíferos",0,100,0,0,0,0,0,0,0
