"Grupo","Datos_insuficientes_(DD)","Preocupacion_menor_(LC)","Casi_amenazado_(NT)","Vulnerable_(VU)","En_peligro_(EN)","En_peligro_critico_(CR)","Extinto_en_estado_silvestre_(EW)","Extinto_(EX)","No_enlistadas"
"Hongos",0,0,0,0,0,0,0,0,100
"Plantas",1.0309,11.3402,0,0,0,0,0,0,87.6289
"Invertebrados",0,4.8649,0,0,0,0,0,0,95.1351
"Peces",0,11.1111,0,11.1111,0,11.1111,0,22.2222,44.4444
"Anfibios",0,44.4444,0,0,22.2222,11.1111,0,0,22.2222
"Reptiles",0,82.3529,0,0,5.8824,0,0,0,11.7647
"Aves",0,93.9394,2.2727,0,0,0,0,0,3.7879
"Mamíferos",9.0909,90.9091,0,0,0,0,0,0,0
