"Grupo","Datos_insuficientes_(DD)","Preocupacion_menor_(LC)","Casi_amenazado_(NT)","Vulnerable_(VU)","En_peligro_(EN)","En_peligro_critico_(CR)","Extinto_en_estado_silvestre_(EW)","Extinto_(EX)","No_enlistadas"
"Hongos",0,0,0,0,0,0,0,0,100
"Plantas",1.5385,6.1538,0,0,0,0,0,0,92.3077
"Invertebrados",0,0,0,0,0,0,0,0,100
"Peces",7.3171,75.6098,0,0,0,0,0,0,17.0732
"Anfibios",0,83.3333,0,0,0,0,0,0,16.6667
"Reptiles",6.25,56.25,0,0,6.25,0,0,0,31.25
"Aves",0,95.0617,2.4691,1.2346,0,0,0,0,1.2346
"Mamíferos",0,0,0,0,0,0,0,0,0
