"Grupo","Datos_insuficientes_(DD)","Preocupacion_menor_(LC)","Casi_amenazado_(NT)","Vulnerable_(VU)","En_peligro_(EN)","En_peligro_critico_(CR)","Extinto_en_estado_silvestre_(EW)","Extinto_(EX)","No_enlistadas"
"Hongos",0,0,0,0,0,0,0,0,100
"Plantas",0,0,0,0,1.7544,1.7544,0,0,96.4912
"Invertebrados",0,0,0,0,0,0,0,0,100
"Peces",0,0,0,0,0,0,0,0,100
"Anfibios",0,0,0,100,0,0,0,0,0
"Reptiles",0,16.6667,0,0,0,0,0,0,83.3333
"Aves",0,93.5484,0,0,0,0,0,0,6.4516
"Mamíferos",0,77.7778,0,11.1111,0,0,0,0,11.1111
