"Grupo","Datos_insuficientes_(DD)","Preocupacion_menor_(LC)","Casi_amenazado_(NT)","Vulnerable_(VU)","En_peligro_(EN)","En_peligro_critico_(CR)","Extinto_en_estado_silvestre_(EW)","Extinto_(EX)","No_enlistadas"
"Hongos",0,0,0,0,0,0,0,0,100
"Plantas",0.5333,11.7333,0.5333,1.3333,0,0,0,0,85.8667
"Invertebrados",0,0,0,0,0,0,0,0,100
"Peces",0,0,0,0,0,0,0,0,0
"Anfibios",0,100,0,0,0,0,0,0,0
"Reptiles",0,93.3333,0,0,0,0,0,0,6.6667
"Aves",0,96.5517,3.4483,0,0,0,0,0,0
"Mamíferos",0,100,0,0,0,0,0,0,0
