"Grupo","Datos_insuficientes_(DD)","Preocupacion_menor_(LC)","Casi_amenazado_(NT)","Vulnerable_(VU)","En_peligro_(EN)","En_peligro_critico_(CR)","Extinto_en_estado_silvestre_(EW)","Extinto_(EX)","No_enlistadas"
"Hongos",0,0,0,0,0,0,0,0,0
"Plantas",0,5.4795,0,0,0,0,0,0,94.5205
"Invertebrados",0,22.2222,0,0,0,0,0,0,77.7778
"Peces",0,0,0,0,100,0,0,0,0
"Anfibios",0,33.3333,16.6667,33.3333,0,0,0,0,16.6667
"Reptiles",0,100,0,0,0,0,0,0,0
"Aves",0,96.2963,0,0,0,0,0,0,3.7037
"Mamíferos",0,0,0,0,0,0,0,0,0
