"Grupo","Datos_insuficientes_(DD)","Preocupacion_menor_(LC)","Casi_amenazado_(NT)","Vulnerable_(VU)","En_peligro_(EN)","En_peligro_critico_(CR)","Extinto_en_estado_silvestre_(EW)","Extinto_(EX)","No_enlistadas"
"Hongos",0,0,0,0,0,0,0,0,0
"Plantas",0,3.2258,0,0,0,0,0,0,96.7742
"Invertebrados",0,0,0,0,0,0,0,0,0
"Peces",0,16.6667,0,2.381,0,0,0,0,80.9524
"Anfibios",0,50,0,0,0,0,0,0,50
"Reptiles",25,75,0,0,0,0,0,0,0
"Aves",0,94.1748,0.9709,0,0,0,0,0,4.8544
"Mamíferos",100,0,0,0,0,0,0,0,0
