"Grupo","Datos_insuficientes_(DD)","Preocupacion_menor_(LC)","Casi_amenazado_(NT)","Vulnerable_(VU)","En_peligro_(EN)","En_peligro_critico_(CR)","Extinto_en_estado_silvestre_(EW)","Extinto_(EX)","No_enlistadas"
"Hongos",0,0,0,0,0,0,0,0,100
"Plantas",0,4.3189,0,0.3322,0,0,0,0,95.3488
"Invertebrados",0,0,0,0,0,0,0,0,100
"Peces",0,0,0,0,0,0,0,0,0
"Anfibios",0,50,0,25,0,25,0,0,0
"Reptiles",0,70.5882,0,5.8824,0,0,0,0,23.5294
"Aves",0,88.2353,0,0,0,0,0,0,11.7647
"Mamíferos",8.3333,75,8.3333,0,8.3333,0,0,0,0
