"Grupo","Datos_insuficientes_(DD)","Preocupacion_menor_(LC)","Casi_amenazado_(NT)","Vulnerable_(VU)","En_peligro_(EN)","En_peligro_critico_(CR)","Extinto_en_estado_silvestre_(EW)","Extinto_(EX)","No_enlistadas"
"Hongos",0,0,0,0,0,0,0,0,100
"Plantas",0,6.9444,0,0.6944,0,0,0,0,92.3611
"Invertebrados",0.7576,0,0,0,0,0,0,0,99.2424
"Peces",0,0,0,0,0,0,0,0,100
"Anfibios",12.5,62.5,0,0,0,0,0,0,25
"Reptiles",0,77.2727,0,0,0,0,0,0,22.7273
"Aves",0,95.6522,2.1739,0,0,0,0,0,2.1739
"Mamíferos",0,85.7143,0,0,14.2857,0,0,0,0
