"Grupo","Datos_insuficientes_(DD)","Preocupacion_menor_(LC)","Casi_amenazado_(NT)","Vulnerable_(VU)","En_peligro_(EN)","En_peligro_critico_(CR)","Extinto_en_estado_silvestre_(EW)","Extinto_(EX)","No_enlistadas"
"Hongos",0,0,0,0,0,0,0,0,100
"Plantas",0.5,5.5,0,0,0,0,0,0,94
"Invertebrados",0,0,0,0,0,0,0,0,100
"Peces",0,0,0,0,0,0,0,0,0
"Anfibios",0,75,0,25,0,0,0,0,0
"Reptiles",0,75,0,0,0,0,0,0,25
"Aves",0,93.5484,3.2258,0,0,0,0,0,3.2258
"Mamíferos",0,100,0,0,0,0,0,0,0
