"Grupo","Datos_insuficientes_(DD)","Preocupacion_menor_(LC)","Casi_amenazado_(NT)","Vulnerable_(VU)","En_peligro_(EN)","En_peligro_critico_(CR)","Extinto_en_estado_silvestre_(EW)","Extinto_(EX)","No_enlistadas"
"Hongos",0,0,0,0,0,0,0,0,0
"Plantas",0,5.7143,2.8571,2.8571,0,0,0,0,88.5714
"Invertebrados",0,0,0,0,0,0,0,0,100
"Peces",0,0,0,0,0,0,0,0,0
"Anfibios",0,0,0,0,0,0,0,0,0
"Reptiles",0,75,0,0,0,0,0,0,25
"Aves",0,94.8276,1.7241,0,0,0,0,0,3.4483
"Mamíferos",0,80,0,0,20,0,0,0,0
