"Grupo","Datos_insuficientes_(DD)","Preocupacion_menor_(LC)","Casi_amenazado_(NT)","Vulnerable_(VU)","En_peligro_(EN)","En_peligro_critico_(CR)","Extinto_en_estado_silvestre_(EW)","Extinto_(EX)","No_enlistadas"
"Hongos",0,0,0,0,0,0,0,0,0
"Plantas",0,2.9412,0,0,0,0,0,0,97.0588
"Invertebrados",0,0,0,0,0,0,0,0,100
"Peces",0,0,0,0,0,0,0,0,0
"Anfibios",0,83.3333,0,0,0,0,0,0,16.6667
"Reptiles",7.6923,30.7692,7.6923,0,0,0,0,0,53.8462
"Aves",0,88.3721,2.3256,2.3256,2.3256,0,0,0,4.6512
"Mamíferos",0,100,0,0,0,0,0,0,0
