"Grupo","Datos_insuficientes_(DD)","Preocupacion_menor_(LC)","Casi_amenazado_(NT)","Vulnerable_(VU)","En_peligro_(EN)","En_peligro_critico_(CR)","Extinto_en_estado_silvestre_(EW)","Extinto_(EX)","No_enlistadas"
"Hongos",0,0,0,0,0,0,0,0,100
"Plantas",0.2525,4.5455,0,1.2626,0,0,0,0,93.9394
"Invertebrados",0,0,0,0,0,0,0,0,100
"Peces",0,0,0,0,0,20,0,0,80
"Anfibios",20,60,0,0,0,0,0,0,20
"Reptiles",0,100,0,0,0,0,0,0,0
"Aves",0,90.3846,1.9231,0,0,0,0,0,7.6923
"Mamíferos",0,100,0,0,0,0,0,0,0
