"Grupo","Datos_insuficientes_(DD)","Preocupacion_menor_(LC)","Casi_amenazado_(NT)","Vulnerable_(VU)","En_peligro_(EN)","En_peligro_critico_(CR)","Extinto_en_estado_silvestre_(EW)","Extinto_(EX)","No_enlistadas"
"Hongos",0,0,0,0,0,0,0,0,100
"Plantas",0,3.3898,0,0,0,0,0,0,96.6102
"Invertebrados",0,5.5556,0,0,0,0,0,0,94.4444
"Peces",0,0,0,33.3333,0,0,0,0,66.6667
"Anfibios",0,60,20,0,20,0,0,0,0
"Reptiles",0,71.4286,0,14.2857,0,0,0,0,14.2857
"Aves",0,100,0,0,0,0,0,0,0
"Mamíferos",0,100,0,0,0,0,0,0,0
