"Grupo","Datos_insuficientes_(DD)","Preocupacion_menor_(LC)","Casi_amenazado_(NT)","Vulnerable_(VU)","En_peligro_(EN)","En_peligro_critico_(CR)","Extinto_en_estado_silvestre_(EW)","Extinto_(EX)","No_enlistadas"
"Hongos",0,0,0,0,0,0,0,0,100
"Plantas",0.2545,4.0712,0,0,0,0,0,0,95.6743
"Invertebrados",0,2,0,0,0,0,0,0,98
"Peces",0,0,0,0,0,0,0,0,0
"Anfibios",0,100,0,0,0,0,0,0,0
"Reptiles",0,100,0,0,0,0,0,0,0
"Aves",0,89.4737,0,0,5.2632,0,0,0,5.2632
"Mamíferos",0,92.3077,7.6923,0,0,0,0,0,0
