"Grupo","Datos_insuficientes_(DD)","Preocupacion_menor_(LC)","Casi_amenazado_(NT)","Vulnerable_(VU)","En_peligro_(EN)","En_peligro_critico_(CR)","Extinto_en_estado_silvestre_(EW)","Extinto_(EX)","No_enlistadas"
"Hongos",0,0,0,0,0,0,0,0,100
"Plantas",0.2625,6.8241,0.2625,0.2625,0,0,0,0,92.3885
"Invertebrados",0,0,0,0,0,0,0,0,100
"Peces",0,100,0,0,0,0,0,0,0
"Anfibios",0,85.7143,0,0,0,0,0,0,14.2857
"Reptiles",0,92.8571,0,7.1429,0,0,0,0,0
"Aves",0,95.2381,0,0,0,0,0,0,4.7619
"Mamíferos",2.5641,87.1795,2.5641,2.5641,0,2.5641,0,0,2.5641
