"Grupo","Datos_insuficientes_(DD)","Preocupacion_menor_(LC)","Casi_amenazado_(NT)","Vulnerable_(VU)","En_peligro_(EN)","En_peligro_critico_(CR)","Extinto_en_estado_silvestre_(EW)","Extinto_(EX)","No_enlistadas"
"Hongos",0,0,0,0,0,0,0,0,100
"Plantas",0.3731,6.3433,0.3731,0.7463,0.3731,0,0,0,91.791
"Invertebrados",0,1.3514,0,0,0,0,0,0,98.6486
"Peces",0,0,0,0,0,0,0,0,0
"Anfibios",0,100,0,0,0,0,0,0,0
"Reptiles",0,80,0,0,10,0,0,0,10
"Aves",0,95.7447,0,2.1277,0,0,0,0,2.1277
"Mamíferos",0,77.7778,11.1111,0,11.1111,0,0,0,0
