"Grupo","Datos_insuficientes_(DD)","Preocupacion_menor_(LC)","Casi_amenazado_(NT)","Vulnerable_(VU)","En_peligro_(EN)","En_peligro_critico_(CR)","Extinto_en_estado_silvestre_(EW)","Extinto_(EX)","No_enlistadas"
"Hongos",0,0,0,0,0,0,0,0,100
"Plantas",0,4.2553,0.4255,1.2766,1.7021,0,0,0,92.3404
"Invertebrados",0,4.4118,0,0,0,1.4706,0,0,94.1176
"Peces",3.0172,43.5345,2.5862,3.4483,0.431,0.431,0,0,46.5517
"Anfibios",0,0,0,0,0,0,0,0,0
"Reptiles",0,100,0,0,0,0,0,0,0
"Aves",0,67.2131,11.4754,3.2787,1.6393,0,0,1.6393,14.7541
"Mamíferos",0,100,0,0,0,0,0,0,0
