"Grupo","Datos_insuficientes_(DD)","Preocupacion_menor_(LC)","Casi_amenazado_(NT)","Vulnerable_(VU)","En_peligro_(EN)","En_peligro_critico_(CR)","Extinto_en_estado_silvestre_(EW)","Extinto_(EX)","No_enlistadas"
"Hongos",0,0,0,0,0,0,0,0,100
"Plantas",0.8032,6.4257,0,0.4016,0,0,0,0,92.3695
"Invertebrados",0,2.8226,0,0,0,0,0,0,97.1774
"Peces",0,0,0,0,0,0,0,0,0
"Anfibios",0,66.6667,0,0,0,33.3333,0,0,0
"Reptiles",0,91.6667,0,8.3333,0,0,0,0,0
"Aves",0,93.1818,0,0,0,0,0,0,6.8182
"Mamíferos",0,100,0,0,0,0,0,0,0
