"Grupo","Datos_insuficientes_(DD)","Preocupacion_menor_(LC)","Casi_amenazado_(NT)","Vulnerable_(VU)","En_peligro_(EN)","En_peligro_critico_(CR)","Extinto_en_estado_silvestre_(EW)","Extinto_(EX)","No_enlistadas"
"Hongos",0,0,0,0,0,0,0,0,100
"Plantas",0,6.25,0,0,0,0,0,0,93.75
"Invertebrados",0,2.5,0,0,0,0,0,0,97.5
"Peces",0,100,0,0,0,0,0,0,0
"Anfibios",0,0,0,0,0,0,0,0,0
"Reptiles",16.6667,66.6667,0,0,0,0,0,0,16.6667
"Aves",0,95.283,0.9434,0,0,0,0,0,3.7736
"Mamíferos",0,100,0,0,0,0,0,0,0
