"Grupo","Datos_insuficientes_(DD)","Preocupacion_menor_(LC)","Casi_amenazado_(NT)","Vulnerable_(VU)","En_peligro_(EN)","En_peligro_critico_(CR)","Extinto_en_estado_silvestre_(EW)","Extinto_(EX)","No_enlistadas"
"Hongos",0,0,0,0,0,0,0,0,100
"Plantas",0.2677,4.5515,0,0.1339,0,0,0,0,95.0469
"Invertebrados",0,3.4483,0,0,0,0,0,0,96.5517
"Peces",0,0,0,0,0,0,0,0,0
"Anfibios",0,83.3333,0,0,0,0,0,0,16.6667
"Reptiles",0,100,0,0,0,0,0,0,0
"Aves",0,93.1818,0,0,0,0,0,0,6.8182
"Mamíferos",0,100,0,0,0,0,0,0,0
