"Grupo","Datos_insuficientes_(DD)","Preocupacion_menor_(LC)","Casi_amenazado_(NT)","Vulnerable_(VU)","En_peligro_(EN)","En_peligro_critico_(CR)","Extinto_en_estado_silvestre_(EW)","Extinto_(EX)","No_enlistadas"
"Hongos",0,0,0,0,0,0,0,0,0
"Plantas",0,6.5217,0,1.087,1.087,0,0,0,91.3043
"Invertebrados",0,1.692,0.3384,0.1692,0,0,0,0,97.8003
"Peces",4.5662,84.9315,1.3699,1.3699,0.4566,0.4566,0,0,6.8493
"Anfibios",14.2857,85.7143,0,0,0,0,0,0,0
"Reptiles",0,70.5882,0,0,0,0,0,0,29.4118
"Aves",0,90.2778,2.7778,1.3889,1.3889,0,0,0,4.1667
"Mamíferos",0,83.3333,6.6667,3.3333,3.3333,0,0,0,3.3333
