"Grupo","Datos_insuficientes_(DD)","Preocupacion_menor_(LC)","Casi_amenazado_(NT)","Vulnerable_(VU)","En_peligro_(EN)","En_peligro_critico_(CR)","Extinto_en_estado_silvestre_(EW)","Extinto_(EX)","No_enlistadas"
"Hongos",0,0,0,0,0,0,0,0,100
"Plantas",0,11.6279,0,1.1628,0,0,0,0,87.2093
"Invertebrados",0,0,0,0,0,0,0,0,100
"Peces",0,0,0,0,0,0,0,0,0
"Anfibios",0,100,0,0,0,0,0,0,0
"Reptiles",0,50,0,0,0,0,0,0,50
"Aves",0,97.7273,0,0,0,0,0,0,2.2727
"Mamíferos",0,100,0,0,0,0,0,0,0
