"Grupo","Datos_insuficientes_(DD)","Preocupacion_menor_(LC)","Casi_amenazado_(NT)","Vulnerable_(VU)","En_peligro_(EN)","En_peligro_critico_(CR)","Extinto_en_estado_silvestre_(EW)","Extinto_(EX)","No_enlistadas"
"Hongos",0,0,0,0,0,0,0,0,0
"Plantas",0.885,6.1947,1.7699,0,0,0.885,0,0,90.2655
"Invertebrados",0,0,0,0,0,0,0,0,100
"Peces",0,0,0,0,0,0,0,0,0
"Anfibios",0,100,0,0,0,0,0,0,0
"Reptiles",9.0909,36.3636,9.0909,0,0,0,0,0,45.4545
"Aves",0,93.1507,1.3699,1.3699,0,0,0,0,4.1096
"Mamíferos",0,100,0,0,0,0,0,0,0
