"Grupo","Datos_insuficientes_(DD)","Preocupacion_menor_(LC)","Casi_amenazado_(NT)","Vulnerable_(VU)","En_peligro_(EN)","En_peligro_critico_(CR)","Extinto_en_estado_silvestre_(EW)","Extinto_(EX)","No_enlistadas"
"Hongos",0,0,0,0,0,0,0,0,0
"Plantas",0.4808,4.3269,0.4808,0.4808,0,0,0,0,94.2308
"Invertebrados",0,0,0,0,0,0,0,0,0
"Peces",0,0,0,0,0,0,0,0,0
"Anfibios",0,82.3529,0,5.8824,0,0,0,0,11.7647
"Reptiles",0,65.2174,0,0,0,0,0,0,34.7826
"Aves",0,83.3333,16.6667,0,0,0,0,0,0
"Mamíferos",0,70,10,10,0,0,0,0,10
