"Grupo","Datos_insuficientes_(DD)","Preocupacion_menor_(LC)","Casi_amenazado_(NT)","Vulnerable_(VU)","En_peligro_(EN)","En_peligro_critico_(CR)","Extinto_en_estado_silvestre_(EW)","Extinto_(EX)","No_enlistadas"
"Hongos",0,0,0,0,0,0,0,0,100
"Plantas",0,11.5385,0,0,0,0,0,0,88.4615
"Invertebrados",0,3.125,0,0,0,0,0,0,96.875
"Peces",2.7778,79.1667,1.3889,0,0,0,0,0,16.6667
"Anfibios",0,85.7143,0,0,0,0,0,0,14.2857
"Reptiles",0,42.3077,3.8462,3.8462,0,0,0,0,50
"Aves",0,94.382,3.3708,0,1.1236,0,0,0,1.1236
"Mamíferos",0,77.7778,0,0,11.1111,0,0,0,11.1111
