"Grupo","Datos_insuficientes_(DD)","Preocupacion_menor_(LC)","Casi_amenazado_(NT)","Vulnerable_(VU)","En_peligro_(EN)","En_peligro_critico_(CR)","Extinto_en_estado_silvestre_(EW)","Extinto_(EX)","No_enlistadas"
"Hongos",0,0,0,0,0,0,0,0,0
"Plantas",0,23.5294,0,0,1.9608,0,0,0,74.5098
"Invertebrados",0,11.7647,0,0,0,0,0,0,88.2353
"Peces",0,78.9474,0,0,5.2632,0,0,0,15.7895
"Anfibios",0,66.6667,0,0,0,0,0,0,33.3333
"Reptiles",0,54.5455,9.0909,9.0909,0,0,0,0,27.2727
"Aves",0,92.8571,3.5714,0,0,0,0,0,3.5714
"Mamíferos",0,100,0,0,0,0,0,0,0
