"Grupo","Datos_insuficientes_(DD)","Preocupacion_menor_(LC)","Casi_amenazado_(NT)","Vulnerable_(VU)","En_peligro_(EN)","En_peligro_critico_(CR)","Extinto_en_estado_silvestre_(EW)","Extinto_(EX)","No_enlistadas"
"Hongos",0,0,0,0,0,0,0,0,100
"Plantas",0,11.5079,0.3968,0.7937,0,0,0,0,87.3016
"Invertebrados",0,0.8197,0,0,0,0,0,0,99.1803
"Peces",0,0,0,0,0,0,0,0,0
"Anfibios",0,100,0,0,0,0,0,0,0
"Reptiles",0,77.1429,2.8571,0,0,0,0,0,20
"Aves",0,100,0,0,0,0,0,0,0
"Mamíferos",0,94.4444,5.5556,0,0,0,0,0,0
