"Grupo","Datos_insuficientes_(DD)","Preocupacion_menor_(LC)","Casi_amenazado_(NT)","Vulnerable_(VU)","En_peligro_(EN)","En_peligro_critico_(CR)","Extinto_en_estado_silvestre_(EW)","Extinto_(EX)","No_enlistadas"
"Hongos",0,0,0,0,0,0,0,0,100
"Plantas",0.4219,7.8059,0,0.4219,0.211,0,0,0,91.1392
"Invertebrados",0.9259,0.9259,0,0,0,0,0,0,98.1481
"Peces",0,50,16.6667,0,0,0,0,0,33.3333
"Anfibios",13.3333,73.3333,0,0,0,0,0,0,13.3333
"Reptiles",0,61.3636,0,4.5455,0,0,0,0,34.0909
"Aves",0,93.9024,2.439,0.6098,0,0,0,0,3.0488
"Mamíferos",0,90.9091,6.8182,0,0,0,0,0,2.2727
