"Grupo","Datos_insuficientes_(DD)","Preocupacion_menor_(LC)","Casi_amenazado_(NT)","Vulnerable_(VU)","En_peligro_(EN)","En_peligro_critico_(CR)","Extinto_en_estado_silvestre_(EW)","Extinto_(EX)","No_enlistadas"
"Hongos",0,0,0,0,0,0,0,0,0
"Plantas",0,7.8947,0,0,0,0,0,0,92.1053
"Invertebrados",0,0,0,0,0,0,0,0,0
"Peces",0,0,0,0,0,0,0,0,0
"Anfibios",0,71.4286,14.2857,0,0,0,0,0,14.2857
"Reptiles",0,0,0,0,0,0,0,0,100
"Aves",0,86.6667,0,3.3333,0,0,0,0,10
"Mamíferos",0,100,0,0,0,0,0,0,0
