"Grupo","Datos_insuficientes_(DD)","Preocupacion_menor_(LC)","Casi_amenazado_(NT)","Vulnerable_(VU)","En_peligro_(EN)","En_peligro_critico_(CR)","Extinto_en_estado_silvestre_(EW)","Extinto_(EX)","No_enlistadas"
"Hongos",0,0,0,0,0,0,0,0,100
"Plantas",0.0746,3.2811,0.0746,0.8203,0.2237,0.0746,0,0,95.4512
"Invertebrados",0,0.3597,0,0,0,0,0,0,99.6403
"Peces",0,13.4328,0,0,0,0,0,0,86.5672
"Anfibios",5.5556,55.5556,11.1111,11.1111,0,5.5556,0,0,11.1111
"Reptiles",1.7241,37.931,1.7241,3.4483,0,1.7241,0,0,53.4483
"Aves",0,89.9371,4.4025,1.2579,0.6289,0,0,0,3.7736
"Mamíferos",1.1905,80.9524,7.1429,1.1905,3.5714,1.1905,0,0,4.7619
