"Grupo","Datos_insuficientes_(DD)","Preocupacion_menor_(LC)","Casi_amenazado_(NT)","Vulnerable_(VU)","En_peligro_(EN)","En_peligro_critico_(CR)","Extinto_en_estado_silvestre_(EW)","Extinto_(EX)","No_enlistadas"
"Hongos",0,0,0,0,0,0,0,0,100
"Plantas",0,10,0,0,0,0,0,0,90
"Invertebrados",0,0,0,0,0,0,0,0,100
"Peces",0,50,0,0,0,0,0,0,50
"Anfibios",0,100,0,0,0,0,0,0,0
"Reptiles",0,88.8889,11.1111,0,0,0,0,0,0
"Aves",0,100,0,0,0,0,0,0,0
"Mamíferos",0,100,0,0,0,0,0,0,0
