"Grupo","Datos_insuficientes_(DD)","Preocupacion_menor_(LC)","Casi_amenazado_(NT)","Vulnerable_(VU)","En_peligro_(EN)","En_peligro_critico_(CR)","Extinto_en_estado_silvestre_(EW)","Extinto_(EX)","No_enlistadas"
"Hongos",0,0,0,0,0,0,0,0,0
"Plantas",2.8571,8.5714,0,0,0,0,0,0,88.5714
"Invertebrados",0,0,0,0,0,0,0,0,100
"Peces",0,66.6667,0,0,0,0,0,0,33.3333
"Anfibios",0,66.6667,0,0,33.3333,0,0,0,0
"Reptiles",0,75,0,0,12.5,0,0,0,12.5
"Aves",0,84,12,0,0,0,0,0,4
"Mamíferos",0,100,0,0,0,0,0,0,0
