"Grupo","Datos_insuficientes_(DD)","Preocupacion_menor_(LC)","Casi_amenazado_(NT)","Vulnerable_(VU)","En_peligro_(EN)","En_peligro_critico_(CR)","Extinto_en_estado_silvestre_(EW)","Extinto_(EX)","No_enlistadas"
"Hongos",0,0,0,0,0,0,0,0,0
"Plantas",0.2857,2.2857,0,2.2857,0.5714,0,0,0,94.5714
"Invertebrados",0,0,0,0,0,0,0,0,100
"Peces",0,0,0,0,0,0,0,0,0
"Anfibios",20,20,0,20,0,40,0,0,0
"Reptiles",0,0,0,0,0,0,0,0,0
"Aves",0,0,0,0,0,0,0,0,0
"Mamíferos",0,0,0,0,0,0,0,0,0
