"Grupo","Datos_insuficientes_(DD)","Preocupacion_menor_(LC)","Casi_amenazado_(NT)","Vulnerable_(VU)","En_peligro_(EN)","En_peligro_critico_(CR)","Extinto_en_estado_silvestre_(EW)","Extinto_(EX)","No_enlistadas"
"Hongos",0,0,0,0,0,0,0,0,0
"Plantas",0,2.5287,0,0.4598,0.2299,0,0,0,96.7816
"Invertebrados",0,0,0,0,0,0,0,0,100
"Peces",0,41.6667,8.3333,0,0,0,0,0,50
"Anfibios",0,100,0,0,0,0,0,0,0
"Reptiles",0,80,0,0,0,0,0,0,20
"Aves",0,94.7368,0,0,0,0,0,0,5.2632
"Mamíferos",0,0,0,0,0,0,0,0,0
