"Grupo","Datos_insuficientes_(DD)","Preocupacion_menor_(LC)","Casi_amenazado_(NT)","Vulnerable_(VU)","En_peligro_(EN)","En_peligro_critico_(CR)","Extinto_en_estado_silvestre_(EW)","Extinto_(EX)","No_enlistadas"
"Hongos",0,0,0,0,0,0,0,0,0
"Plantas",0,3.8462,0,3.8462,0,0,0,0,92.3077
"Invertebrados",0,0,0,0,0,0,0,0,0
"Peces",0,12.5,0,0,0,0,0,0,87.5
"Anfibios",0,100,0,0,0,0,0,0,0
"Reptiles",0,100,0,0,0,0,0,0,0
"Aves",0,87.0968,6.4516,0,0,0,0,0,6.4516
"Mamíferos",0,0,0,0,0,0,0,0,0
