"Grupo","Datos_insuficientes_(DD)","Preocupacion_menor_(LC)","Casi_amenazado_(NT)","Vulnerable_(VU)","En_peligro_(EN)","En_peligro_critico_(CR)","Extinto_en_estado_silvestre_(EW)","Extinto_(EX)","No_enlistadas"
"Hongos",0,0,0,0,0,0,0,0,100
"Plantas",0.5327,6.8493,0.4566,0.761,0.0761,0.1522,0,0,91.172
"Invertebrados",0,1.6575,0,0,0,0,0,0,98.3425
"Peces",0,28.5714,14.2857,14.2857,14.2857,0,0,0,28.5714
"Anfibios",0,65,15,5,0,5,0,0,10
"Reptiles",8.6957,71.7391,0,4.3478,0,0,0,0,15.2174
"Aves",0,94.0299,1.4925,1.4925,0,0,0,0,2.9851
"Mamíferos",0,93.3333,4.4444,0,2.2222,0,0,0,0
