"USV_1993","USV_2014","EXT_KM2"
"Otros tipos de vegetación","Otros tipos de vegetación",31
"Otros tipos de vegetación","Selvas húmedas",0
"Otros tipos de vegetación","Selvas subhúmedas",0
"Otros tipos de vegetación","Uso antrópico",0
"Otros tipos de vegetación","Vegetación halófila",0
"Otros tipos de vegetación","Vegetación hidrófila",0
"Selvas húmedas","Selvas húmedas",128
"Selvas húmedas","Vegetación hidrófila",9
"Selvas húmedas","Selvas subhúmedas",6
"Selvas húmedas","Uso antrópico",3
"Selvas húmedas","Otros tipos de vegetación",0
"Selvas húmedas","Vegetación halófila",0
"Selvas subhúmedas","Selvas subhúmedas",128
"Selvas subhúmedas","Vegetación hidrófila",10
"Selvas subhúmedas","Uso antrópico",3
"Selvas subhúmedas","Selvas húmedas",2
"Selvas subhúmedas","Otros tipos de vegetación",0
"Selvas subhúmedas","Vegetación halófila",0
"Uso antrópico","Uso antrópico",2
"Uso antrópico","Otros tipos de vegetación",1
"Uso antrópico","Selvas subhúmedas",1
"Uso antrópico","Selvas húmedas",0
"Uso antrópico","Vegetación halófila",0
"Uso antrópico","Vegetación hidrófila",0
"Vegetación halófila","Vegetación halófila",2
"Vegetación halófila","Otros tipos de vegetación",0
"Vegetación halófila","Selvas húmedas",0
"Vegetación halófila","Selvas subhúmedas",0
"Vegetación halófila","Uso antrópico",0
"Vegetación halófila","Vegetación hidrófila",0
"Vegetación hidrófila","Vegetación hidrófila",179
"Vegetación hidrófila","Selvas húmedas",15
"Vegetación hidrófila","Uso antrópico",3
"Vegetación hidrófila","Selvas subhúmedas",1
"Vegetación hidrófila","Otros tipos de vegetación",0
"Vegetación hidrófila","Vegetación halófila",0
