"USV_1993","USV_2014","EXT_KM2"
"Bosques templados","Bosques templados",45
"Bosques templados","Selvas subhúmedas",21
"Bosques templados","Cuerpos de agua",0
"Bosques templados","Uso antrópico",0
"Cuerpos de agua","Cuerpos de agua",72
"Cuerpos de agua","Selvas subhúmedas",1
"Cuerpos de agua","Bosques templados",0
"Cuerpos de agua","Uso antrópico",0
"Selvas subhúmedas","Selvas subhúmedas",2085
"Selvas subhúmedas","Uso antrópico",87
"Selvas subhúmedas","Bosques templados",9
"Selvas subhúmedas","Cuerpos de agua",1
"Uso antrópico","Selvas subhúmedas",189
"Uso antrópico","Uso antrópico",127
"Uso antrópico","Bosques templados",5
"Uso antrópico","Cuerpos de agua",1
