"USV_1993","USV_2014","EXT_KM2"
"Cuerpos de agua","Cuerpos de agua",59
"Cuerpos de agua","Vegetación hidrófila",7
"Cuerpos de agua","Otros tipos de vegetación",0
"Cuerpos de agua","Selvas húmedas",0
"Cuerpos de agua","Sin vegetación aparente",0
"Cuerpos de agua","Uso antrópico",0
"Cuerpos de agua","Vegetación halófila",0
"Otros tipos de vegetación","Otros tipos de vegetación",94
"Otros tipos de vegetación","Vegetación hidrófila",8
"Otros tipos de vegetación","Uso antrópico",4
"Otros tipos de vegetación","Selvas húmedas",1
"Otros tipos de vegetación","Cuerpos de agua",0
"Otros tipos de vegetación","Sin vegetación aparente",0
"Otros tipos de vegetación","Vegetación halófila",0
"Selvas húmedas","Selvas húmedas",191
"Selvas húmedas","Uso antrópico",54
"Selvas húmedas","Vegetación hidrófila",32
"Selvas húmedas","Otros tipos de vegetación",11
"Selvas húmedas","Cuerpos de agua",3
"Selvas húmedas","Sin vegetación aparente",0
"Selvas húmedas","Vegetación halófila",0
"Sin vegetación aparente","Sin vegetación aparente",46
"Sin vegetación aparente","Vegetación hidrófila",10
"Sin vegetación aparente","Uso antrópico",1
"Sin vegetación aparente","Cuerpos de agua",0
"Sin vegetación aparente","Otros tipos de vegetación",0
"Sin vegetación aparente","Selvas húmedas",0
"Sin vegetación aparente","Vegetación halófila",0
"Uso antrópico","Uso antrópico",461
"Uso antrópico","Selvas húmedas",34
"Uso antrópico","Vegetación hidrófila",27
"Uso antrópico","Cuerpos de agua",1
"Uso antrópico","Otros tipos de vegetación",1
"Uso antrópico","Sin vegetación aparente",0
"Uso antrópico","Vegetación halófila",0
"Vegetación halófila","Vegetación halófila",2
"Vegetación halófila","Cuerpos de agua",0
"Vegetación halófila","Otros tipos de vegetación",0
"Vegetación halófila","Selvas húmedas",0
"Vegetación halófila","Sin vegetación aparente",0
"Vegetación halófila","Uso antrópico",0
"Vegetación halófila","Vegetación hidrófila",0
"Vegetación hidrófila","Vegetación hidrófila",2306
"Vegetación hidrófila","Uso antrópico",82
"Vegetación hidrófila","Selvas húmedas",33
"Vegetación hidrófila","Sin vegetación aparente",14
"Vegetación hidrófila","Cuerpos de agua",7
"Vegetación hidrófila","Otros tipos de vegetación",2
"Vegetación hidrófila","Vegetación halófila",0
