"USV_1993","USV_2014","EXT_KM2"
"Cuerpos de agua","Cuerpos de agua",2
"Cuerpos de agua","Selvas húmedas",0
"Cuerpos de agua","Vegetación hidrófila",0
"Selvas húmedas","Selvas húmedas",27
"Selvas húmedas","Cuerpos de agua",0
"Selvas húmedas","Vegetación hidrófila",0
"Uso antrópico","Selvas húmedas",2
"Uso antrópico","Cuerpos de agua",0
"Uso antrópico","Vegetación hidrófila",0
"Vegetación hidrófila","Vegetación hidrófila",1
"Vegetación hidrófila","Cuerpos de agua",0
"Vegetación hidrófila","Selvas húmedas",0
