"USV_1993","USV_2014","EXT_KM2"
"Cuerpos de agua","Cuerpos de agua",2
"Cuerpos de agua","Selvas húmedas",0
"Cuerpos de agua","Selvas subhúmedas",0
"Cuerpos de agua","Uso antrópico",0
"Cuerpos de agua","Vegetación hidrófila",0
"Otros tipos de vegetación","Selvas húmedas",3
"Otros tipos de vegetación","Cuerpos de agua",0
"Otros tipos de vegetación","Selvas subhúmedas",0
"Otros tipos de vegetación","Uso antrópico",0
"Otros tipos de vegetación","Vegetación hidrófila",0
"Selvas húmedas","Selvas húmedas",6419
"Selvas húmedas","Selvas subhúmedas",210
"Selvas húmedas","Uso antrópico",86
"Selvas húmedas","Vegetación hidrófila",1
"Selvas húmedas","Cuerpos de agua",0
"Selvas subhúmedas","Selvas subhúmedas",234
"Selvas subhúmedas","Selvas húmedas",156
"Selvas subhúmedas","Cuerpos de agua",0
"Selvas subhúmedas","Uso antrópico",0
"Selvas subhúmedas","Vegetación hidrófila",0
"Uso antrópico","Selvas húmedas",56
"Uso antrópico","Uso antrópico",21
"Uso antrópico","Cuerpos de agua",0
"Uso antrópico","Selvas subhúmedas",0
"Uso antrópico","Vegetación hidrófila",0
"Vegetación hidrófila","Vegetación hidrófila",17
"Vegetación hidrófila","Selvas húmedas",2
"Vegetación hidrófila","Cuerpos de agua",0
"Vegetación hidrófila","Selvas subhúmedas",0
"Vegetación hidrófila","Uso antrópico",0
