"USV_1993","USV_2014","EXT_KM2"
"Cuerpos de agua","Cuerpos de agua",2
"Cuerpos de agua","Otros tipos de vegetación",0
"Cuerpos de agua","Vegetación hidrófila",0
"Otros tipos de vegetación","Otros tipos de vegetación",2
"Otros tipos de vegetación","Cuerpos de agua",0
"Otros tipos de vegetación","Vegetación hidrófila",0
"Vegetación hidrófila","Vegetación hidrófila",47
"Vegetación hidrófila","Cuerpos de agua",2
"Vegetación hidrófila","Otros tipos de vegetación",0
