"USV_1993","USV_2014","EXT_KM2"
"Bosques templados","Bosques templados",686
"Bosques templados","Uso antrópico",14
"Bosques templados","Selvas subhúmedas",5
"Bosques templados","Matorral xerófilo",0
"Bosques templados","Otros tipos de vegetación",0
"Matorral xerófilo","Matorral xerófilo",120
"Matorral xerófilo","Selvas subhúmedas",22
"Matorral xerófilo","Uso antrópico",4
"Matorral xerófilo","Bosques templados",0
"Matorral xerófilo","Otros tipos de vegetación",0
"Otros tipos de vegetación","Otros tipos de vegetación",230
"Otros tipos de vegetación","Uso antrópico",12
"Otros tipos de vegetación","Matorral xerófilo",4
"Otros tipos de vegetación","Selvas subhúmedas",2
"Otros tipos de vegetación","Bosques templados",0
"Selvas subhúmedas","Selvas subhúmedas",1490
"Selvas subhúmedas","Bosques templados",114
"Selvas subhúmedas","Uso antrópico",87
"Selvas subhúmedas","Matorral xerófilo",0
"Selvas subhúmedas","Otros tipos de vegetación",0
"Uso antrópico","Uso antrópico",221
"Uso antrópico","Selvas subhúmedas",47
"Uso antrópico","Otros tipos de vegetación",4
"Uso antrópico","Bosques templados",2
"Uso antrópico","Matorral xerófilo",1
