"USV_1993","USV_2014","EXT_KM2"
"Selvas húmedas","Selvas húmedas",443
"Selvas húmedas","Selvas subhúmedas",12
"Selvas húmedas","Uso antrópico",1
"Selvas subhúmedas","Selvas subhúmedas",476
"Selvas subhúmedas","Selvas húmedas",37
"Selvas subhúmedas","Uso antrópico",0
"Uso antrópico","Selvas húmedas",10
"Uso antrópico","Selvas subhúmedas",0
"Uso antrópico","Uso antrópico",0
