"USV_1993","USV_2014","EXT_KM2"
"Bosques templados","Bosques templados",44
"Bosques templados","Bosque mesófilo de montana",0
"Bosque mesófilo de montana","Bosque mesófilo de montana",28
"Bosque mesófilo de montana","Bosques templados",0
