"USV_1993","USV_2014","EXT_KM2"
"Cuerpos de agua","Cuerpos de agua",5
"Cuerpos de agua","Selvas húmedas",0
"Cuerpos de agua","Uso antrópico",0
"Uso antrópico","Uso antrópico",13
"Uso antrópico","Selvas húmedas",2
"Uso antrópico","Cuerpos de agua",0
