"USV_1993","USV_2014","EXT_KM2"
"Bosques templados","Bosques templados",24
"Bosques templados","Pastizales",0
"Pastizales","Pastizales",31
"Pastizales","Bosques templados",1
"Uso antrópico","Bosques templados",1
"Uso antrópico","Pastizales",0
