"USV_1993","USV_2014","EXT_KM2"
"Selvas subhúmedas","Selvas subhúmedas",6
"Selvas subhúmedas","Selvas húmedas",3
"Selvas subhúmedas","Uso antrópico",2
"Uso antrópico","Selvas subhúmedas",4
"Uso antrópico","Uso antrópico",4
"Uso antrópico","Selvas húmedas",0
