"USV_1993","USV_2014","EXT_KM2"
"Bosques templados","Bosques templados",4
"Bosques templados","Selvas subhúmedas",0
"Bosques templados","Uso antrópico",0
"Selvas subhúmedas","Selvas subhúmedas",109
"Selvas subhúmedas","Uso antrópico",6
"Selvas subhúmedas","Bosques templados",0
"Uso antrópico","Uso antrópico",201
"Uso antrópico","Selvas subhúmedas",8
"Uso antrópico","Bosques templados",0
