"USV_1993","USV_2014","EXT_KM2"
"Uso antrópico","Vegetación hidrófila",12
"Uso antrópico","Uso antrópico",11
"Uso antrópico","Cuerpos de agua",1
"Vegetación hidrófila","Vegetación hidrófila",4
"Vegetación hidrófila","Uso antrópico",1
"Vegetación hidrófila","Cuerpos de agua",0
