"USV_1993","USV_2014","EXT_KM2"
"Cuerpos de agua","Cuerpos de agua",1
"Cuerpos de agua","Matorral xerófilo",0
"Cuerpos de agua","Selvas subhúmedas",0
"Cuerpos de agua","Uso antrópico",0
"Matorral xerófilo","Matorral xerófilo",2
"Matorral xerófilo","Cuerpos de agua",0
"Matorral xerófilo","Selvas subhúmedas",0
"Matorral xerófilo","Uso antrópico",0
"Selvas subhúmedas","Selvas subhúmedas",27
"Selvas subhúmedas","Uso antrópico",1
"Selvas subhúmedas","Cuerpos de agua",0
"Selvas subhúmedas","Matorral xerófilo",0
"Uso antrópico","Uso antrópico",58
"Uso antrópico","Matorral xerófilo",1
"Uso antrópico","Selvas subhúmedas",1
"Uso antrópico","Cuerpos de agua",0
