"USV_1993","USV_2014","EXT_KM2"
"Cuerpos de agua","Vegetación hidrófila",4
"Cuerpos de agua","Cuerpos de agua",1
"Cuerpos de agua","Selvas húmedas",0
"Cuerpos de agua","Selvas subhúmedas",0
"Cuerpos de agua","Uso antrópico",0
"Selvas húmedas","Selvas húmedas",12
"Selvas húmedas","Uso antrópico",12
"Selvas húmedas","Cuerpos de agua",0
"Selvas húmedas","Selvas subhúmedas",0
"Selvas húmedas","Vegetación hidrófila",0
"Selvas subhúmedas","Selvas subhúmedas",138
"Selvas subhúmedas","Selvas húmedas",89
"Selvas subhúmedas","Uso antrópico",5
"Selvas subhúmedas","Vegetación hidrófila",1
"Selvas subhúmedas","Cuerpos de agua",0
"Uso antrópico","Selvas húmedas",30
"Uso antrópico","Selvas subhúmedas",3
"Uso antrópico","Cuerpos de agua",0
"Uso antrópico","Uso antrópico",0
"Uso antrópico","Vegetación hidrófila",0
