"USV_1993","USV_2014","EXT_KM2"
"Bosques templados","Bosques templados",46
"Bosques templados","Selvas subhúmedas",4
"Bosques templados","Uso antrópico",3
"Bosques templados","Cuerpos de agua",0
"Bosques templados","Matorral xerófilo",0
"Cuerpos de agua","Cuerpos de agua",28
"Cuerpos de agua","Uso antrópico",14
"Cuerpos de agua","Bosques templados",0
"Cuerpos de agua","Matorral xerófilo",0
"Cuerpos de agua","Selvas subhúmedas",0
"Matorral xerófilo","Matorral xerófilo",1
"Matorral xerófilo","Bosques templados",0
"Matorral xerófilo","Cuerpos de agua",0
"Matorral xerófilo","Selvas subhúmedas",0
"Matorral xerófilo","Uso antrópico",0
"Uso antrópico","Uso antrópico",594
"Uso antrópico","Bosques templados",12
"Uso antrópico","Cuerpos de agua",1
"Uso antrópico","Selvas subhúmedas",1
"Uso antrópico","Matorral xerófilo",0
