"USV_1993","USV_2014","EXT_KM2"
"Selvas subhúmedas","Selvas subhúmedas",88
"Selvas subhúmedas","Uso antrópico",36
"Selvas subhúmedas","Vegetación hidrófila",3
"Sin vegetación aparente","Vegetación hidrófila",4
"Sin vegetación aparente","Selvas subhúmedas",0
"Sin vegetación aparente","Uso antrópico",0
"Uso antrópico","Uso antrópico",51
"Uso antrópico","Selvas subhúmedas",12
"Uso antrópico","Vegetación hidrófila",0
"Vegetación hidrófila","Vegetación hidrófila",264
"Vegetación hidrófila","Uso antrópico",2
"Vegetación hidrófila","Selvas subhúmedas",0
