"USV_1993","USV_2014","EXT_KM2"
"Cuerpos de agua","Cuerpos de agua",1348
"Cuerpos de agua","Selvas húmedas",2
"Cuerpos de agua","Sin vegetación aparente",1
"Cuerpos de agua","Vegetación hidrófila",1
"Cuerpos de agua","Selvas subhúmedas",0
"Cuerpos de agua","Uso antrópico",0
"Selvas húmedas","Selvas húmedas",688
"Selvas húmedas","Vegetación hidrófila",31
"Selvas húmedas","Selvas subhúmedas",18
"Selvas húmedas","Uso antrópico",8
"Selvas húmedas","Cuerpos de agua",1
"Selvas húmedas","Sin vegetación aparente",0
"Selvas subhúmedas","Selvas subhúmedas",85
"Selvas subhúmedas","Selvas húmedas",13
"Selvas subhúmedas","Cuerpos de agua",0
"Selvas subhúmedas","Sin vegetación aparente",0
"Selvas subhúmedas","Uso antrópico",0
"Selvas subhúmedas","Vegetación hidrófila",0
"Sin vegetación aparente","Cuerpos de agua",3
"Sin vegetación aparente","Vegetación hidrófila",3
"Sin vegetación aparente","Selvas húmedas",0
"Sin vegetación aparente","Selvas subhúmedas",0
"Sin vegetación aparente","Sin vegetación aparente",0
"Sin vegetación aparente","Uso antrópico",0
"Vegetación hidrófila","Vegetación hidrófila",520
"Vegetación hidrófila","Selvas húmedas",26
"Vegetación hidrófila","Selvas subhúmedas",10
"Vegetación hidrófila","Cuerpos de agua",3
"Vegetación hidrófila","Sin vegetación aparente",0
"Vegetación hidrófila","Uso antrópico",0
