"USV_1993","USV_2014","EXT_KM2"
"Bosques templados","Bosques templados",270
"Bosques templados","Selvas subhúmedas",40
"Bosques templados","Uso antrópico",36
"Selvas subhúmedas","Selvas subhúmedas",88
"Selvas subhúmedas","Uso antrópico",39
"Selvas subhúmedas","Bosques templados",9
"Uso antrópico","Uso antrópico",124
"Uso antrópico","Bosques templados",27
"Uso antrópico","Selvas subhúmedas",16
