"USV_1993","USV_2014","EXT_KM2"
"Bosques templados","Bosques templados",27
"Bosques templados","Matorral xerófilo",0
"Bosques templados","Uso antrópico",0
"Matorral xerófilo","Matorral xerófilo",7
"Matorral xerófilo","Bosques templados",0
"Matorral xerófilo","Uso antrópico",0
"Uso antrópico","Uso antrópico",63
"Uso antrópico","Bosques templados",0
"Uso antrópico","Matorral xerófilo",0
