"USV_1993","USV_2014","EXT_KM2"
"Bosques templados","Bosques templados",37
"Bosques templados","Selvas subhúmedas",5
"Bosques templados","Uso antrópico",1
"Bosques templados","Selvas húmedas",0
"Otros tipos de vegetación","Uso antrópico",1
"Otros tipos de vegetación","Bosques templados",0
"Otros tipos de vegetación","Selvas húmedas",0
"Otros tipos de vegetación","Selvas subhúmedas",0
"Selvas subhúmedas","Selvas subhúmedas",489
"Selvas subhúmedas","Uso antrópico",37
"Selvas subhúmedas","Selvas húmedas",16
"Selvas subhúmedas","Bosques templados",4
"Uso antrópico","Uso antrópico",36
"Uso antrópico","Selvas húmedas",4
"Uso antrópico","Selvas subhúmedas",2
"Uso antrópico","Bosques templados",0
