"USV_1993","USV_2014","EXT_KM2"
"Bosques templados","Bosques templados",137
"Bosques templados","Selvas subhúmedas",0
"Bosques templados","Uso antrópico",0
"Selvas subhúmedas","Selvas subhúmedas",31
"Selvas subhúmedas","Bosques templados",1
"Selvas subhúmedas","Uso antrópico",1
"Uso antrópico","Bosques templados",21
"Uso antrópico","Uso antrópico",10
"Uso antrópico","Selvas subhúmedas",3
