"USV_1993","USV_2014","EXT_KM2"
"Bosque mesófilo de montana","Bosque mesófilo de montana",72
"Bosque mesófilo de montana","Uso antrópico",5
"Bosque mesófilo de montana","Pastizales",0
"Pastizales","Pastizales",2
"Pastizales","Bosque mesófilo de montana",0
"Pastizales","Uso antrópico",0
"Uso antrópico","Uso antrópico",22
"Uso antrópico","Bosque mesófilo de montana",1
"Uso antrópico","Pastizales",0
