"USV_1993","USV_2014","EXT_KM2"
"Bosques templados","Bosques templados",182
"Bosques templados","Matorral xerófilo",0
"Bosques templados","Pastizales",0
"Bosques templados","Sin vegetación aparente",0
"Bosques templados","Uso antrópico",0
"Matorral xerófilo","Matorral xerófilo",34
"Matorral xerófilo","Sin vegetación aparente",2
"Matorral xerófilo","Bosques templados",1
"Matorral xerófilo","Pastizales",0
"Matorral xerófilo","Uso antrópico",0
"Otros tipos de vegetación","Matorral xerófilo",1
"Otros tipos de vegetación","Bosques templados",0
"Otros tipos de vegetación","Pastizales",0
"Otros tipos de vegetación","Sin vegetación aparente",0
"Otros tipos de vegetación","Uso antrópico",0
"Pastizales","Pastizales",17
"Pastizales","Bosques templados",0
"Pastizales","Matorral xerófilo",0
"Pastizales","Sin vegetación aparente",0
"Pastizales","Uso antrópico",0
"Uso antrópico","Uso antrópico",6
"Uso antrópico","Bosques templados",2
"Uso antrópico","Matorral xerófilo",0
"Uso antrópico","Pastizales",0
"Uso antrópico","Sin vegetación aparente",0
