"USV_1993","USV_2014","EXT_KM2"
"Cuerpos de agua","Cuerpos de agua",1
"Cuerpos de agua","Selvas húmedas",0
"Cuerpos de agua","Uso antrópico",0
"Cuerpos de agua","Vegetación hidrófila",0
"Selvas húmedas","Selvas húmedas",585
"Selvas húmedas","Vegetación hidrófila",7
"Selvas húmedas","Uso antrópico",5
"Selvas húmedas","Cuerpos de agua",0
"Uso antrópico","Selvas húmedas",1
"Uso antrópico","Cuerpos de agua",0
"Uso antrópico","Uso antrópico",0
"Uso antrópico","Vegetación hidrófila",0
"Vegetación hidrófila","Vegetación hidrófila",8
"Vegetación hidrófila","Selvas húmedas",2
"Vegetación hidrófila","Cuerpos de agua",0
"Vegetación hidrófila","Uso antrópico",0
