"USV_1993","USV_2014","EXT_KM2"
"Selvas húmedas","Selvas húmedas",12
"Selvas húmedas","Vegetación hidrófila",1
"Vegetación hidrófila","Vegetación hidrófila",3
"Vegetación hidrófila","Selvas húmedas",0
