"USV_1993","USV_2014","EXT_KM2"
"Bosque mesófilo de montana","Bosque mesófilo de montana",27
"Bosque mesófilo de montana","Selvas húmedas",0
"Selvas húmedas","Selvas húmedas",15
"Selvas húmedas","Bosque mesófilo de montana",0
