"USV_1993","USV_2014","EXT_KM2"
"Cuerpos de agua","Cuerpos de agua",5
"Cuerpos de agua","Vegetación hidrófila",1
"Cuerpos de agua","Uso antrópico",0
"Vegetación hidrófila","Vegetación hidrófila",30
"Vegetación hidrófila","Uso antrópico",1
"Vegetación hidrófila","Cuerpos de agua",0
