"USV_1993","USV_2014","EXT_KM2"
"Matorral xerófilo","Matorral xerófilo",464
"Matorral xerófilo","Uso antrópico",14
"Matorral xerófilo","Sin vegetación aparente",6
"Matorral xerófilo","Vegetación halófila",0
"Sin vegetación aparente","Sin vegetación aparente",131
"Sin vegetación aparente","Matorral xerófilo",3
"Sin vegetación aparente","Uso antrópico",0
"Sin vegetación aparente","Vegetación halófila",0
"Uso antrópico","Uso antrópico",11
"Uso antrópico","Matorral xerófilo",1
"Uso antrópico","Sin vegetación aparente",0
"Uso antrópico","Vegetación halófila",0
"Vegetación halófila","Vegetación halófila",2
"Vegetación halófila","Matorral xerófilo",0
"Vegetación halófila","Sin vegetación aparente",0
"Vegetación halófila","Uso antrópico",0
