"USV_1993","USV_2014","EXT_KM2"
"Cuerpos de agua","Uso antrópico",1
"Cuerpos de agua","Cuerpos de agua",0
"Cuerpos de agua","Matorral xerófilo",0
"Cuerpos de agua","Pastizales",0
"Cuerpos de agua","Sin vegetación aparente",0
"Cuerpos de agua","Vegetación de galería",0
"Cuerpos de agua","Vegetación halófila",0
"Matorral xerófilo","Matorral xerófilo",3258
"Matorral xerófilo","Vegetación halófila",18
"Matorral xerófilo","Pastizales",14
"Matorral xerófilo","Sin vegetación aparente",13
"Matorral xerófilo","Uso antrópico",13
"Matorral xerófilo","Vegetación de galería",13
"Matorral xerófilo","Cuerpos de agua",2
"Pastizales","Matorral xerófilo",39
"Pastizales","Pastizales",16
"Pastizales","Cuerpos de agua",0
"Pastizales","Sin vegetación aparente",0
"Pastizales","Uso antrópico",0
"Pastizales","Vegetación de galería",0
"Pastizales","Vegetación halófila",0
"Sin vegetación aparente","Sin vegetación aparente",3
"Sin vegetación aparente","Cuerpos de agua",0
"Sin vegetación aparente","Matorral xerófilo",0
"Sin vegetación aparente","Pastizales",0
"Sin vegetación aparente","Uso antrópico",0
"Sin vegetación aparente","Vegetación de galería",0
"Sin vegetación aparente","Vegetación halófila",0
"Uso antrópico","Uso antrópico",2
"Uso antrópico","Cuerpos de agua",0
"Uso antrópico","Matorral xerófilo",0
"Uso antrópico","Pastizales",0
"Uso antrópico","Sin vegetación aparente",0
"Uso antrópico","Vegetación de galería",0
"Uso antrópico","Vegetación halófila",0
"Vegetación de galería","Matorral xerófilo",5
"Vegetación de galería","Vegetación de galería",1
"Vegetación de galería","Cuerpos de agua",0
"Vegetación de galería","Pastizales",0
"Vegetación de galería","Sin vegetación aparente",0
"Vegetación de galería","Uso antrópico",0
"Vegetación de galería","Vegetación halófila",0
"Vegetación halófila","Vegetación halófila",19
"Vegetación halófila","Matorral xerófilo",6
"Vegetación halófila","Vegetación de galería",3
"Vegetación halófila","Sin vegetación aparente",1
"Vegetación halófila","Cuerpos de agua",0
"Vegetación halófila","Pastizales",0
"Vegetación halófila","Uso antrópico",0
