"USV_1993","USV_2014","EXT_KM2"
"Bosques templados","Bosques templados",6
"Bosques templados","Selvas húmedas",0
"Bosques templados","Uso antrópico",0
"Selvas húmedas","Selvas húmedas",31
"Selvas húmedas","Uso antrópico",1
"Selvas húmedas","Bosques templados",0
