"USV_1993","USV_2014","EXT_KM2"
"Otros tipos de vegetación","Otros tipos de vegetación",7
"Otros tipos de vegetación","Vegetación halófila",0
"Vegetación halófila","Vegetación halófila",2
"Vegetación halófila","Otros tipos de vegetación",0
