"USV_1993","USV_2014","EXT_KM2"
"Bosque mesófilo de montana","Bosque mesófilo de montana",12
"Bosque mesófilo de montana","Selvas húmedas",1
"Selvas húmedas","Selvas húmedas",5
"Selvas húmedas","Bosque mesófilo de montana",0
