"USV_1993","USV_2014","EXT_KM2"
"Bosques templados","Bosques templados",98
"Bosques templados","Pastizales",19
"Bosques templados","Uso antrópico",3
"Bosques templados","Sin vegetación aparente",0
"Pastizales","Pastizales",42
"Pastizales","Bosques templados",2
"Pastizales","Sin vegetación aparente",0
"Pastizales","Uso antrópico",0
"Sin vegetación aparente","Sin vegetación aparente",16
"Sin vegetación aparente","Bosques templados",0
"Sin vegetación aparente","Pastizales",0
"Sin vegetación aparente","Uso antrópico",0
"Uso antrópico","Uso antrópico",16
"Uso antrópico","Bosques templados",3
"Uso antrópico","Pastizales",0
"Uso antrópico","Sin vegetación aparente",0
