"USV_1993","USV_2014","EXT_KM2"
"Cuerpos de agua","Cuerpos de agua",1
"Cuerpos de agua","Selvas subhúmedas",0
"Cuerpos de agua","Uso antrópico",0
"Selvas subhúmedas","Selvas subhúmedas",85
"Selvas subhúmedas","Uso antrópico",1
"Selvas subhúmedas","Cuerpos de agua",0
