"USV_1993","USV_2014","EXT_KM2"
"Matorral xerófilo","Uso antrópico",1
"Matorral xerófilo","Sin vegetación aparente",0
"Matorral xerófilo","Vegetación hidrófila",0
"Sin vegetación aparente","Sin vegetación aparente",1
"Sin vegetación aparente","Uso antrópico",0
"Sin vegetación aparente","Vegetación hidrófila",0
"Vegetación hidrófila","Vegetación hidrófila",3
"Vegetación hidrófila","Sin vegetación aparente",0
"Vegetación hidrófila","Uso antrópico",0
