"USV_1993","USV_2014","EXT_KM2"
"Matorral xerófilo","Matorral xerófilo",24
"Matorral xerófilo","Otros tipos de vegetación",0
"Matorral xerófilo","Vegetación halófila",0
"Otros tipos de vegetación","Otros tipos de vegetación",1
"Otros tipos de vegetación","Matorral xerófilo",0
"Otros tipos de vegetación","Vegetación halófila",0
"Vegetación halófila","Vegetación halófila",20
"Vegetación halófila","Matorral xerófilo",0
"Vegetación halófila","Otros tipos de vegetación",0
