"USV_1993","USV_2014","EXT_KM2"
"Bosques templados","Bosques templados",1
"Bosques templados","Selvas subhúmedas",0
"Selvas subhúmedas","Selvas subhúmedas",1
"Selvas subhúmedas","Bosques templados",0
