"USV_1993","USV_2014","EXT_KM2"
"Bosques templados","Bosques templados",354
"Bosques templados","Selvas subhúmedas",6
"Bosques templados","Cuerpos de agua",0
"Bosques templados","Matorral xerófilo",0
"Bosques templados","Uso antrópico",0
"Cuerpos de agua","Cuerpos de agua",1
"Cuerpos de agua","Bosques templados",0
"Cuerpos de agua","Matorral xerófilo",0
"Cuerpos de agua","Selvas subhúmedas",0
"Cuerpos de agua","Uso antrópico",0
"Matorral xerófilo","Matorral xerófilo",30
"Matorral xerófilo","Selvas subhúmedas",6
"Matorral xerófilo","Bosques templados",1
"Matorral xerófilo","Cuerpos de agua",0
"Matorral xerófilo","Uso antrópico",0
"Selvas subhúmedas","Selvas subhúmedas",661
"Selvas subhúmedas","Bosques templados",50
"Selvas subhúmedas","Uso antrópico",2
"Selvas subhúmedas","Cuerpos de agua",0
"Selvas subhúmedas","Matorral xerófilo",0
"Uso antrópico","Uso antrópico",2
"Uso antrópico","Bosques templados",1
"Uso antrópico","Cuerpos de agua",0
"Uso antrópico","Matorral xerófilo",0
"Uso antrópico","Selvas subhúmedas",0
