"mes","ano","no_pts_calor"
"Enero","2000",0
"Enero","2001",0
"Enero","2002",1
"Enero","2003",0
"Enero","2004",2
"Enero","2005",27
"Enero","2006",1
"Enero","2007",11
"Enero","2008",0
"Enero","2009",0
"Enero","2010",2
"Enero","2011",5
"Enero","2012",10
"Enero","2013",2
"Enero","2014",2
"Enero","2015",1
"Enero","2016",31
"Enero","2017",26
"Enero","2018",1
"Enero","2019",15
"Febrero","2000",0
"Febrero","2001",1
"Febrero","2002",0
"Febrero","2003",0
"Febrero","2004",7
"Febrero","2005",15
"Febrero","2006",13
"Febrero","2007",9
"Febrero","2008",0
"Febrero","2009",0
"Febrero","2010",7
"Febrero","2011",5
"Febrero","2012",16
"Febrero","2013",1
"Febrero","2014",1
"Febrero","2015",36
"Febrero","2016",29
"Febrero","2017",12
"Febrero","2018",0
"Febrero","2019",9
"Marzo","2000",0
"Marzo","2001",0
"Marzo","2002",0
"Marzo","2003",0
"Marzo","2004",1
"Marzo","2005",7
"Marzo","2006",10
"Marzo","2007",0
"Marzo","2008",0
"Marzo","2009",1
"Marzo","2010",0
"Marzo","2011",5
"Marzo","2012",36
"Marzo","2013",0
"Marzo","2014",3
"Marzo","2015",202
"Marzo","2016",34
"Marzo","2017",14
"Marzo","2018",0
"Marzo","2019",9
"Abril","2000",0
"Abril","2001",0
"Abril","2002",0
"Abril","2003",0
"Abril","2004",0
"Abril","2005",0
"Abril","2006",4
"Abril","2007",0
"Abril","2008",0
"Abril","2009",0
"Abril","2010",21
"Abril","2011",7
"Abril","2012",25
"Abril","2013",1
"Abril","2014",2
"Abril","2015",124
"Abril","2016",31
"Abril","2017",11
"Abril","2018",3
"Abril","2019",12
"Mayo","2000",0
"Mayo","2001",0
"Mayo","2002",0
"Mayo","2003",0
"Mayo","2004",0
"Mayo","2005",0
"Mayo","2006",4
"Mayo","2007",0
"Mayo","2008",0
"Mayo","2009",0
"Mayo","2010",7
"Mayo","2011",2
"Mayo","2012",0
"Mayo","2013",0
"Mayo","2014",0
"Mayo","2015",69
"Mayo","2016",10
"Mayo","2017",19
"Mayo","2018",3
"Mayo","2019",5
"Junio","2000",0
"Junio","2001",0
"Junio","2002",0
"Junio","2003",0
"Junio","2004",0
"Junio","2005",0
"Junio","2006",0
"Junio","2007",0
"Junio","2008",0
"Junio","2009",0
"Junio","2010",3
"Junio","2011",1
"Junio","2012",0
"Junio","2013",0
"Junio","2014",0
"Junio","2015",16
"Junio","2016",5
"Junio","2017",1
"Junio","2018",0
"Junio","2019",2
"Julio","2000",0
"Julio","2001",0
"Julio","2002",0
"Julio","2003",0
"Julio","2004",0
"Julio","2005",5
"Julio","2006",0
"Julio","2007",0
"Julio","2008",0
"Julio","2009",0
"Julio","2010",0
"Julio","2011",0
"Julio","2012",0
"Julio","2013",0
"Julio","2014",0
"Julio","2015",6
"Julio","2016",3
"Julio","2017",9
"Julio","2018",8
"Julio","2019",6
"Agosto","2000",0
"Agosto","2001",0
"Agosto","2002",0
"Agosto","2003",0
"Agosto","2004",0
"Agosto","2005",0
"Agosto","2006",7
"Agosto","2007",0
"Agosto","2008",0
"Agosto","2009",0
"Agosto","2010",0
"Agosto","2011",0
"Agosto","2012",0
"Agosto","2013",0
"Agosto","2014",1
"Agosto","2015",11
"Agosto","2016",7
"Agosto","2017",3
"Agosto","2018",13
"Agosto","2019",4
"Septiembre","2000",0
"Septiembre","2001",0
"Septiembre","2002",0
"Septiembre","2003",0
"Septiembre","2004",0
"Septiembre","2005",1
"Septiembre","2006",0
"Septiembre","2007",2
"Septiembre","2008",0
"Septiembre","2009",0
"Septiembre","2010",0
"Septiembre","2011",0
"Septiembre","2012",0
"Septiembre","2013",0
"Septiembre","2014",0
"Septiembre","2015",22
"Septiembre","2016",20
"Septiembre","2017",13
"Septiembre","2018",10
"Septiembre","2019",14
"Octubre","2000",0
"Octubre","2001",0
"Octubre","2002",0
"Octubre","2003",1
"Octubre","2004",0
"Octubre","2005",1
"Octubre","2006",1
"Octubre","2007",2
"Octubre","2008",0
"Octubre","2009",0
"Octubre","2010",4
"Octubre","2011",3
"Octubre","2012",0
"Octubre","2013",0
"Octubre","2014",0
"Octubre","2015",26
"Octubre","2016",14
"Octubre","2017",1
"Octubre","2018",5
"Octubre","2019",6
"Noviembre","2000",0
"Noviembre","2001",0
"Noviembre","2002",0
"Noviembre","2003",2
"Noviembre","2004",2
"Noviembre","2005",3
"Noviembre","2006",16
"Noviembre","2007",4
"Noviembre","2008",0
"Noviembre","2009",0
"Noviembre","2010",3
"Noviembre","2011",5
"Noviembre","2012",0
"Noviembre","2013",0
"Noviembre","2014",1
"Noviembre","2015",28
"Noviembre","2016",38
"Noviembre","2017",12
"Noviembre","2018",12
"Noviembre","2019",7
"Diciembre","2000",0
"Diciembre","2001",0
"Diciembre","2002",0
"Diciembre","2003",0
"Diciembre","2004",9
"Diciembre","2005",2
"Diciembre","2006",9
"Diciembre","2007",3
"Diciembre","2008",0
"Diciembre","2009",0
"Diciembre","2010",5
"Diciembre","2011",4
"Diciembre","2012",0
"Diciembre","2013",3
"Diciembre","2014",1
"Diciembre","2015",43
"Diciembre","2016",24
"Diciembre","2017",20
"Diciembre","2018",10
"Diciembre","2019",8
