"FAMILIA","RAMA","LENG","VARIAN"
"Yuto-nahua","Pima","tepehuano del norte","tepehuano del norte"
"Yuto-nahua","Tarahumara","tarahumara","tarahumara del sur"
"Yuto-nahua","Tarahumara","tarahumara","tarahumara del sur"
