"FAMILIA","RAMA","LENG","VARIAN"
"Oto-mangue","Otopame","mazahua","mazahua de oriente"
"Oto-mangue","Otopame","otomi","otomi del centro"
"Oto-mangue","Otopame","otomi","otomi del oeste"
"Oto-mangue","Otopame","otomi","otomi del centro"
