"Grupo","Sujeta_a_proteccion_especial_(Pr)","Amenazada_(A)","En_peligro_de_extincion_(P)","Probablemente_extinta_en_medio_silvestre_(E)","No_enlistadas"
"Hongos",0,0,0,0,100
"Plantas",0.995,0,0,0,99.005
"Invertebrados",0.2558,0,0,0,99.7442
"Peces",0,1.2931,1.2931,0.8621,96.5517
"Anfibios",20,0,0,0,80
"Reptiles",34.7826,13.0435,10.8696,0,41.3043
"Aves",8.046,5.7471,2.2989,0,83.908
"Mamíferos",36.5854,4.878,4.878,0,53.6585
