"Grupo","Sujeta_a_proteccion_especial_(Pr)","Amenazada_(A)","En_peligro_de_extincion_(P)","Probablemente_extinta_en_medio_silvestre_(E)","No_enlistadas"
"Hongos",0,1.7857,0,0,98.2143
"Plantas",1.4652,2.0757,0.4884,0,95.9707
"Invertebrados",0,0,0,0,100
"Peces",0,0,0,0,0
"Anfibios",46.6667,3.3333,0,0,50
"Reptiles",15.7895,13.1579,0,0,71.0526
"Aves",22.3404,15.9574,10.6383,0,51.0638
"Mamíferos",8.6957,4.3478,4.3478,0,82.6087
