"Grupo","Sujeta_a_proteccion_especial_(Pr)","Amenazada_(A)","En_peligro_de_extincion_(P)","Probablemente_extinta_en_medio_silvestre_(E)","No_enlistadas"
"Hongos",0,10,0,0,90
"Plantas",0,0,0.578,0,99.422
"Invertebrados",6.25,0,0,0,93.75
"Peces",0,0,0,0,0
"Anfibios",0,0,0,0,100
"Reptiles",20,0,0,0,80
"Aves",14.2857,0,0,0,85.7143
"Mamíferos",0,0,0,0,100
