"Grupo","Sujeta_a_proteccion_especial_(Pr)","Amenazada_(A)","En_peligro_de_extincion_(P)","Probablemente_extinta_en_medio_silvestre_(E)","No_enlistadas"
"Hongos",0,0,0,0,100
"Plantas",2.9126,0,0,0,97.0874
"Invertebrados",7.1429,0,0,0,92.8571
"Peces",0,0,0,0,0
"Anfibios",28.5714,0,0,0,71.4286
"Reptiles",0,0,0,0,100
"Aves",13.8889,2.7778,0,0,83.3333
"Mamíferos",0,0,0,0,100
