"Grupo","Sujeta_a_proteccion_especial_(Pr)","Amenazada_(A)","En_peligro_de_extincion_(P)","Probablemente_extinta_en_medio_silvestre_(E)","No_enlistadas"
"Hongos",0,0,0,0,100
"Plantas",1.8717,1.0695,0.2674,0,96.7914
"Invertebrados",0,0,0.1894,0,99.8106
"Peces",1.4577,0,0.2915,0,98.2507
"Anfibios",28.5714,0,0,0,71.4286
"Reptiles",36.8421,22.3684,3.9474,0,36.8421
"Aves",8.3969,6.1069,3.0534,0,82.4427
"Mamíferos",52.1739,13.0435,4.3478,0,30.4348
