"Grupo","Sujeta_a_proteccion_especial_(Pr)","Amenazada_(A)","En_peligro_de_extincion_(P)","Probablemente_extinta_en_medio_silvestre_(E)","No_enlistadas"
"Hongos",0,0,0,0,100
"Plantas",1.214,1.6187,0.4496,0,96.7176
"Invertebrados",0.2232,0,0,0,99.7768
"Peces",0,0,0,0,100
"Anfibios",39.5349,2.3256,0,0,58.1395
"Reptiles",16.25,6.25,1.25,0,76.25
"Aves",23.3129,11.6564,8.589,0,56.4417
"Mamíferos",5.7692,5.7692,5.7692,0,82.6923
