"Grupo","Sujeta_a_proteccion_especial_(Pr)","Amenazada_(A)","En_peligro_de_extincion_(P)","Probablemente_extinta_en_medio_silvestre_(E)","No_enlistadas"
"Hongos",0,0,0,0,0
"Plantas",0,4.1667,0,0,95.8333
"Invertebrados",0,0,0,0,100
"Peces",3.75,0,0,0,96.25
"Anfibios",0,0,0,0,0
"Reptiles",33.3333,0,33.3333,0,33.3333
"Aves",15.2941,7.0588,2.3529,0,75.2941
"Mamíferos",100,0,0,0,0
