"Grupo","Sujeta_a_proteccion_especial_(Pr)","Amenazada_(A)","En_peligro_de_extincion_(P)","Probablemente_extinta_en_medio_silvestre_(E)","No_enlistadas"
"Hongos",0,0,0,0,100
"Plantas",0.9213,0.6378,0.1417,0,98.2991
"Invertebrados",0.3953,0,2.7668,0,96.8379
"Peces",2.381,28.5714,26.1905,0,42.8571
"Anfibios",25,0,0,0,75
"Reptiles",17.6471,20,1.1765,0,61.1765
"Aves",16.6667,1.6667,0,0,81.6667
"Mamíferos",1.3699,2.7397,5.4795,0,90.411
