"Grupo","Sujeta_a_proteccion_especial_(Pr)","Amenazada_(A)","En_peligro_de_extincion_(P)","Probablemente_extinta_en_medio_silvestre_(E)","No_enlistadas"
"Hongos",0,0,0,0,100
"Plantas",0.8421,2.1053,0,0,97.0526
"Invertebrados",0,0,0.3226,0,99.6774
"Peces",3.75,3.75,0,0,92.5
"Anfibios",16.6667,0,0,0,83.3333
"Reptiles",23.3333,16.6667,3.3333,0,56.6667
"Aves",12.5,6.7708,3.6458,0,77.0833
"Mamíferos",5.2632,0,10.5263,0,84.2105
