"Grupo","Sujeta_a_proteccion_especial_(Pr)","Amenazada_(A)","En_peligro_de_extincion_(P)","Probablemente_extinta_en_medio_silvestre_(E)","No_enlistadas"
"Hongos",0,10,0,0,90
"Plantas",0.8783,1.5056,1.1292,0.1255,96.3614
"Invertebrados",0.3891,0,0,0,99.6109
"Peces",0,13.3333,0,0,86.6667
"Anfibios",26.087,4.3478,8.6957,0,60.8696
"Reptiles",23.913,10.8696,0,0,65.2174
"Aves",8.2353,0,1.1765,0,90.5882
"Mamíferos",8.1081,8.1081,0,0,83.7838
