"Grupo","Sujeta_a_proteccion_especial_(Pr)","Amenazada_(A)","En_peligro_de_extincion_(P)","Probablemente_extinta_en_medio_silvestre_(E)","No_enlistadas"
"Hongos",0.2415,1.9324,0,0,97.8261
"Plantas",1.0971,0.7314,0.3657,0,97.8059
"Invertebrados",0.1923,0.1923,0,0,99.6154
"Peces",3.0769,4.6154,0,0,92.3077
"Anfibios",21.0526,10.5263,0,0,68.4211
"Reptiles",29.0323,15.0538,1.0753,0,54.8387
"Aves",13.7931,6.8966,2.4631,0.4926,76.3547
"Mamíferos",3.876,2.3256,2.3256,0,91.4729
