"Grupo","Sujeta_a_proteccion_especial_(Pr)","Amenazada_(A)","En_peligro_de_extincion_(P)","Probablemente_extinta_en_medio_silvestre_(E)","No_enlistadas"
"Hongos",0,0,0,0,100
"Plantas",1.5385,3.8462,0,0,94.6154
"Invertebrados",1.2422,0.6211,0,0,98.1366
"Peces",4.7619,0,0,0,95.2381
"Anfibios",0,0,0,0,100
"Reptiles",25,25,20,0,30
"Aves",5.8824,4.902,0.9804,0,88.2353
"Mamíferos",0,12.5,12.5,0,75
