"Grupo","Sujeta_a_proteccion_especial_(Pr)","Amenazada_(A)","En_peligro_de_extincion_(P)","Probablemente_extinta_en_medio_silvestre_(E)","No_enlistadas"
"Hongos",0,0,0,0,100
"Plantas",2.8169,8.4507,0,0,88.7324
"Invertebrados",0.5535,0.369,0,0,99.0775
"Peces",4.8077,0,0,0,95.1923
"Anfibios",25,0,0,0,75
"Reptiles",33.3333,6.6667,26.6667,0,33.3333
"Aves",13.9241,6.3291,3.7975,0,75.9494
"Mamíferos",0,33.3333,0,0,66.6667
