"Grupo","Sujeta_a_proteccion_especial_(Pr)","Amenazada_(A)","En_peligro_de_extincion_(P)","Probablemente_extinta_en_medio_silvestre_(E)","No_enlistadas"
"Hongos",0,0,0,0,0
"Plantas",1.0471,2.6178,0,0,96.3351
"Invertebrados",0,0,0.3509,0,99.6491
"Peces",2.4096,0,0,0,97.5904
"Anfibios",0,0,0,0,0
"Reptiles",35.2941,29.4118,17.6471,0,17.6471
"Aves",9.3333,6.6667,2.6667,0,81.3333
"Mamíferos",57.8947,5.2632,5.2632,0,31.5789
