"Grupo","Sujeta_a_proteccion_especial_(Pr)","Amenazada_(A)","En_peligro_de_extincion_(P)","Probablemente_extinta_en_medio_silvestre_(E)","No_enlistadas"
"Hongos",0,0,0,0,100
"Plantas",1.9118,1.4706,0.5882,0,96.0294
"Invertebrados",0,0,0,0,100
"Peces",0.7313,0.1828,0,0,99.0859
"Anfibios",30,10,10,0,50
"Reptiles",29.1139,18.9873,6.3291,0,45.5696
"Aves",7.0652,7.0652,4.3478,0.5435,80.9783
"Mamíferos",38.8889,11.1111,8.3333,0,41.6667
