"Grupo","Sujeta_a_proteccion_especial_(Pr)","Amenazada_(A)","En_peligro_de_extincion_(P)","Probablemente_extinta_en_medio_silvestre_(E)","No_enlistadas"
"Hongos",0,2.4038,0,0,97.5962
"Plantas",0.5917,0,0,0,99.4083
"Invertebrados",0,0,0,0,100
"Peces",0,0,0,0,0
"Anfibios",16.6667,16.6667,0,0,66.6667
"Reptiles",35.7143,0,0,0,64.2857
"Aves",14.8148,0,0,0,85.1852
"Mamíferos",0,0,0,0,100
