"Grupo","Sujeta_a_proteccion_especial_(Pr)","Amenazada_(A)","En_peligro_de_extincion_(P)","Probablemente_extinta_en_medio_silvestre_(E)","No_enlistadas"
"Hongos",0,0,0,0,0
"Plantas",1.8182,0,0,0,98.1818
"Invertebrados",0,0,0,0,100
"Peces",1.8349,0,0,0,98.1651
"Anfibios",0,0,0,0,100
"Reptiles",35.2941,29.4118,0,0,35.2941
"Aves",10.1695,15.2542,5.0847,0,69.4915
"Mamíferos",37.5,12.5,25,0,25
