"Grupo","Sujeta_a_proteccion_especial_(Pr)","Amenazada_(A)","En_peligro_de_extincion_(P)","Probablemente_extinta_en_medio_silvestre_(E)","No_enlistadas"
"Hongos",0,0,0,0,100
"Plantas",1.4925,0,0,0,98.5075
"Invertebrados",0,0,0,0,0
"Peces",0,0,0,0,0
"Anfibios",0,0,0,0,100
"Reptiles",0,0,0,0,0
"Aves",17.3913,0,0,0,82.6087
"Mamíferos",0,20,0,0,80
