"Grupo","Sujeta_a_proteccion_especial_(Pr)","Amenazada_(A)","En_peligro_de_extincion_(P)","Probablemente_extinta_en_medio_silvestre_(E)","No_enlistadas"
"Hongos",0,0,0,0,100
"Plantas",1.0582,0,0,0,98.9418
"Invertebrados",0,0,0,0,100
"Peces",0,0,0,0,100
"Anfibios",0,0,0,0,100
"Reptiles",33.3333,16.6667,0,0,50
"Aves",10.3448,4.5977,2.2989,0,82.7586
"Mamíferos",0,0,0,0,100
