"Grupo","Sujeta_a_proteccion_especial_(Pr)","Amenazada_(A)","En_peligro_de_extincion_(P)","Probablemente_extinta_en_medio_silvestre_(E)","No_enlistadas"
"Hongos",0,0,0,0,0
"Plantas",1.3699,0,1.3699,0,97.2603
"Invertebrados",0,0,0,0,100
"Peces",0,0,0,0,0
"Anfibios",50,0,0,0,50
"Reptiles",20,0,0,0,80
"Aves",19.0476,0,0,0,80.9524
"Mamíferos",0,0,0,0,100
