"Grupo","Sujeta_a_proteccion_especial_(Pr)","Amenazada_(A)","En_peligro_de_extincion_(P)","Probablemente_extinta_en_medio_silvestre_(E)","No_enlistadas"
"Hongos",0,0,0,0,0
"Plantas",0,0,0,0,100
"Invertebrados",0,0,0,0,100
"Peces",0,0,100,0,0
"Anfibios",33.3333,0,0,0,66.6667
"Reptiles",0,0,0,0,100
"Aves",11.1111,7.4074,1.8519,0,79.6296
"Mamíferos",0,0,0,0,0
