"Grupo","Sujeta_a_proteccion_especial_(Pr)","Amenazada_(A)","En_peligro_de_extincion_(P)","Probablemente_extinta_en_medio_silvestre_(E)","No_enlistadas"
"Hongos",0,0,0,0,0
"Plantas",0,3.2258,0,0,96.7742
"Invertebrados",0,0,0,0,0
"Peces",4.7619,0,0,0,95.2381
"Anfibios",0,0,0,0,100
"Reptiles",0,0,0,0,100
"Aves",17.4757,3.8835,0,0,78.6408
"Mamíferos",100,0,0,0,0
