"Grupo","Sujeta_a_proteccion_especial_(Pr)","Amenazada_(A)","En_peligro_de_extincion_(P)","Probablemente_extinta_en_medio_silvestre_(E)","No_enlistadas"
"Hongos",0,0,0,0,100
"Plantas",0.8333,1.875,0.8333,0,96.4583
"Invertebrados",0,0,0,0,100
"Peces",0,0,0,0,0
"Anfibios",24.2424,3.0303,3.0303,0,69.697
"Reptiles",21.2121,12.1212,0,0,66.6667
"Aves",29.6296,11.1111,1.8519,0,57.4074
"Mamíferos",0,0,0,0,100
