"Grupo","Sujeta_a_proteccion_especial_(Pr)","Amenazada_(A)","En_peligro_de_extincion_(P)","Probablemente_extinta_en_medio_silvestre_(E)","No_enlistadas"
"Hongos",0,0,0,0,100
"Plantas",0,0,0,0,100
"Invertebrados",0,0,0,0,100
"Peces",0,33.3333,0,0,66.6667
"Anfibios",100,0,0,0,0
"Reptiles",0,0,0,0,100
"Aves",27.2727,0,0,0,72.7273
"Mamíferos",0,0,0,0,0
