"Grupo","Sujeta_a_proteccion_especial_(Pr)","Amenazada_(A)","En_peligro_de_extincion_(P)","Probablemente_extinta_en_medio_silvestre_(E)","No_enlistadas"
"Hongos",0,0,0,0,0
"Plantas",0,0,0,0,100
"Invertebrados",4.5455,0,0,0,95.4545
"Peces",0,0,0,0,0
"Anfibios",0,0,0,0,100
"Reptiles",7.6923,0,0,0,92.3077
"Aves",18.6047,2.3256,4.6512,0,74.4186
"Mamíferos",0,0,0,0,100
