"Grupo","Sujeta_a_proteccion_especial_(Pr)","Amenazada_(A)","En_peligro_de_extincion_(P)","Probablemente_extinta_en_medio_silvestre_(E)","No_enlistadas"
"Hongos",0,0,0,0,100
"Plantas",0,1.6393,0,0,98.3607
"Invertebrados",0,0,0,0,100
"Peces",0,0,0,0,0
"Anfibios",50,50,0,0,0
"Reptiles",0,0,0,0,100
"Aves",18.4211,5.2632,0,0,76.3158
"Mamíferos",0,0,0,0,100
