"Grupo","Sujeta_a_proteccion_especial_(Pr)","Amenazada_(A)","En_peligro_de_extincion_(P)","Probablemente_extinta_en_medio_silvestre_(E)","No_enlistadas"
"Hongos",0,0,0,0,100
"Plantas",0,0,0,0,100
"Invertebrados",0,0,0,0,100
"Peces",0,0,0,0,0
"Anfibios",33.3333,0,0,0,66.6667
"Reptiles",0,50,0,0,50
"Aves",28.5714,0,0,0,71.4286
"Mamíferos",0,0,0,0,100
