"Grupo","Sujeta_a_proteccion_especial_(Pr)","Amenazada_(A)","En_peligro_de_extincion_(P)","Probablemente_extinta_en_medio_silvestre_(E)","No_enlistadas"
"Hongos",0,0,0,0,100
"Plantas",0.4525,0,0,0,99.5475
"Invertebrados",12.5,0,0,0,87.5
"Peces",0,0,0,0,100
"Anfibios",16.6667,0,0,0,83.3333
"Reptiles",17.6471,23.5294,0,0,58.8235
"Aves",0,6.6667,0,0,93.3333
"Mamíferos",11.1111,0,0,0,88.8889
