"Grupo","Sujeta_a_proteccion_especial_(Pr)","Amenazada_(A)","En_peligro_de_extincion_(P)","Probablemente_extinta_en_medio_silvestre_(E)","No_enlistadas"
"Hongos",0,0,0,0,100
"Plantas",0.6116,0.3058,0,0,99.0826
"Invertebrados",0.8621,0,0,0,99.1379
"Peces",0,0,8.3333,0,91.6667
"Anfibios",62.5,0,12.5,0,25
"Reptiles",26.3158,21.0526,0,0,52.6316
"Aves",9.375,3.125,3.125,0,84.375
"Mamíferos",0,11.1111,0,0,88.8889
