"Grupo","Sujeta_a_proteccion_especial_(Pr)","Amenazada_(A)","En_peligro_de_extincion_(P)","Probablemente_extinta_en_medio_silvestre_(E)","No_enlistadas"
"Hongos",0,7.767,0,0,92.233
"Plantas",1.0714,0.8036,0.4464,0,97.6786
"Invertebrados",1.0753,0,0,0,98.9247
"Peces",20,0,20,0,60
"Anfibios",40,33.3333,0,0,26.6667
"Reptiles",17.1429,22.8571,5.7143,0,54.2857
"Aves",22.5,5,7.5,0,65
"Mamíferos",4.3478,4.3478,4.3478,0,86.9565
