"Grupo","Sujeta_a_proteccion_especial_(Pr)","Amenazada_(A)","En_peligro_de_extincion_(P)","Probablemente_extinta_en_medio_silvestre_(E)","No_enlistadas"
"Hongos",0,0,0,0,0
"Plantas",0,0,0,0,100
"Invertebrados",10,0,0,0,90
"Peces",0,0,0,0,0
"Anfibios",0,0,0,0,100
"Reptiles",0,100,0,0,0
"Aves",6.7797,1.6949,0,0,91.5254
"Mamíferos",0,0,0,0,100
