"Grupo","Sujeta_a_proteccion_especial_(Pr)","Amenazada_(A)","En_peligro_de_extincion_(P)","Probablemente_extinta_en_medio_silvestre_(E)","No_enlistadas"
"Hongos",0,4.5455,0,0,95.4545
"Plantas",2.2556,1.5038,0.7519,0,95.4887
"Invertebrados",0,0,0,0,100
"Peces",0,0,0,0,0
"Anfibios",25,0,0,0,75
"Reptiles",27.7778,22.2222,0,0,50
"Aves",14.2857,4.7619,19.0476,0,61.9048
"Mamíferos",33.3333,0,0,0,66.6667
