"Grupo","Sujeta_a_proteccion_especial_(Pr)","Amenazada_(A)","En_peligro_de_extincion_(P)","Probablemente_extinta_en_medio_silvestre_(E)","No_enlistadas"
"Hongos",0,5,0,0,95
"Plantas",0.578,0.578,0.578,0,98.2659
"Invertebrados",0,0,0,0,100
"Peces",100,0,0,0,0
"Anfibios",16.6667,83.3333,0,0,0
"Reptiles",23.5294,5.8824,0,0,70.5882
"Aves",16.6667,6.6667,3.3333,0,73.3333
"Mamíferos",0,6.6667,0,0,93.3333
