"Grupo","Sujeta_a_proteccion_especial_(Pr)","Amenazada_(A)","En_peligro_de_extincion_(P)","Probablemente_extinta_en_medio_silvestre_(E)","No_enlistadas"
"Hongos",0,9.5238,0,0,90.4762
"Plantas",1.4493,0.2899,0.8696,0,97.3913
"Invertebrados",0,0,0,0,100
"Peces",50,0,0,0,50
"Anfibios",20,46.6667,6.6667,0,26.6667
"Reptiles",20,20,0,0,60
"Aves",3.0303,6.0606,3.0303,0,87.8788
"Mamíferos",15.3846,0,0,0,84.6154
