"Grupo","Sujeta_a_proteccion_especial_(Pr)","Amenazada_(A)","En_peligro_de_extincion_(P)","Probablemente_extinta_en_medio_silvestre_(E)","No_enlistadas"
"Hongos",0,0,0,0,0
"Plantas",0,0,0,0,100
"Invertebrados",2.6316,0,0,0,97.3684
"Peces",0,0,33.3333,0,66.6667
"Anfibios",0,0,0,0,100
"Reptiles",0,100,0,0,0
"Aves",14.2857,0,0,0,85.7143
"Mamíferos",0,0,0,0,100
