"Grupo","Sujeta_a_proteccion_especial_(Pr)","Amenazada_(A)","En_peligro_de_extincion_(P)","Probablemente_extinta_en_medio_silvestre_(E)","No_enlistadas"
"Hongos",0,0,0,0,100
"Plantas",1.3123,0.5249,0,0,98.1627
"Invertebrados",4.1667,0,0,0,95.8333
"Peces",0,0,0,0,100
"Anfibios",42.8571,0,0,0,57.1429
"Reptiles",35.7143,35.7143,0,0,28.5714
"Aves",9.5238,4.7619,0,0,85.7143
"Mamíferos",2.5641,5.1282,2.5641,0,89.7436
