"Grupo","Sujeta_a_proteccion_especial_(Pr)","Amenazada_(A)","En_peligro_de_extincion_(P)","Probablemente_extinta_en_medio_silvestre_(E)","No_enlistadas"
"Hongos",0,0,0,0,100
"Plantas",0,0.3534,0,0,99.6466
"Invertebrados",1.2821,0,0,0,98.7179
"Peces",0,0,0,0,100
"Anfibios",0,20,0,0,80
"Reptiles",11.1111,11.1111,0,0,77.7778
"Aves",11.7647,0,0,0,88.2353
"Mamíferos",0,0,0,0,100
