"Grupo","Sujeta_a_proteccion_especial_(Pr)","Amenazada_(A)","En_peligro_de_extincion_(P)","Probablemente_extinta_en_medio_silvestre_(E)","No_enlistadas"
"Hongos",0,0,0,0,100
"Plantas",0.3717,1.1152,0.3717,0,98.1413
"Invertebrados",0,1.3514,0,0,98.6486
"Peces",0,0,0,0,0
"Anfibios",0,0,0,0,100
"Reptiles",10,50,0,0,40
"Aves",6.383,2.1277,2.1277,0,89.3617
"Mamíferos",0,22.2222,0,0,77.7778
