"Grupo","Sujeta_a_proteccion_especial_(Pr)","Amenazada_(A)","En_peligro_de_extincion_(P)","Probablemente_extinta_en_medio_silvestre_(E)","No_enlistadas"
"Hongos",0,2.2727,0,0,97.7273
"Plantas",2.0619,0.5155,1.0309,0,96.3918
"Invertebrados",5.2632,0,0,0,94.7368
"Peces",0,0,0,0,100
"Anfibios",33.3333,0,0,0,66.6667
"Reptiles",23.0769,23.0769,0,0,53.8462
"Aves",7.1429,7.1429,14.2857,0,71.4286
"Mamíferos",0,0,0,0,100
