"Grupo","Sujeta_a_proteccion_especial_(Pr)","Amenazada_(A)","En_peligro_de_extincion_(P)","Probablemente_extinta_en_medio_silvestre_(E)","No_enlistadas"
"Hongos",0,0,0,0,100
"Plantas",0.5115,0.2558,0,0,99.2327
"Invertebrados",0,0,0,0,100
"Peces",0,12.5,37.5,0,50
"Anfibios",28.5714,0,0,0,71.4286
"Reptiles",10,10,0,0,80
"Aves",14.9254,2.9851,1.4925,0,80.597
"Mamíferos",10,0,0,0,90
