"Grupo","Sujeta_a_proteccion_especial_(Pr)","Amenazada_(A)","En_peligro_de_extincion_(P)","Probablemente_extinta_en_medio_silvestre_(E)","No_enlistadas"
"Hongos",0,0,0,0,100
"Plantas",0.8011,0.267,0.1335,0,98.7984
"Invertebrados",0,0,0,0,100
"Peces",0,0,0,0,0
"Anfibios",16.6667,16.6667,0,0,66.6667
"Reptiles",11.1111,44.4444,0,0,44.4444
"Aves",15.9091,6.8182,0,0,77.2727
"Mamíferos",0,0,0,0,100
