"Grupo","Sujeta_a_proteccion_especial_(Pr)","Amenazada_(A)","En_peligro_de_extincion_(P)","Probablemente_extinta_en_medio_silvestre_(E)","No_enlistadas"
"Hongos",0,0,0,0,0
"Plantas",0,2.7027,0,0,97.2973
"Invertebrados",0,0,0,0,100
"Peces",0,0,0,0,0
"Anfibios",0,0,0,0,100
"Reptiles",58.3333,8.3333,8.3333,0,25
"Aves",16.6667,0,0,0,83.3333
"Mamíferos",0,0,0,0,100
