"Grupo","Sujeta_a_proteccion_especial_(Pr)","Amenazada_(A)","En_peligro_de_extincion_(P)","Probablemente_extinta_en_medio_silvestre_(E)","No_enlistadas"
"Hongos",0,0,0,0,100
"Plantas",1.627,2.0025,0.5006,0,95.8698
"Invertebrados",0,0,0,0,100
"Peces",0,0,0,0,0
"Anfibios",31.25,0,0,0,68.75
"Reptiles",21.0526,10.5263,0,0,68.4211
"Aves",20,10.7692,10.7692,0,58.4615
"Mamíferos",13.3333,0,0,0,86.6667
