"Grupo","Sujeta_a_proteccion_especial_(Pr)","Amenazada_(A)","En_peligro_de_extincion_(P)","Probablemente_extinta_en_medio_silvestre_(E)","No_enlistadas"
"Hongos",0,0,0,0,100
"Plantas",1.7926,0.7682,0.3841,0,97.0551
"Invertebrados",0.4902,0,0,0,99.5098
"Peces",0,0,0,0,100
"Anfibios",25,0,0,0,75
"Reptiles",20.5882,17.6471,0,0,61.7647
"Aves",18.75,4.1667,4.1667,0,72.9167
"Mamíferos",0,6.25,6.25,0,87.5
