"Grupo","Sujeta_a_proteccion_especial_(Pr)","Amenazada_(A)","En_peligro_de_extincion_(P)","Probablemente_extinta_en_medio_silvestre_(E)","No_enlistadas"
"Hongos",0,0,0,0,100
"Plantas",1.4706,0,0,0,98.5294
"Invertebrados",2.9412,0,0,0,97.0588
"Peces",0,0,0,0,0
"Anfibios",0,0,0,0,0
"Reptiles",9.0909,9.0909,0,0,81.8182
"Aves",22.2222,11.1111,11.1111,0,55.5556
"Mamíferos",0,0,18.1818,0,81.8182
