"Grupo","Sujeta_a_proteccion_especial_(Pr)","Amenazada_(A)","En_peligro_de_extincion_(P)","Probablemente_extinta_en_medio_silvestre_(E)","No_enlistadas"
"Hongos",0,0,0,0,0
"Plantas",0,0.4464,0,0,99.5536
"Invertebrados",0,0,0,0,100
"Peces",14.2857,57.1429,14.2857,0,14.2857
"Anfibios",14.2857,14.2857,0,0,71.4286
"Reptiles",27.5862,10.3448,0,0,62.069
"Aves",17.0732,0,0,0,82.9268
"Mamíferos",0,5.8824,0,0,94.1176
