"Grupo","Sujeta_a_proteccion_especial_(Pr)","Amenazada_(A)","En_peligro_de_extincion_(P)","Probablemente_extinta_en_medio_silvestre_(E)","No_enlistadas"
"Hongos",0,0,0,0,0
"Plantas",1.3453,0.8969,0,0,97.7578
"Invertebrados",0,0,0,0,100
"Peces",0,0,0,0,0
"Anfibios",0,25,0,0,75
"Reptiles",23.0769,7.6923,0,0,69.2308
"Aves",8.3333,0,0,0,91.6667
"Mamíferos",0,0,14.2857,0,85.7143
