"Grupo","Sujeta_a_proteccion_especial_(Pr)","Amenazada_(A)","En_peligro_de_extincion_(P)","Probablemente_extinta_en_medio_silvestre_(E)","No_enlistadas"
"Hongos",0,18.1818,0,0,81.8182
"Plantas",0.8621,0.5747,0,0,98.5632
"Invertebrados",0,0,0,0,100
"Peces",0,0,0,0,0
"Anfibios",0,0,0,0,100
"Reptiles",40,0,0,0,60
"Aves",0,16.6667,0,0,83.3333
"Mamíferos",7.1429,0,7.1429,0,85.7143
