"Grupo","Sujeta_a_proteccion_especial_(Pr)","Amenazada_(A)","En_peligro_de_extincion_(P)","Probablemente_extinta_en_medio_silvestre_(E)","No_enlistadas"
"Hongos",0,0,0,0,100
"Plantas",1.9417,2.9126,0,0,95.1456
"Invertebrados",0,0,0,0,100
"Peces",7.5,0,2.5,0,90
"Anfibios",0,0,0,0,100
"Reptiles",33.3333,16.6667,8.3333,0,41.6667
"Aves",27.027,17.5676,5.4054,0,50
"Mamíferos",0,0,50,0,50
