"Grupo","Sujeta_a_proteccion_especial_(Pr)","Amenazada_(A)","En_peligro_de_extincion_(P)","Probablemente_extinta_en_medio_silvestre_(E)","No_enlistadas"
"Hongos",0,0,0,0,0
"Plantas",0,0,0,0,100
"Invertebrados",7.1429,0,0,0,92.8571
"Peces",0,0,0,0,0
"Anfibios",0,0,0,0,100
"Reptiles",50,50,0,0,0
"Aves",0,0,0,0,100
"Mamíferos",0,0,33.3333,0,66.6667
