"Grupo","Sujeta_a_proteccion_especial_(Pr)","Amenazada_(A)","En_peligro_de_extincion_(P)","Probablemente_extinta_en_medio_silvestre_(E)","No_enlistadas"
"Hongos",0,0,0,0,0
"Plantas",0,2.8169,0,0,97.1831
"Invertebrados",0,0,0,0,0
"Peces",0,0,0,0,0
"Anfibios",0,0,0,0,0
"Reptiles",0,0,0,0,100
"Aves",22.2222,20,4.4444,0,53.3333
"Mamíferos",0,0,0,0,0
