"Grupo","Sujeta_a_proteccion_especial_(Pr)","Amenazada_(A)","En_peligro_de_extincion_(P)","Probablemente_extinta_en_medio_silvestre_(E)","No_enlistadas"
"Hongos",0,0,0,0,100
"Plantas",0,7.6923,0,0,92.3077
"Invertebrados",0,0,0,0,100
"Peces",0,0,0,0,100
"Anfibios",42.8571,0,0,0,57.1429
"Reptiles",23.0769,15.3846,0,0,61.5385
"Aves",13.4831,3.3708,3.3708,0,79.7753
"Mamíferos",0,0,11.1111,0,88.8889
