"Grupo","Sujeta_a_proteccion_especial_(Pr)","Amenazada_(A)","En_peligro_de_extincion_(P)","Probablemente_extinta_en_medio_silvestre_(E)","No_enlistadas"
"Hongos",0,6.7568,0,0,93.2432
"Plantas",0.7326,0.5495,0.7326,0,97.9853
"Invertebrados",0,0,0,0,100
"Peces",25,0,0,0,75
"Anfibios",33.3333,19.0476,4.7619,0,42.8571
"Reptiles",16.2162,18.9189,5.4054,0,59.4595
"Aves",14.8148,7.4074,0,0,77.7778
"Mamíferos",5.7143,0,2.8571,0,91.4286
