"Grupo","Sujeta_a_proteccion_especial_(Pr)","Amenazada_(A)","En_peligro_de_extincion_(P)","Probablemente_extinta_en_medio_silvestre_(E)","No_enlistadas"
"Hongos",0,0,0,0,0
"Plantas",0.9063,1.8127,0.6042,0,96.6767
"Invertebrados",0,0,0,0,100
"Peces",0,0,0,0,0
"Anfibios",23.8095,9.5238,0,0,66.6667
"Reptiles",25,37.5,0,0,37.5
"Aves",32.1429,7.1429,7.1429,0,53.5714
"Mamíferos",7.1429,0,14.2857,0,78.5714
