"Grupo","Sujeta_a_proteccion_especial_(Pr)","Amenazada_(A)","En_peligro_de_extincion_(P)","Probablemente_extinta_en_medio_silvestre_(E)","No_enlistadas"
"Hongos",0,0,0,0,100
"Plantas",1.1494,0.4598,0.4598,0,97.931
"Invertebrados",0,0,0,0,100
"Peces",0,0,0,0,0
"Anfibios",33.3333,0,0,0,66.6667
"Reptiles",17.0732,12.1951,7.3171,0,63.4146
"Aves",8.642,7.4074,0,0,83.9506
"Mamíferos",0,5.8824,0,0,94.1176
