"Grupo","Sujeta_a_proteccion_especial_(Pr)","Amenazada_(A)","En_peligro_de_extincion_(P)","Probablemente_extinta_en_medio_silvestre_(E)","No_enlistadas"
"Hongos",0,0,0,0,100
"Plantas",0.8421,1.6842,0,0,97.4737
"Invertebrados",0,0.9259,0,0,99.0741
"Peces",8.3333,8.3333,0,0,83.3333
"Anfibios",6.6667,0,0,0,93.3333
"Reptiles",25,13.6364,2.2727,0,59.0909
"Aves",13.4146,4.878,1.2195,0,80.4878
"Mamíferos",4.5455,4.5455,6.8182,0,84.0909
