"Grupo","Sujeta_a_proteccion_especial_(Pr)","Amenazada_(A)","En_peligro_de_extincion_(P)","Probablemente_extinta_en_medio_silvestre_(E)","No_enlistadas"
"Hongos",0,0,0,0,100
"Plantas",1.4914,1.8643,0.7457,0,95.8986
"Invertebrados",0,0,0,0,100
"Peces",4.4776,2.9851,1.4925,0,91.0448
"Anfibios",25,2.7778,0,0,72.2222
"Reptiles",24.1379,10.3448,1.7241,0,63.7931
"Aves",24.5283,14.4654,6.9182,0,54.0881
"Mamíferos",5.9524,13.0952,10.7143,0,70.2381
