"Grupo","Sujeta_a_proteccion_especial_(Pr)","Amenazada_(A)","En_peligro_de_extincion_(P)","Probablemente_extinta_en_medio_silvestre_(E)","No_enlistadas"
"Hongos",0,0,0,0,100
"Plantas",0.9709,0,0,0,99.0291
"Invertebrados",0,2.439,0,0,97.561
"Peces",0,0,0,0,100
"Anfibios",16.6667,0,0,0,83.3333
"Reptiles",5,10,0,0,85
"Aves",20.3883,8.7379,1.9417,0,68.932
"Mamíferos",0,0,50,0,50
