"Grupo","Sujeta_a_proteccion_especial_(Pr)","Amenazada_(A)","En_peligro_de_extincion_(P)","Probablemente_extinta_en_medio_silvestre_(E)","No_enlistadas"
"Hongos",0,0,0,0,0
"Plantas",0,5.7143,0,0,94.2857
"Invertebrados",0,0,0,0,100
"Peces",0,0,0,0,100
"Anfibios",33.3333,33.3333,0,0,33.3333
"Reptiles",62.5,12.5,0,0,25
"Aves",8,12,4,0,76
"Mamíferos",0,0,0,0,100
