"Grupo","Sujeta_a_proteccion_especial_(Pr)","Amenazada_(A)","En_peligro_de_extincion_(P)","Probablemente_extinta_en_medio_silvestre_(E)","No_enlistadas"
"Hongos",0,0,0,0,100
"Plantas",0.625,0,0,0,99.375
"Invertebrados",9.0909,0,0,0,90.9091
"Peces",0,0,0,0,0
"Anfibios",0,0,0,0,100
"Reptiles",0,0,0,0,100
"Aves",15.3846,7.6923,0,0,76.9231
"Mamíferos",0,0,0,0,100
