"Grupo","Sujeta_a_proteccion_especial_(Pr)","Amenazada_(A)","En_peligro_de_extincion_(P)","Probablemente_extinta_en_medio_silvestre_(E)","No_enlistadas"
"Hongos",0,5.5556,0,0,94.4444
"Plantas",1.5873,0.5291,0.1764,0,97.7072
"Invertebrados",1.8519,0,0,0,98.1481
"Peces",0,0,0,0,0
"Anfibios",33.3333,33.3333,0,0,33.3333
"Reptiles",22.2222,22.2222,0,0,55.5556
"Aves",11.7647,2.9412,0,0,85.2941
"Mamíferos",8.5106,2.1277,2.1277,0,87.234
