"Grupo","Sujeta_a_proteccion_especial_(Pr)","Amenazada_(A)","En_peligro_de_extincion_(P)","Probablemente_extinta_en_medio_silvestre_(E)","No_enlistadas"
"Hongos",0,0,0,0,0
"Plantas",0.7634,0.7634,0,0,98.4733
"Invertebrados",0.3534,0,0,0,99.6466
"Peces",4.5455,4.5455,0,0,90.9091
"Anfibios",20,0,0,0,80
"Reptiles",23.3333,13.3333,3.3333,0,60
"Aves",22.7273,22.7273,6.8182,0,47.7273
"Mamíferos",0,0,10,0,90
