"Grupo","Sujeta_a_proteccion_especial_(Pr)","Amenazada_(A)","En_peligro_de_extincion_(P)","Probablemente_extinta_en_medio_silvestre_(E)","No_enlistadas"
"Hongos",0,0,0,0,100
"Plantas",0.7428,0.5571,0.1857,0,98.5144
"Invertebrados",0.4785,0,0,0,99.5215
"Peces",12.5,25,0,0,62.5
"Anfibios",24.1379,0,0,0,75.8621
"Reptiles",26.5823,12.6582,0,0,60.7595
"Aves",12.5,4.1667,2.0833,0.6944,80.5556
"Mamíferos",1.5385,1.5385,1.5385,0,95.3846
