"Grupo","Sujeta_a_proteccion_especial_(Pr)","Amenazada_(A)","En_peligro_de_extincion_(P)","Probablemente_extinta_en_medio_silvestre_(E)","No_enlistadas"
"Hongos",0,0,0,0,0
"Plantas",0,0,0,0,100
"Invertebrados",0,0,0,0,100
"Peces",6.25,0,0,0,93.75
"Anfibios",33.3333,0,0,0,66.6667
"Reptiles",0,100,0,0,0
"Aves",33.3333,4.7619,4.7619,0,57.1429
"Mamíferos",0,0,0,0,100
