"Grupo","Sujeta_a_proteccion_especial_(Pr)","Amenazada_(A)","En_peligro_de_extincion_(P)","Probablemente_extinta_en_medio_silvestre_(E)","No_enlistadas"
"Hongos",0,0.6803,0,0,99.3197
"Plantas",0.9091,1.0672,0.2767,0,97.747
"Invertebrados",0.111,0,0,0,99.889
"Peces",0,0,0,0,100
"Anfibios",30.7692,15.3846,4.6154,0,49.2308
"Reptiles",25,13.3929,0.8929,0,60.7143
"Aves",17.284,6.7901,4.321,0.6173,70.9877
"Mamíferos",5.8824,6.8627,2.9412,0,84.3137
