"Grupo","Sujeta_a_proteccion_especial_(Pr)","Amenazada_(A)","En_peligro_de_extincion_(P)","Probablemente_extinta_en_medio_silvestre_(E)","No_enlistadas"
"Hongos",0,4.3478,0,0,95.6522
"Plantas",0.9119,0.6079,0.304,0,98.1763
"Invertebrados",0.5525,0,0,0,99.4475
"Peces",0,28.5714,14.2857,0,57.1429
"Anfibios",20,15,0,0,65
"Reptiles",19.5652,13.0435,0,0,67.3913
"Aves",10.4478,2.9851,2.9851,0,83.5821
"Mamíferos",4.4444,2.2222,4.4444,0,88.8889
