"Grupo","Sujeta_a_proteccion_especial_(Pr)","Amenazada_(A)","En_peligro_de_extincion_(P)","Probablemente_extinta_en_medio_silvestre_(E)","No_enlistadas"
"Hongos",0,1.5424,0,0,98.4576
"Plantas",1.3104,1.3256,0.5181,0,96.846
"Invertebrados",0.0454,0,0.0454,0,99.9092
"Peces",6,6,2,0,86
"Anfibios",34.0426,5.3191,0,0,60.6383
"Reptiles",25.5102,12.7551,2.0408,0,59.6939
"Aves",19.2,13.2,7.6,0,60
"Mamíferos",5.5215,7.362,6.135,0,80.9816
