"Grupo","Sujeta_a_proteccion_especial_(Pr)","Amenazada_(A)","En_peligro_de_extincion_(P)","Probablemente_extinta_en_medio_silvestre_(E)","No_enlistadas"
"Hongos",0.2495,1.2475,0.0998,0,98.4032
"Plantas",1.0663,1.0003,0.7172,0.0189,97.1973
"Invertebrados",0.0166,0.0332,0.0166,0,99.9335
"Peces",3.937,14.9606,15.748,1.5748,63.7795
"Anfibios",34.6154,11.5385,5.7692,0,48.0769
"Reptiles",29.1291,12.9129,1.8018,0,56.1562
"Aves",15.5172,11.2069,5.1724,0.5747,67.5287
"Mamíferos",7.7821,8.1712,3.5019,0,80.5447
