"Grupo","Sujeta_a_proteccion_especial_(Pr)","Amenazada_(A)","En_peligro_de_extincion_(P)","Probablemente_extinta_en_medio_silvestre_(E)","No_enlistadas"
"Hongos",0,1.3514,0,0,98.6486
"Plantas",0.5556,1.0648,0.3241,0,98.0556
"Invertebrados",0.0848,0,0,0,99.9152
"Peces",2.2989,5.1724,2.2989,0,90.2299
"Anfibios",32.6923,5.7692,1.9231,0,59.6154
"Reptiles",23.741,13.6691,3.5971,0,58.9928
"Aves",12.8906,8.2031,3.9062,0.3906,74.6094
"Mamíferos",4.386,6.1404,3.5088,0,85.9649
