"Grupo","Sujeta_a_proteccion_especial_(Pr)","Amenazada_(A)","En_peligro_de_extincion_(P)","Probablemente_extinta_en_medio_silvestre_(E)","No_enlistadas"
"Hongos",0.2066,0.4132,0.2066,0,99.1736
"Plantas",0.6458,1.1302,0.7265,0,97.4975
"Invertebrados",0.0659,0.0659,0.0659,0,99.8024
"Peces",2.8329,2.5496,1.1331,0,93.4844
"Anfibios",30.6122,6.1224,5.102,0,58.1633
"Reptiles",24.2991,13.0841,3.7383,0,58.8785
"Aves",16.208,12.844,5.5046,0,65.4434
"Mamíferos",8.1218,7.6142,6.0914,0,78.1726
