"Grupo","Sujeta_a_proteccion_especial_(Pr)","Amenazada_(A)","En_peligro_de_extincion_(P)","Probablemente_extinta_en_medio_silvestre_(E)","No_enlistadas"
"Hongos",0,0,0,0,100
"Plantas",0.7825,1.7214,0.1565,0,97.3396
"Invertebrados",0.2439,0,0.2439,0,99.5122
"Peces",2.5806,2.5806,0.6452,0,94.1935
"Anfibios",29.6296,7.4074,3.7037,0,59.2593
"Reptiles",18.1818,10.6061,3.0303,0,68.1818
"Aves",11.2245,6.6327,3.5714,0.5102,78.0612
"Mamíferos",1.7241,5.1724,3.4483,0,89.6552
