"Grupo","Sujeta_a_proteccion_especial_(Pr)","Amenazada_(A)","En_peligro_de_extincion_(P)","Probablemente_extinta_en_medio_silvestre_(E)","No_enlistadas"
"Hongos",0,0,0,0,100
"Plantas",0.6699,1.6443,0.3045,0,97.3812
"Invertebrados",0.0831,0.4153,0.0831,0,99.4186
"Peces",2.0408,2.0408,1.0204,0,94.898
"Anfibios",28.5714,0,0,0,71.4286
"Reptiles",23.7624,9.901,7.9208,0,58.4158
"Aves",13.0802,8.8608,3.3755,0,74.6835
"Mamíferos",8.0808,6.0606,7.0707,0,78.7879
