"Grupo","Sujeta_a_proteccion_especial_(Pr)","Amenazada_(A)","En_peligro_de_extincion_(P)","Probablemente_extinta_en_medio_silvestre_(E)","No_enlistadas"
"Hongos",0,1.2987,0,0,98.7013
"Plantas",0.5832,1.5376,0,0,97.8791
"Invertebrados",0.2044,0.2453,0.0409,0,99.5094
"Peces",2.8424,1.5504,2.0672,0,93.5401
"Anfibios",30,0,0,0,70
"Reptiles",22.1311,13.1148,4.918,0,59.8361
"Aves",16.2879,10.2273,4.5455,0,68.9394
"Mamíferos",6.9307,12.8713,7.9208,0,72.2772
