"Grupo","Sujeta_a_proteccion_especial_(Pr)","Amenazada_(A)","En_peligro_de_extincion_(P)","Probablemente_extinta_en_medio_silvestre_(E)","No_enlistadas"
"Hongos",0,1.4634,0.4878,0,98.0488
"Plantas",0.6589,0.6888,0.5391,0,98.1132
"Invertebrados",0.0507,0,0.1014,0,99.8479
"Peces",1.5504,16.2791,7.7519,2.3256,72.093
"Anfibios",26,6,0,0,68
"Reptiles",19.7605,15.5689,0,0,64.6707
"Aves",12.2047,8.2677,4.3307,0,75.1969
"Mamíferos",2.2059,5.1471,4.4118,0,88.2353
