"Grupo","Numero_de_especies_registradas","Icono"
"Bacterias",0,"Biod_bacteria.png"
"Algas",93,"alga.png"
"Hongos",0,"Biod_hongo.png"
"Plantas no vasculares",0,"Biod_briofitas.png"
"Plantas vasculares",21,"Biod_angiospermas.png"
"Invertebrados no artrópodos",16,"invertebrado_no_artropodo.png"
"Invertebrados artrópodos",13,"invertebrados_artropodos.png"
"Vertebrados",89,"Biod_mamiferos.png"
