"Grupo","Numero_de_especies_registradas","Icono"
"Bacterias",0,"Biod_bacteria.png"
"Algas",71,"alga.png"
"Hongos",0,"Biod_hongo.png"
"Plantas no vasculares",0,"Biod_briofitas.png"
"Plantas vasculares",35,"Biod_angiospermas.png"
"Invertebrados no artrópodos",50,"invertebrado_no_artropodo.png"
"Invertebrados artrópodos",3,"invertebrados_artropodos.png"
"Vertebrados",84,"Biod_mamiferos.png"
