"Grupo","Numero_de_especies_registradas","Icono"
"Bacterias",3,"Biod_bacteria.png"
"Algas",28,"alga.png"
"Hongos",36,"Biod_hongo.png"
"Plantas no vasculares",0,"Biod_briofitas.png"
"Plantas vasculares",396,"Biod_angiospermas.png"
"Invertebrados no artrópodos",47,"invertebrado_no_artropodo.png"
"Invertebrados artrópodos",99,"invertebrados_artropodos.png"
"Vertebrados",282,"Biod_mamiferos.png"
