"Grupo","Numero_de_especies_registradas","Icono"
"Bacterias",0,"Biod_bacteria.png"
"Algas",31,"alga.png"
"Hongos",2,"Biod_hongo.png"
"Plantas no vasculares",0,"Biod_briofitas.png"
"Plantas vasculares",146,"Biod_angiospermas.png"
"Invertebrados no artrópodos",36,"invertebrado_no_artropodo.png"
"Invertebrados artrópodos",113,"invertebrados_artropodos.png"
"Vertebrados",187,"Biod_mamiferos.png"
