"Grupo","Numero_de_especies_registradas","Icono"
"Bacterias",0,"Biod_bacteria.png"
"Algas",45,"alga.png"
"Hongos",0,"Biod_hongo.png"
"Plantas no vasculares",0,"Biod_briofitas.png"
"Plantas vasculares",9,"Biod_angiospermas.png"
"Invertebrados no artrópodos",20,"invertebrado_no_artropodo.png"
"Invertebrados artrópodos",38,"invertebrados_artropodos.png"
"Vertebrados",204,"Biod_mamiferos.png"
