"Grupo","Numero_de_especies_registradas","Icono"
"Bacterias",0,"Biod_bacteria.png"
"Algas",0,"alga.png"
"Hongos",628,"Biod_hongo.png"
"Plantas no vasculares",268,"Biod_briofitas.png"
"Plantas vasculares",3531,"Biod_angiospermas.png"
"Invertebrados no artrópodos",24,"invertebrado_no_artropodo.png"
"Invertebrados artrópodos",1212,"invertebrados_artropodos.png"
"Vertebrados",513,"Biod_mamiferos.png"
