"Grupo","Numero_de_especies_registradas","Icono"
"Bacterias",0,"Biod_bacteria.png"
"Algas",95,"alga.png"
"Hongos",3,"Biod_hongo.png"
"Plantas no vasculares",1,"Biod_briofitas.png"
"Plantas vasculares",549,"Biod_angiospermas.png"
"Invertebrados no artrópodos",233,"invertebrado_no_artropodo.png"
"Invertebrados artrópodos",265,"invertebrados_artropodos.png"
"Vertebrados",394,"Biod_mamiferos.png"
