"Grupo","Numero_de_especies_registradas","Icono"
"Bacterias",0,"Biod_bacteria.png"
"Algas",105,"alga.png"
"Hongos",133,"Biod_hongo.png"
"Plantas no vasculares",104,"Biod_briofitas.png"
"Plantas vasculares",2038,"Biod_angiospermas.png"
"Invertebrados no artrópodos",58,"invertebrado_no_artropodo.png"
"Invertebrados artrópodos",429,"invertebrados_artropodos.png"
"Vertebrados",518,"Biod_mamiferos.png"
