"Grupo","Numero_de_especies_registradas","Icono"
"Bacterias",0,"Biod_bacteria.png"
"Algas",1,"alga.png"
"Hongos",331,"Biod_hongo.png"
"Plantas no vasculares",208,"Biod_briofitas.png"
"Plantas vasculares",2630,"Biod_angiospermas.png"
"Invertebrados no artrópodos",22,"invertebrado_no_artropodo.png"
"Invertebrados artrópodos",496,"invertebrados_artropodos.png"
"Vertebrados",454,"Biod_mamiferos.png"
