"Grupo","Numero_de_especies_registradas","Icono"
"Bacterias",0,"Biod_bacteria.png"
"Algas",0,"alga.png"
"Hongos",15,"Biod_hongo.png"
"Plantas no vasculares",6,"Biod_briofitas.png"
"Plantas vasculares",875,"Biod_angiospermas.png"
"Invertebrados no artrópodos",36,"invertebrado_no_artropodo.png"
"Invertebrados artrópodos",429,"invertebrados_artropodos.png"
"Vertebrados",391,"Biod_mamiferos.png"
