"Grupo","Numero_de_especies_registradas","Icono"
"Bacterias",2,"Biod_bacteria.png"
"Algas",1,"alga.png"
"Hongos",212,"Biod_hongo.png"
"Plantas no vasculares",142,"Biod_briofitas.png"
"Plantas vasculares",4048,"Biod_angiospermas.png"
"Invertebrados no artrópodos",91,"invertebrado_no_artropodo.png"
"Invertebrados artrópodos",1600,"invertebrados_artropodos.png"
"Vertebrados",836,"Biod_mamiferos.png"
