"Grupo","Numero_de_especies_registradas","Icono"
"Bacterias",0,"Biod_bacteria.png"
"Algas",0,"alga.png"
"Hongos",4,"Biod_hongo.png"
"Plantas no vasculares",0,"Biod_briofitas.png"
"Plantas vasculares",514,"Biod_angiospermas.png"
"Invertebrados no artrópodos",6,"invertebrado_no_artropodo.png"
"Invertebrados artrópodos",135,"invertebrados_artropodos.png"
"Vertebrados",217,"Biod_mamiferos.png"
