"Grupo","Numero_de_especies_registradas","Icono"
"Bacterias",1,"Biod_bacteria.png"
"Algas",25,"alga.png"
"Hongos",25,"Biod_hongo.png"
"Plantas no vasculares",56,"Biod_briofitas.png"
"Plantas vasculares",751,"Biod_angiospermas.png"
"Invertebrados no artrópodos",6,"invertebrado_no_artropodo.png"
"Invertebrados artrópodos",252,"invertebrados_artropodos.png"
"Vertebrados",284,"Biod_mamiferos.png"
