"Grupo","Numero_de_especies_registradas","Icono"
"Bacterias",1,"Biod_bacteria.png"
"Algas",0,"alga.png"
"Hongos",15,"Biod_hongo.png"
"Plantas no vasculares",14,"Biod_briofitas.png"
"Plantas vasculares",913,"Biod_angiospermas.png"
"Invertebrados no artrópodos",13,"invertebrado_no_artropodo.png"
"Invertebrados artrópodos",298,"invertebrados_artropodos.png"
"Vertebrados",504,"Biod_mamiferos.png"
