"Grupo","Numero_de_especies_registradas","Icono"
"Bacterias",0,"Biod_bacteria.png"
"Algas",1,"alga.png"
"Hongos",0,"Biod_hongo.png"
"Plantas no vasculares",0,"Biod_briofitas.png"
"Plantas vasculares",85,"Biod_angiospermas.png"
"Invertebrados no artrópodos",1,"invertebrado_no_artropodo.png"
"Invertebrados artrópodos",21,"invertebrados_artropodos.png"
"Vertebrados",33,"Biod_mamiferos.png"
