"Grupo","Numero_de_especies_registradas","Icono"
"Bacterias",0,"Biod_bacteria.png"
"Algas",0,"alga.png"
"Hongos",5,"Biod_hongo.png"
"Plantas no vasculares",15,"Biod_briofitas.png"
"Plantas vasculares",893,"Biod_angiospermas.png"
"Invertebrados no artrópodos",13,"invertebrado_no_artropodo.png"
"Invertebrados artrópodos",177,"invertebrados_artropodos.png"
"Vertebrados",213,"Biod_mamiferos.png"
