"Grupo","Numero_de_especies_registradas","Icono"
"Bacterias",0,"Biod_bacteria.png"
"Algas",0,"alga.png"
"Hongos",0,"Biod_hongo.png"
"Plantas no vasculares",0,"Biod_briofitas.png"
"Plantas vasculares",64,"Biod_angiospermas.png"
"Invertebrados no artrópodos",11,"invertebrado_no_artropodo.png"
"Invertebrados artrópodos",12,"invertebrados_artropodos.png"
"Vertebrados",17,"Biod_mamiferos.png"
