"Grupo","Numero_de_especies_registradas","Icono"
"Bacterias",0,"Biod_bacteria.png"
"Algas",17,"alga.png"
"Hongos",4,"Biod_hongo.png"
"Plantas no vasculares",14,"Biod_briofitas.png"
"Plantas vasculares",623,"Biod_angiospermas.png"
"Invertebrados no artrópodos",1,"invertebrado_no_artropodo.png"
"Invertebrados artrópodos",194,"invertebrados_artropodos.png"
"Vertebrados",293,"Biod_mamiferos.png"
