"Grupo","Numero_de_especies_registradas","Icono"
"Bacterias",1,"Biod_bacteria.png"
"Algas",47,"alga.png"
"Hongos",442,"Biod_hongo.png"
"Plantas no vasculares",92,"Biod_briofitas.png"
"Plantas vasculares",2716,"Biod_angiospermas.png"
"Invertebrados no artrópodos",44,"invertebrado_no_artropodo.png"
"Invertebrados artrópodos",785,"invertebrados_artropodos.png"
"Vertebrados",619,"Biod_mamiferos.png"
