"Grupo","Numero_de_especies_registradas","Icono"
"Bacterias",0,"Biod_bacteria.png"
"Algas",0,"alga.png"
"Hongos",1,"Biod_hongo.png"
"Plantas no vasculares",0,"Biod_briofitas.png"
"Plantas vasculares",669,"Biod_angiospermas.png"
"Invertebrados no artrópodos",2,"invertebrado_no_artropodo.png"
"Invertebrados artrópodos",39,"invertebrados_artropodos.png"
"Vertebrados",181,"Biod_mamiferos.png"
