"Grupo","Numero_de_especies_registradas","Icono"
"Bacterias",0,"Biod_bacteria.png"
"Algas",21,"alga.png"
"Hongos",371,"Biod_hongo.png"
"Plantas no vasculares",213,"Biod_briofitas.png"
"Plantas vasculares",3008,"Biod_angiospermas.png"
"Invertebrados no artrópodos",179,"invertebrado_no_artropodo.png"
"Invertebrados artrópodos",1892,"invertebrados_artropodos.png"
"Vertebrados",786,"Biod_mamiferos.png"
