"Grupo","Numero_de_especies_registradas","Icono"
"Bacterias",0,"Biod_bacteria.png"
"Algas",28,"alga.png"
"Hongos",14,"Biod_hongo.png"
"Plantas no vasculares",1,"Biod_briofitas.png"
"Plantas vasculares",379,"Biod_angiospermas.png"
"Invertebrados no artrópodos",10,"invertebrado_no_artropodo.png"
"Invertebrados artrópodos",60,"invertebrados_artropodos.png"
"Vertebrados",149,"Biod_mamiferos.png"
