"Grupo","Numero_de_especies_registradas","Icono"
"Bacterias",0,"Biod_bacteria.png"
"Algas",9,"alga.png"
"Hongos",15,"Biod_hongo.png"
"Plantas no vasculares",0,"Biod_briofitas.png"
"Plantas vasculares",269,"Biod_angiospermas.png"
"Invertebrados no artrópodos",5,"invertebrado_no_artropodo.png"
"Invertebrados artrópodos",112,"invertebrados_artropodos.png"
"Vertebrados",207,"Biod_mamiferos.png"
