"Grupo","Numero_de_especies_registradas","Icono"
"Bacterias",0,"Biod_bacteria.png"
"Algas",2,"alga.png"
"Hongos",6,"Biod_hongo.png"
"Plantas no vasculares",4,"Biod_briofitas.png"
"Plantas vasculares",764,"Biod_angiospermas.png"
"Invertebrados no artrópodos",3,"invertebrado_no_artropodo.png"
"Invertebrados artrópodos",190,"invertebrados_artropodos.png"
"Vertebrados",439,"Biod_mamiferos.png"
