"Grupo","Numero_de_especies_registradas","Icono"
"Bacterias",0,"Biod_bacteria.png"
"Algas",7,"alga.png"
"Hongos",155,"Biod_hongo.png"
"Plantas no vasculares",64,"Biod_briofitas.png"
"Plantas vasculares",1839,"Biod_angiospermas.png"
"Invertebrados no artrópodos",8,"invertebrado_no_artropodo.png"
"Invertebrados artrópodos",244,"invertebrados_artropodos.png"
"Vertebrados",447,"Biod_mamiferos.png"
