"Grupo","Numero_de_especies_registradas","Icono"
"Bacterias",1,"Biod_bacteria.png"
"Algas",1,"alga.png"
"Hongos",70,"Biod_hongo.png"
"Plantas no vasculares",108,"Biod_briofitas.png"
"Plantas vasculares",2609,"Biod_angiospermas.png"
"Invertebrados no artrópodos",175,"invertebrado_no_artropodo.png"
"Invertebrados artrópodos",703,"invertebrados_artropodos.png"
"Vertebrados",537,"Biod_mamiferos.png"
