"Grupo","Numero_de_especies_registradas","Icono"
"Bacterias",21,"Biod_bacteria.png"
"Algas",52,"alga.png"
"Hongos",8,"Biod_hongo.png"
"Plantas no vasculares",0,"Biod_briofitas.png"
"Plantas vasculares",86,"Biod_angiospermas.png"
"Invertebrados no artrópodos",4,"invertebrado_no_artropodo.png"
"Invertebrados artrópodos",58,"invertebrados_artropodos.png"
"Vertebrados",95,"Biod_mamiferos.png"
