"Grupo","Numero_de_especies_registradas","Icono"
"Bacterias",0,"Biod_bacteria.png"
"Algas",0,"alga.png"
"Hongos",43,"Biod_hongo.png"
"Plantas no vasculares",5,"Biod_briofitas.png"
"Plantas vasculares",387,"Biod_angiospermas.png"
"Invertebrados no artrópodos",25,"invertebrado_no_artropodo.png"
"Invertebrados artrópodos",53,"invertebrados_artropodos.png"
"Vertebrados",257,"Biod_mamiferos.png"
