"Grupo","Numero_de_especies_registradas","Icono"
"Bacterias",0,"Biod_bacteria.png"
"Algas",0,"alga.png"
"Hongos",178,"Biod_hongo.png"
"Plantas no vasculares",267,"Biod_briofitas.png"
"Plantas vasculares",2857,"Biod_angiospermas.png"
"Invertebrados no artrópodos",59,"invertebrado_no_artropodo.png"
"Invertebrados artrópodos",1237,"invertebrados_artropodos.png"
"Vertebrados",607,"Biod_mamiferos.png"
