"Grupo","Numero_de_especies_registradas","Icono"
"Bacterias",1,"Biod_bacteria.png"
"Algas",5,"alga.png"
"Hongos",26,"Biod_hongo.png"
"Plantas no vasculares",20,"Biod_briofitas.png"
"Plantas vasculares",928,"Biod_angiospermas.png"
"Invertebrados no artrópodos",13,"invertebrado_no_artropodo.png"
"Invertebrados artrópodos",156,"invertebrados_artropodos.png"
"Vertebrados",377,"Biod_mamiferos.png"
