"Grupo","Numero_de_especies_registradas","Icono"
"Bacterias",0,"Biod_bacteria.png"
"Algas",1,"alga.png"
"Hongos",61,"Biod_hongo.png"
"Plantas no vasculares",36,"Biod_briofitas.png"
"Plantas vasculares",1880,"Biod_angiospermas.png"
"Invertebrados no artrópodos",3,"invertebrado_no_artropodo.png"
"Invertebrados artrópodos",430,"invertebrados_artropodos.png"
"Vertebrados",335,"Biod_mamiferos.png"
