"Grupo","Numero_de_especies_registradas","Icono"
"Bacterias",0,"Biod_bacteria.png"
"Algas",13,"alga.png"
"Hongos",1,"Biod_hongo.png"
"Plantas no vasculares",0,"Biod_briofitas.png"
"Plantas vasculares",20,"Biod_angiospermas.png"
"Invertebrados no artrópodos",5,"invertebrado_no_artropodo.png"
"Invertebrados artrópodos",9,"invertebrados_artropodos.png"
"Vertebrados",24,"Biod_mamiferos.png"
