"Grupo","Numero_de_especies_registradas","Icono"
"Bacterias",2,"Biod_bacteria.png"
"Algas",31,"alga.png"
"Hongos",54,"Biod_hongo.png"
"Plantas no vasculares",0,"Biod_briofitas.png"
"Plantas vasculares",764,"Biod_angiospermas.png"
"Invertebrados no artrópodos",97,"invertebrado_no_artropodo.png"
"Invertebrados artrópodos",93,"invertebrados_artropodos.png"
"Vertebrados",358,"Biod_mamiferos.png"
