"Grupo","Numero_de_especies_registradas","Icono"
"Bacterias",0,"Biod_bacteria.png"
"Algas",0,"alga.png"
"Hongos",28,"Biod_hongo.png"
"Plantas no vasculares",2,"Biod_briofitas.png"
"Plantas vasculares",526,"Biod_angiospermas.png"
"Invertebrados no artrópodos",6,"invertebrado_no_artropodo.png"
"Invertebrados artrópodos",134,"invertebrados_artropodos.png"
"Vertebrados",185,"Biod_mamiferos.png"
