"Grupo","Numero_de_especies_registradas","Icono"
"Bacterias",0,"Biod_bacteria.png"
"Algas",56,"alga.png"
"Hongos",1,"Biod_hongo.png"
"Plantas no vasculares",0,"Biod_briofitas.png"
"Plantas vasculares",241,"Biod_angiospermas.png"
"Invertebrados no artrópodos",4,"invertebrado_no_artropodo.png"
"Invertebrados artrópodos",115,"invertebrados_artropodos.png"
"Vertebrados",218,"Biod_mamiferos.png"
