"Grupo","Numero_de_especies_registradas","Icono"
"Bacterias",0,"Biod_bacteria.png"
"Algas",1,"alga.png"
"Hongos",64,"Biod_hongo.png"
"Plantas no vasculares",7,"Biod_briofitas.png"
"Plantas vasculares",617,"Biod_angiospermas.png"
"Invertebrados no artrópodos",4,"invertebrado_no_artropodo.png"
"Invertebrados artrópodos",78,"invertebrados_artropodos.png"
"Vertebrados",276,"Biod_mamiferos.png"
