"Grupo","Numero_de_especies_registradas","Icono"
"Bacterias",3,"Biod_bacteria.png"
"Algas",21,"alga.png"
"Hongos",3,"Biod_hongo.png"
"Plantas no vasculares",0,"Biod_briofitas.png"
"Plantas vasculares",288,"Biod_angiospermas.png"
"Invertebrados no artrópodos",75,"invertebrado_no_artropodo.png"
"Invertebrados artrópodos",306,"invertebrados_artropodos.png"
"Vertebrados",626,"Biod_mamiferos.png"
