"Grupo","Numero_de_especies_registradas","Icono"
"Bacterias",1,"Biod_bacteria.png"
"Algas",2,"alga.png"
"Hongos",1,"Biod_hongo.png"
"Plantas no vasculares",0,"Biod_briofitas.png"
"Plantas vasculares",98,"Biod_angiospermas.png"
"Invertebrados no artrópodos",8,"invertebrado_no_artropodo.png"
"Invertebrados artrópodos",3,"invertebrados_artropodos.png"
"Vertebrados",131,"Biod_mamiferos.png"
