"Grupo","Numero_de_especies_registradas","Icono"
"Bacterias",0,"Biod_bacteria.png"
"Algas",2,"alga.png"
"Hongos",0,"Biod_hongo.png"
"Plantas no vasculares",0,"Biod_briofitas.png"
"Plantas vasculares",152,"Biod_angiospermas.png"
"Invertebrados no artrópodos",15,"invertebrado_no_artropodo.png"
"Invertebrados artrópodos",9,"invertebrados_artropodos.png"
"Vertebrados",143,"Biod_mamiferos.png"
