"Grupo","Numero_de_especies_registradas","Icono"
"Bacterias",0,"Biod_bacteria.png"
"Algas",0,"alga.png"
"Hongos",0,"Biod_hongo.png"
"Plantas no vasculares",0,"Biod_briofitas.png"
"Plantas vasculares",59,"Biod_angiospermas.png"
"Invertebrados no artrópodos",3,"invertebrado_no_artropodo.png"
"Invertebrados artrópodos",23,"invertebrados_artropodos.png"
"Vertebrados",75,"Biod_mamiferos.png"
