"Grupo","Numero_de_especies_registradas","Icono"
"Bacterias",0,"Biod_bacteria.png"
"Algas",0,"alga.png"
"Hongos",5,"Biod_hongo.png"
"Plantas no vasculares",10,"Biod_briofitas.png"
"Plantas vasculares",167,"Biod_angiospermas.png"
"Invertebrados no artrópodos",0,"invertebrado_no_artropodo.png"
"Invertebrados artrópodos",6,"invertebrados_artropodos.png"
"Vertebrados",44,"Biod_mamiferos.png"
