"Grupo","Numero_de_especies_registradas","Icono"
"Bacterias",0,"Biod_bacteria.png"
"Algas",34,"alga.png"
"Hongos",24,"Biod_hongo.png"
"Plantas no vasculares",1,"Biod_briofitas.png"
"Plantas vasculares",387,"Biod_angiospermas.png"
"Invertebrados no artrópodos",9,"invertebrado_no_artropodo.png"
"Invertebrados artrópodos",52,"invertebrados_artropodos.png"
"Vertebrados",212,"Biod_mamiferos.png"
