"Grupo","Numero_de_especies_registradas","Icono"
"Bacterias",1,"Biod_bacteria.png"
"Algas",77,"alga.png"
"Hongos",3,"Biod_hongo.png"
"Plantas no vasculares",0,"Biod_briofitas.png"
"Plantas vasculares",249,"Biod_angiospermas.png"
"Invertebrados no artrópodos",7,"invertebrado_no_artropodo.png"
"Invertebrados artrópodos",19,"invertebrados_artropodos.png"
"Vertebrados",85,"Biod_mamiferos.png"
