"Grupo","Numero_de_especies_registradas","Icono"
"Bacterias",0,"Biod_bacteria.png"
"Algas",31,"alga.png"
"Hongos",2,"Biod_hongo.png"
"Plantas no vasculares",2,"Biod_briofitas.png"
"Plantas vasculares",275,"Biod_angiospermas.png"
"Invertebrados no artrópodos",10,"invertebrado_no_artropodo.png"
"Invertebrados artrópodos",48,"invertebrados_artropodos.png"
"Vertebrados",258,"Biod_mamiferos.png"
