"Grupo","Numero_de_especies_registradas","Icono"
"Bacterias",0,"Biod_bacteria.png"
"Algas",3,"alga.png"
"Hongos",0,"Biod_hongo.png"
"Plantas no vasculares",0,"Biod_briofitas.png"
"Plantas vasculares",20,"Biod_angiospermas.png"
"Invertebrados no artrópodos",2,"invertebrado_no_artropodo.png"
"Invertebrados artrópodos",2,"invertebrados_artropodos.png"
"Vertebrados",9,"Biod_mamiferos.png"
