"Grupo","Numero_de_especies_registradas","Icono"
"Bacterias",0,"Biod_bacteria.png"
"Algas",0,"alga.png"
"Hongos",2,"Biod_hongo.png"
"Plantas no vasculares",8,"Biod_briofitas.png"
"Plantas vasculares",659,"Biod_angiospermas.png"
"Invertebrados no artrópodos",11,"invertebrado_no_artropodo.png"
"Invertebrados artrópodos",43,"invertebrados_artropodos.png"
"Vertebrados",183,"Biod_mamiferos.png"
