"Grupo","Numero_de_especies_registradas","Icono"
"Bacterias",0,"Biod_bacteria.png"
"Algas",0,"alga.png"
"Hongos",63,"Biod_hongo.png"
"Plantas no vasculares",33,"Biod_briofitas.png"
"Plantas vasculares",738,"Biod_angiospermas.png"
"Invertebrados no artrópodos",2,"invertebrado_no_artropodo.png"
"Invertebrados artrópodos",133,"invertebrados_artropodos.png"
"Vertebrados",309,"Biod_mamiferos.png"
