"Grupo","Numero_de_especies_registradas","Icono"
"Bacterias",1,"Biod_bacteria.png"
"Algas",13,"alga.png"
"Hongos",80,"Biod_hongo.png"
"Plantas no vasculares",28,"Biod_briofitas.png"
"Plantas vasculares",791,"Biod_angiospermas.png"
"Invertebrados no artrópodos",3,"invertebrado_no_artropodo.png"
"Invertebrados artrópodos",29,"invertebrados_artropodos.png"
"Vertebrados",183,"Biod_mamiferos.png"
