"Grupo","Numero_de_especies_registradas","Icono"
"Bacterias",0,"Biod_bacteria.png"
"Algas",34,"alga.png"
"Hongos",8,"Biod_hongo.png"
"Plantas no vasculares",0,"Biod_briofitas.png"
"Plantas vasculares",49,"Biod_angiospermas.png"
"Invertebrados no artrópodos",5,"invertebrado_no_artropodo.png"
"Invertebrados artrópodos",6,"invertebrados_artropodos.png"
"Vertebrados",73,"Biod_mamiferos.png"
