"Grupo","Numero_de_especies_registradas","Icono"
"Bacterias",0,"Biod_bacteria.png"
"Algas",0,"alga.png"
"Hongos",12,"Biod_hongo.png"
"Plantas no vasculares",1,"Biod_briofitas.png"
"Plantas vasculares",405,"Biod_angiospermas.png"
"Invertebrados no artrópodos",1,"invertebrado_no_artropodo.png"
"Invertebrados artrópodos",34,"invertebrados_artropodos.png"
"Vertebrados",94,"Biod_mamiferos.png"
