"Grupo","Numero_de_especies_registradas","Icono"
"Bacterias",3,"Biod_bacteria.png"
"Algas",4,"alga.png"
"Hongos",1,"Biod_hongo.png"
"Plantas no vasculares",0,"Biod_briofitas.png"
"Plantas vasculares",200,"Biod_angiospermas.png"
"Invertebrados no artrópodos",39,"invertebrado_no_artropodo.png"
"Invertebrados artrópodos",159,"invertebrados_artropodos.png"
"Vertebrados",251,"Biod_mamiferos.png"
