"Grupo","Numero_de_especies_registradas","Icono"
"Bacterias",0,"Biod_bacteria.png"
"Algas",0,"alga.png"
"Hongos",1,"Biod_hongo.png"
"Plantas no vasculares",0,"Biod_briofitas.png"
"Plantas vasculares",18,"Biod_angiospermas.png"
"Invertebrados no artrópodos",0,"invertebrado_no_artropodo.png"
"Invertebrados artrópodos",1,"invertebrados_artropodos.png"
"Vertebrados",4,"Biod_mamiferos.png"
