"Grupo","Numero_de_especies_registradas","Icono"
"Bacterias",1,"Biod_bacteria.png"
"Algas",44,"alga.png"
"Hongos",0,"Biod_hongo.png"
"Plantas no vasculares",0,"Biod_briofitas.png"
"Plantas vasculares",11,"Biod_angiospermas.png"
"Invertebrados no artrópodos",4,"invertebrado_no_artropodo.png"
"Invertebrados artrópodos",134,"invertebrados_artropodos.png"
"Vertebrados",117,"Biod_mamiferos.png"
