"Grupo","Numero_de_especies_registradas","Icono"
"Bacterias",0,"Biod_bacteria.png"
"Algas",19,"alga.png"
"Hongos",3,"Biod_hongo.png"
"Plantas no vasculares",0,"Biod_briofitas.png"
"Plantas vasculares",61,"Biod_angiospermas.png"
"Invertebrados no artrópodos",33,"invertebrado_no_artropodo.png"
"Invertebrados artrópodos",21,"invertebrados_artropodos.png"
"Vertebrados",69,"Biod_mamiferos.png"
