"Grupo","Numero_de_especies_registradas","Icono"
"Bacterias",0,"Biod_bacteria.png"
"Algas",18,"alga.png"
"Hongos",3,"Biod_hongo.png"
"Plantas no vasculares",0,"Biod_briofitas.png"
"Plantas vasculares",50,"Biod_angiospermas.png"
"Invertebrados no artrópodos",2,"invertebrado_no_artropodo.png"
"Invertebrados artrópodos",2,"invertebrados_artropodos.png"
"Vertebrados",33,"Biod_mamiferos.png"
