"Grupo","Numero_de_especies_registradas","Icono"
"Bacterias",0,"Biod_bacteria.png"
"Algas",0,"alga.png"
"Hongos",5,"Biod_hongo.png"
"Plantas no vasculares",0,"Biod_briofitas.png"
"Plantas vasculares",274,"Biod_angiospermas.png"
"Invertebrados no artrópodos",17,"invertebrado_no_artropodo.png"
"Invertebrados artrópodos",121,"invertebrados_artropodos.png"
"Vertebrados",132,"Biod_mamiferos.png"
