"Grupo","Numero_de_especies_registradas","Icono"
"Bacterias",3,"Biod_bacteria.png"
"Algas",6,"alga.png"
"Hongos",3,"Biod_hongo.png"
"Plantas no vasculares",0,"Biod_briofitas.png"
"Plantas vasculares",115,"Biod_angiospermas.png"
"Invertebrados no artrópodos",25,"invertebrado_no_artropodo.png"
"Invertebrados artrópodos",19,"invertebrados_artropodos.png"
"Vertebrados",145,"Biod_mamiferos.png"
