"Grupo","Numero_de_especies_registradas","Icono"
"Bacterias",0,"Biod_bacteria.png"
"Algas",0,"alga.png"
"Hongos",3,"Biod_hongo.png"
"Plantas no vasculares",17,"Biod_briofitas.png"
"Plantas vasculares",487,"Biod_angiospermas.png"
"Invertebrados no artrópodos",5,"invertebrado_no_artropodo.png"
"Invertebrados artrópodos",106,"invertebrados_artropodos.png"
"Vertebrados",174,"Biod_mamiferos.png"
