"Grupo","Numero_de_especies_registradas","Icono"
"Bacterias",0,"Biod_bacteria.png"
"Algas",13,"alga.png"
"Hongos",0,"Biod_hongo.png"
"Plantas no vasculares",0,"Biod_briofitas.png"
"Plantas vasculares",147,"Biod_angiospermas.png"
"Invertebrados no artrópodos",12,"invertebrado_no_artropodo.png"
"Invertebrados artrópodos",36,"invertebrados_artropodos.png"
"Vertebrados",90,"Biod_mamiferos.png"
