"Grupo","Numero_de_especies_registradas","Icono"
"Bacterias",1,"Biod_bacteria.png"
"Algas",52,"alga.png"
"Hongos",7,"Biod_hongo.png"
"Plantas no vasculares",0,"Biod_briofitas.png"
"Plantas vasculares",65,"Biod_angiospermas.png"
"Invertebrados no artrópodos",5,"invertebrado_no_artropodo.png"
"Invertebrados artrópodos",3,"invertebrados_artropodos.png"
"Vertebrados",58,"Biod_mamiferos.png"
