"Grupo","Numero_de_especies_registradas","Icono"
"Bacterias",0,"Biod_bacteria.png"
"Algas",0,"alga.png"
"Hongos",129,"Biod_hongo.png"
"Plantas no vasculares",16,"Biod_briofitas.png"
"Plantas vasculares",1092,"Biod_angiospermas.png"
"Invertebrados no artrópodos",1,"invertebrado_no_artropodo.png"
"Invertebrados artrópodos",82,"invertebrados_artropodos.png"
"Vertebrados",244,"Biod_mamiferos.png"
