"Grupo","Numero_de_especies_registradas","Icono"
"Bacterias",0,"Biod_bacteria.png"
"Algas",0,"alga.png"
"Hongos",10,"Biod_hongo.png"
"Plantas no vasculares",41,"Biod_briofitas.png"
"Plantas vasculares",998,"Biod_angiospermas.png"
"Invertebrados no artrópodos",8,"invertebrado_no_artropodo.png"
"Invertebrados artrópodos",29,"invertebrados_artropodos.png"
"Vertebrados",142,"Biod_mamiferos.png"
