"Grupo","Numero_de_especies_registradas","Icono"
"Bacterias",0,"Biod_bacteria.png"
"Algas",0,"alga.png"
"Hongos",0,"Biod_hongo.png"
"Plantas no vasculares",11,"Biod_briofitas.png"
"Plantas vasculares",585,"Biod_angiospermas.png"
"Invertebrados no artrópodos",1,"invertebrado_no_artropodo.png"
"Invertebrados artrópodos",41,"invertebrados_artropodos.png"
"Vertebrados",190,"Biod_mamiferos.png"
