"Grupo","Numero_de_especies_registradas","Icono"
"Bacterias",1,"Biod_bacteria.png"
"Algas",0,"alga.png"
"Hongos",0,"Biod_hongo.png"
"Plantas no vasculares",1,"Biod_briofitas.png"
"Plantas vasculares",267,"Biod_angiospermas.png"
"Invertebrados no artrópodos",0,"invertebrado_no_artropodo.png"
"Invertebrados artrópodos",30,"invertebrados_artropodos.png"
"Vertebrados",83,"Biod_mamiferos.png"
