"Grupo","Numero_de_especies_registradas","Icono"
"Bacterias",0,"Biod_bacteria.png"
"Algas",33,"alga.png"
"Hongos",25,"Biod_hongo.png"
"Plantas no vasculares",251,"Biod_briofitas.png"
"Plantas vasculares",3223,"Biod_angiospermas.png"
"Invertebrados no artrópodos",10,"invertebrado_no_artropodo.png"
"Invertebrados artrópodos",283,"invertebrados_artropodos.png"
"Vertebrados",163,"Biod_mamiferos.png"
