"Grupo","Numero_de_especies_registradas","Icono"
"Bacterias",0,"Biod_bacteria.png"
"Algas",0,"alga.png"
"Hongos",135,"Biod_hongo.png"
"Plantas no vasculares",2,"Biod_briofitas.png"
"Plantas vasculares",447,"Biod_angiospermas.png"
"Invertebrados no artrópodos",3,"invertebrado_no_artropodo.png"
"Invertebrados artrópodos",45,"invertebrados_artropodos.png"
"Vertebrados",225,"Biod_mamiferos.png"
