"Grupo","Numero_de_especies_registradas","Icono"
"Bacterias",0,"Biod_bacteria.png"
"Algas",0,"alga.png"
"Hongos",9,"Biod_hongo.png"
"Plantas no vasculares",0,"Biod_briofitas.png"
"Plantas vasculares",308,"Biod_angiospermas.png"
"Invertebrados no artrópodos",7,"invertebrado_no_artropodo.png"
"Invertebrados artrópodos",96,"invertebrados_artropodos.png"
"Vertebrados",350,"Biod_mamiferos.png"
