"Grupo","Numero_de_especies_registradas","Icono"
"Bacterias",3,"Biod_bacteria.png"
"Algas",0,"alga.png"
"Hongos",0,"Biod_hongo.png"
"Plantas no vasculares",1,"Biod_briofitas.png"
"Plantas vasculares",269,"Biod_angiospermas.png"
"Invertebrados no artrópodos",33,"invertebrado_no_artropodo.png"
"Invertebrados artrópodos",63,"invertebrados_artropodos.png"
"Vertebrados",249,"Biod_mamiferos.png"
