"Grupo","Numero_de_especies_registradas","Icono"
"Bacterias",70,"Biod_bacteria.png"
"Algas",566,"alga.png"
"Hongos",133,"Biod_hongo.png"
"Plantas no vasculares",88,"Biod_briofitas.png"
"Plantas vasculares",2698,"Biod_angiospermas.png"
"Invertebrados no artrópodos",814,"invertebrado_no_artropodo.png"
"Invertebrados artrópodos",2478,"invertebrados_artropodos.png"
"Vertebrados",1014,"Biod_mamiferos.png"
