"Grupo","Numero_de_especies_registradas","Icono"
"Bacterias",0,"Biod_bacteria.png"
"Algas",10,"alga.png"
"Hongos",0,"Biod_hongo.png"
"Plantas no vasculares",0,"Biod_briofitas.png"
"Plantas vasculares",66,"Biod_angiospermas.png"
"Invertebrados no artrópodos",10,"invertebrado_no_artropodo.png"
"Invertebrados artrópodos",17,"invertebrados_artropodos.png"
"Vertebrados",68,"Biod_mamiferos.png"
