"Grupo","Numero_de_especies_registradas","Icono"
"Bacterias",2,"Biod_bacteria.png"
"Algas",4,"alga.png"
"Hongos",142,"Biod_hongo.png"
"Plantas no vasculares",4,"Biod_briofitas.png"
"Plantas vasculares",948,"Biod_angiospermas.png"
"Invertebrados no artrópodos",5,"invertebrado_no_artropodo.png"
"Invertebrados artrópodos",590,"invertebrados_artropodos.png"
"Vertebrados",376,"Biod_mamiferos.png"
