"Grupo","Numero_de_especies_registradas","Icono"
"Bacterias",0,"Biod_bacteria.png"
"Algas",20,"alga.png"
"Hongos",0,"Biod_hongo.png"
"Plantas no vasculares",0,"Biod_briofitas.png"
"Plantas vasculares",76,"Biod_angiospermas.png"
"Invertebrados no artrópodos",14,"invertebrado_no_artropodo.png"
"Invertebrados artrópodos",24,"invertebrados_artropodos.png"
"Vertebrados",201,"Biod_mamiferos.png"
