"mes","ano","no_pts_calor"
"Enero","2001",0
"Enero","2002",0
"Enero","2003",0
"Enero","2004",0
"Enero","2005",0
"Enero","2006",1
"Enero","2007",0
"Enero","2008",0
"Enero","2009",0
"Enero","2010",0
"Enero","2011",0
"Enero","2012",1
"Enero","2013",0
"Enero","2014",1
"Enero","2015",0
"Enero","2016",0
"Enero","2017",2
"Enero","2018",0
"Enero","2019",0
"Enero","2020",0
"Enero","2021",1
"Febrero","2001",0
"Febrero","2002",0
"Febrero","2003",5
"Febrero","2004",0
"Febrero","2005",2
"Febrero","2006",2
"Febrero","2007",0
"Febrero","2008",1
"Febrero","2009",1
"Febrero","2010",0
"Febrero","2011",3
"Febrero","2012",1
"Febrero","2013",1
"Febrero","2014",1
"Febrero","2015",1
"Febrero","2016",3
"Febrero","2017",5
"Febrero","2018",1
"Febrero","2019",8
"Febrero","2020",5
"Febrero","2021",7
"Marzo","2001",3
"Marzo","2002",1
"Marzo","2003",0
"Marzo","2004",2
"Marzo","2005",4
"Marzo","2006",0
"Marzo","2007",0
"Marzo","2008",1
"Marzo","2009",0
"Marzo","2010",0
"Marzo","2011",9
"Marzo","2012",5
"Marzo","2013",1
"Marzo","2014",0
"Marzo","2015",1
"Marzo","2016",2
"Marzo","2017",6
"Marzo","2018",3
"Marzo","2019",8
"Marzo","2020",9
"Marzo","2021",4
"Abril","2001",3
"Abril","2002",4
"Abril","2003",3
"Abril","2004",19
"Abril","2005",23
"Abril","2006",17
"Abril","2007",14
"Abril","2008",18
"Abril","2009",7
"Abril","2010",11
"Abril","2011",19
"Abril","2012",14
"Abril","2013",15
"Abril","2014",10
"Abril","2015",17
"Abril","2016",35
"Abril","2017",17
"Abril","2018",20
"Abril","2019",69
"Abril","2020",60
"Abril","2021",154
"Mayo","2001",0
"Mayo","2002",1
"Mayo","2003",2
"Mayo","2004",7
"Mayo","2005",5
"Mayo","2006",6
"Mayo","2007",12
"Mayo","2008",3
"Mayo","2009",0
"Mayo","2010",5
"Mayo","2011",3
"Mayo","2012",7
"Mayo","2013",1
"Mayo","2014",8
"Mayo","2015",3
"Mayo","2016",10
"Mayo","2017",7
"Mayo","2018",29
"Mayo","2019",40
"Mayo","2020",38
"Mayo","2021",0
"Junio","2001",0
"Junio","2002",0
"Junio","2003",0
"Junio","2004",1
"Junio","2005",1
"Junio","2006",0
"Junio","2007",2
"Junio","2008",0
"Junio","2009",0
"Junio","2010",0
"Junio","2011",1
"Junio","2012",0
"Junio","2013",0
"Junio","2014",0
"Junio","2015",0
"Junio","2016",2
"Junio","2017",3
"Junio","2018",0
"Junio","2019",10
"Junio","2020",8
"Junio","2021",0
"Julio","2001",0
"Julio","2002",0
"Julio","2003",0
"Julio","2004",0
"Julio","2005",0
"Julio","2006",2
"Julio","2007",0
"Julio","2008",0
"Julio","2009",3
"Julio","2010",0
"Julio","2011",0
"Julio","2012",0
"Julio","2013",0
"Julio","2014",0
"Julio","2015",0
"Julio","2016",0
"Julio","2017",0
"Julio","2018",0
"Julio","2019",1
"Julio","2020",0
"Julio","2021",0
"Agosto","2001",0
"Agosto","2002",0
"Agosto","2003",0
"Agosto","2004",0
"Agosto","2005",0
"Agosto","2006",0
"Agosto","2007",0
"Agosto","2008",0
"Agosto","2009",0
"Agosto","2010",0
"Agosto","2011",0
"Agosto","2012",0
"Agosto","2013",0
"Agosto","2014",0
"Agosto","2015",0
"Agosto","2016",0
"Agosto","2017",0
"Agosto","2018",0
"Agosto","2019",1
"Agosto","2020",0
"Agosto","2021",0
"Septiembre","2001",0
"Septiembre","2002",0
"Septiembre","2003",0
"Septiembre","2004",0
"Septiembre","2005",0
"Septiembre","2006",0
"Septiembre","2007",0
"Septiembre","2008",0
"Septiembre","2009",0
"Septiembre","2010",0
"Septiembre","2011",0
"Septiembre","2012",0
"Septiembre","2013",0
"Septiembre","2014",0
"Septiembre","2015",0
"Septiembre","2016",0
"Septiembre","2017",0
"Septiembre","2018",1
"Septiembre","2019",0
"Septiembre","2020",0
"Septiembre","2021",0
"Octubre","2001",0
"Octubre","2002",0
"Octubre","2003",0
"Octubre","2004",0
"Octubre","2005",0
"Octubre","2006",0
"Octubre","2007",0
"Octubre","2008",0
"Octubre","2009",0
"Octubre","2010",0
"Octubre","2011",0
"Octubre","2012",0
"Octubre","2013",0
"Octubre","2014",0
"Octubre","2015",0
"Octubre","2016",0
"Octubre","2017",0
"Octubre","2018",0
"Octubre","2019",0
"Octubre","2020",0
"Octubre","2021",0
"Noviembre","2001",0
"Noviembre","2002",0
"Noviembre","2003",0
"Noviembre","2004",0
"Noviembre","2005",0
"Noviembre","2006",0
"Noviembre","2007",0
"Noviembre","2008",0
"Noviembre","2009",0
"Noviembre","2010",0
"Noviembre","2011",0
"Noviembre","2012",1
"Noviembre","2013",0
"Noviembre","2014",0
"Noviembre","2015",0
"Noviembre","2016",0
"Noviembre","2017",0
"Noviembre","2018",0
"Noviembre","2019",1
"Noviembre","2020",1
"Noviembre","2021",0
"Diciembre","2001",0
"Diciembre","2002",0
"Diciembre","2003",0
"Diciembre","2004",1
"Diciembre","2005",0
"Diciembre","2006",0
"Diciembre","2007",0
"Diciembre","2008",0
"Diciembre","2009",0
"Diciembre","2010",0
"Diciembre","2011",0
"Diciembre","2012",0
"Diciembre","2013",0
"Diciembre","2014",0
"Diciembre","2015",0
"Diciembre","2016",4
"Diciembre","2017",1
"Diciembre","2018",5
"Diciembre","2019",20
"Diciembre","2020",3
"Diciembre","2021",0
