"mes","ano","no_pts_calor"
"Enero","2001",5
"Enero","2002",0
"Enero","2003",0
"Enero","2004",1
"Enero","2005",3
"Enero","2006",1
"Enero","2007",0
"Enero","2008",2
"Enero","2009",0
"Enero","2010",0
"Enero","2011",0
"Enero","2012",0
"Enero","2013",0
"Enero","2014",0
"Enero","2015",0
"Enero","2016",0
"Enero","2017",56
"Enero","2018",2
"Enero","2019",0
"Enero","2020",3
"Enero","2021",2
"Febrero","2001",6
"Febrero","2002",3
"Febrero","2003",7
"Febrero","2004",0
"Febrero","2005",2
"Febrero","2006",2
"Febrero","2007",1
"Febrero","2008",1
"Febrero","2009",0
"Febrero","2010",0
"Febrero","2011",3
"Febrero","2012",0
"Febrero","2013",0
"Febrero","2014",1
"Febrero","2015",0
"Febrero","2016",0
"Febrero","2017",15
"Febrero","2018",16
"Febrero","2019",0
"Febrero","2020",0
"Febrero","2021",13
"Marzo","2001",7
"Marzo","2002",18
"Marzo","2003",17
"Marzo","2004",0
"Marzo","2005",23
"Marzo","2006",10
"Marzo","2007",5
"Marzo","2008",1
"Marzo","2009",3
"Marzo","2010",1
"Marzo","2011",1
"Marzo","2012",1
"Marzo","2013",4
"Marzo","2014",0
"Marzo","2015",4
"Marzo","2016",9
"Marzo","2017",16
"Marzo","2018",43
"Marzo","2019",11
"Marzo","2020",15
"Marzo","2021",165
"Abril","2001",103
"Abril","2002",73
"Abril","2003",134
"Abril","2004",45
"Abril","2005",35
"Abril","2006",20
"Abril","2007",14
"Abril","2008",46
"Abril","2009",104
"Abril","2010",11
"Abril","2011",6
"Abril","2012",32
"Abril","2013",66
"Abril","2014",53
"Abril","2015",8
"Abril","2016",79
"Abril","2017",57
"Abril","2018",141
"Abril","2019",416
"Abril","2020",256
"Abril","2021",220
"Mayo","2001",19
"Mayo","2002",72
"Mayo","2003",54
"Mayo","2004",9
"Mayo","2005",32
"Mayo","2006",11
"Mayo","2007",33
"Mayo","2008",32
"Mayo","2009",15
"Mayo","2010",33
"Mayo","2011",62
"Mayo","2012",9
"Mayo","2013",62
"Mayo","2014",3
"Mayo","2015",75
"Mayo","2016",127
"Mayo","2017",194
"Mayo","2018",329
"Mayo","2019",959
"Mayo","2020",890
"Mayo","2021",0
"Junio","2001",11
"Junio","2002",4
"Junio","2003",1
"Junio","2004",1
"Junio","2005",4
"Junio","2006",2
"Junio","2007",3
"Junio","2008",1
"Junio","2009",1
"Junio","2010",1
"Junio","2011",1
"Junio","2012",0
"Junio","2013",2
"Junio","2014",3
"Junio","2015",14
"Junio","2016",5
"Junio","2017",10
"Junio","2018",2
"Junio","2019",46
"Junio","2020",54
"Junio","2021",0
"Julio","2001",0
"Julio","2002",0
"Julio","2003",0
"Julio","2004",0
"Julio","2005",0
"Julio","2006",2
"Julio","2007",0
"Julio","2008",1
"Julio","2009",2
"Julio","2010",0
"Julio","2011",0
"Julio","2012",1
"Julio","2013",0
"Julio","2014",2
"Julio","2015",1
"Julio","2016",1
"Julio","2017",7
"Julio","2018",35
"Julio","2019",15
"Julio","2020",17
"Julio","2021",0
"Agosto","2001",0
"Agosto","2002",0
"Agosto","2003",0
"Agosto","2004",0
"Agosto","2005",1
"Agosto","2006",2
"Agosto","2007",0
"Agosto","2008",0
"Agosto","2009",2
"Agosto","2010",0
"Agosto","2011",2
"Agosto","2012",0
"Agosto","2013",1
"Agosto","2014",0
"Agosto","2015",3
"Agosto","2016",9
"Agosto","2017",1
"Agosto","2018",1
"Agosto","2019",7
"Agosto","2020",2
"Agosto","2021",0
"Septiembre","2001",0
"Septiembre","2002",0
"Septiembre","2003",0
"Septiembre","2004",0
"Septiembre","2005",0
"Septiembre","2006",0
"Septiembre","2007",0
"Septiembre","2008",0
"Septiembre","2009",0
"Septiembre","2010",0
"Septiembre","2011",0
"Septiembre","2012",0
"Septiembre","2013",0
"Septiembre","2014",0
"Septiembre","2015",0
"Septiembre","2016",2
"Septiembre","2017",0
"Septiembre","2018",0
"Septiembre","2019",3
"Septiembre","2020",0
"Septiembre","2021",0
"Octubre","2001",0
"Octubre","2002",0
"Octubre","2003",0
"Octubre","2004",1
"Octubre","2005",0
"Octubre","2006",0
"Octubre","2007",0
"Octubre","2008",0
"Octubre","2009",0
"Octubre","2010",1
"Octubre","2011",0
"Octubre","2012",0
"Octubre","2013",0
"Octubre","2014",0
"Octubre","2015",0
"Octubre","2016",0
"Octubre","2017",1
"Octubre","2018",1
"Octubre","2019",0
"Octubre","2020",3
"Octubre","2021",0
"Noviembre","2001",0
"Noviembre","2002",0
"Noviembre","2003",0
"Noviembre","2004",0
"Noviembre","2005",0
"Noviembre","2006",0
"Noviembre","2007",0
"Noviembre","2008",0
"Noviembre","2009",0
"Noviembre","2010",0
"Noviembre","2011",0
"Noviembre","2012",0
"Noviembre","2013",0
"Noviembre","2014",0
"Noviembre","2015",0
"Noviembre","2016",0
"Noviembre","2017",1
"Noviembre","2018",5
"Noviembre","2019",0
"Noviembre","2020",1
"Noviembre","2021",0
"Diciembre","2001",0
"Diciembre","2002",0
"Diciembre","2003",0
"Diciembre","2004",0
"Diciembre","2005",2
"Diciembre","2006",0
"Diciembre","2007",2
"Diciembre","2008",1
"Diciembre","2009",0
"Diciembre","2010",0
"Diciembre","2011",1
"Diciembre","2012",3
"Diciembre","2013",0
"Diciembre","2014",0
"Diciembre","2015",0
"Diciembre","2016",0
"Diciembre","2017",1
"Diciembre","2018",4
"Diciembre","2019",5
"Diciembre","2020",5
"Diciembre","2021",0
