"mes","ano","no_pts_calor"
"Enero","2001",1
"Enero","2002",0
"Enero","2003",0
"Enero","2004",4
"Enero","2005",2
"Enero","2006",4
"Enero","2007",0
"Enero","2008",0
"Enero","2009",2
"Enero","2010",0
"Enero","2011",0
"Enero","2012",0
"Enero","2013",1
"Enero","2014",0
"Enero","2015",0
"Enero","2016",0
"Enero","2017",10
"Enero","2018",0
"Enero","2019",30
"Enero","2020",13
"Enero","2021",10
"Febrero","2001",2
"Febrero","2002",0
"Febrero","2003",4
"Febrero","2004",3
"Febrero","2005",2
"Febrero","2006",3
"Febrero","2007",1
"Febrero","2008",3
"Febrero","2009",30
"Febrero","2010",0
"Febrero","2011",0
"Febrero","2012",0
"Febrero","2013",22
"Febrero","2014",2
"Febrero","2015",0
"Febrero","2016",1
"Febrero","2017",49
"Febrero","2018",1
"Febrero","2019",44
"Febrero","2020",44
"Febrero","2021",68
"Marzo","2001",0
"Marzo","2002",1
"Marzo","2003",122
"Marzo","2004",6
"Marzo","2005",41
"Marzo","2006",11
"Marzo","2007",1
"Marzo","2008",6
"Marzo","2009",28
"Marzo","2010",6
"Marzo","2011",17
"Marzo","2012",9
"Marzo","2013",39
"Marzo","2014",25
"Marzo","2015",11
"Marzo","2016",10
"Marzo","2017",179
"Marzo","2018",0
"Marzo","2019",77
"Marzo","2020",122
"Marzo","2021",296
"Abril","2001",37
"Abril","2002",28
"Abril","2003",178
"Abril","2004",19
"Abril","2005",91
"Abril","2006",44
"Abril","2007",54
"Abril","2008",12
"Abril","2009",73
"Abril","2010",11
"Abril","2011",13
"Abril","2012",14
"Abril","2013",78
"Abril","2014",30
"Abril","2015",67
"Abril","2016",81
"Abril","2017",175
"Abril","2018",9
"Abril","2019",446
"Abril","2020",261
"Abril","2021",275
"Mayo","2001",22
"Mayo","2002",185
"Mayo","2003",388
"Mayo","2004",31
"Mayo","2005",143
"Mayo","2006",32
"Mayo","2007",126
"Mayo","2008",19
"Mayo","2009",192
"Mayo","2010",32
"Mayo","2011",62
"Mayo","2012",40
"Mayo","2013",63
"Mayo","2014",12
"Mayo","2015",318
"Mayo","2016",415
"Mayo","2017",570
"Mayo","2018",89
"Mayo","2019",1259
"Mayo","2020",123
"Mayo","2021",0
"Junio","2001",42
"Junio","2002",5
"Junio","2003",26
"Junio","2004",31
"Junio","2005",149
"Junio","2006",5
"Junio","2007",208
"Junio","2008",0
"Junio","2009",48
"Junio","2010",9
"Junio","2011",33
"Junio","2012",2
"Junio","2013",33
"Junio","2014",5
"Junio","2015",12
"Junio","2016",117
"Junio","2017",19
"Junio","2018",601
"Junio","2019",150
"Junio","2020",33
"Junio","2021",0
"Julio","2001",0
"Julio","2002",13
"Julio","2003",21
"Julio","2004",33
"Julio","2005",2
"Julio","2006",9
"Julio","2007",173
"Julio","2008",11
"Julio","2009",32
"Julio","2010",3
"Julio","2011",1
"Julio","2012",8
"Julio","2013",14
"Julio","2014",5
"Julio","2015",53
"Julio","2016",209
"Julio","2017",1
"Julio","2018",524
"Julio","2019",323
"Julio","2020",156
"Julio","2021",0
"Agosto","2001",0
"Agosto","2002",23
"Agosto","2003",7
"Agosto","2004",18
"Agosto","2005",0
"Agosto","2006",0
"Agosto","2007",22
"Agosto","2008",4
"Agosto","2009",16
"Agosto","2010",0
"Agosto","2011",0
"Agosto","2012",3
"Agosto","2013",4
"Agosto","2014",9
"Agosto","2015",132
"Agosto","2016",128
"Agosto","2017",0
"Agosto","2018",262
"Agosto","2019",1055
"Agosto","2020",10
"Agosto","2021",0
"Septiembre","2001",0
"Septiembre","2002",0
"Septiembre","2003",0
"Septiembre","2004",7
"Septiembre","2005",0
"Septiembre","2006",2
"Septiembre","2007",0
"Septiembre","2008",0
"Septiembre","2009",22
"Septiembre","2010",0
"Septiembre","2011",2
"Septiembre","2012",1
"Septiembre","2013",1
"Septiembre","2014",3
"Septiembre","2015",24
"Septiembre","2016",18
"Septiembre","2017",0
"Septiembre","2018",82
"Septiembre","2019",928
"Septiembre","2020",21
"Septiembre","2021",0
"Octubre","2001",0
"Octubre","2002",0
"Octubre","2003",0
"Octubre","2004",3
"Octubre","2005",0
"Octubre","2006",0
"Octubre","2007",0
"Octubre","2008",0
"Octubre","2009",4
"Octubre","2010",0
"Octubre","2011",0
"Octubre","2012",0
"Octubre","2013",0
"Octubre","2014",0
"Octubre","2015",0
"Octubre","2016",1
"Octubre","2017",0
"Octubre","2018",46
"Octubre","2019",54
"Octubre","2020",0
"Octubre","2021",0
"Noviembre","2001",0
"Noviembre","2002",0
"Noviembre","2003",0
"Noviembre","2004",0
"Noviembre","2005",2
"Noviembre","2006",0
"Noviembre","2007",0
"Noviembre","2008",0
"Noviembre","2009",0
"Noviembre","2010",1
"Noviembre","2011",0
"Noviembre","2012",0
"Noviembre","2013",0
"Noviembre","2014",0
"Noviembre","2015",1
"Noviembre","2016",1
"Noviembre","2017",0
"Noviembre","2018",9
"Noviembre","2019",0
"Noviembre","2020",0
"Noviembre","2021",0
"Diciembre","2001",0
"Diciembre","2002",0
"Diciembre","2003",0
"Diciembre","2004",0
"Diciembre","2005",0
"Diciembre","2006",0
"Diciembre","2007",1
"Diciembre","2008",0
"Diciembre","2009",0
"Diciembre","2010",0
"Diciembre","2011",1
"Diciembre","2012",0
"Diciembre","2013",0
"Diciembre","2014",0
"Diciembre","2015",0
"Diciembre","2016",8
"Diciembre","2017",0
"Diciembre","2018",10
"Diciembre","2019",1
"Diciembre","2020",4
"Diciembre","2021",0
