"mes","ano","no_pts_calor"
"Enero","2001",0
"Enero","2002",0
"Enero","2003",3
"Enero","2004",1
"Enero","2005",0
"Enero","2006",1
"Enero","2007",0
"Enero","2008",1
"Enero","2009",0
"Enero","2010",2
"Enero","2011",0
"Enero","2012",0
"Enero","2013",4
"Enero","2014",0
"Enero","2015",1
"Enero","2016",0
"Enero","2017",28
"Enero","2018",0
"Enero","2019",6
"Enero","2020",0
"Enero","2021",0
"Febrero","2001",1
"Febrero","2002",0
"Febrero","2003",1
"Febrero","2004",4
"Febrero","2005",6
"Febrero","2006",6
"Febrero","2007",0
"Febrero","2008",1
"Febrero","2009",8
"Febrero","2010",0
"Febrero","2011",3
"Febrero","2012",0
"Febrero","2013",19
"Febrero","2014",4
"Febrero","2015",1
"Febrero","2016",7
"Febrero","2017",61
"Febrero","2018",6
"Febrero","2019",6
"Febrero","2020",27
"Febrero","2021",14
"Marzo","2001",4
"Marzo","2002",1
"Marzo","2003",23
"Marzo","2004",12
"Marzo","2005",56
"Marzo","2006",13
"Marzo","2007",3
"Marzo","2008",4
"Marzo","2009",83
"Marzo","2010",20
"Marzo","2011",7
"Marzo","2012",15
"Marzo","2013",64
"Marzo","2014",22
"Marzo","2015",19
"Marzo","2016",7
"Marzo","2017",211
"Marzo","2018",38
"Marzo","2019",59
"Marzo","2020",234
"Marzo","2021",73
"Abril","2001",30
"Abril","2002",67
"Abril","2003",30
"Abril","2004",63
"Abril","2005",132
"Abril","2006",50
"Abril","2007",46
"Abril","2008",16
"Abril","2009",144
"Abril","2010",38
"Abril","2011",80
"Abril","2012",16
"Abril","2013",103
"Abril","2014",153
"Abril","2015",132
"Abril","2016",48
"Abril","2017",88
"Abril","2018",144
"Abril","2019",269
"Abril","2020",416
"Abril","2021",265
"Mayo","2001",12
"Mayo","2002",57
"Mayo","2003",92
"Mayo","2004",26
"Mayo","2005",36
"Mayo","2006",93
"Mayo","2007",48
"Mayo","2008",64
"Mayo","2009",25
"Mayo","2010",60
"Mayo","2011",109
"Mayo","2012",60
"Mayo","2013",56
"Mayo","2014",31
"Mayo","2015",95
"Mayo","2016",96
"Mayo","2017",60
"Mayo","2018",118
"Mayo","2019",137
"Mayo","2020",169
"Mayo","2021",0
"Junio","2001",0
"Junio","2002",0
"Junio","2003",0
"Junio","2004",4
"Junio","2005",0
"Junio","2006",3
"Junio","2007",2
"Junio","2008",0
"Junio","2009",0
"Junio","2010",0
"Junio","2011",2
"Junio","2012",0
"Junio","2013",0
"Junio","2014",0
"Junio","2015",1
"Junio","2016",3
"Junio","2017",2
"Junio","2018",5
"Junio","2019",36
"Junio","2020",1
"Junio","2021",0
"Julio","2001",0
"Julio","2002",0
"Julio","2003",0
"Julio","2004",0
"Julio","2005",0
"Julio","2006",0
"Julio","2007",0
"Julio","2008",0
"Julio","2009",2
"Julio","2010",0
"Julio","2011",0
"Julio","2012",0
"Julio","2013",0
"Julio","2014",0
"Julio","2015",44
"Julio","2016",15
"Julio","2017",0
"Julio","2018",0
"Julio","2019",2
"Julio","2020",0
"Julio","2021",0
"Agosto","2001",0
"Agosto","2002",1
"Agosto","2003",0
"Agosto","2004",0
"Agosto","2005",0
"Agosto","2006",0
"Agosto","2007",0
"Agosto","2008",2
"Agosto","2009",0
"Agosto","2010",0
"Agosto","2011",0
"Agosto","2012",0
"Agosto","2013",0
"Agosto","2014",0
"Agosto","2015",1
"Agosto","2016",4
"Agosto","2017",1
"Agosto","2018",2
"Agosto","2019",2
"Agosto","2020",1
"Agosto","2021",0
"Septiembre","2001",0
"Septiembre","2002",0
"Septiembre","2003",0
"Septiembre","2004",0
"Septiembre","2005",0
"Septiembre","2006",0
"Septiembre","2007",0
"Septiembre","2008",0
"Septiembre","2009",0
"Septiembre","2010",0
"Septiembre","2011",0
"Septiembre","2012",0
"Septiembre","2013",0
"Septiembre","2014",0
"Septiembre","2015",0
"Septiembre","2016",3
"Septiembre","2017",0
"Septiembre","2018",0
"Septiembre","2019",0
"Septiembre","2020",0
"Septiembre","2021",0
"Octubre","2001",0
"Octubre","2002",0
"Octubre","2003",0
"Octubre","2004",0
"Octubre","2005",0
"Octubre","2006",0
"Octubre","2007",0
"Octubre","2008",0
"Octubre","2009",0
"Octubre","2010",0
"Octubre","2011",0
"Octubre","2012",0
"Octubre","2013",0
"Octubre","2014",0
"Octubre","2015",0
"Octubre","2016",1
"Octubre","2017",0
"Octubre","2018",0
"Octubre","2019",1
"Octubre","2020",0
"Octubre","2021",0
"Noviembre","2001",0
"Noviembre","2002",0
"Noviembre","2003",0
"Noviembre","2004",0
"Noviembre","2005",0
"Noviembre","2006",0
"Noviembre","2007",0
"Noviembre","2008",0
"Noviembre","2009",0
"Noviembre","2010",0
"Noviembre","2011",0
"Noviembre","2012",0
"Noviembre","2013",0
"Noviembre","2014",0
"Noviembre","2015",0
"Noviembre","2016",1
"Noviembre","2017",0
"Noviembre","2018",4
"Noviembre","2019",0
"Noviembre","2020",0
"Noviembre","2021",0
"Diciembre","2001",0
"Diciembre","2002",0
"Diciembre","2003",0
"Diciembre","2004",1
"Diciembre","2005",1
"Diciembre","2006",0
"Diciembre","2007",0
"Diciembre","2008",0
"Diciembre","2009",0
"Diciembre","2010",1
"Diciembre","2011",0
"Diciembre","2012",2
"Diciembre","2013",0
"Diciembre","2014",0
"Diciembre","2015",0
"Diciembre","2016",2
"Diciembre","2017",0
"Diciembre","2018",2
"Diciembre","2019",3
"Diciembre","2020",0
"Diciembre","2021",0
