"id";"Nombre";"Protegido";"Protegido y conectado";"No protegido"
1;"Bosque caducifolio";7.7866;1.8983;92.2134
2;"Bosque esclerofilo";1.9154;0.5269;98.0846
3;"Bosque espinoso";3.1438;2.3039;96.8562
4;"Bosque laurifolio";6.955;3.6319;93.045
5;"Bosque resinoso";35.0895;22.8823;64.9105
6;"Bosque siempreverde";36.6708;19.8447;63.3292
7;"Desierto absoluto";1.0435;1.0019;98.9565
8;"Dunas de aerófitos";0;0;100
9;"Estepas y pastizales";2.0375;1.7916;97.9625
10;"Herbazal de altitud";27.0396;11.6386;72.9604
11;"Herbazal efímero";0.3955;0.3955;99.6045
12;"Matorral bajo de altitud";15.184;4.5891;84.816
13;"Matorral bajo desértico";0.672;0.3499;99.328
14;"Matorral caducifolio";28.5406;12.958;71.4594
15;"Matorral desértico";2.3837;1.2349;97.6163
16;"Matorral esclerofilo";1.149;0.636;98.851
17;"Matorral espinoso";1.2421;0.7205;98.7579
18;"Matorral siempreverde";88.8391;81.337;11.1609
19;"Sin vegetación";40.5571;28.6731;59.4429
20;"Turberas";59.5013;50.2869;40.4987
