"Grupo","Menor","Media","Alta","No.enlistadas"
"Hongos",0,0,0,100
"Plantas",0,0.3636,0,99.6364
"Invertebrados",0,0,2.5641,97.4359
"Peces",0,0,0,100
"Anfibios",0,0,0,100
"Reptiles",0,0,0,100
"Aves",3.125,12.5,4.6875,79.6875
"Mamíferos",0,0,12.1212,87.8788
