"Grupo","Menor","Media","Alta","No_enlistadas"
"Hongos",0,0,0,100
"Plantas",0,0,2.6549,97.3451
"Invertebrados",0,0,0,100
"Peces",0,0,0,100
"Anfibios",0,0,0,100
"Reptiles",0,0,9.0909,90.9091
"Aves",2.2901,3.0534,5.3435,89.313
"Mamíferos",0,0,0,100
