"Grupo","Menor","Media","Alta","No_enlistadas"
"Hongos",0,0,0,100
"Plantas",0,0.4292,0.8584,98.7124
"Invertebrados",0,0,0,100
"Peces",6.25,6.25,12.5,75
"Anfibios",0,0,0,100
"Reptiles",0,2.5641,5.1282,92.3077
"Aves",2.4691,4.9383,6.1728,86.4198
"Mamíferos",3.5714,0,10.7143,85.7143
