"Grupo","Menor","Media","Alta","No_enlistadas"
"Hongos",0,0,0,100
"Plantas",0.0985,0.0985,0.3941,99.4089
"Invertebrados",0,0,2.2222,97.7778
"Peces",0,0,0,0
"Anfibios",0,0,12.5,87.5
"Reptiles",0,0,0,100
"Aves",1.2821,14.1026,1.2821,83.3333
"Mamíferos",0,0,3.7037,96.2963
