"Grupo","Menor","Media","Alta","No_enlistadas"
"Hongos",0,0,0,0
"Plantas",0,0,6.8182,93.1818
"Invertebrados",0,0,0,100
"Peces",0,0,1.3514,98.6486
"Anfibios",0,0,0,100
"Reptiles",0,0,66.6667,33.3333
"Aves",0,2.2727,4.5455,93.1818
"Mamíferos",0,0,0,100
