"Grupo","Menor","Media","Alta","No_enlistadas"
"Hongos",0,0,0,100
"Plantas",0,0.3891,0.3891,99.2218
"Invertebrados",0,0,3.4483,96.5517
"Peces",0,0,0,100
"Anfibios",0,0,0,100
"Reptiles",0,0,0,100
"Aves",2.0408,14.2857,4.0816,79.5918
"Mamíferos",0,0,7.1429,92.8571
