"Grupo","Menor","Media","Alta","No_enlistadas"
"Hongos",0,0,0,0
"Plantas",0,0.7143,2.1429,97.1429
"Invertebrados",0,0,0,100
"Peces",0,0,0,0
"Anfibios",0,0,0,100
"Reptiles",0,0,4.5455,95.4545
"Aves",4.5455,0,0,95.4545
"Mamíferos",0,0,6.6667,93.3333
