"Grupo","Menor","Media","Alta","No_enlistadas"
"Hongos",0,0,0,100
"Plantas",0,0.2955,0.4728,99.2317
"Invertebrados",0,0,0.1359,99.8641
"Peces",0,0,0,100
"Anfibios",0,0,0,100
"Reptiles",0,0,1.3514,98.6486
"Aves",2.6087,4.3478,7.8261,85.2174
"Mamíferos",0,0,4.4444,95.5556
