"Grupo","Menor","Media","Alta","No_enlistadas"
"Hongos",0,0,0,100
"Plantas",0,0.8547,0.4274,98.7179
"Invertebrados",0,0,0,100
"Peces",0,0,0,0
"Anfibios",0,0,9.0909,90.9091
"Reptiles",0,0,0,100
"Aves",7.6923,0,0,92.3077
"Mamíferos",0,0,0,100
