"Grupo","Menor","Media","Alta","No_enlistadas"
"Hongos",0,0,0,100
"Plantas",0,0.2105,0.7717,99.0179
"Invertebrados",0,0,0.0536,99.9464
"Peces",1.3333,2,2,94.6667
"Anfibios",2.6316,0,2.6316,94.7368
"Reptiles",0,0,6.1069,93.8931
"Aves",1.2195,6.9106,5.6911,86.1789
"Mamíferos",0,0,6,94
