"Grupo","Menor","Media","Alta","No_enlistadas"
"Hongos",0,0,0,100
"Plantas",0,0,0.8666,99.1334
"Invertebrados",0,0,0,100
"Peces",4.7619,3.5714,1.1905,90.4762
"Anfibios",0,0,0,100
"Reptiles",0,0,10.8108,89.1892
"Aves",2.1429,7.1429,5,85.7143
"Mamíferos",7.1429,0,28.5714,64.2857
