"Grupo","Menor","Media","Alta","No_enlistadas"
"Hongos",0,0,0,100
"Plantas",0,0.2918,0.5835,99.1247
"Invertebrados",0,0,0.8333,99.1667
"Peces",0,0,0,100
"Anfibios",0,0,0,100
"Reptiles",0,0,0,100
"Aves",1.3699,1.3699,8.2192,89.0411
"Mamíferos",0,0,9.0909,90.9091
