"Grupo","Menor","Media","Alta","No_enlistadas"
"Hongos",0,0,0,0
"Plantas",0,0,2,98
"Invertebrados",0,0,2.7778,97.2222
"Peces",0,0,0,100
"Anfibios",0,0,0,0
"Reptiles",0,0,75,25
"Aves",0,0,0,100
"Mamíferos",0,0,0,0
