"Grupo","Menor","Media","Alta","No_enlistadas"
"Hongos",0,0,0,100
"Plantas",0,0.2992,0.6316,99.0691
"Invertebrados",0,0,0.1923,99.8077
"Peces",1.5385,1.5385,4.6154,92.3077
"Anfibios",0,0,2.6316,97.3684
"Reptiles",0,1.0753,2.1505,96.7742
"Aves",1.9802,7.4257,4.4554,86.1386
"Mamíferos",1.5504,0,5.4264,93.0233
