"Grupo","Menor","Media","Alta","No_enlistadas"
"Hongos",0,0,0,0
"Plantas",0,0,50,50
"Invertebrados",0,0,0,100
"Peces",0,0,0,0
"Anfibios",0,0,0,0
"Reptiles",0,0,0,0
"Aves",2.1277,3.1915,1.0638,93.617
"Mamíferos",0,0,0,0
