"Grupo","Menor","Media","Alta","No_enlistadas"
"Hongos",0,0,0,100
"Plantas",0,0,2.3077,97.6923
"Invertebrados",0,0,0.6211,99.3789
"Peces",0,0.9524,2.381,96.6667
"Anfibios",0,0,0,100
"Reptiles",0,0,35,65
"Aves",2.9412,5.8824,3.9216,87.2549
"Mamíferos",0,0,0,100
