"Grupo","Menor","Media","Alta","No_enlistadas"
"Hongos",0,0,0,0
"Plantas",0,0.5236,3.1414,96.3351
"Invertebrados",0,0,0,100
"Peces",0,0,1.8072,98.1928
"Anfibios",0,0,0,0
"Reptiles",0,0,23.5294,76.4706
"Aves",1.3333,4,6.6667,88
"Mamíferos",5.2632,0,15.7895,78.9474
