"Grupo","Menor","Media","Alta","No_enlistadas"
"Hongos",0,0,0,100
"Plantas",0,0.1471,0.5882,99.2647
"Invertebrados",0,0,0.2203,99.7797
"Peces",0,0.3656,1.2797,98.3547
"Anfibios",10,0,0,90
"Reptiles",0,0,10.2564,89.7436
"Aves",0.5435,7.0652,6.5217,85.8696
"Mamíferos",2.7778,5.5556,16.6667,75
