"Grupo","Menor","Media","Alta","No_enlistadas"
"Hongos",0,0,0,100
"Plantas",0,0,1.6,98.4
"Invertebrados",0,0,0.2817,99.7183
"Peces",0,0.789,1.3807,97.8304
"Anfibios",20,0,0,80
"Reptiles",0,0,25,75
"Aves",1.3158,2.6316,5.2632,90.7895
"Mamíferos",2.9412,0,8.8235,88.2353
