"Grupo","Menor","Media","Alta","No_enlistadas"
"Hongos",0,0,0,0
"Plantas",0,1.7544,3.5088,94.7368
"Invertebrados",0,0,0,100
"Peces",0,0,0,100
"Anfibios",0,0,0,100
"Reptiles",0,0,0,100
"Aves",5.8824,0,0,94.1176
"Mamíferos",0,0,0,100
