"Grupo","Menor","Media","Alta","No_enlistadas"
"Hongos",0,0,0,100
"Plantas",0,1.0753,2.1505,96.7742
"Invertebrados",0,0,0,100
"Peces",0,0,0,0
"Anfibios",0,0,0,100
"Reptiles",0,3.4483,3.4483,93.1034
"Aves",1.8182,16.3636,2.7273,79.0909
"Mamíferos",0,0,9.0909,90.9091
