"Grupo","Menor","Media","Alta","No_enlistadas"
"Hongos",0,0,0,0
"Plantas",0,2.9412,0,97.0588
"Invertebrados",0,0,0,100
"Peces",0,0,0,100
"Anfibios",0,0,0,100
"Reptiles",0,0,0,100
"Aves",0,3.0303,9.0909,87.8788
"Mamíferos",0,0,0,100
