"Grupo","Menor","Media","Alta","No_enlistadas"
"Hongos",0,0,0,0
"Plantas",0,0,1.8182,98.1818
"Invertebrados",0,0,0,100
"Peces",0.9174,0,2.7523,96.3303
"Anfibios",0,0,0,100
"Reptiles",0,0,17.6471,82.3529
"Aves",1.6949,5.0847,8.4746,84.7458
"Mamíferos",0,0,25,75
