"Grupo","Menor","Media","Alta","No_enlistadas"
"Hongos",0,0,0,100
"Plantas",0,0,8.3333,91.6667
"Invertebrados",0,0,0,100
"Peces",0,0,0,0
"Anfibios",0,0,0,100
"Reptiles",0,0,50,50
"Aves",1.9231,1.9231,9.6154,86.5385
"Mamíferos",0,0,0,100
