"Grupo","Menor","Media","Alta","No_enlistadas"
"Hongos",0,0,0,100
"Plantas",0,0,0.2625,99.7375
"Invertebrados",0,0,0.3413,99.6587
"Peces",0,0,0,100
"Anfibios",0,0,0,100
"Reptiles",0,0,0,100
"Aves",0,2.7027,16.2162,81.0811
"Mamíferos",0,0,7.6923,92.3077
