"Grupo","Menor","Media","Alta","No_enlistadas"
"Hongos",0,0,0,0
"Plantas",0,0,0.9615,99.0385
"Invertebrados",0,0,0,100
"Peces",0,0,0,0
"Anfibios",0,0,25,75
"Reptiles",0,0,0,100
"Aves",5.5556,0,11.1111,83.3333
"Mamíferos",0,0,0,100
