"Grupo","Menor","Media","Alta","No_enlistadas"
"Hongos",0,0,0,100
"Plantas",0,0.7812,0,99.2188
"Invertebrados",0,0,0,100
"Peces",0,0,0,0
"Anfibios",0,0,0,100
"Reptiles",0,0,14.2857,85.7143
"Aves",0,7.6923,15.3846,76.9231
"Mamíferos",0,0,0,100
