"Grupo","Menor","Media","Alta","No_enlistadas"
"Hongos",0,0,0,100
"Plantas",0,0.3713,1.1139,98.5149
"Invertebrados",0,0,0,100
"Peces",0,0,0,100
"Anfibios",0,0,0,100
"Reptiles",0,2.7027,8.1081,89.1892
"Aves",1.5625,4.6875,5.4688,88.2812
"Mamíferos",0,0,7.5,92.5
