"Grupo","Menor","Media","Alta","No_enlistadas"
"Hongos",0,0,0,0
"Plantas",0,0.2331,1.1655,98.6014
"Invertebrados",0,0,0,100
"Peces",0,0,16.6667,83.3333
"Anfibios",0,0,2.2222,97.7778
"Reptiles",0,0,4.6875,95.3125
"Aves",1.3514,0,10.8108,87.8378
"Mamíferos",0,0,4.3478,95.6522
