"Grupo","Menor","Media","Alta","No_enlistadas"
"Hongos",0,0,0,100
"Plantas",0,0,1.9231,98.0769
"Invertebrados",0,0,0,100
"Peces",0,0,0,100
"Anfibios",0,0,0,100
"Reptiles",0,0,15.7895,84.2105
"Aves",6.25,0,6.25,87.5
"Mamíferos",0,0,50,50
