"Grupo","Menor","Media","Alta","No_enlistadas"
"Hongos",0,0,0,0
"Plantas",0,0,4.1096,95.8904
"Invertebrados",0,0,0,100
"Peces",0,0,0,0
"Anfibios",0,0,0,100
"Reptiles",0,0,0,100
"Aves",4.7619,0,0,95.2381
"Mamíferos",0,0,0,100
