"Grupo","Menor","Media","Alta","No_enlistadas"
"Hongos",0,0,0,100
"Plantas",0,1.3298,1.5957,97.0745
"Invertebrados",0,0,5,95
"Peces",0,0,0,0
"Anfibios",0,0,0,100
"Reptiles",0,0,0,100
"Aves",6.8966,13.7931,0,79.3103
"Mamíferos",0,0,20,80
