"Grupo","Menor","Media","Alta","No_enlistadas"
"Hongos",0,0,0,0
"Plantas",0,0,0,100
"Invertebrados",0,0,0,100
"Peces",0,0,0,100
"Anfibios",0,0,0,0
"Reptiles",0,0,0,100
"Aves",0,20.6897,3.4483,75.8621
"Mamíferos",0,0,0,0
