"Grupo","Menor","Media","Alta","No_enlistadas"
"Hongos",0,0,0,100
"Plantas",0,1,1,98
"Invertebrados",0,0,0.4739,99.5261
"Peces",0,0,0,0
"Anfibios",0,0,0,100
"Reptiles",0,0,0,100
"Aves",0,0,6.4516,93.5484
"Mamíferos",0,0,14.2857,85.7143
