"Grupo","Menor","Media","Alta","No_enlistadas"
"Hongos",0,0,0,0
"Plantas",0,0,0,100
"Invertebrados",0,0,0,0
"Peces",0,14.2857,0,85.7143
"Anfibios",0,0,0,100
"Reptiles",0,0,50,50
"Aves",0,0,0,100
"Mamíferos",0,0,0,100
