"Grupo","Menor","Media","Alta","No_enlistadas"
"Hongos",0,0,0,0
"Plantas",0,0,0,100
"Invertebrados",0,0,0,100
"Peces",10,0,10,80
"Anfibios",0,0,0,100
"Reptiles",0,0,8.6957,91.3043
"Aves",0,0,0,100
"Mamíferos",0,0,100,0
