"Grupo","Menor","Media","Alta","No_enlistadas"
"Hongos",0,0,0,100
"Plantas",0,0,1.6949,98.3051
"Invertebrados",0,0,0,100
"Peces",0,0,0,0
"Anfibios",0,0,0,100
"Reptiles",0,0,0,100
"Aves",0,0,0,100
"Mamíferos",0,0,0,100
