"Grupo","Menor","Media","Alta","No_enlistadas"
"Hongos",0,0,0,100
"Plantas",0,0.0974,0.779,99.1237
"Invertebrados",0,0,0.1376,99.8624
"Peces",0,0,0,100
"Anfibios",0,0,0,100
"Reptiles",0,0,7.8431,92.1569
"Aves",0.9524,3.8095,4.7619,90.4762
"Mamíferos",0,0,5.5556,94.4444
