"Grupo","Menor","Media","Alta","No_enlistadas"
"Hongos",0,0,0,100
"Plantas",0,0.6897,0.6897,98.6207
"Invertebrados",0,0,1.3158,98.6842
"Peces",0,0,0,100
"Anfibios",0,0,0,100
"Reptiles",0,0,0,100
"Aves",1.7857,19.6429,8.9286,69.6429
"Mamíferos",0,0,0,100
