"Grupo","Menor","Media","Alta","No_enlistadas"
"Hongos",0,0,0,0
"Plantas",0,0,0,100
"Invertebrados",0,0,0,100
"Peces",0,0,20,80
"Anfibios",0,0,0,100
"Reptiles",0,0,0,100
"Aves",2.0619,15.4639,5.1546,77.3196
"Mamíferos",0,0,0,100
