"Grupo","Menor","Media","Alta","No_enlistadas"
"Hongos",0,0,0,100
"Plantas",0,0.4902,2.451,97.0588
"Invertebrados",0,0,0,100
"Peces",0,10,0,90
"Anfibios",0,0,0,100
"Reptiles",0,0,25,75
"Aves",1.6949,3.3898,3.3898,91.5254
"Mamíferos",0,0,18.75,81.25
