"Grupo","Menor","Media","Alta","No_enlistadas"
"Hongos",0,0,0,100
"Plantas",0,0.4518,1.506,98.0422
"Invertebrados",0,0,0.1869,99.8131
"Peces",0,0,0.9569,99.0431
"Anfibios",0,0,0,100
"Reptiles",0,0,17.2414,82.7586
"Aves",2,6.6667,3.3333,88
"Mamíferos",0,0,8.6957,91.3043
