"Grupo","Menor","Media","Alta","No_enlistadas"
"Hongos",0,0,0,0
"Plantas",0,0,0,100
"Invertebrados",0,0,2.6316,97.3684
"Peces",0,0,33.3333,66.6667
"Anfibios",0,0,0,100
"Reptiles",0,0,0,100
"Aves",0,0,0,100
"Mamíferos",0,0,0,100
