"Grupo","Menor","Media","Alta","No_enlistadas"
"Hongos",0,0,0,0
"Plantas",0,0,2.2222,97.7778
"Invertebrados",0,0,1.0695,98.9305
"Peces",1.0309,2.0619,2.0619,94.8454
"Anfibios",0,0,0,100
"Reptiles",0,0,15.3846,84.6154
"Aves",0.9804,3.9216,7.8431,87.2549
"Mamíferos",5.8824,0,17.6471,76.4706
