"Grupo","Menor","Media","Alta","No_enlistadas"
"Hongos",0,0,0,100
"Plantas",0,0.2732,1.0929,98.6339
"Invertebrados",0,0,2.1739,97.8261
"Peces",0,0,0,0
"Anfibios",0,0,16.6667,83.3333
"Reptiles",0,0,0,100
"Aves",3.125,0,6.25,90.625
"Mamíferos",0,0,0,100
