"Grupo","Menor","Media","Alta","No_enlistadas"
"Hongos",0,0,0,100
"Plantas",0,0.7874,0.7874,98.4252
"Invertebrados",0,0,4.1667,95.8333
"Peces",0,0,0,100
"Anfibios",0,0,0,100
"Reptiles",0,0,0,100
"Aves",3.1746,17.4603,6.3492,73.0159
"Mamíferos",2.5641,0,5.1282,92.3077
