"Grupo","Menor","Media","Alta","No_enlistadas"
"Hongos",0,0,0,0
"Plantas",0,0,3.2609,96.7391
"Invertebrados",0,0,0,100
"Peces",0,0,0,100
"Anfibios",33.3333,0,0,66.6667
"Reptiles",0,0,11.1111,88.8889
"Aves",1.3889,6.9444,4.1667,87.5
"Mamíferos",0,0,16.6667,83.3333
