"Grupo","Menor","Media","Alta","No_enlistadas"
"Hongos",0,0,0,100
"Plantas",0,0.1335,0.4005,99.466
"Invertebrados",0,0,0,100
"Peces",0,0,0,0
"Anfibios",0,0,0,100
"Reptiles",0,0,11.1111,88.8889
"Aves",2.2727,0,4.5455,93.1818
"Mamíferos",0,0,0,100
