"Grupo","Menor","Media","Alta","No_enlistadas"
"Hongos",0,0,0,0
"Plantas",0,0,8.6957,91.3043
"Invertebrados",0,0,0,100
"Peces",0,0,0.8547,99.1453
"Anfibios",0,0,0,0
"Reptiles",0,0,0,100
"Aves",2.2222,0,4.4444,93.3333
"Mamíferos",0,25,25,50
