"Grupo","Menor","Media","Alta","No_enlistadas"
"Hongos",0,0,0,0
"Plantas",0,4.6512,0,95.3488
"Invertebrados",0,0,0,100
"Peces",0,0,0,0
"Anfibios",0,0,0,100
"Reptiles",0,0,20,80
"Aves",0,0,25,75
"Mamíferos",0,0,0,100
