"Grupo","Menor","Media","Alta","No_enlistadas"
"Hongos",0,0,0,0
"Plantas",0,0.885,1.7699,97.3451
"Invertebrados",0,0,0,100
"Peces",0,0,0,0
"Anfibios",0,0,25,75
"Reptiles",0,0,0,100
"Aves",2.7397,8.2192,4.1096,84.9315
"Mamíferos",0,0,0,100
