"Grupo","Menor","Media","Alta","No_enlistadas"
"Hongos",0,0,0,100
"Plantas",0,0,1.9417,98.0583
"Invertebrados",0,0,0,100
"Peces",10,10,7.5,72.5
"Anfibios",0,0,0,100
"Reptiles",0,0,25,75
"Aves",0,4.0541,9.4595,86.4865
"Mamíferos",0,0,50,50
