"Grupo","Menor","Media","Alta","No_enlistadas"
"Hongos",0,0,0,0
"Plantas",0,0,25,75
"Invertebrados",0,0,0,100
"Peces",0,0,0,0
"Anfibios",0,0,0,0
"Reptiles",0,0,0,100
"Aves",2.5641,3.8462,6.4103,87.1795
"Mamíferos",0,0,0,100
