"Grupo","Menor","Media","Alta","No_enlistadas"
"Hongos",0,0,0,100
"Plantas",0,0,0.1832,99.8168
"Invertebrados",0,0,0,100
"Peces",0,0,0,100
"Anfibios",4.7619,0,9.5238,85.7143
"Reptiles",0,0,5.4054,94.5946
"Aves",1.8519,5.5556,1.8519,90.7407
"Mamíferos",0,0,2.8571,97.1429
