"Grupo","Menor","Media","Alta","No_enlistadas"
"Hongos",0,0,0,0
"Plantas",0,0,0,100
"Invertebrados",0,0,0,100
"Peces",0,0,0,100
"Anfibios",0,0,50,50
"Reptiles",0,0,33.3333,66.6667
"Aves",0,2.5316,8.8608,88.6076
"Mamíferos",0,0,0,100
