"Grupo","Menor","Media","Alta","No_enlistadas"
"Hongos",0,0,0,0
"Plantas",0,0,0.6042,99.3958
"Invertebrados",0,0,0,100
"Peces",0,0,0,0
"Anfibios",0,0,0,100
"Reptiles",0,0,0,100
"Aves",0,0,7.1429,92.8571
"Mamíferos",0,0,14.2857,85.7143
