"Grupo","Menor","Media","Alta","No_enlistadas"
"Hongos",0,0,0,0
"Plantas",0,0,7.6923,92.3077
"Invertebrados",0,0,0,100
"Peces",0,0,5.2632,94.7368
"Anfibios",0,0,33.3333,66.6667
"Reptiles",0,0,36.3636,63.6364
"Aves",1.1905,3.5714,4.7619,90.4762
"Mamíferos",0,0,25,75
