"Grupo","Menor","Media","Alta","No_enlistadas"
"Hongos",0,0,0,0
"Plantas",0,0,0,0
"Invertebrados",0,0,0,0
"Peces",0,0,0,0
"Anfibios",0,0,0,0
"Reptiles",0,0,0,0
"Aves",6.25,6.25,0,87.5
"Mamíferos",0,0,0,100
