"Grupo","Menor","Media","Alta","No_enlistadas"
"Hongos",0,0,0,0
"Plantas",0,0,0,100
"Invertebrados",0,0,0,100
"Peces",6.25,6.25,0,87.5
"Anfibios",0,0,0,100
"Reptiles",0,0,0,100
"Aves",0,0,9.5238,90.4762
"Mamíferos",0,0,0,100
