"Grupo","Numero_de_especies_registradas","Icono"
"Bacterias",3,"Biod_bacteria.png"
"Algas",15,"alga.png"
"Hongos",81,"Biod_hongo.png"
"Plantas no vasculares",58,"Biod_briofitas.png"
"Plantas vasculares",2260,"Biod_angiospermas.png"
"Invertebrados no artrópodos",247,"invertebrado_no_artropodo.png"
"Invertebrados artrópodos",1558,"invertebrados_artropodos.png"
"Vertebrados",634,"Biod_mamiferos.png"
