"Grupo","Numero_de_especies_registradas","Icono"
"Bacterias",1,"Biod_bacteria.png"
"Algas",2,"alga.png"
"Hongos",173,"Biod_hongo.png"
"Plantas no vasculares",197,"Biod_briofitas.png"
"Plantas vasculares",3938,"Biod_angiospermas.png"
"Invertebrados no artrópodos",235,"invertebrado_no_artropodo.png"
"Invertebrados artrópodos",1352,"invertebrados_artropodos.png"
"Vertebrados",746,"Biod_mamiferos.png"
