"Grupo","Numero_de_especies_registradas","Icono"
"Bacterias",9,"Biod_bacteria.png"
"Algas",111,"alga.png"
"Hongos",74,"Biod_hongo.png"
"Plantas no vasculares",87,"Biod_briofitas.png"
"Plantas vasculares",2073,"Biod_angiospermas.png"
"Invertebrados no artrópodos",147,"invertebrado_no_artropodo.png"
"Invertebrados artrópodos",1032,"invertebrados_artropodos.png"
"Vertebrados",735,"Biod_mamiferos.png"
