"Grupo","Numero_de_especies_registradas","Icono"
"Bacterias",2,"Biod_bacteria.png"
"Algas",20,"alga.png"
"Hongos",88,"Biod_hongo.png"
"Plantas no vasculares",65,"Biod_briofitas.png"
"Plantas vasculares",1279,"Biod_angiospermas.png"
"Invertebrados no artrópodos",86,"invertebrado_no_artropodo.png"
"Invertebrados artrópodos",478,"invertebrados_artropodos.png"
"Vertebrados",552,"Biod_mamiferos.png"
