"Grupo","Numero_de_especies_registradas","Icono"
"Bacterias",0,"Biod_bacteria.png"
"Algas",0,"alga.png"
"Hongos",158,"Biod_hongo.png"
"Plantas no vasculares",265,"Biod_briofitas.png"
"Plantas vasculares",5292,"Biod_angiospermas.png"
"Invertebrados no artrópodos",63,"invertebrado_no_artropodo.png"
"Invertebrados artrópodos",1170,"invertebrados_artropodos.png"
"Vertebrados",664,"Biod_mamiferos.png"
