"Grupo","Numero_de_especies_registradas","Icono"
"Bacterias",34,"Biod_bacteria.png"
"Algas",289,"alga.png"
"Hongos",77,"Biod_hongo.png"
"Plantas no vasculares",61,"Biod_briofitas.png"
"Plantas vasculares",1825,"Biod_angiospermas.png"
"Invertebrados no artrópodos",656,"invertebrado_no_artropodo.png"
"Invertebrados artrópodos",1790,"invertebrados_artropodos.png"
"Vertebrados",904,"Biod_mamiferos.png"
