"Grupo","Numero_de_especies_registradas","Icono"
"Bacterias",8,"Biod_bacteria.png"
"Algas",122,"alga.png"
"Hongos",692,"Biod_hongo.png"
"Plantas no vasculares",611,"Biod_briofitas.png"
"Plantas vasculares",8824,"Biod_angiospermas.png"
"Invertebrados no artrópodos",121,"invertebrado_no_artropodo.png"
"Invertebrados artrópodos",3793,"invertebrados_artropodos.png"
"Vertebrados",1142,"Biod_mamiferos.png"
