"Grupo","Numero_de_especies_registradas","Icono"
"Bacterias",1,"Biod_bacteria.png"
"Algas",1,"alga.png"
"Hongos",639,"Biod_hongo.png"
"Plantas no vasculares",288,"Biod_briofitas.png"
"Plantas vasculares",6053,"Biod_angiospermas.png"
"Invertebrados no artrópodos",259,"invertebrado_no_artropodo.png"
"Invertebrados artrópodos",1871,"invertebrados_artropodos.png"
"Vertebrados",840,"Biod_mamiferos.png"
