"Grupo","Datos_insuficientes_(DD)","Preocupacion_menor_(LC)","Casi_amenazado_(NT)","Vulnerable_(VU)","En_peligro_(EN)","En_peligro_critico_(CR)","Extinto_en_estado_silvestre_(EW)","Extinto_(EX)","No_enlistadas"
"Hongos",0,0,0,0,0,0,0,0,100
"Plantas",0.2224,3.9856,0.154,0.4276,0.154,0.0171,0,0,95.0393
"Invertebrados",0.2815,1.3671,0.0804,0.0804,0.0804,0,0,0,98.1102
"Peces",0,18.1818,0,6.8182,0,6.8182,0,6.8182,61.3636
"Anfibios",3.8462,46.1538,5.1282,11.5385,12.8205,12.8205,0,0,7.6923
"Reptiles",2.2388,70.8955,0.7463,2.9851,2.9851,0.7463,0,0,19.403
"Aves",0.4525,88.2353,3.6199,0.4525,1.3575,0,0,0,5.8824
"Mamíferos",0.641,84.6154,5.1282,2.5641,2.5641,0.641,0,0,3.8462
