"Grupo","Datos_insuficientes_(DD)","Preocupacion_menor_(LC)","Casi_amenazado_(NT)","Vulnerable_(VU)","En_peligro_(EN)","En_peligro_critico_(CR)","Extinto_en_estado_silvestre_(EW)","Extinto_(EX)","No_enlistadas"
"Hongos",0,0,0,0,0,0,0,0,100
"Plantas",0.2518,3.5889,0.1731,0.6296,0.2833,0.0157,0,0,95.0575
"Invertebrados",0.0357,1.2491,0,0.1428,0.0714,0.0357,0,0,98.4654
"Peces",1.9231,13.4615,1.9231,1.9231,5.7692,5.7692,0,0,69.2308
"Anfibios",2.6087,37.3913,6.9565,11.3043,14.7826,18.2609,0,0,8.6957
"Reptiles",3.9024,66.8293,0.9756,4.3902,2.439,0,0,0,21.4634
"Aves",0,87.7551,3.6735,1.2245,0.8163,0,0,0,6.5306
"Mamíferos",1.7857,81.5476,4.7619,1.1905,3.5714,1.7857,0,0,5.3571
