"Grupo","Datos_insuficientes_(DD)","Preocupacion_menor_(LC)","Casi_amenazado_(NT)","Vulnerable_(VU)","En_peligro_(EN)","En_peligro_critico_(CR)","Extinto_en_estado_silvestre_(EW)","Extinto_(EX)","No_enlistadas"
"Hongos",0,0,0,0,0,0,0,0,100
"Plantas",0.2006,4.9759,0.2408,0.4815,0.2006,0,0,0,93.9005
"Invertebrados",0,1.9251,0,0.1041,0,0,0,0,97.9709
"Peces",2.8226,56.0484,4.0323,2.8226,2.4194,0.4032,0,0,31.4516
"Anfibios",0,63.1579,5.2632,5.2632,5.2632,5.2632,0,0,15.7895
"Reptiles",2.439,49.5935,4.065,3.252,1.626,2.439,0,0,36.5854
"Aves",0,88.2129,4.943,1.1407,0.3802,0,0,0,5.3232
"Mamíferos",0.885,79.646,4.4248,2.6549,2.6549,0,0,0,9.7345
