"Grupo","Numero_de_especies_registradas","Numero_de_especies_endemicas","Numero_de_especies_en_la_NOM-059-SEMARNAT-2010","Numero_de_especies_prioritarias","Numero_de_registros"
"Bacterias",0,0,0,0,0
"Algas",1,0,0,0,2
"Hongos",236,0,4,0,689
"Plantas no vasculares",86,0,0,0,276
"Briofitas",86,0,0,0,276
"Anthocerotophyta",0,0,0,0,0
"Marchantiophyta",0,0,0,0,0
"Plantas vasculares",1780,254,25,8,13424
"Pteridofitas",0,0,0,0,0
"Gimnospermas",21,4,3,1,246
"Pinaceae",10,2,2,1,111
"Cupressaceae",10,2,1,0,119
"Podocarpaceae",0,0,0,0,0
"Zamiaceae",0,0,0,0,0
"Ephedraceae",1,0,0,0,16
"Taxaceae",0,0,0,0,0
"Angiospermas",1696,248,22,7,12816
"Asteraceae",246,25,1,0,1620
"Cactaceae",47,9,5,2,456
"Crassulaceae",5,1,0,0,14
"Euphorbiaceae",86,16,0,0,845
"Fabaceae",163,12,3,3,1195
"Fagaceae",18,5,0,0,379
"Lamiaceae",38,8,0,0,229
"Rubiaceae",20,6,0,0,87
"Solanaceae",54,5,0,0,358
"Orchidaceae",6,3,0,0,15
"Asparagaceae",28,14,4,1,347
"Arecaceae",5,3,2,0,23
"Bromeliaceae",2,1,0,0,23
"Poaceae",193,47,0,0,2132
"Commelinaceae",11,5,0,0,61
"Rosaceae",14,0,0,0,79
"Burseraceae",5,2,0,0,27
"Apocynaceae",43,6,0,0,258
"Campanulaceae",6,0,0,0,36
"Invertebrados no artrópodos",19,0,0,0,22
"Esponjas de mar",0,0,0,0,0
"Cnidarios",0,0,0,0,0
"Ctenóforos",0,0,0,0,0
"Chaetognatha",0,0,0,0,0
"platelmintos",0,0,0,0,0
"Moluscos",18,0,0,0,21
"Gusanos anélidos",1,0,0,0,1
"Sipuncula",0,0,0,0,0
"Rotifera",0,0,0,0,0
"Acanthocephala",0,0,0,0,0
"Briozoos",0,0,0,0,0
"Brachiopodos",0,0,0,0,0
"Tardigrados",0,0,0,0,0
"Onychophora",0,0,0,0,0
"Equinodermos",0,0,0,0,0
"Urocordados",0,0,0,0,0
"Artrópodos",490,2,1,1,2313
"Crustáceos",9,0,0,0,32
"Quelicerados",21,0,0,0,38
"Miriápodos",2,0,0,0,3
"Hexápodos",458,2,1,1,2240
"Vertebrados",436,44,110,41,8225
"Peces",48,0,17,1,405
"Anfibios",31,7,10,0,987
"Reptiles",113,18,44,4,3056
"Aves",150,11,26,27,2788
"Mamíferos",94,8,13,9,989
