"Grupo","Numero_de_especies_registradas","Numero_de_especies_endemicas","Numero_de_especies_en_la_NOM-059-SEMARNAT-2010","Numero_de_especies_prioritarias","Numero_de_registros"
"Bacterias",9,0,0,0,37
"Algas",111,0,0,0,304
"Hongos",74,0,1,0,110
"Plantas no vasculares",87,0,0,0,190
"Briofitas",85,0,0,0,188
"Anthocerotophyta",0,0,0,0,0
"Marchantiophyta",2,0,0,0,2
"Plantas vasculares",2073,354,42,22,12224
"Pteridofitas",0,0,0,0,0
"Gimnospermas",9,5,5,5,32
"Pinaceae",3,2,0,0,9
"Cupressaceae",1,0,0,1,8
"Podocarpaceae",1,0,1,0,1
"Zamiaceae",4,3,4,4,14
"Ephedraceae",0,0,0,0,0
"Taxaceae",0,0,0,0,0
"Angiospermas",2003,344,37,17,12012
"Asteraceae",188,32,1,0,904
"Cactaceae",54,19,8,5,296
"Crassulaceae",6,3,0,0,8
"Euphorbiaceae",108,27,2,0,719
"Fabaceae",198,23,1,2,1345
"Fagaceae",18,14,0,0,94
"Lamiaceae",37,9,0,0,165
"Rubiaceae",34,6,0,0,223
"Solanaceae",55,5,0,0,557
"Orchidaceae",20,10,2,1,48
"Asparagaceae",18,13,3,0,97
"Arecaceae",6,3,2,0,36
"Bromeliaceae",20,4,0,0,88
"Poaceae",207,31,0,0,1412
"Commelinaceae",11,6,0,0,100
"Rosaceae",6,3,0,0,11
"Burseraceae",5,1,0,0,18
"Apocynaceae",41,5,0,0,277
"Campanulaceae",6,1,0,0,28
"Invertebrados no artrópodos",147,0,0,0,362
"Esponjas de mar",0,0,0,0,0
"Cnidarios",2,0,0,0,3
"Ctenóforos",0,0,0,0,0
"Chaetognatha",0,0,0,0,0
"platelmintos",8,0,0,0,11
"Moluscos",117,0,0,0,250
"Gusanos anélidos",17,0,0,0,94
"Sipuncula",0,0,0,0,0
"Rotifera",3,0,0,0,4
"Acanthocephala",0,0,0,0,0
"Briozoos",0,0,0,0,0
"Brachiopodos",0,0,0,0,0
"Tardigrados",0,0,0,0,0
"Onychophora",0,0,0,0,0
"Equinodermos",0,0,0,0,0
"Urocordados",0,0,0,0,0
"Artrópodos",1032,13,1,1,5497
"Crustáceos",114,0,0,0,902
"Quelicerados",39,0,0,0,151
"Miriápodos",1,0,0,0,1
"Hexápodos",878,13,1,1,4443
"Vertebrados",735,76,176,73,14139
"Peces",174,0,17,5,3109
"Anfibios",52,19,21,1,1347
"Reptiles",139,32,57,11,1819
"Aves",256,15,65,47,6264
"Mamíferos",114,10,16,9,1600
