"Grupo","Numero_de_especies_registradas","Numero_de_especies_endemicas","Numero_de_especies_en_la_NOM-059-SEMARNAT-2010","Numero_de_especies_prioritarias","Numero_de_registros"
"Bacterias",26,0,0,0,133
"Algas",153,0,0,0,522
"Hongos",53,0,0,0,114
"Plantas no vasculares",63,0,0,0,415
"Briofitas",62,0,0,0,414
"Anthocerotophyta",0,0,0,0,0
"Marchantiophyta",1,0,0,0,1
"Plantas vasculares",2095,253,44,16,49545
"Pteridofitas",1,0,1,0,1
"Gimnospermas",8,4,4,3,76
"Pinaceae",2,0,0,1,2
"Cupressaceae",2,1,1,0,4
"Podocarpaceae",0,0,0,0,0
"Zamiaceae",4,3,3,2,70
"Ephedraceae",0,0,0,0,0
"Taxaceae",0,0,0,0,0
"Angiospermas",2036,249,37,13,49147
"Asteraceae",140,14,1,0,2451
"Cactaceae",17,4,0,0,184
"Crassulaceae",0,0,0,0,0
"Euphorbiaceae",111,37,1,0,3127
"Fabaceae",226,25,2,1,8021
"Fagaceae",0,0,0,0,0
"Lamiaceae",33,3,0,0,1090
"Rubiaceae",62,14,1,0,1778
"Solanaceae",67,3,0,0,1559
"Orchidaceae",37,12,1,1,204
"Asparagaceae",20,11,1,0,561
"Arecaceae",13,6,6,0,264
"Bromeliaceae",23,4,3,0,423
"Poaceae",160,19,0,0,2375
"Commelinaceae",12,2,0,0,296
"Rosaceae",1,0,0,0,1
"Burseraceae",4,0,0,0,159
"Apocynaceae",57,10,0,0,1774
"Campanulaceae",2,1,0,0,10
"Invertebrados no artrópodos",203,0,0,0,518
"Esponjas de mar",16,0,0,0,17
"Cnidarios",0,0,0,0,0
"Ctenóforos",0,0,0,0,0
"Chaetognatha",0,0,0,0,0
"platelmintos",29,0,0,0,160
"Moluscos",132,0,0,0,297
"Gusanos anélidos",20,0,0,0,26
"Sipuncula",0,0,0,0,0
"Rotifera",3,0,0,0,6
"Acanthocephala",3,0,0,0,12
"Briozoos",0,0,0,0,0
"Brachiopodos",0,0,0,0,0
"Tardigrados",0,0,0,0,0
"Onychophora",0,0,0,0,0
"Equinodermos",0,0,0,0,0
"Urocordados",0,0,0,0,0
"Artrópodos",1180,26,9,1,21900
"Crustáceos",76,14,7,0,256
"Quelicerados",43,0,1,0,176
"Miriápodos",3,0,0,0,4
"Hexápodos",1058,12,1,1,21464
"Vertebrados",651,41,156,64,40305
"Peces",149,0,12,7,627
"Anfibios",26,4,8,3,1669
"Reptiles",120,17,43,10,7505
"Aves",235,13,70,34,26458
"Mamíferos",121,7,23,10,4046
