"Grupo","Numero_de_especies_registradas","Numero_de_especies_endemicas","Numero_de_especies_en_la_NOM-059-SEMARNAT-2010","Numero_de_especies_prioritarias","Numero_de_registros"
"Bacterias",3,0,0,0,5
"Algas",13,0,0,0,19
"Hongos",172,0,0,0,4294
"Plantas no vasculares",172,0,0,0,416
"Briofitas",163,0,0,0,404
"Anthocerotophyta",0,0,0,0,0
"Marchantiophyta",9,0,0,0,12
"Plantas vasculares",4122,581,143,40,23117
"Pteridofitas",3,0,1,0,5
"Gimnospermas",21,10,13,13,131
"Pinaceae",6,2,1,3,26
"Cupressaceae",2,1,1,1,6
"Podocarpaceae",1,0,1,0,10
"Zamiaceae",12,7,10,9,89
"Ephedraceae",0,0,0,0,0
"Taxaceae",0,0,0,0,0
"Angiospermas",3786,560,115,25,21705
"Asteraceae",331,55,1,0,1412
"Cactaceae",16,3,0,0,45
"Crassulaceae",5,4,0,0,8
"Euphorbiaceae",102,24,4,0,554
"Fabaceae",370,34,8,2,2442
"Fagaceae",26,11,0,2,124
"Lamiaceae",74,16,0,0,286
"Rubiaceae",161,19,4,0,904
"Solanaceae",111,5,0,0,718
"Orchidaceae",248,98,37,7,965
"Asparagaceae",22,16,2,0,74
"Arecaceae",26,12,17,1,180
"Bromeliaceae",61,25,6,0,242
"Poaceae",195,33,1,0,906
"Commelinaceae",33,6,0,0,213
"Rosaceae",18,2,0,0,39
"Burseraceae",6,2,1,1,45
"Apocynaceae",78,9,0,0,502
"Campanulaceae",9,2,0,0,85
"Invertebrados no artrópodos",36,1,0,0,60
"Esponjas de mar",0,0,0,0,0
"Cnidarios",0,0,0,0,0
"Ctenóforos",0,0,0,0,0
"Chaetognatha",0,0,0,0,0
"platelmintos",7,0,0,0,15
"Moluscos",28,1,0,0,44
"Gusanos anélidos",1,0,0,0,1
"Sipuncula",0,0,0,0,0
"Rotifera",0,0,0,0,0
"Acanthocephala",0,0,0,0,0
"Briozoos",0,0,0,0,0
"Brachiopodos",0,0,0,0,0
"Tardigrados",0,0,0,0,0
"Onychophora",0,0,0,0,0
"Equinodermos",0,0,0,0,0
"Urocordados",0,0,0,0,0
"Artrópodos",1385,28,1,1,17364
"Crustáceos",45,0,0,0,116
"Quelicerados",183,1,0,0,2751
"Miriápodos",0,0,0,0,0
"Hexápodos",1157,27,1,1,14497
"Vertebrados",1008,108,271,86,60821
"Peces",224,0,4,10,5373
"Anfibios",96,26,40,4,10416
"Reptiles",203,53,83,18,12770
"Aves",311,14,108,42,26378
"Mamíferos",174,15,36,12,5884
