"Grupo","Numero_de_especies_registradas","Numero_de_especies_endemicas","Numero_de_especies_en_la_NOM-059-SEMARNAT-2010","Numero_de_especies_prioritarias","Numero_de_registros"
"Bacterias",2,0,0,0,22
"Algas",4,0,0,0,9
"Hongos",205,0,4,0,1011
"Plantas no vasculares",189,0,0,0,498
"Briofitas",184,0,0,0,483
"Anthocerotophyta",0,0,0,0,0
"Marchantiophyta",5,0,0,0,15
"Plantas vasculares",3150,815,63,23,37254
"Pteridofitas",0,0,0,0,0
"Gimnospermas",35,11,8,9,491
"Pinaceae",17,8,5,6,110
"Cupressaceae",11,1,0,1,320
"Podocarpaceae",0,0,0,0,0
"Zamiaceae",2,1,2,2,45
"Ephedraceae",4,1,0,0,15
"Taxaceae",1,0,1,0,1
"Angiospermas",3000,793,54,14,35858
"Asteraceae",449,133,2,0,4695
"Cactaceae",115,47,30,7,1949
"Crassulaceae",33,22,1,0,278
"Euphorbiaceae",124,38,0,0,1609
"Fabaceae",271,60,2,2,3874
"Fagaceae",51,31,0,1,625
"Lamiaceae",101,37,0,0,992
"Rubiaceae",40,8,0,0,376
"Solanaceae",75,11,0,0,980
"Orchidaceae",28,12,0,0,68
"Asparagaceae",66,49,5,1,984
"Arecaceae",7,4,3,0,108
"Bromeliaceae",16,6,0,0,201
"Poaceae",267,56,0,0,3001
"Commelinaceae",25,14,0,0,402
"Rosaceae",31,9,0,0,101
"Burseraceae",1,0,0,0,2
"Apocynaceae",63,14,0,0,507
"Campanulaceae",14,3,0,0,127
"Invertebrados no artrópodos",197,2,1,0,409
"Esponjas de mar",0,0,0,0,0
"Cnidarios",0,0,0,0,0
"Ctenóforos",0,0,0,0,0
"Chaetognatha",0,0,0,0,0
"platelmintos",28,0,0,0,70
"Moluscos",163,2,1,0,320
"Gusanos anélidos",2,0,0,0,11
"Sipuncula",0,0,0,0,0
"Rotifera",0,0,0,0,0
"Acanthocephala",1,0,0,0,1
"Briozoos",0,0,0,0,0
"Brachiopodos",0,0,0,0,0
"Tardigrados",1,0,0,0,1
"Onychophora",1,0,0,0,2
"Equinodermos",1,0,0,0,4
"Urocordados",0,0,0,0,0
"Artrópodos",1775,33,2,1,19598
"Crustáceos",97,0,1,0,1358
"Quelicerados",119,0,0,0,1240
"Miriápodos",7,0,0,0,44
"Hexápodos",1552,33,1,1,16956
"Vertebrados",736,86,190,71,37856
"Peces",129,0,36,3,5589
"Anfibios",50,18,16,0,2821
"Reptiles",167,40,59,4,6144
"Aves",254,17,63,55,20248
"Mamíferos",136,11,16,9,3054
