"Grupo","Numero_de_especies_registradas","Numero_de_especies_endemicas","Numero_de_especies_en_la_NOM-059-SEMARNAT-2010","Numero_de_especies_prioritarias","Numero_de_registros"
"Bacterias",0,0,0,0,0
"Algas",0,0,0,0,0
"Hongos",139,0,1,0,493
"Plantas no vasculares",53,0,0,0,205
"Briofitas",50,0,0,0,199
"Anthocerotophyta",0,0,0,0,0
"Marchantiophyta",3,0,0,0,6
"Plantas vasculares",877,206,14,6,4205
"Pteridofitas",0,0,0,0,0
"Gimnospermas",1,0,0,1,9
"Pinaceae",1,0,0,1,9
"Cupressaceae",0,0,0,0,0
"Podocarpaceae",0,0,0,0,0
"Zamiaceae",0,0,0,0,0
"Ephedraceae",0,0,0,0,0
"Taxaceae",0,0,0,0,0
"Angiospermas",819,201,14,5,3993
"Asteraceae",97,18,1,0,469
"Cactaceae",21,12,3,1,105
"Crassulaceae",3,1,0,0,8
"Euphorbiaceae",43,22,0,0,178
"Fabaceae",98,16,2,0,445
"Fagaceae",8,7,0,0,111
"Lamiaceae",17,13,0,0,105
"Rubiaceae",17,2,0,0,126
"Solanaceae",16,1,0,0,51
"Orchidaceae",17,10,1,0,93
"Asparagaceae",7,6,0,0,84
"Arecaceae",2,1,0,0,31
"Bromeliaceae",2,1,0,0,3
"Poaceae",90,18,0,0,466
"Commelinaceae",11,6,0,0,71
"Rosaceae",9,0,0,0,53
"Burseraceae",3,2,0,0,6
"Apocynaceae",10,3,0,0,24
"Campanulaceae",2,0,0,0,37
"Invertebrados no artrópodos",7,0,0,0,7
"Esponjas de mar",0,0,0,0,0
"Cnidarios",0,0,0,0,0
"Ctenóforos",0,0,0,0,0
"Chaetognatha",0,0,0,0,0
"platelmintos",0,0,0,0,0
"Moluscos",7,0,0,0,7
"Gusanos anélidos",0,0,0,0,0
"Sipuncula",0,0,0,0,0
"Rotifera",0,0,0,0,0
"Acanthocephala",0,0,0,0,0
"Briozoos",0,0,0,0,0
"Brachiopodos",0,0,0,0,0
"Tardigrados",0,0,0,0,0
"Onychophora",0,0,0,0,0
"Equinodermos",0,0,0,0,0
"Urocordados",0,0,0,0,0
"Artrópodos",135,3,0,0,328
"Crustáceos",6,0,0,0,6
"Quelicerados",4,0,0,0,6
"Miriápodos",0,0,0,0,0
"Hexápodos",125,3,0,0,316
"Vertebrados",147,26,45,15,3187
"Peces",2,0,0,0,2
"Anfibios",7,0,2,1,121
"Reptiles",48,19,27,4,612
"Aves",69,2,13,9,2339
"Mamíferos",21,5,3,1,113
