"Grupo","Numero_de_especies_registradas","Numero_de_especies_endemicas","Numero_de_especies_en_la_NOM-059-SEMARNAT-2010","Numero_de_especies_prioritarias","Numero_de_registros"
"Bacterias",11,0,0,0,37
"Algas",287,0,0,0,1395
"Hongos",241,0,1,0,1744
"Plantas no vasculares",86,0,0,0,370
"Briofitas",82,0,0,0,364
"Anthocerotophyta",1,0,0,0,1
"Marchantiophyta",3,0,0,0,5
"Plantas vasculares",1995,201,46,10,48568
"Pteridofitas",0,0,0,0,0
"Gimnospermas",22,3,10,0,988
"Pinaceae",12,1,7,0,542
"Cupressaceae",5,2,3,0,181
"Podocarpaceae",0,0,0,0,0
"Zamiaceae",0,0,0,0,0
"Ephedraceae",5,0,0,0,265
"Taxaceae",0,0,0,0,0
"Angiospermas",1918,197,36,10,46735
"Asteraceae",318,28,3,0,8268
"Cactaceae",62,26,8,4,2491
"Crassulaceae",25,6,5,0,1153
"Euphorbiaceae",43,13,0,0,1108
"Fabaceae",158,7,2,3,2808
"Fagaceae",15,4,0,0,583
"Lamiaceae",50,10,1,0,1513
"Rubiaceae",14,2,1,0,344
"Solanaceae",40,2,0,0,846
"Orchidaceae",6,0,0,0,33
"Asparagaceae",32,13,1,0,1064
"Arecaceae",5,2,1,0,34
"Bromeliaceae",1,0,0,0,2
"Poaceae",143,19,1,0,1987
"Commelinaceae",2,0,0,0,3
"Rosaceae",36,1,0,0,1169
"Burseraceae",3,1,0,0,17
"Apocynaceae",18,2,0,0,233
"Campanulaceae",14,0,0,0,161
"Invertebrados no artrópodos",142,1,0,1,412
"Esponjas de mar",0,0,0,0,0
"Cnidarios",9,0,0,0,71
"Ctenóforos",0,0,0,0,0
"Chaetognatha",0,0,0,0,0
"platelmintos",1,0,0,0,1
"Moluscos",118,1,0,1,320
"Gusanos anélidos",11,0,0,0,13
"Sipuncula",0,0,0,0,0
"Rotifera",0,0,0,0,0
"Acanthocephala",1,0,0,0,4
"Briozoos",0,0,0,0,0
"Brachiopodos",0,0,0,0,0
"Tardigrados",0,0,0,0,0
"Onychophora",0,0,0,0,0
"Equinodermos",2,0,0,0,3
"Urocordados",0,0,0,0,0
"Artrópodos",547,3,1,1,3058
"Crustáceos",65,0,0,0,274
"Quelicerados",49,0,0,0,288
"Miriápodos",1,0,0,0,5
"Hexápodos",432,3,1,1,2491
"Vertebrados",689,50,126,61,73555
"Peces",231,0,4,2,1981
"Anfibios",21,2,7,1,2466
"Reptiles",107,25,50,6,8075
"Aves",239,12,42,44,58297
"Mamíferos",91,11,23,8,2736
