"Grupo","Numero_de_especies_registradas","Numero_de_especies_endemicas","Numero_de_especies_en_la_NOM-059-SEMARNAT-2010","Numero_de_especies_prioritarias","Numero_de_registros"
"Bacterias",0,0,0,0,0
"Algas",2,0,0,0,3
"Hongos",49,0,1,0,149
"Plantas no vasculares",47,0,0,0,90
"Briofitas",46,0,0,0,89
"Anthocerotophyta",0,0,0,0,0
"Marchantiophyta",1,0,0,0,1
"Plantas vasculares",921,55,19,1,8782
"Pteridofitas",0,0,0,0,0
"Gimnospermas",15,1,7,0,405
"Pinaceae",9,0,5,0,288
"Cupressaceae",3,1,2,0,99
"Podocarpaceae",0,0,0,0,0
"Zamiaceae",0,0,0,0,0
"Ephedraceae",3,0,0,0,18
"Taxaceae",0,0,0,0,0
"Angiospermas",882,54,12,1,8249
"Asteraceae",144,7,0,0,1248
"Cactaceae",18,6,1,1,88
"Crassulaceae",5,1,0,0,52
"Euphorbiaceae",14,2,0,0,100
"Fabaceae",66,4,1,0,722
"Fagaceae",10,2,0,0,153
"Lamiaceae",21,2,0,0,199
"Rubiaceae",9,1,0,0,136
"Solanaceae",12,0,0,0,46
"Orchidaceae",2,0,0,0,15
"Asparagaceae",13,5,1,0,112
"Arecaceae",0,0,0,0,0
"Bromeliaceae",0,0,0,0,0
"Poaceae",82,13,1,0,776
"Commelinaceae",1,1,0,0,3
"Rosaceae",26,0,0,0,338
"Burseraceae",1,1,0,0,1
"Apocynaceae",8,1,0,0,63
"Campanulaceae",5,0,0,0,43
"Invertebrados no artrópodos",0,0,0,0,0
"Esponjas de mar",0,0,0,0,0
"Cnidarios",0,0,0,0,0
"Ctenóforos",0,0,0,0,0
"Chaetognatha",0,0,0,0,0
"platelmintos",0,0,0,0,0
"Moluscos",0,0,0,0,0
"Gusanos anélidos",0,0,0,0,0
"Sipuncula",0,0,0,0,0
"Rotifera",0,0,0,0,0
"Acanthocephala",0,0,0,0,0
"Briozoos",0,0,0,0,0
"Brachiopodos",0,0,0,0,0
"Tardigrados",0,0,0,0,0
"Onychophora",0,0,0,0,0
"Equinodermos",0,0,0,0,0
"Urocordados",0,0,0,0,0
"Artrópodos",99,0,1,1,276
"Crustáceos",3,0,0,0,11
"Quelicerados",2,0,0,0,3
"Miriápodos",1,0,0,0,1
"Hexápodos",93,0,1,1,261
"Vertebrados",226,17,53,34,5114
"Peces",4,0,1,0,26
"Anfibios",13,1,4,1,640
"Reptiles",58,8,26,4,1362
"Aves",110,4,17,27,2090
"Mamíferos",41,4,5,2,996
