"Grupo","Menor","Media","Alta","No_enlistadas"
"Hongos",0,0,0,0
"Plantas",0,0,1.5873,98.4127
"Invertebrados",0,0,0,100
"Peces",0,0,0,100
"Anfibios",0,0,0,100
"Reptiles",0,0,0,100
"Aves",16.6667,0,16.6667,66.6667
"Mamíferos",0,0,0,0
