"Grupo","Menor","Media","Alta","No_enlistadas"
"Hongos",0,0,0,100
"Plantas",0,0,0,100
"Invertebrados",0,0,0,0
"Peces",0,0,0,0
"Anfibios",0,0,0,100
"Reptiles",0,0,16.6667,83.3333
"Aves",5.2632,0,15.7895,78.9474
"Mamíferos",0,0,0,100
