"Grupo","Menor","Media","Alta","No_enlistadas"
"Hongos",0,0,0,0
"Plantas",0,0,0,100
"Invertebrados",0,0,0,0
"Peces",0,0,0,0
"Anfibios",0,0,0,100
"Reptiles",0,0,9.0909,90.9091
"Aves",0,0,11.1111,88.8889
"Mamíferos",0,0,0,0
