"Grupo","Menor","Media","Alta","No_enlistadas"
"Hongos",0,0,0,0
"Plantas",0,0,22.2222,77.7778
"Invertebrados",0,0,0,100
"Peces",0,1.7544,3.5088,94.7368
"Anfibios",0,0,0,100
"Reptiles",0,0,28.5714,71.4286
"Aves",2.8571,6.6667,3.8095,86.6667
"Mamíferos",0,0,12,88
