"Grupo","Menor","Media","Alta","No_enlistadas"
"Hongos",0,0,0,100
"Plantas",0,0.2721,1.2245,98.5034
"Invertebrados",0,0,0,100
"Peces",0,0,0,100
"Anfibios",0,0,0,100
"Reptiles",0,0,25,75
"Aves",1.7143,9.7143,3.4286,85.1429
"Mamíferos",0,0,5.5556,94.4444
