"Grupo","Menor","Media","Alta","No_enlistadas"
"Hongos",0,0,0,100
"Plantas",0,0.277,0.554,99.169
"Invertebrados",0,0,0.0739,99.9261
"Peces",0.7812,3.125,1.5625,94.5312
"Anfibios",3.6364,0,3.6364,92.7273
"Reptiles",0,0.7092,4.9645,94.3262
"Aves",1.5504,6.9767,4.6512,86.8217
"Mamíferos",0.6211,0,3.7267,95.6522
