"Grupo","Menor","Media","Alta","No_enlistadas"
"Hongos",0,0,0,100
"Plantas",0,0.8032,1.6064,97.5904
"Invertebrados",0,0,0,100
"Peces",20,0,0,80
"Anfibios",0,0,0,100
"Reptiles",0,0,25,75
"Aves",0,1.8519,3.7037,94.4444
"Mamíferos",0,0,0,100
