"Grupo","Menor","Media","Alta","No_enlistadas"
"Hongos",0,0,0,100
"Plantas",0,0.5133,0.3422,99.1446
"Invertebrados",0,0,0.2778,99.7222
"Peces",0,0,0,100
"Anfibios",0,0,0,100
"Reptiles",0,1.0638,3.1915,95.7447
"Aves",1.4388,9.3525,2.8777,86.3309
"Mamíferos",1.4085,0,11.2676,87.3239
