"Grupo","Menor","Media","Alta","No_enlistadas"
"Hongos",0,0,0,0
"Plantas",0,0,11.7647,88.2353
"Invertebrados",0,0,0,100
"Peces",0,0,0,100
"Anfibios",0,0,0,100
"Reptiles",0,0,55.5556,44.4444
"Aves",0.7143,5,1.4286,92.8571
"Mamíferos",0,0,0,100
