"Grupo","Menor","Media","Alta","No_enlistadas"
"Hongos",0,0,0,100
"Plantas",0,0.458,1.2214,98.3206
"Invertebrados",0,0,0.2237,99.7763
"Peces",0,0,0,100
"Anfibios",0,0,0,100
"Reptiles",0,0,8,92
"Aves",2.0833,6.9444,3.4722,87.5
"Mamíferos",0,0,4.3478,95.6522
