"Grupo","Menor","Media","Alta","No_enlistadas"
"Hongos",0,0,0,100
"Plantas",0,0,0.738,99.262
"Invertebrados",0,0,0,100
"Peces",4.1667,4.1667,4.1667,87.5
"Anfibios",0,0,0,100
"Reptiles",0,0,11.7647,88.2353
"Aves",1.8868,0,7.5472,90.566
"Mamíferos",0,0,9.0909,90.9091
