"Grupo","Menor","Media","Alta","No_enlistadas"
"Hongos",0,0,0,100
"Plantas",0,0.4525,1.1312,98.4163
"Invertebrados",0,0,0.2381,99.7619
"Peces",3.5714,3.5714,0,92.8571
"Anfibios",2.439,0,2.439,95.122
"Reptiles",0,0,4,96
"Aves",0.6849,3.4247,3.4247,92.4658
"Mamíferos",0,0,13.3333,86.6667
