"Grupo","Menor","Media","Alta","No_enlistadas"
"Hongos",0,0,0,100
"Plantas",0,0,2.381,97.619
"Invertebrados",0,0,0,100
"Peces",0,0,0,0
"Anfibios",0,0,0,0
"Reptiles",0,0,5.2632,94.7368
"Aves",0,0,33.3333,66.6667
"Mamíferos",0,0,0,100
