"Grupo","Menor","Media","Alta","No_enlistadas"
"Hongos",0,0,0,100
"Plantas",0,0.2157,1.4024,98.3819
"Invertebrados",0,0,0,100
"Peces",0.5618,1.1236,1.1236,97.191
"Anfibios",0,0,2.8571,97.1429
"Reptiles",0,0,9.8361,90.1639
"Aves",1.6854,3.9326,3.9326,90.4494
"Mamíferos",0,0,11.5385,88.4615
