"Grupo","Menor","Media","Alta","No_enlistadas"
"Hongos",0,0,0,100
"Plantas",0,0.2452,0.7356,99.0192
"Invertebrados",0,0,0.2632,99.7368
"Peces",1.7241,1.7241,3.4483,93.1034
"Anfibios",0,0,0,100
"Reptiles",0,1.0417,6.25,92.7083
"Aves",1.8868,8.9623,5.1887,83.9623
"Mamíferos",2.2472,0,4.4944,93.2584
