"Grupo","Menor","Media","Alta","No_enlistadas"
"Hongos",0,0,0,100
"Plantas",0,1.2987,0,98.7013
"Invertebrados",0,0,0,100
"Peces",0,0,0,0
"Anfibios",0,0,0,100
"Reptiles",0,4.1667,12.5,83.3333
"Aves",1.5625,4.6875,4.6875,89.0625
"Mamíferos",0,0,0,100
