"Grupo","Menor","Media","Alta","No_enlistadas"
"Hongos",0,0,0,100
"Plantas",0,0.3003,0.9009,98.7988
"Invertebrados",0,0,0,100
"Peces",5.8824,0,0,94.1176
"Anfibios",0,0,0,100
"Reptiles",0,0,7.3171,92.6829
"Aves",2.1505,7.5269,5.3763,84.9462
"Mamíferos",0,0,3.7037,96.2963
