"Grupo","Menor","Media","Alta","No_enlistadas"
"Hongos",0,0,0,100
"Plantas",0,0,4.7619,95.2381
"Invertebrados",0,0,0,100
"Peces",12.5,0,0,87.5
"Anfibios",0,0,0,100
"Reptiles",0,0,0,100
"Aves",3.5714,0,1.7857,94.6429
"Mamíferos",0,0,0,100
