"Grupo","Menor","Media","Alta","No_enlistadas"
"Hongos",0,0,0,100
"Plantas",0,0.1944,1.0303,98.7753
"Invertebrados",0,0,0,100
"Peces",9.0909,4.5455,0,86.3636
"Anfibios",0,0,1.5385,98.4615
"Reptiles",0,0,4.2017,95.7983
"Aves",1.5094,7.5472,4.9057,86.0377
"Mamíferos",0,0,3.9062,96.0938
