"Grupo","Menor","Media","Alta","No_enlistadas"
"Hongos",0,0,0,0
"Plantas",0,0,0.3861,99.6139
"Invertebrados",0,0,0,100
"Peces",0,0,0,100
"Anfibios",0,0,7.1429,92.8571
"Reptiles",0,0,13.6364,86.3636
"Aves",3.8462,0,7.6923,88.4615
"Mamíferos",0,0,5.8824,94.1176
