"Grupo","Menor","Media","Alta","No_enlistadas"
"Hongos",0,0,0,0
"Plantas",0,0,1.4493,98.5507
"Invertebrados",0,0,0,100
"Peces",16.6667,0,0,83.3333
"Anfibios",16.6667,0,0,83.3333
"Reptiles",0,0,0,100
"Aves",0,0,0,100
"Mamíferos",0,0,0,100
