"Grupo","Menor","Media","Alta","No_enlistadas"
"Hongos",0,0,0,100
"Plantas",0,0.2632,0.5263,99.2105
"Invertebrados",0,0,0,100
"Peces",0,0,5.5556,94.4444
"Anfibios",16.6667,0,0,83.3333
"Reptiles",0,0,9.375,90.625
"Aves",1.2048,15.6627,3.6145,79.5181
"Mamíferos",10,0,10,80
