"Grupo","Menor","Media","Alta","No_enlistadas"
"Hongos",0,0,0,100
"Plantas",0,0.3883,1.3592,98.2524
"Invertebrados",0,0,0,100
"Peces",2.439,2.439,4.878,90.2439
"Anfibios",0,0,3.7037,96.2963
"Reptiles",0,0,6.8966,93.1034
"Aves",1.7647,8.8235,2.9412,86.4706
"Mamíferos",0,0,10.3448,89.6552
