"Grupo","Menor","Media","Alta","No_enlistadas"
"Hongos",0,0,0,100
"Plantas",0,0.8451,1.9718,97.1831
"Invertebrados",0,0,0,100
"Peces",8.3333,0,0,91.6667
"Anfibios",2.9412,0,0,97.0588
"Reptiles",0,0,8.5106,91.4894
"Aves",2.2346,6.7039,3.9106,87.1508
"Mamíferos",0,0,3.5714,96.4286
