"Grupo","Menor","Media","Alta","No_enlistadas"
"Hongos",0,0,0,100
"Plantas",0,0.3922,0.3922,99.2157
"Invertebrados",0,0,0,100
"Peces",0,0,0,0
"Anfibios",0,0,0,100
"Reptiles",0,6.25,6.25,87.5
"Aves",2.1277,10.6383,5.3191,81.9149
"Mamíferos",0,0,20,80
