"Grupo","Menor","Media","Alta","No_enlistadas"
"Hongos",0,0,0,0
"Plantas",0,0,1.0638,98.9362
"Invertebrados",0,0,0,100
"Peces",0,7.6923,0,92.3077
"Anfibios",0,0,0,100
"Reptiles",0,0,15.7895,84.2105
"Aves",2.2472,3.3708,3.3708,91.0112
"Mamíferos",0,0,8.6957,91.3043
