"Grupo","Menor","Media","Alta","No_enlistadas"
"Hongos",0,0,0,100
"Plantas",0,0.3333,0.8889,98.7778
"Invertebrados",0,0,0,100
"Peces",0,0,0,100
"Anfibios",0,0,0,100
"Reptiles",0,0,8.1081,91.8919
"Aves",1.3605,0.6803,10.2041,87.7551
"Mamíferos",0,0,4.6875,95.3125
