"Grupo","Menor","Media","Alta","No_enlistadas"
"Hongos",0,0,0,100
"Plantas",0,0,11.1111,88.8889
"Invertebrados",0,0,0,0
"Peces",8.3333,0,0,91.6667
"Anfibios",0,0,0,0
"Reptiles",0,0,0,0
"Aves",0,0,50,50
"Mamíferos",0,0,0,100
