"Grupo","Menor","Media","Alta","No_enlistadas"
"Hongos",0,0,0,100
"Plantas",0,0.2331,1.3986,98.3683
"Invertebrados",0,0,0,100
"Peces",0,0,0,100
"Anfibios",0,0,0,100
"Reptiles",0,2.5,10,87.5
"Aves",2.3622,9.4488,4.7244,83.4646
"Mamíferos",2.5641,0,5.1282,92.3077
