"Grupo","Menor","Media","Alta","No_enlistadas"
"Hongos",0,0,0,100
"Plantas",0,0.6431,1.2862,98.0707
"Invertebrados",0,0,0,100
"Peces",0,0,0,0
"Anfibios",0,0,0,100
"Reptiles",0,0,0,100
"Aves",0,0,21.4286,78.5714
"Mamíferos",0,0,100,0
