"Grupo","Menor","Media","Alta","No_enlistadas"
"Hongos",0,0,0,0
"Plantas",0,0.1721,0.6885,99.1394
"Invertebrados",0,0,0,100
"Peces",7.1429,0,0,92.8571
"Anfibios",0,0,0,100
"Reptiles",0,4.3478,13.0435,82.6087
"Aves",1.7391,7.8261,6.087,84.3478
"Mamíferos",0,0,4.1667,95.8333
