"Grupo","Menor","Media","Alta","No_enlistadas"
"Hongos",0,0,0,0
"Plantas",0,3.3333,6.6667,90
"Invertebrados",0,0,0,0
"Peces",0,0,0,100
"Anfibios",0,0,0,100
"Reptiles",0,0,0,0
"Aves",33.3333,0,0,66.6667
"Mamíferos",0,0,0,100
