"Grupo","Menor","Media","Alta","No_enlistadas"
"Hongos",0,0,0,0
"Plantas",0,0.8197,2.459,96.7213
"Invertebrados",0,0,0,100
"Peces",0,0,0,0
"Anfibios",0,0,0,100
"Reptiles",0,0,0,100
"Aves",1.4286,5.7143,2.8571,90
"Mamíferos",0,0,33.3333,66.6667
