"Grupo","Menor","Media","Alta","No_enlistadas"
"Hongos",0,0,0,100
"Plantas",0,0.6006,1.2012,98.1982
"Invertebrados",0,0,0,100
"Peces",12.5,0,0,87.5
"Anfibios",0,0,7.1429,92.8571
"Reptiles",0,0,6.25,93.75
"Aves",2.1053,5.2632,2.1053,90.5263
"Mamíferos",3.125,0,9.375,87.5
