"Grupo","Menor","Media","Alta","No_enlistadas"
"Hongos",0,0,0,0
"Plantas",0,0,4.7059,95.2941
"Invertebrados",0,0,0,100
"Peces",14.2857,0,0,85.7143
"Anfibios",4.5455,0,4.5455,90.9091
"Reptiles",0,0,17.1429,82.8571
"Aves",0,2.1277,2.1277,95.7447
"Mamíferos",0,0,11.1111,88.8889
