"Grupo","Menor","Media","Alta","No_enlistadas"
"Hongos",0,0,0,100
"Plantas",0,0,0.2994,99.7006
"Invertebrados",0,0,1,99
"Peces",0,0,0,100
"Anfibios",7.6923,0,0,92.3077
"Reptiles",0,0,4.0541,95.9459
"Aves",0.8547,5.9829,5.9829,87.1795
"Mamíferos",0,0,3.3333,96.6667
