"Grupo","Menor","Media","Alta","No_enlistadas"
"Hongos",0,0,0,100
"Plantas",0,0.5102,0,99.4898
"Invertebrados",0,0,0,100
"Peces",0,0,0,100
"Anfibios",0,0,0,100
"Reptiles",0,0,2.9412,97.0588
"Aves",1.1628,16.2791,5.814,76.7442
"Mamíferos",0,0,3.7037,96.2963
