"Grupo","Menor","Media","Alta","No_enlistadas"
"Hongos",0,0,0,100
"Plantas",0,0.2172,0.4524,99.3304
"Invertebrados",0,0,0.0482,99.9518
"Peces",0.8772,4.386,7.8947,86.8421
"Anfibios",1.4286,0,1.4286,97.1429
"Reptiles",0,1.0582,3.7037,95.2381
"Aves",1.4388,8.9928,4.3165,85.2518
"Mamíferos",0.4975,0,4.4776,95.0249
