"Grupo","Menor","Media","Alta","No_enlistadas"
"Hongos",0,0,0,100
"Plantas",0,0.4098,1.2295,98.3607
"Invertebrados",0,0,0,100
"Peces",0,0,0,100
"Anfibios",0,0,0,100
"Reptiles",0,0,17.6471,82.3529
"Aves",0,0,14.2857,85.7143
"Mamíferos",0,0,7.6923,92.3077
