"Grupo","Menor","Media","Alta","No_enlistadas"
"Hongos",0,0,0,0
"Plantas",0,1.0309,3.0928,95.8763
"Invertebrados",0,0,0,100
"Peces",4,0,0,96
"Anfibios",0,0,0,100
"Reptiles",0,0,5.2632,94.7368
"Aves",5,0,15,80
"Mamíferos",0,0,3.4483,96.5517
