"Grupo","Menor","Media","Alta","No_enlistadas"
"Hongos",0,0,0,100
"Plantas",0,0,0,100
"Invertebrados",0,0,0,0
"Peces",0,0,0,0
"Anfibios",0,0,0,100
"Reptiles",0,0,14.2857,85.7143
"Aves",0,0,0,100
"Mamíferos",0,0,25,75
