"Grupo","Menor","Media","Alta","No_enlistadas"
"Hongos",0,0,0,100
"Plantas",0,0,0.5952,99.4048
"Invertebrados",0,0,0,100
"Peces",0,0,0,0
"Anfibios",0,0,0,100
"Reptiles",0,0,7.6923,92.3077
"Aves",11.1111,0,11.1111,77.7778
"Mamíferos",0,0,12.5,87.5
