"Grupo","Menor","Media","Alta","No_enlistadas"
"Hongos",0,0,0,0
"Plantas",0,0,0,0
"Invertebrados",0,0,0,0
"Peces",0,0,33.3333,66.6667
"Anfibios",0,0,0,0
"Reptiles",0,0,0,0
"Aves",0,0,0,100
"Mamíferos",0,0,100,0
