"Grupo","Menor","Media","Alta","No_enlistadas"
"Hongos",0,0,0,100
"Plantas",0,0.6849,0,99.3151
"Invertebrados",0,0,0,100
"Peces",0,0,0,100
"Anfibios",0,0,0,100
"Reptiles",0,0,5.5556,94.4444
"Aves",0,18.8889,3.3333,77.7778
"Mamíferos",0,0,33.3333,66.6667
