"Grupo","Menor","Media","Alta","No_enlistadas"
"Hongos",0,0,0,0
"Plantas",0,0,4.5455,95.4545
"Invertebrados",0,0,0,100
"Peces",0,0,0,0
"Anfibios",0,0,0,0
"Reptiles",0,0,20,80
"Aves",7.6923,0,0,92.3077
"Mamíferos",0,0,0,0
