"Grupo","Menor","Media","Alta","No_enlistadas"
"Hongos",0,0,0,100
"Plantas",0,0,7.6923,92.3077
"Invertebrados",0,0,0,0
"Peces",0,0,0,0
"Anfibios",0,0,0,0
"Reptiles",0,0,0,0
"Aves",0,7.1429,0,92.8571
"Mamíferos",0,0,0,0
