"Grupo","Menor","Media","Alta","No_enlistadas"
"Hongos",0,0,0,0
"Plantas",0,0.8696,1.7391,97.3913
"Invertebrados",0,0,0,100
"Peces",0,0,33.3333,66.6667
"Anfibios",100,0,0,0
"Reptiles",0,0,33.3333,66.6667
"Aves",5.2632,0,0,94.7368
"Mamíferos",0,0,0,100
