"Grupo","Menor","Media","Alta","No_enlistadas"
"Hongos",0,0,0,0
"Plantas",0,0,0,100
"Invertebrados",0,0,0,100
"Peces",0,0,0,100
"Anfibios",0,0,0,100
"Reptiles",0,0,66.6667,33.3333
"Aves",0,0,5.2632,94.7368
"Mamíferos",0,0,0,0
