"Grupo","Menor","Media","Alta","No_enlistadas"
"Hongos",0,0,0,100
"Plantas",0,0,0.8547,99.1453
"Invertebrados",0,0,0,100
"Peces",0,0,0,100
"Anfibios",25,0,0,75
"Reptiles",0,0,11.1111,88.8889
"Aves",0,0,0,100
"Mamíferos",0,0,0,100
