"Grupo","Menor","Media","Alta","No_enlistadas"
"Hongos",0,0,0,100
"Plantas",0,1.2448,3.7344,95.0207
"Invertebrados",0,0,0,100
"Peces",3.2258,0,0,96.7742
"Anfibios",0,0,0,0
"Reptiles",0,0,17.3913,82.6087
"Aves",1.9108,5.7325,2.5478,89.8089
"Mamíferos",0,14.2857,14.2857,71.4286
