"Grupo","Menor","Media","Alta","No_enlistadas"
"Hongos",0,0,0,0
"Plantas",0,0,11.4286,88.5714
"Invertebrados",0,0,0,100
"Peces",14.2857,0,0,85.7143
"Anfibios",0,0,0,100
"Reptiles",0,0,0,100
"Aves",2.0202,6.0606,4.0404,87.8788
"Mamíferos",0,0,0,0
