"Grupo","Menor","Media","Alta","No_enlistadas"
"Hongos",0,0,0,100
"Plantas",0,0.6129,1.6343,97.7528
"Invertebrados",0,0,0.7042,99.2958
"Peces",0,0,25,75
"Anfibios",0,0,5.5556,94.4444
"Reptiles",0,0,1.4286,98.5714
"Aves",0.8696,16.5217,6.9565,75.6522
"Mamíferos",0,0,7.0175,92.9825
