"Grupo","Menor","Media","Alta","No_enlistadas"
"Hongos",0,0,0,100
"Plantas",0,0.2389,0.5974,99.1637
"Invertebrados",0,0,0,100
"Peces",0,0,0,100
"Anfibios",8.3333,0,0,91.6667
"Reptiles",0,0,7.1429,92.8571
"Aves",2.3256,11.6279,2.3256,83.7209
"Mamíferos",0,0,4.878,95.122
