"Grupo","Menor","Media","Alta","No_enlistadas"
"Hongos",0,0,0,0
"Plantas",0,0,1.005,98.995
"Invertebrados",0,0,0,100
"Peces",0,0,0,0
"Anfibios",0,0,0,100
"Reptiles",0,0,14.7059,85.2941
"Aves",0,5.5556,16.6667,77.7778
"Mamíferos",12.5,0,12.5,75
