"Grupo","Menor","Media","Alta","No_enlistadas"
"Hongos",0,0,0,100
"Plantas",0,0.3289,0.6579,99.0132
"Invertebrados",0,0,0,100
"Peces",0,0,0,100
"Anfibios",0,0,0,100
"Reptiles",0,0,6.6667,93.3333
"Aves",0,0,12.5,87.5
"Mamíferos",0,0,15.3846,84.6154
