"Grupo","Menor","Media","Alta","No_enlistadas"
"Hongos",0,0,0,100
"Plantas",0,0,0.5181,99.4819
"Invertebrados",0,0,0,100
"Peces",0,0,0,100
"Anfibios",0,0,0,100
"Reptiles",0,0,7.1429,92.8571
"Aves",5.0847,3.3898,5.0847,86.4407
"Mamíferos",0,0,14.2857,85.7143
