"Grupo","Menor","Media","Alta","No_enlistadas"
"Hongos",0,0,0,0
"Plantas",0,0,6.8966,93.1034
"Invertebrados",0,0,0,100
"Peces",0,0,0,100
"Anfibios",0,0,0,0
"Reptiles",0,0,6.6667,93.3333
"Aves",3.125,9.375,0,87.5
"Mamíferos",0,0,100,0
