"Grupo","Menor","Media","Alta","No_enlistadas"
"Hongos",0,0,0,0
"Plantas",0,0,4.0816,95.9184
"Invertebrados",0,0,0,100
"Peces",0,0,25,75
"Anfibios",0,0,0,0
"Reptiles",0,0,50,50
"Aves",1.9231,5.7692,1.9231,90.3846
"Mamíferos",9.0909,0,18.1818,72.7273
