"Grupo","Menor","Media","Alta","No_enlistadas"
"Hongos",0,0,0,0
"Plantas",0,0,2.5,97.5
"Invertebrados",0,0,0,100
"Peces",14.2857,14.2857,14.2857,57.1429
"Anfibios",0,0,0,0
"Reptiles",0,0,0,100
"Aves",0,18.1818,0,81.8182
"Mamíferos",0,0,0,100
