"Grupo","Menor","Media","Alta","No_enlistadas"
"Hongos",0,0,0,100
"Plantas",0,0,0.9524,99.0476
"Invertebrados",0,0,0,100
"Peces",0,0,0,100
"Anfibios",0,0,0,0
"Reptiles",0,0,0,100
"Aves",0,0,0,100
"Mamíferos",0,0,18.1818,81.8182
