"Grupo","Menor","Media","Alta","No_enlistadas"
"Hongos",0,0,0,0
"Plantas",0,0,1.4085,98.5915
"Invertebrados",0,0,0,100
"Peces",0,0,20,80
"Anfibios",0,0,0,100
"Reptiles",0,0,40,60
"Aves",0,7.8947,0,92.1053
"Mamíferos",0,0,0,100
