"Grupo","Menor","Media","Alta","No_enlistadas"
"Hongos",0,0,0,100
"Plantas",0,1.1696,2.924,95.9064
"Invertebrados",0,0,0,100
"Peces",33.3333,0,0,66.6667
"Anfibios",0,0,0,100
"Reptiles",0,0,18.1818,81.8182
"Aves",0,3.4483,6.8966,89.6552
"Mamíferos",0,0,20,80
