"Grupo","Menor","Media","Alta","No_enlistadas"
"Hongos",0,0,0,0
"Plantas",0,1.9231,0,98.0769
"Invertebrados",0,0,0,100
"Peces",0,50,0,50
"Anfibios",0,0,0,0
"Reptiles",0,0,16.6667,83.3333
"Aves",0,0,7.6923,92.3077
"Mamíferos",0,0,0,0
