"Grupo","Menor","Media","Alta","No_enlistadas"
"Hongos",0,0,0,100
"Plantas",0,0.2577,1.0309,98.7113
"Invertebrados",0,0,0,100
"Peces",0,0,1.7241,98.2759
"Anfibios",25,0,0,75
"Reptiles",0,0,18.5185,81.4815
"Aves",2.2727,2.2727,2.2727,93.1818
"Mamíferos",0,0,5.7143,94.2857
