"Grupo","Menor","Media","Alta","No_enlistadas"
"Hongos",0,0,0,100
"Plantas",0,0,0,100
"Invertebrados",0,0,0,100
"Peces",0,0,0,0
"Anfibios",0,0,0,0
"Reptiles",0,0,14.2857,85.7143
"Aves",3.2609,4.3478,1.087,91.3043
"Mamíferos",0,0,0,100
