"Grupo","Menor","Media","Alta","No_enlistadas"
"Hongos",0,0,0,100
"Plantas",0,0.3115,0.6231,99.0654
"Invertebrados",0,0,0,100
"Peces",0,0,8,92
"Anfibios",14.2857,0,0,85.7143
"Reptiles",0,0,12.9032,87.0968
"Aves",0.8065,10.4839,2.4194,86.2903
"Mamíferos",0,0,42.8571,57.1429
