"Grupo","Menor","Media","Alta","No_enlistadas"
"Hongos",0,0,0,0
"Plantas",0,0,0.6024,99.3976
"Invertebrados",0,0,7.6923,92.3077
"Peces",0,0,0,0
"Anfibios",0,0,0,100
"Reptiles",0,0,0,100
"Aves",0,0,0,100
"Mamíferos",0,0,0,100
