"Grupo","Menor","Media","Alta","No_enlistadas"
"Hongos",0,0,0,0
"Plantas",0,0,2.8571,97.1429
"Invertebrados",0,0,0,100
"Peces",0,0,0,100
"Anfibios",0,0,0,100
"Reptiles",0,0,33.3333,66.6667
"Aves",1.7964,8.982,3.5928,85.6287
"Mamíferos",0,0,16.6667,83.3333
