"Grupo","Menor","Media","Alta","No_enlistadas"
"Hongos",0,0,0,0
"Plantas",0,0,1.2903,98.7097
"Invertebrados",0,0,0,100
"Peces",0,0,0,100
"Anfibios",0,0,0,0
"Reptiles",0,0,11.7647,88.2353
"Aves",0,0,0,100
"Mamíferos",0,0,14.2857,85.7143
