"Grupo","Menor","Media","Alta","No_enlistadas"
"Hongos",0,0,0,100
"Plantas",0,0,5.8824,94.1176
"Invertebrados",0,0,0,100
"Peces",0,0,0,0
"Anfibios",0,0,0,0
"Reptiles",0,0,0,0
"Aves",0,0,0,0
"Mamíferos",0,0,0,0
