"Grupo","Menor","Media","Alta","No_enlistadas"
"Hongos",0,0,0,0
"Plantas",0,1.5385,1.5385,96.9231
"Invertebrados",0,0,0,100
"Peces",0,0,0,100
"Anfibios",0,0,0,100
"Reptiles",0,0,6.6667,93.3333
"Aves",0,0,0,100
"Mamíferos",0,0,5.5556,94.4444
