"Grupo","Menor","Media","Alta","No_enlistadas"
"Hongos",0,0,0,0
"Plantas",0,2.381,2.381,95.2381
"Invertebrados",0,0,0,0
"Peces",0,0,0,0
"Anfibios",0,0,0,0
"Reptiles",0,0,0,0
"Aves",0,0,0,0
"Mamíferos",0,0,100,0
