"Grupo","Menor","Media","Alta","No_enlistadas"
"Hongos",0,0,0,100
"Plantas",0,0,2.8169,97.1831
"Invertebrados",0,0,0,100
"Peces",2.9412,0,0,97.0588
"Anfibios",10,0,0,90
"Reptiles",0,0,5,95
"Aves",1.8182,3.6364,2.7273,91.8182
"Mamíferos",0,0,10,90
