"Grupo","Menor","Media","Alta","No_enlistadas"
"Hongos",0,0,0,100
"Plantas",0,0,0.4854,99.5146
"Invertebrados",0,0,0,100
"Peces",0,0,0,100
"Anfibios",0,0,0,100
"Reptiles",0,0,8.8235,91.1765
"Aves",0,12.1212,3.0303,84.8485
"Mamíferos",0,0,5.8824,94.1176
