"Grupo","Menor","Media","Alta","No_enlistadas"
"Hongos",0,0,0,100
"Plantas",0,0.2999,0.2999,99.4003
"Invertebrados",0,0,0,100
"Peces",0,0,0,100
"Anfibios",11.1111,0,0,88.8889
"Reptiles",0,0,4.0816,95.9184
"Aves",2.2222,14.4444,5.5556,77.7778
"Mamíferos",0,0,0,100
