"Grupo","Menor","Media","Alta","No_enlistadas"
"Hongos",0,0,0,100
"Plantas",0,0,0.5076,99.4924
"Invertebrados",0,0,0,100
"Peces",0,0.4505,2.2523,97.2973
"Anfibios",0,0,0,100
"Reptiles",0,0,20,80
"Aves",1.6949,13.5593,1.6949,83.0508
"Mamíferos",0,0,0,100
