"Grupo","Menor","Media","Alta","No_enlistadas"
"Hongos",0,0,0,0
"Plantas",0,0,0,100
"Invertebrados",0,0,0,100
"Peces",0,0,0,0
"Anfibios",50,0,0,50
"Reptiles",0,0,18.1818,81.8182
"Aves",2.439,0,0,97.561
"Mamíferos",33.3333,0,0,66.6667
