"Grupo","Menor","Media","Alta","No_enlistadas"
"Hongos",0,0,0,100
"Plantas",0,0,0,100
"Invertebrados",0,0,0,100
"Peces",0,0,0,0
"Anfibios",0,0,0,100
"Reptiles",0,0,22.2222,77.7778
"Aves",1.7241,10.3448,0,87.931
"Mamíferos",0,0,0,100
