"Grupo","Menor","Media","Alta","No_enlistadas"
"Hongos",0,0,0,100
"Plantas",0,0,0.4866,99.5134
"Invertebrados",0,0,0,100
"Peces",0,0,0,100
"Anfibios",9.0909,0,0,90.9091
"Reptiles",0,0,6.25,93.75
"Aves",1.3514,10.8108,2.7027,85.1351
"Mamíferos",0,0,5,95
