"Grupo","Menor","Media","Alta","No_enlistadas"
"Hongos",0,0,0,100
"Plantas",0,0,1.1236,98.8764
"Invertebrados",0,0,0,100
"Peces",0,0,0,100
"Anfibios",0,0,0,100
"Reptiles",0,0,20,80
"Aves",2.5,7.5,2.5,87.5
"Mamíferos",0,0,33.3333,66.6667
