"Grupo","Menor","Media","Alta","No_enlistadas"
"Hongos",0,0,0,100
"Plantas",0,0,0.8929,99.1071
"Invertebrados",0,0,0,100
"Peces",0,0,0,0
"Anfibios",0,0,0,100
"Reptiles",0,0,5.5556,94.4444
"Aves",4.3478,8.6957,8.6957,78.2609
"Mamíferos",0,0,0,100
