"Grupo","Menor","Media","Alta","No_enlistadas"
"Hongos",0,0,0,100
"Plantas",0,0,0.1473,99.8527
"Invertebrados",0,0,0,100
"Peces",0,0,0,100
"Anfibios",14.2857,0,0,85.7143
"Reptiles",0,0,5.1724,94.8276
"Aves",0,0,12.1212,87.8788
"Mamíferos",0,0,3.0303,96.9697
