"Grupo","Menor","Media","Alta","No_enlistadas"
"Hongos",0,0,0,100
"Plantas",0,0,0.9091,99.0909
"Invertebrados",0,0,0,100
"Peces",0,0,0,100
"Anfibios",0,0,0,100
"Reptiles",0,0,14.2857,85.7143
"Aves",1.7241,1.7241,7.7586,88.7931
"Mamíferos",0,0,7.6923,92.3077
