"Grupo","Menor","Media","Alta","No_enlistadas"
"Hongos",0,0,0,0
"Plantas",0,0,0,100
"Invertebrados",0,0,0,100
"Peces",0,0,0,0
"Anfibios",0,0,0,100
"Reptiles",0,0,50,50
"Aves",1.4925,4.4776,2.9851,91.0448
"Mamíferos",0,0,0,0
