"Grupo","Menor","Media","Alta","No_enlistadas"
"Hongos",0,0,0,0
"Plantas",0,0,1.3699,98.6301
"Invertebrados",0,0,0,100
"Peces",0,0,0,100
"Anfibios",0,0,0,0
"Reptiles",0,14.2857,0,85.7143
"Aves",2.9412,0,2.9412,94.1176
"Mamíferos",50,0,0,50
