"Grupo","Menor","Media","Alta","No_enlistadas"
"Hongos",0,0,0,100
"Plantas",0,0.3452,0.9206,98.7342
"Invertebrados",0,0,0.1295,99.8705
"Peces",0.9434,0,2.8302,96.2264
"Anfibios",0,0,0,100
"Reptiles",0,1.8182,3.6364,94.5455
"Aves",1.3514,7.4324,4.0541,87.1622
"Mamíferos",0,0,7.2727,92.7273
