"Grupo","Menor","Media","Alta","No_enlistadas"
"Hongos",0,0,0,100
"Plantas",0,0,9.0909,90.9091
"Invertebrados",0,0,0,100
"Peces",0,0,0,0
"Anfibios",0,0,0,0
"Reptiles",0,0,9.0909,90.9091
"Aves",2.7027,10.8108,0,86.4865
"Mamíferos",0,0,14.2857,85.7143
