"Grupo","Menor","Media","Alta","No_enlistadas"
"Hongos",0,0,0,0
"Plantas",0,0,2.1739,97.8261
"Invertebrados",0,0,0,100
"Peces",0,0,0,100
"Anfibios",0,0,0,100
"Reptiles",0,0,50,50
"Aves",0,12.5,0,87.5
"Mamíferos",0,0,0,0
