"Grupo","Menor","Media","Alta","No_enlistadas"
"Hongos",0,0,0,0
"Plantas",0,0,0,100
"Invertebrados",0,0,0,0
"Peces",0,0,0,100
"Anfibios",0,0,0,100
"Reptiles",0,0,28.5714,71.4286
"Aves",0,0,5,95
"Mamíferos",0,0,0,100
