"Grupo","Menor","Media","Alta","No_enlistadas"
"Hongos",0,0,0,0
"Plantas",0,2.5,0,97.5
"Invertebrados",0,0,0,100
"Peces",0,0,0,100
"Anfibios",100,0,0,0
"Reptiles",0,0,16.6667,83.3333
"Aves",0,0,7.1429,92.8571
"Mamíferos",0,0,0,100
