"Grupo","Menor","Media","Alta","No_enlistadas"
"Hongos",0,0,0,100
"Plantas",0,2.9412,0,97.0588
"Invertebrados",0,0,0,0
"Peces",0,0,0,100
"Anfibios",0,0,0,0
"Reptiles",0,0,0,0
"Aves",0,0,0,0
"Mamíferos",0,0,0,0
