"Grupo","Menor","Media","Alta","No_enlistadas"
"Hongos",0,0,0,100
"Plantas",0,0.6452,0,99.3548
"Invertebrados",0,0,0,100
"Peces",0,0,0,100
"Anfibios",25,0,0,75
"Reptiles",0,0,9.5238,90.4762
"Aves",1.1905,10.7143,1.1905,86.9048
"Mamíferos",0,0,0,100
