"Grupo","Menor","Media","Alta","No_enlistadas"
"Hongos",0,0,0,0
"Plantas",0,0,0,0
"Invertebrados",0,0,0,100
"Peces",0,0,0,0
"Anfibios",0,0,0,0
"Reptiles",0,0,12.5,87.5
"Aves",4.5455,4.5455,0,90.9091
"Mamíferos",0,0,0,100
