"Grupo","Menor","Media","Alta","No_enlistadas"
"Hongos",0,0,0,0
"Plantas",0,0.6803,0,99.3197
"Invertebrados",0,0,0,100
"Peces",0,0,0,100
"Anfibios",33.3333,0,0,66.6667
"Reptiles",0,0,5.2632,94.7368
"Aves",1.6393,1.6393,1.6393,95.082
"Mamíferos",0,0,25,75
