"Grupo","Menor","Media","Alta","No_enlistadas"
"Hongos",0,0,0,100
"Plantas",0.0261,0.2606,0.4169,99.2965
"Invertebrados",0,0,0.0539,99.9461
"Peces",0,0,12.2449,87.7551
"Anfibios",0,0,9.2593,90.7407
"Reptiles",0,0,5.7554,94.2446
"Aves",1.8868,9.9057,5.1887,83.0189
"Mamíferos",1.6129,0.8065,7.2581,90.3226
