"Grupo","Menor","Media","Alta","No_enlistadas"
"Hongos",0,0,0,100
"Plantas",0,0.4402,0.5869,98.9729
"Invertebrados",0,0,0.2604,99.7396
"Peces",0,0,0,100
"Anfibios",0,0,0,100
"Reptiles",0,0,0,100
"Aves",1.8692,13.0841,4.6729,80.3738
"Mamíferos",1.6129,0,4.8387,93.5484
