"Grupo","Menor","Media","Alta","No_enlistadas"
"Hongos",0,0,0,0
"Plantas",0,0,1.7241,98.2759
"Invertebrados",0,0,0,100
"Peces",0,0,1,99
"Anfibios",0,0,0,0
"Reptiles",0,0,0,100
"Aves",2.3256,4.6512,6.9767,86.0465
"Mamíferos",0,0,10,90
