"Grupo","Menor","Media","Alta","No_enlistadas"
"Hongos",0,0,0,100
"Plantas",0,1.4706,2.9412,95.5882
"Invertebrados",0,0,0,100
"Peces",0,0,0,100
"Anfibios",0,0,0,100
"Reptiles",0,0,0,100
"Aves",2.381,16.6667,2.381,78.5714
"Mamíferos",0,0,0,100
