"Grupo","Menor","Media","Alta","No_enlistadas"
"Hongos",0,0,0,0
"Plantas",0,0,7.0175,92.9825
"Invertebrados",0,0,0,100
"Peces",0,0,0,100
"Anfibios",0,0,0,0
"Reptiles",0,0,10,90
"Aves",2.5,8.75,1.25,87.5
"Mamíferos",50,0,0,50
