"Grupo","Menor","Media","Alta","No_enlistadas"
"Hongos",0,0,0,100
"Plantas",0,0.6757,3.3784,95.9459
"Invertebrados",0,0,0,100
"Peces",0,0,0,100
"Anfibios",0,0,0,0
"Reptiles",0,0,100,0
"Aves",0,0,7.1429,92.8571
"Mamíferos",0,0,0,100
