"Grupo","Menor","Media","Alta","No_enlistadas"
"Hongos",0,0,0,0
"Plantas",0,0,0,100
"Invertebrados",0,0,0,100
"Peces",0,0,0,0
"Anfibios",0,0,0,0
"Reptiles",0,0,0,100
"Aves",3.8462,3.8462,0,92.3077
"Mamíferos",0,0,25,75
