"Grupo","Menor","Media","Alta","No_enlistadas"
"Hongos",0,0,0,0
"Plantas",0,1.4981,1.4981,97.0037
"Invertebrados",0,0,0,100
"Peces",0,0,0,0
"Anfibios",0,0,0,100
"Reptiles",0,0,0,100
"Aves",0,6.25,6.25,87.5
"Mamíferos",0,0,3.2258,96.7742
