"Grupo","Menor","Media","Alta","No_enlistadas"
"Hongos",0,0,0,100
"Plantas",0,0.2227,1.3363,98.441
"Invertebrados",0,0,2.0833,97.9167
"Peces",0,0,14.2857,85.7143
"Anfibios",0,0,9.0909,90.9091
"Reptiles",0,0,4.5455,95.4545
"Aves",1.9481,10.3896,1.9481,85.7143
"Mamíferos",0,0,3.4483,96.5517
