"Grupo","Menor","Media","Alta","No_enlistadas"
"Hongos",0,0,0,0
"Plantas",0,0,2.9851,97.0149
"Invertebrados",0,0,0,100
"Peces",0,0,0,100
"Anfibios",0,0,0,0
"Reptiles",0,0,0,100
"Aves",0,0,20,80
"Mamíferos",0,0,0,100
