"Grupo","Menor","Media","Alta","No_enlistadas"
"Hongos",0,0,0,100
"Plantas",0,0.1436,0.5386,99.3178
"Invertebrados",0,0,0.0911,99.9089
"Peces",0.2564,1.0256,2.3077,96.4103
"Anfibios",2.7778,0,2.7778,94.4444
"Reptiles",0,0,8.3871,91.6129
"Aves",1.049,8.3916,5.5944,84.965
"Mamíferos",0.6944,0,6.25,93.0556
