"Grupo","Menor","Media","Alta","No_enlistadas"
"Hongos",0,0,0,0
"Plantas",0,1.0753,2.1505,96.7742
"Invertebrados",0,0,0,100
"Peces",0,0,0,100
"Anfibios",0,0,0,0
"Reptiles",0,0,14.2857,85.7143
"Aves",2.8986,4.3478,4.3478,88.4058
"Mamíferos",0,0,14.2857,85.7143
