"Grupo","Menor","Media","Alta","No_enlistadas"
"Hongos",0,0,0,100
"Plantas",0,0,3.125,96.875
"Invertebrados",0,0,0,100
"Peces",0,0,0,100
"Anfibios",0,0,0,100
"Reptiles",0,0,0,0
"Aves",2.7273,3.6364,1.8182,91.8182
"Mamíferos",0,0,0,100
