"Grupo","Menor","Media","Alta","No_enlistadas"
"Hongos",0,0,0,0
"Plantas",0,0,0,100
"Invertebrados",0,0,0,100
"Peces",0,0,50,50
"Anfibios",0,0,0,0
"Reptiles",0,0,0,100
"Aves",3.2258,0,0,96.7742
"Mamíferos",16.6667,0,0,83.3333
