"Grupo","Menor","Media","Alta","No_enlistadas"
"Hongos",0,0,0,100
"Plantas",0,0,0,100
"Invertebrados",0,0,0,100
"Peces",0,0,0,100
"Anfibios",20,0,0,80
"Reptiles",0,0,12,88
"Aves",1.4493,13.0435,2.8986,82.6087
"Mamíferos",0,0,0,100
