"Grupo","Menor","Media","Alta","No_enlistadas"
"Hongos",0,0,0,0
"Plantas",0,0,6.6667,93.3333
"Invertebrados",0,0,0,100
"Peces",0,0,0,0
"Anfibios",0,0,0,0
"Reptiles",0,0,0,100
"Aves",1.4085,8.4507,2.8169,87.3239
"Mamíferos",0,0,0,100
