"Grupo","Sujeta_a_proteccion_especial_(Pr)","Amenazada_(A)","En_peligro_de_extincion_(P)","Probablemente_extinta_en_medio_silvestre_(E)","No_enlistadas"
"Hongos",0,0,0,0,0
"Plantas",0,0,0,0,100
"Invertebrados",0,0,10,0,90
"Peces",0,0,0,0,0
"Anfibios",0,0,0,0,0
"Reptiles",0,50,0,0,50
"Aves",16.6667,0,0,0,83.3333
"Mamíferos",0,0,0,0,0
