"Grupo","Sujeta_a_proteccion_especial_(Pr)","Amenazada_(A)","En_peligro_de_extincion_(P)","Probablemente_extinta_en_medio_silvestre_(E)","No_enlistadas"
"Hongos",0,0,0,0,0
"Plantas",1.6667,0,0,0,98.3333
"Invertebrados",0,0,0,0,100
"Peces",0,0,6.6667,0,93.3333
"Anfibios",0,0,0,0,0
"Reptiles",25,12.5,0,0,62.5
"Aves",12.5,1.25,1.25,0,85
"Mamíferos",0,0,0,0,100
