"Grupo","Sujeta_a_proteccion_especial_(Pr)","Amenazada_(A)","En_peligro_de_extincion_(P)","Probablemente_extinta_en_medio_silvestre_(E)","No_enlistadas"
"Hongos",0,0,0,0,0
"Plantas",0,5.2632,0,0,94.7368
"Invertebrados",0,0,0,0,100
"Peces",0,0,0,0,0
"Anfibios",0,0,0,0,100
"Reptiles",27.2727,9.0909,0,0,63.6364
"Aves",7.2289,4.8193,0,0,87.9518
"Mamíferos",0,0,0,0,100
