"Grupo","Sujeta_a_proteccion_especial_(Pr)","Amenazada_(A)","En_peligro_de_extincion_(P)","Probablemente_extinta_en_medio_silvestre_(E)","No_enlistadas"
"Hongos",0,0,0,0,100
"Plantas",0,3.7037,0,0,96.2963
"Invertebrados",0,0,0,0,100
"Peces",7.1429,0,0,0,92.8571
"Anfibios",0,0,0,0,100
"Reptiles",44.4444,0,0,0,55.5556
"Aves",12.5,7.5,2.5,0,77.5
"Mamíferos",0,0,0,0,100
