"Grupo","Sujeta_a_proteccion_especial_(Pr)","Amenazada_(A)","En_peligro_de_extincion_(P)","Probablemente_extinta_en_medio_silvestre_(E)","No_enlistadas"
"Hongos",0,0,0,0,0
"Plantas",0,2.6316,0,0,97.3684
"Invertebrados",0,0,0,0,100
"Peces",0,0,0,0,100
"Anfibios",100,0,0,0,0
"Reptiles",66.6667,33.3333,0,0,0
"Aves",33.3333,0,0,0,66.6667
"Mamíferos",0,50,0,0,50
