"Grupo","Sujeta_a_proteccion_especial_(Pr)","Amenazada_(A)","En_peligro_de_extincion_(P)","Probablemente_extinta_en_medio_silvestre_(E)","No_enlistadas"
"Hongos",0,0,0,0,100
"Plantas",1.1236,1.03,0.0936,0,97.7528
"Invertebrados",0,0.3922,0,0,99.6078
"Peces",8,4,4,0,84
"Anfibios",23.0769,2.5641,0,0,74.359
"Reptiles",29.5918,14.2857,0,0,56.1224
"Aves",11.7904,5.6769,2.6201,0.4367,79.476
"Mamíferos",0.8772,3.5088,2.6316,0,92.9825
