"Grupo","Sujeta_a_proteccion_especial_(Pr)","Amenazada_(A)","En_peligro_de_extincion_(P)","Probablemente_extinta_en_medio_silvestre_(E)","No_enlistadas"
"Hongos",0,0,0,0,0
"Plantas",0,22.2222,0,0,77.7778
"Invertebrados",0,0,0,0,100
"Peces",0,0,0,0,100
"Anfibios",33.3333,0,0,0,66.6667
"Reptiles",28.5714,7.1429,7.1429,0,57.1429
"Aves",12.381,2.8571,0.9524,0,83.8095
"Mamíferos",4,0,8,0,88
