"Grupo","Sujeta_a_proteccion_especial_(Pr)","Amenazada_(A)","En_peligro_de_extincion_(P)","Probablemente_extinta_en_medio_silvestre_(E)","No_enlistadas"
"Hongos",0,0,0,0,0
"Plantas",0.9434,3.7736,0,0,95.283
"Invertebrados",0,0,0,0,100
"Peces",0,0,0,0,0
"Anfibios",0,0,0,0,100
"Reptiles",22.2222,16.6667,11.1111,0,50
"Aves",26.6667,6.6667,0,0,66.6667
"Mamíferos",0,100,0,0,0
