"Grupo","Sujeta_a_proteccion_especial_(Pr)","Amenazada_(A)","En_peligro_de_extincion_(P)","Probablemente_extinta_en_medio_silvestre_(E)","No_enlistadas"
"Hongos",0,0,0,0,0
"Plantas",0.1984,2.1825,0.1984,0,97.4206
"Invertebrados",0,2.7027,0,0,97.2973
"Peces",3.7037,0,0,0,96.2963
"Anfibios",0,0,0,0,100
"Reptiles",17.6471,11.7647,2.9412,0,67.6471
"Aves",11.4943,3.4483,3.4483,0,81.6092
"Mamíferos",10.5263,10.5263,5.2632,0,73.6842
