"Grupo","Sujeta_a_proteccion_especial_(Pr)","Amenazada_(A)","En_peligro_de_extincion_(P)","Probablemente_extinta_en_medio_silvestre_(E)","No_enlistadas"
"Hongos",0.1259,2.0151,0,0,97.8589
"Plantas",1.2338,0.9226,0.4828,0.0215,97.3393
"Invertebrados",0.0187,0.0374,0.0187,0,99.9253
"Peces",2.4845,6.8323,6.8323,0,83.8509
"Anfibios",32.8671,11.1888,2.7972,0,53.1469
"Reptiles",32.7526,14.6341,1.7422,0,50.8711
"Aves",14.433,9.9656,4.811,0,70.7904
"Mamíferos",8.547,7.265,2.9915,0,81.1966
