"Grupo","Sujeta_a_proteccion_especial_(Pr)","Amenazada_(A)","En_peligro_de_extincion_(P)","Probablemente_extinta_en_medio_silvestre_(E)","No_enlistadas"
"Hongos",0,0,0,0,0
"Plantas",1.5038,0.7519,0,0,97.7444
"Invertebrados",0,0,0,0,100
"Peces",80,0,0,0,20
"Anfibios",0,0,0,0,100
"Reptiles",57.1429,28.5714,0,0,14.2857
"Aves",20,0,0,0,80
"Mamíferos",25,0,0,0,75
