"Grupo","Sujeta_a_proteccion_especial_(Pr)","Amenazada_(A)","En_peligro_de_extincion_(P)","Probablemente_extinta_en_medio_silvestre_(E)","No_enlistadas"
"Hongos",0,0,0,0,0
"Plantas",0,0.7353,0,0,99.2647
"Invertebrados",0,0,0,0,100
"Peces",0,100,0,0,0
"Anfibios",0,0,0,0,100
"Reptiles",27.5862,10.3448,0,0,62.069
"Aves",7.6923,0,0,0,92.3077
"Mamíferos",0,0,11.1111,0,88.8889
