"Grupo","Sujeta_a_proteccion_especial_(Pr)","Amenazada_(A)","En_peligro_de_extincion_(P)","Probablemente_extinta_en_medio_silvestre_(E)","No_enlistadas"
"Hongos",0,0,0,0,100
"Plantas",0.2982,0.497,0,0,99.2048
"Invertebrados",0.3425,0,0,0,99.6575
"Peces",7.1429,42.8571,7.1429,0,42.8571
"Anfibios",28,4,0,0,68
"Reptiles",22.9885,13.7931,0,0,63.2184
"Aves",9.2025,7.362,2.454,0.6135,80.3681
"Mamíferos",0,2.2222,5.5556,0,92.2222
