"Grupo","Sujeta_a_proteccion_especial_(Pr)","Amenazada_(A)","En_peligro_de_extincion_(P)","Probablemente_extinta_en_medio_silvestre_(E)","No_enlistadas"
"Hongos",0,0,0,0,0
"Plantas",0.3168,1.1616,0,0,98.5216
"Invertebrados",1.6949,0,0,0,98.3051
"Peces",0,0,0,0,100
"Anfibios",0,20,0,0,80
"Reptiles",17.6471,5.8824,23.5294,0,52.9412
"Aves",15.0442,3.5398,2.6549,0,78.7611
"Mamíferos",0,0,0,0,100
