"Grupo","Sujeta_a_proteccion_especial_(Pr)","Amenazada_(A)","En_peligro_de_extincion_(P)","Probablemente_extinta_en_medio_silvestre_(E)","No_enlistadas"
"Hongos",0,1.6949,0,0,98.3051
"Plantas",1.1312,1.4706,0.5656,0,96.8326
"Invertebrados",0.2381,0,0.2381,0,99.5238
"Peces",0,3.5714,3.5714,0,92.8571
"Anfibios",29.2683,2.439,2.439,0,65.8537
"Reptiles",24,12,1.3333,0,62.6667
"Aves",18.4932,8.9041,3.4247,0,69.1781
"Mamíferos",6.6667,6.6667,20,0,66.6667
