"Grupo","Sujeta_a_proteccion_especial_(Pr)","Amenazada_(A)","En_peligro_de_extincion_(P)","Probablemente_extinta_en_medio_silvestre_(E)","No_enlistadas"
"Hongos",2.6316,10.5263,0,0,86.8421
"Plantas",0.9841,0.9084,0.3785,0.0757,97.6533
"Invertebrados",0.2703,0,0,0,99.7297
"Peces",10,0,0,0,90
"Anfibios",30.7692,7.6923,0,0,61.5385
"Reptiles",26.4151,20.7547,1.8868,0,50.9434
"Aves",14.5833,5.2083,3.6458,0,76.5625
"Mamíferos",3.0303,6.0606,0,0,90.9091
