"Grupo","Sujeta_a_proteccion_especial_(Pr)","Amenazada_(A)","En_peligro_de_extincion_(P)","Probablemente_extinta_en_medio_silvestre_(E)","No_enlistadas"
"Hongos",0,0,0,0,0
"Plantas",0,0,0,0,100
"Invertebrados",0,0,0,0,100
"Peces",0,0,0,0,100
"Anfibios",16.6667,0,0,0,83.3333
"Reptiles",16.6667,0,0,0,83.3333
"Aves",12.5,0,0,0,87.5
"Mamíferos",11.1111,16.6667,5.5556,0,66.6667
