"Grupo","Sujeta_a_proteccion_especial_(Pr)","Amenazada_(A)","En_peligro_de_extincion_(P)","Probablemente_extinta_en_medio_silvestre_(E)","No_enlistadas"
"Hongos",0,0,0,0,0
"Plantas",2.3529,3.5294,0,0,94.1176
"Invertebrados",4.5455,0,0,0,95.4545
"Peces",0,0,0,0,0
"Anfibios",0,0,0,0,100
"Reptiles",0,40,40,0,20
"Aves",17.3913,0,0,0,82.6087
"Mamíferos",0,0,0,0,100
