"Grupo","Sujeta_a_proteccion_especial_(Pr)","Amenazada_(A)","En_peligro_de_extincion_(P)","Probablemente_extinta_en_medio_silvestre_(E)","No_enlistadas"
"Hongos",0,0,0,0,0
"Plantas",1.4706,0,0,0,98.5294
"Invertebrados",0,3.125,0,0,96.875
"Peces",0,0,0,0,100
"Anfibios",0,0,0,0,100
"Reptiles",33.3333,8.3333,8.3333,0,50
"Aves",12.7907,2.3256,2.3256,0,82.5581
"Mamíferos",0,7.1429,0,0,92.8571
