"Grupo","Sujeta_a_proteccion_especial_(Pr)","Amenazada_(A)","En_peligro_de_extincion_(P)","Probablemente_extinta_en_medio_silvestre_(E)","No_enlistadas"
"Hongos",0,0,0,0,100
"Plantas",1.8692,0.9346,0.6231,0,96.5732
"Invertebrados",0.2278,0,0,0,99.7722
"Peces",11.1111,0,0,0,88.8889
"Anfibios",7.6923,0,0,0,92.3077
"Reptiles",29.6296,11.1111,0,0,59.2593
"Aves",13.8889,6.9444,3.2407,0,75.9259
"Mamíferos",0,7.6923,0,0,92.3077
