"Grupo","Sujeta_a_proteccion_especial_(Pr)","Amenazada_(A)","En_peligro_de_extincion_(P)","Probablemente_extinta_en_medio_silvestre_(E)","No_enlistadas"
"Hongos",0,0,0,0,0
"Plantas",0,0,100,0,0
"Invertebrados",0,0,0,0,100
"Peces",0,0,0,0,0
"Anfibios",100,0,0,0,0
"Reptiles",0,0,0,0,0
"Aves",0,100,0,0,0
"Mamíferos",0,0,0,0,0
