"Grupo","Sujeta_a_proteccion_especial_(Pr)","Amenazada_(A)","En_peligro_de_extincion_(P)","Probablemente_extinta_en_medio_silvestre_(E)","No_enlistadas"
"Hongos",0,0,0,0,100
"Plantas",1.2012,0.6006,0,0,98.1982
"Invertebrados",0,0,0,0,100
"Peces",5.8824,5.8824,0,0,88.2353
"Anfibios",21.4286,0,0,0,78.5714
"Reptiles",24.3902,14.6341,0,0,60.9756
"Aves",11.828,2.1505,0,0,86.0215
"Mamíferos",3.7037,0,0,0,96.2963
