"Grupo","Sujeta_a_proteccion_especial_(Pr)","Amenazada_(A)","En_peligro_de_extincion_(P)","Probablemente_extinta_en_medio_silvestre_(E)","No_enlistadas"
"Hongos",0,0.6787,0,0,99.3213
"Plantas",1.104,0.5342,0.2493,0,98.1125
"Invertebrados",0.1206,0,0,0,99.8794
"Peces",5.6604,24.5283,7.5472,1.8868,60.3774
"Anfibios",19.1489,2.1277,0,0,78.7234
"Reptiles",25.8278,13.9073,0.6623,0,59.6026
"Aves",11.8721,6.3927,3.1963,0.9132,77.6256
"Mamíferos",5.3691,5.3691,3.3557,0,85.906
