"Grupo","Sujeta_a_proteccion_especial_(Pr)","Amenazada_(A)","En_peligro_de_extincion_(P)","Probablemente_extinta_en_medio_silvestre_(E)","No_enlistadas"
"Hongos",0,0,0,0,0
"Plantas",0,4.1667,4.1667,0,91.6667
"Invertebrados",0,0,0,0,100
"Peces",0,0,33.3333,0,66.6667
"Anfibios",45.4545,0,0,0,54.5455
"Reptiles",7.1429,14.2857,0,0,78.5714
"Aves",21.2121,12.1212,0,0,66.6667
"Mamíferos",0,0,0,0,100
