"Grupo","Sujeta_a_proteccion_especial_(Pr)","Amenazada_(A)","En_peligro_de_extincion_(P)","Probablemente_extinta_en_medio_silvestre_(E)","No_enlistadas"
"Hongos",0,0,0,0,100
"Plantas",1.2408,1.3818,0.6486,0,96.7287
"Invertebrados",0,0,0,0,100
"Peces",1.9802,0,0,0,98.0198
"Anfibios",36.9048,3.5714,0,0,59.5238
"Reptiles",23.494,10.8434,1.8072,0,63.8554
"Aves",18.0392,10.5882,7.0588,0.3922,63.9216
"Mamíferos",5.0725,7.2464,6.5217,0,81.1594
