"Grupo","Sujeta_a_proteccion_especial_(Pr)","Amenazada_(A)","En_peligro_de_extincion_(P)","Probablemente_extinta_en_medio_silvestre_(E)","No_enlistadas"
"Hongos",0,0,0,0,100
"Plantas",1.2195,1.2195,0,0,97.561
"Invertebrados",0,0,0,0,100
"Peces",33.3333,0,0,0,66.6667
"Anfibios",0,0,0,0,0
"Reptiles",66.6667,16.6667,0,0,16.6667
"Aves",13.5135,4.0541,2.7027,0,79.7297
"Mamíferos",0,0,0,0,100
