"Grupo","Sujeta_a_proteccion_especial_(Pr)","Amenazada_(A)","En_peligro_de_extincion_(P)","Probablemente_extinta_en_medio_silvestre_(E)","No_enlistadas"
"Hongos",0.2604,1.2153,0.0868,0,98.4375
"Plantas",0.972,1.4969,1.0109,0,96.5202
"Invertebrados",0,0,0,0,100
"Peces",9.0909,0,0,0,90.9091
"Anfibios",26.1538,12.3077,6.1538,0,55.3846
"Reptiles",25.2101,13.4454,0,0,61.3445
"Aves",15.7895,10.1504,3.7594,0.3759,69.9248
"Mamíferos",9.375,4.6875,0.7812,0,85.1562
