"Grupo","Sujeta_a_proteccion_especial_(Pr)","Amenazada_(A)","En_peligro_de_extincion_(P)","Probablemente_extinta_en_medio_silvestre_(E)","No_enlistadas"
"Hongos",0,0,0,0,0
"Plantas",1.9305,0,0,0,98.0695
"Invertebrados",0,0,0,0,100
"Peces",0,0,0,0,100
"Anfibios",42.8571,0,0,0,57.1429
"Reptiles",27.2727,13.6364,4.5455,0,54.5455
"Aves",19.2308,7.6923,7.6923,0,65.3846
"Mamíferos",5.8824,11.7647,0,0,82.3529
