"Grupo","Sujeta_a_proteccion_especial_(Pr)","Amenazada_(A)","En_peligro_de_extincion_(P)","Probablemente_extinta_en_medio_silvestre_(E)","No_enlistadas"
"Hongos",0,0,0,0,100
"Plantas",1.0582,1.8519,0,0,97.0899
"Invertebrados",0.5988,1.1976,0,0,98.2036
"Peces",2.5,2.5,0,0,95
"Anfibios",14.2857,0,0,0,85.7143
"Reptiles",19.0476,19.0476,0,0,61.9048
"Aves",14.7541,6.5574,4.0984,0,74.5902
"Mamíferos",0,6.6667,6.6667,0,86.6667
