"Grupo","Sujeta_a_proteccion_especial_(Pr)","Amenazada_(A)","En_peligro_de_extincion_(P)","Probablemente_extinta_en_medio_silvestre_(E)","No_enlistadas"
"Hongos",0,0,0,0,100
"Plantas",1.0929,0.5464,1.0929,0,97.2678
"Invertebrados",0,0,0,0,100
"Peces",66.6667,0,0,0,33.3333
"Anfibios",25,0,0,0,75
"Reptiles",18.1818,9.0909,9.0909,0,63.6364
"Aves",15.8621,4.8276,2.7586,0,76.5517
"Mamíferos",0,0,0,0,100
