"Grupo","Sujeta_a_proteccion_especial_(Pr)","Amenazada_(A)","En_peligro_de_extincion_(P)","Probablemente_extinta_en_medio_silvestre_(E)","No_enlistadas"
"Hongos",0,0,0,0,100
"Plantas",1.165,1.9417,0.3883,0,96.5049
"Invertebrados",0,0.495,0,0,99.505
"Peces",7.3171,2.439,0,0,90.2439
"Anfibios",25.9259,3.7037,0,0,70.3704
"Reptiles",31.0345,10.3448,1.7241,0,56.8966
"Aves",13.5294,6.4706,1.7647,0,78.2353
"Mamíferos",6.8966,6.8966,6.8966,0,79.3103
