"Grupo","Sujeta_a_proteccion_especial_(Pr)","Amenazada_(A)","En_peligro_de_extincion_(P)","Probablemente_extinta_en_medio_silvestre_(E)","No_enlistadas"
"Hongos",0,0,0,0,100
"Plantas",0.6579,0.6579,0,0,98.6842
"Invertebrados",0,0,0,0,100
"Peces",0,0,0,0,100
"Anfibios",7.6923,7.6923,7.6923,0,76.9231
"Reptiles",27.0833,20.8333,0,0,52.0833
"Aves",5.8824,4.4118,1.4706,0,88.2353
"Mamíferos",0,9.0909,9.0909,0,81.8182
