"Grupo","Sujeta_a_proteccion_especial_(Pr)","Amenazada_(A)","En_peligro_de_extincion_(P)","Probablemente_extinta_en_medio_silvestre_(E)","No_enlistadas"
"Hongos",0,0,0,0,100
"Plantas",0,0.6024,0,0,99.3976
"Invertebrados",0,0,0,0,100
"Peces",0,0,0,0,100
"Anfibios",50,50,0,0,0
"Reptiles",41.6667,12.5,0,0,45.8333
"Aves",8.1967,0,0,0,91.8033
"Mamíferos",0,0,0,0,100
