"Grupo","Sujeta_a_proteccion_especial_(Pr)","Amenazada_(A)","En_peligro_de_extincion_(P)","Probablemente_extinta_en_medio_silvestre_(E)","No_enlistadas"
"Hongos",0,0,0,0,0
"Plantas",3.8462,0,3.8462,0,92.3077
"Invertebrados",0,0,0,0,100
"Peces",1.7544,0,0,0,98.2456
"Anfibios",0,50,0,0,50
"Reptiles",50,10,0,0,40
"Aves",0,0,0,0,100
"Mamíferos",25,0,0,0,75
