"Grupo","Sujeta_a_proteccion_especial_(Pr)","Amenazada_(A)","En_peligro_de_extincion_(P)","Probablemente_extinta_en_medio_silvestre_(E)","No_enlistadas"
"Hongos",0,1.4286,0,0,98.5714
"Plantas",1.1778,0.7729,0.4049,0,97.6445
"Invertebrados",0.1139,0,0.2278,0,99.6583
"Peces",1.8519,35.1852,12.963,0,50
"Anfibios",28.5714,2.8571,0,0,68.5714
"Reptiles",19.5652,13.7681,3.6232,0,63.0435
"Aves",11.1111,6.7901,3.0864,0.6173,78.3951
"Mamíferos",2.7027,3.3784,2.027,0,91.8919
