"Grupo","Sujeta_a_proteccion_especial_(Pr)","Amenazada_(A)","En_peligro_de_extincion_(P)","Probablemente_extinta_en_medio_silvestre_(E)","No_enlistadas"
"Hongos",0,0,0,0,0
"Plantas",2.4911,1.0676,1.0676,0,95.3737
"Invertebrados",0,0,0,0,100
"Peces",0,0,0,0,0
"Anfibios",31.25,0,0,0,68.75
"Reptiles",17.6471,14.7059,2.9412,0,64.7059
"Aves",18.8889,11.1111,3.3333,0,66.6667
"Mamíferos",33.3333,0,33.3333,0,33.3333
