"Grupo","Sujeta_a_proteccion_especial_(Pr)","Amenazada_(A)","En_peligro_de_extincion_(P)","Probablemente_extinta_en_medio_silvestre_(E)","No_enlistadas"
"Hongos",0,0,0,0,100
"Plantas",1.1173,1.676,0,0,97.2067
"Invertebrados",0,0,0,0,100
"Peces",0,0,0,0,100
"Anfibios",12.5,25,0,0,62.5
"Reptiles",14.2857,14.2857,0,0,71.4286
"Aves",9.0909,18.1818,0,0,72.7273
"Mamíferos",0,0,33.3333,0,66.6667
