"Grupo","Sujeta_a_proteccion_especial_(Pr)","Amenazada_(A)","En_peligro_de_extincion_(P)","Probablemente_extinta_en_medio_silvestre_(E)","No_enlistadas"
"Hongos",0,0,0,0,100
"Plantas",0.6993,1.1655,0.2331,0,97.9021
"Invertebrados",0,0,0,0,100
"Peces",0,0,0,0,100
"Anfibios",12.5,0,0,0,87.5
"Reptiles",37.5,17.5,2.5,0,42.5
"Aves",10.9375,2.3438,3.125,0,83.5938
"Mamíferos",7.6923,2.5641,0,0,89.7436
