"Grupo","Sujeta_a_proteccion_especial_(Pr)","Amenazada_(A)","En_peligro_de_extincion_(P)","Probablemente_extinta_en_medio_silvestre_(E)","No_enlistadas"
"Hongos",0,0,0,0,100
"Plantas",0.4115,1.6461,0.823,0,97.1193
"Invertebrados",0,0,0,0,100
"Peces",12.5,0,0,0,87.5
"Anfibios",25,0,0,0,75
"Reptiles",33.3333,0,4.7619,0,61.9048
"Aves",18.6047,4.6512,6.9767,0,69.7674
"Mamíferos",66.6667,0,0,0,33.3333
