"Grupo","Sujeta_a_proteccion_especial_(Pr)","Amenazada_(A)","En_peligro_de_extincion_(P)","Probablemente_extinta_en_medio_silvestre_(E)","No_enlistadas"
"Hongos",0,0,0,0,100
"Plantas",0.9852,2.9557,0.4926,0,95.5665
"Invertebrados",0,0,0,0,100
"Peces",0,0,0,0,100
"Anfibios",0,20,0,0,80
"Reptiles",15.3846,15.3846,7.6923,0,61.5385
"Aves",12.4294,6.7797,1.1299,0,79.661
"Mamíferos",0,20,0,0,80
