"Grupo","Sujeta_a_proteccion_especial_(Pr)","Amenazada_(A)","En_peligro_de_extincion_(P)","Probablemente_extinta_en_medio_silvestre_(E)","No_enlistadas"
"Hongos",0.8264,7.438,0,0,91.7355
"Plantas",1.0101,0.6216,0.1554,0,98.2129
"Invertebrados",0,0,0,0,100
"Peces",0,33.3333,0,0,66.6667
"Anfibios",31.4286,14.2857,5.7143,0,48.5714
"Reptiles",25.8621,18.9655,0,0,55.1724
"Aves",9.6296,5.1852,1.4815,0,83.7037
"Mamíferos",7.5472,5.6604,0,0,86.7925
