"Grupo","Sujeta_a_proteccion_especial_(Pr)","Amenazada_(A)","En_peligro_de_extincion_(P)","Probablemente_extinta_en_medio_silvestre_(E)","No_enlistadas"
"Hongos",0,6.6667,0,0,93.3333
"Plantas",0.6901,0.6211,0.207,0,98.4817
"Invertebrados",0,0,0,0,100
"Peces",10.5263,36.8421,0,0,52.6316
"Anfibios",23.8095,0,0,0,76.1905
"Reptiles",23.2143,26.7857,0,0,50
"Aves",17.9245,2.8302,2.8302,0.9434,75.4717
"Mamíferos",4.4776,1.4925,1.4925,0,92.5373
