"Grupo","Sujeta_a_proteccion_especial_(Pr)","Amenazada_(A)","En_peligro_de_extincion_(P)","Probablemente_extinta_en_medio_silvestre_(E)","No_enlistadas"
"Hongos",0,2.8571,0,0,97.1429
"Plantas",1.1958,0.4484,0.4484,0,97.9073
"Invertebrados",1,0,0,0,99
"Peces",20,0,0,0,80
"Anfibios",7.6923,7.6923,15.3846,0,69.2308
"Reptiles",24.3243,21.6216,0,0,54.0541
"Aves",9.4017,5.9829,1.7094,0,82.906
"Mamíferos",0,3.3333,6.6667,3.3333,86.6667
