"Grupo","Sujeta_a_proteccion_especial_(Pr)","Amenazada_(A)","En_peligro_de_extincion_(P)","Probablemente_extinta_en_medio_silvestre_(E)","No_enlistadas"
"Hongos",0,0,0,0,0
"Plantas",0,1.3158,1.3158,0,97.3684
"Invertebrados",0,0,0,0,100
"Peces",0,0,0,0,0
"Anfibios",25,0,0,0,75
"Reptiles",18.1818,9.0909,27.2727,0,45.4545
"Aves",0,0,0,0,0
"Mamíferos",0,0,0,0,100
