"Grupo","Sujeta_a_proteccion_especial_(Pr)","Amenazada_(A)","En_peligro_de_extincion_(P)","Probablemente_extinta_en_medio_silvestre_(E)","No_enlistadas"
"Hongos",0,0,0,0,100
"Plantas",0,0,0,0,100
"Invertebrados",0,0,0,0,100
"Peces",3.2258,22.5806,12.9032,0,61.2903
"Anfibios",33.3333,5.5556,0,0,61.1111
"Reptiles",22.0588,13.2353,2.9412,0,61.7647
"Aves",12.7907,2.3256,1.1628,0,83.7209
"Mamíferos",0,0,3.7037,0,96.2963
