"Grupo","Sujeta_a_proteccion_especial_(Pr)","Amenazada_(A)","En_peligro_de_extincion_(P)","Probablemente_extinta_en_medio_silvestre_(E)","No_enlistadas"
"Hongos",0,1.6667,0,0,98.3333
"Plantas",0.6944,0.9549,0.0868,0,98.2639
"Invertebrados",0,0,0,0,100
"Peces",5.2632,10.5263,0,0,84.2105
"Anfibios",14.8148,0,0,0,85.1852
"Reptiles",30.7692,13.8462,0,0,55.3846
"Aves",14.0625,7.8125,4.6875,0.7812,72.6562
"Mamíferos",3.6585,4.878,6.0976,0,85.3659
