"Grupo","Sujeta_a_proteccion_especial_(Pr)","Amenazada_(A)","En_peligro_de_extincion_(P)","Probablemente_extinta_en_medio_silvestre_(E)","No_enlistadas"
"Hongos",0,0,0,0,0
"Plantas",1.99,1.7413,0.7463,0,95.5224
"Invertebrados",0,0,2.3256,0,97.6744
"Peces",0,0,0,0,0
"Anfibios",0,0,100,0,0
"Reptiles",16.6667,16.6667,0,0,66.6667
"Aves",20,16,4,0,60
"Mamíferos",0,0,0,0,100
