"Grupo","Sujeta_a_proteccion_especial_(Pr)","Amenazada_(A)","En_peligro_de_extincion_(P)","Probablemente_extinta_en_medio_silvestre_(E)","No_enlistadas"
"Hongos",0,0,0,0,100
"Plantas",0.6522,1.9565,0.2174,0,97.1739
"Invertebrados",0,0,0,0,100
"Peces",4.5455,0,0,0,95.4545
"Anfibios",31.5789,5.2632,0,0,63.1579
"Reptiles",28.2051,7.6923,0,0,64.1026
"Aves",17.4757,8.2524,5.3398,0,68.932
"Mamíferos",1.8182,3.6364,7.2727,0,87.2727
