"Grupo","Sujeta_a_proteccion_especial_(Pr)","Amenazada_(A)","En_peligro_de_extincion_(P)","Probablemente_extinta_en_medio_silvestre_(E)","No_enlistadas"
"Hongos",0,0,0,0,0
"Plantas",1.9417,1.4563,0.9709,0,95.6311
"Invertebrados",0,0,0,0,100
"Peces",5.8824,0,0,0,94.1176
"Anfibios",0,0,0,0,100
"Reptiles",22.2222,14.8148,0,0,62.963
"Aves",24.1379,6.8966,3.4483,0,65.5172
"Mamíferos",25,0,0,0,75
