"Grupo","Sujeta_a_proteccion_especial_(Pr)","Amenazada_(A)","En_peligro_de_extincion_(P)","Probablemente_extinta_en_medio_silvestre_(E)","No_enlistadas"
"Hongos",0,0,0,0,100
"Plantas",0.4697,1.3048,0.3132,0,97.9123
"Invertebrados",0.2309,0,0,0,99.7691
"Peces",5.5556,0,0,0,94.4444
"Anfibios",23.6842,5.2632,2.6316,0,68.4211
"Reptiles",20.9677,12.9032,1.6129,0,64.5161
"Aves",18.7135,6.4327,2.3392,0,72.5146
"Mamíferos",4.3478,6.5217,2.1739,0,86.9565
