"Grupo","Sujeta_a_proteccion_especial_(Pr)","Amenazada_(A)","En_peligro_de_extincion_(P)","Probablemente_extinta_en_medio_silvestre_(E)","No_enlistadas"
"Hongos",0,0,0,0,100
"Plantas",1.3304,2.5499,0.3326,0,95.7871
"Invertebrados",0.1239,0,0,0,99.8761
"Peces",15.3846,0,0,0,84.6154
"Anfibios",35.2941,8.8235,0,0,55.8824
"Reptiles",31.25,10.9375,3.125,0,54.6875
"Aves",15.7895,7.6023,4.0936,0,72.5146
"Mamíferos",4.878,0,2.439,0,92.6829
