"Grupo","Sujeta_a_proteccion_especial_(Pr)","Amenazada_(A)","En_peligro_de_extincion_(P)","Probablemente_extinta_en_medio_silvestre_(E)","No_enlistadas"
"Hongos",0,0.969,0,0,99.031
"Plantas",0.7422,0.7099,0.2259,0,98.322
"Invertebrados",0.0845,0,0,0,99.9155
"Peces",3.5714,6.25,2.2321,0,87.9464
"Anfibios",27.2727,4.5455,0,0,68.1818
"Reptiles",24.5509,13.7725,0.5988,0,61.0778
"Aves",10.5727,7.489,3.0837,0.4405,78.4141
"Mamíferos",4.2553,3.5461,5.6738,0,86.5248
