"Grupo","Sujeta_a_proteccion_especial_(Pr)","Amenazada_(A)","En_peligro_de_extincion_(P)","Probablemente_extinta_en_medio_silvestre_(E)","No_enlistadas"
"Hongos",0,0,0,0,100
"Plantas",0,0.6849,0,0,99.3151
"Invertebrados",0,0,0,0,100
"Peces",0,0,20,0,80
"Anfibios",0,0,20,0,80
"Reptiles",27.7778,22.2222,0,0,50
"Aves",6.6667,2.2222,1.1111,0,90
"Mamíferos",33.3333,0,0,0,66.6667
