"Grupo","Sujeta_a_proteccion_especial_(Pr)","Amenazada_(A)","En_peligro_de_extincion_(P)","Probablemente_extinta_en_medio_silvestre_(E)","No_enlistadas"
"Hongos",0,0,0,0,0
"Plantas",1.4493,0,0,0,98.5507
"Invertebrados",0,0,0,0,100
"Peces",100,0,0,0,0
"Anfibios",0,0,0,0,100
"Reptiles",40,40,0,0,20
"Aves",16.6667,0,16.6667,0,66.6667
"Mamíferos",0,0,0,0,100
