"Grupo","Sujeta_a_proteccion_especial_(Pr)","Amenazada_(A)","En_peligro_de_extincion_(P)","Probablemente_extinta_en_medio_silvestre_(E)","No_enlistadas"
"Hongos",0,0,0,0,100
"Plantas",0,2.381,0.7937,0,96.8254
"Invertebrados",0,0,0,0,100
"Peces",0,0,0,0,0
"Anfibios",0,33.3333,0,0,66.6667
"Reptiles",22.7273,18.1818,0,0,59.0909
"Aves",5.5556,5.5556,0,0,88.8889
"Mamíferos",3.8462,3.8462,7.6923,3.8462,80.7692
