"Grupo","Sujeta_a_proteccion_especial_(Pr)","Amenazada_(A)","En_peligro_de_extincion_(P)","Probablemente_extinta_en_medio_silvestre_(E)","No_enlistadas"
"Hongos",0,0,0,0,0
"Plantas",0,0,0,0,0
"Invertebrados",0,0,0,0,0
"Peces",0,0,0,0,0
"Anfibios",0,0,0,0,100
"Reptiles",11.1111,22.2222,0,0,66.6667
"Aves",0,0,0,0,100
"Mamíferos",0,0,100,0,0
