"Grupo","Sujeta_a_proteccion_especial_(Pr)","Amenazada_(A)","En_peligro_de_extincion_(P)","Probablemente_extinta_en_medio_silvestre_(E)","No_enlistadas"
"Hongos",0,0,0,0,0
"Plantas",2.7778,1.3889,0,0,95.8333
"Invertebrados",0,0,0,0,100
"Peces",0,0,0,0,100
"Anfibios",0,0,0,0,0
"Reptiles",0,42.8571,0,0,57.1429
"Aves",11.1111,5.5556,2.7778,0,80.5556
"Mamíferos",14.2857,7.1429,7.1429,0,71.4286
