"Grupo","Sujeta_a_proteccion_especial_(Pr)","Amenazada_(A)","En_peligro_de_extincion_(P)","Probablemente_extinta_en_medio_silvestre_(E)","No_enlistadas"
"Hongos",0,0,0,0,0
"Plantas",1.7391,0.8696,0,0,97.3913
"Invertebrados",0,0,0,0,100
"Peces",0,33.3333,0,0,66.6667
"Anfibios",0,0,0,0,100
"Reptiles",33.3333,0,0,0,66.6667
"Aves",15.7895,0,5.2632,0,78.9474
"Mamíferos",0,10,0,0,90
