"Grupo","Sujeta_a_proteccion_especial_(Pr)","Amenazada_(A)","En_peligro_de_extincion_(P)","Probablemente_extinta_en_medio_silvestre_(E)","No_enlistadas"
"Hongos",0,0,0,0,100
"Plantas",1.7094,2.5641,0,0,95.7265
"Invertebrados",0,0,0,0,100
"Peces",0,0,0,0,100
"Anfibios",25,0,0,0,75
"Reptiles",44.4444,33.3333,0,0,22.2222
"Aves",28.5714,14.2857,0,0,57.1429
"Mamíferos",0,0,0,0,100
