"Grupo","Sujeta_a_proteccion_especial_(Pr)","Amenazada_(A)","En_peligro_de_extincion_(P)","Probablemente_extinta_en_medio_silvestre_(E)","No_enlistadas"
"Hongos",0,0,0,0,0
"Plantas",0,6.4516,0,0,93.5484
"Invertebrados",0,0,0,0,0
"Peces",0,0,0,0,100
"Anfibios",50,0,0,0,50
"Reptiles",38.4615,30.7692,7.6923,0,23.0769
"Aves",0,0,0,0,100
"Mamíferos",0,0,0,0,100
