"Grupo","Sujeta_a_proteccion_especial_(Pr)","Amenazada_(A)","En_peligro_de_extincion_(P)","Probablemente_extinta_en_medio_silvestre_(E)","No_enlistadas"
"Hongos",0,0,0,0,100
"Plantas",0.9852,0.3284,0.1642,0,98.5222
"Invertebrados",0,0,0,0,100
"Peces",2.8571,0,0,0,97.1429
"Anfibios",10,0,10,0,80
"Reptiles",29.8507,17.9104,2.9851,0,49.2537
"Aves",11.1111,5,1.6667,0,82.2222
"Mamíferos",5.1282,7.6923,0,0,87.1795
