"Grupo","Sujeta_a_proteccion_especial_(Pr)","Amenazada_(A)","En_peligro_de_extincion_(P)","Probablemente_extinta_en_medio_silvestre_(E)","No_enlistadas"
"Hongos",0,0,0,0,0
"Plantas",0,0,0,0,100
"Invertebrados",0,0,0,0,100
"Peces",0,0,0,0,100
"Anfibios",40,0,0,0,60
"Reptiles",25,12.5,0,0,62.5
"Aves",13.7931,1.1494,3.4483,0,81.6092
"Mamíferos",0,0,0,0,100
