"Grupo","Sujeta_a_proteccion_especial_(Pr)","Amenazada_(A)","En_peligro_de_extincion_(P)","Probablemente_extinta_en_medio_silvestre_(E)","No_enlistadas"
"Hongos",0,0,0,0,100
"Plantas",1.1218,0.1603,0,0,98.7179
"Invertebrados",1.2195,0,0,0,98.7805
"Peces",0,0,4.1667,0,95.8333
"Anfibios",9.0909,0,9.0909,0,81.8182
"Reptiles",29.3103,20.6897,1.7241,0,48.2759
"Aves",9.2199,4.2553,1.4184,0,85.1064
"Mamíferos",2.381,11.9048,4.7619,2.381,78.5714
