"Grupo","Sujeta_a_proteccion_especial_(Pr)","Amenazada_(A)","En_peligro_de_extincion_(P)","Probablemente_extinta_en_medio_silvestre_(E)","No_enlistadas"
"Hongos",0,0,0,0,100
"Plantas",0.8696,0,0,0,99.1304
"Invertebrados",0,0,0,0,100
"Peces",0,0,0,0,0
"Anfibios",50,0,0,0,50
"Reptiles",18.1818,31.8182,0,0,50
"Aves",8.3333,0,0,0,91.6667
"Mamíferos",11.1111,11.1111,0,0,77.7778
