"Grupo","Sujeta_a_proteccion_especial_(Pr)","Amenazada_(A)","En_peligro_de_extincion_(P)","Probablemente_extinta_en_medio_silvestre_(E)","No_enlistadas"
"Hongos",0,0,0,0,0
"Plantas",0.8065,1.2097,0.4032,0,97.5806
"Invertebrados",2,0,0,0,98
"Peces",0,1.1364,0,0,98.8636
"Anfibios",0,0,0,0,0
"Reptiles",26.3158,21.0526,10.5263,0,42.1053
"Aves",11.236,4.4944,1.1236,0,83.1461
"Mamíferos",42.1053,10.5263,0,0,47.3684
