"Grupo","Sujeta_a_proteccion_especial_(Pr)","Amenazada_(A)","En_peligro_de_extincion_(P)","Probablemente_extinta_en_medio_silvestre_(E)","No_enlistadas"
"Hongos",0,0,0,0,100
"Plantas",2.2059,0,0,0,97.7941
"Invertebrados",0,0,0,0,100
"Peces",0,0,0,0,0
"Anfibios",0,0,0,0,100
"Reptiles",23.0769,15.3846,0,0,61.5385
"Aves",14.2857,0,3.5714,0,82.1429
"Mamíferos",14.2857,0,0,0,85.7143
