"Grupo","Sujeta_a_proteccion_especial_(Pr)","Amenazada_(A)","En_peligro_de_extincion_(P)","Probablemente_extinta_en_medio_silvestre_(E)","No_enlistadas"
"Hongos",0,0,0,0,0
"Plantas",1.6327,3.2653,0.4082,0,94.6939
"Invertebrados",0,0,0,0,100
"Peces",0,0,0,0,0
"Anfibios",0,0,0,0,100
"Reptiles",12.5,6.25,0,0,81.25
"Aves",16.0714,4.4643,1.7857,0,77.6786
"Mamíferos",0,0,6.6667,0,93.3333
