"Grupo","Sujeta_a_proteccion_especial_(Pr)","Amenazada_(A)","En_peligro_de_extincion_(P)","Probablemente_extinta_en_medio_silvestre_(E)","No_enlistadas"
"Hongos",0,0,0,0,100
"Plantas",1.7699,4.4248,0,0,93.8053
"Invertebrados",0,0,0,0,100
"Peces",0,0,0,0,100
"Anfibios",0,0,0,0,100
"Reptiles",37.5,12.5,12.5,0,37.5
"Aves",19.2982,3.5088,1.7544,0,75.4386
"Mamíferos",0,0,25,0,75
