"Grupo","Sujeta_a_proteccion_especial_(Pr)","Amenazada_(A)","En_peligro_de_extincion_(P)","Probablemente_extinta_en_medio_silvestre_(E)","No_enlistadas"
"Hongos",0,0,0,0,0
"Plantas",1.9355,0,0,0,98.0645
"Invertebrados",0,0,0,0,0
"Peces",0,0,0,0,0
"Anfibios",100,0,0,0,0
"Reptiles",20,20,0,0,60
"Aves",0,0,0,0,0
"Mamíferos",0,0,0,0,0
