"Grupo","Sujeta_a_proteccion_especial_(Pr)","Amenazada_(A)","En_peligro_de_extincion_(P)","Probablemente_extinta_en_medio_silvestre_(E)","No_enlistadas"
"Hongos",0,0,0,0,0
"Plantas",0,3.3898,0,0,96.6102
"Invertebrados",0,0,0,0,100
"Peces",0,0,0,0,100
"Anfibios",0,0,0,0,100
"Reptiles",21.0526,21.0526,0,0,57.8947
"Aves",13.8889,5.5556,0,0,80.5556
"Mamíferos",0,8.3333,8.3333,0,83.3333
