"Grupo","Sujeta_a_proteccion_especial_(Pr)","Amenazada_(A)","En_peligro_de_extincion_(P)","Probablemente_extinta_en_medio_silvestre_(E)","No_enlistadas"
"Hongos",0,0,0,0,100
"Plantas",7.4074,7.4074,0,0,85.1852
"Invertebrados",0,0,0,0,100
"Peces",0,0,0,0,100
"Anfibios",50,0,0,0,50
"Reptiles",25,25,0,0,50
"Aves",5.0847,6.7797,3.3898,0,84.7458
"Mamíferos",33.3333,0,0,0,66.6667
