"Grupo","Sujeta_a_proteccion_especial_(Pr)","Amenazada_(A)","En_peligro_de_extincion_(P)","Probablemente_extinta_en_medio_silvestre_(E)","No_enlistadas"
"Hongos",0,0,0,0,100
"Plantas",0,2.8571,0,0,97.1429
"Invertebrados",0,0,0,0,100
"Peces",0,0,0,0,100
"Anfibios",0,0,0,0,100
"Reptiles",16.6667,16.6667,0,0,66.6667
"Aves",12.3377,2.5974,1.2987,0,83.7662
"Mamíferos",0,0,0,0,100
