"Grupo","Sujeta_a_proteccion_especial_(Pr)","Amenazada_(A)","En_peligro_de_extincion_(P)","Probablemente_extinta_en_medio_silvestre_(E)","No_enlistadas"
"Hongos",0,50,0,0,50
"Plantas",3.0769,0,0,0,96.9231
"Invertebrados",8.3333,0,0,0,91.6667
"Peces",0,0,100,0,0
"Anfibios",0,0,0,0,100
"Reptiles",33.3333,25,8.3333,0,33.3333
"Aves",9.8039,5.8824,1.9608,0,82.3529
"Mamíferos",10,0,10,0,80
