"Grupo","Sujeta_a_proteccion_especial_(Pr)","Amenazada_(A)","En_peligro_de_extincion_(P)","Probablemente_extinta_en_medio_silvestre_(E)","No_enlistadas"
"Hongos",0,0,0,0,0
"Plantas",0,7.6923,0,0,92.3077
"Invertebrados",0,0,0,0,100
"Peces",0,0,0,0,0
"Anfibios",0,0,0,0,0
"Reptiles",50,0,0,0,50
"Aves",25,0,0,0,75
"Mamíferos",100,0,0,0,0
