"Grupo","Sujeta_a_proteccion_especial_(Pr)","Amenazada_(A)","En_peligro_de_extincion_(P)","Probablemente_extinta_en_medio_silvestre_(E)","No_enlistadas"
"Hongos",0,0,0,0,0
"Plantas",0,0,0,0,100
"Invertebrados",0,0,0,0,0
"Peces",1.3699,0,0,0,98.6301
"Anfibios",100,0,0,0,0
"Reptiles",14.2857,42.8571,0,0,42.8571
"Aves",26.6667,0,0,0,73.3333
"Mamíferos",50,0,0,0,50
