"Grupo","Sujeta_a_proteccion_especial_(Pr)","Amenazada_(A)","En_peligro_de_extincion_(P)","Probablemente_extinta_en_medio_silvestre_(E)","No_enlistadas"
"Hongos",0,0,0,0,0
"Plantas",0.7519,1.5038,0,0,97.7444
"Invertebrados",0,0,0,0,100
"Peces",5,0,0,0,95
"Anfibios",29.0323,0,0,0,70.9677
"Reptiles",27.5362,11.5942,0,0,60.8696
"Aves",22.9358,7.3394,4.5872,0,65.1376
"Mamíferos",3.125,3.125,4.6875,0,89.0625
