"Grupo","Sujeta_a_proteccion_especial_(Pr)","Amenazada_(A)","En_peligro_de_extincion_(P)","Probablemente_extinta_en_medio_silvestre_(E)","No_enlistadas"
"Hongos",0,0,0,0,0
"Plantas",0,0,0,0,100
"Invertebrados",0,0,0,0,0
"Peces",0,0,0,0,100
"Anfibios",50,0,0,0,50
"Reptiles",36.8421,15.7895,0,0,47.3684
"Aves",0,0,0,0,0
"Mamíferos",0,25,0,0,75
