"Grupo","Sujeta_a_proteccion_especial_(Pr)","Amenazada_(A)","En_peligro_de_extincion_(P)","Probablemente_extinta_en_medio_silvestre_(E)","No_enlistadas"
"Hongos",0,0,0,0,100
"Plantas",0.3106,0,0.3106,0,99.3789
"Invertebrados",0,0,0,0,100
"Peces",0,4,0,0,96
"Anfibios",14.2857,0,14.2857,0,71.4286
"Reptiles",29.0323,16.129,3.2258,0,51.6129
"Aves",9.6774,4.0323,0.8065,0,85.4839
"Mamíferos",42.8571,14.2857,0,0,42.8571
