"Grupo","Sujeta_a_proteccion_especial_(Pr)","Amenazada_(A)","En_peligro_de_extincion_(P)","Probablemente_extinta_en_medio_silvestre_(E)","No_enlistadas"
"Hongos",0,0,0,0,0
"Plantas",0,2.7523,0,0,97.2477
"Invertebrados",0,0,0,0,100
"Peces",4,4,0,0,92
"Anfibios",0,0,0,0,100
"Reptiles",35.7143,21.4286,7.1429,0,35.7143
"Aves",9.2308,7.6923,1.5385,0,81.5385
"Mamíferos",22.2222,22.2222,0,0,55.5556
