"Grupo","Sujeta_a_proteccion_especial_(Pr)","Amenazada_(A)","En_peligro_de_extincion_(P)","Probablemente_extinta_en_medio_silvestre_(E)","No_enlistadas"
"Hongos",0,0,0,0,0
"Plantas",0,0.6803,0,0,99.3197
"Invertebrados",0,0,0,0,0
"Peces",0,0,0,0,100
"Anfibios",16.6667,0,0,0,83.3333
"Reptiles",39.3939,21.2121,0,0,39.3939
"Aves",0,0,0,0,0
"Mamíferos",0,0,0,0,0
