"Grupo","Sujeta_a_proteccion_especial_(Pr)","Amenazada_(A)","En_peligro_de_extincion_(P)","Probablemente_extinta_en_medio_silvestre_(E)","No_enlistadas"
"Hongos",0,0,0,0,0
"Plantas",1.1765,0,0,0,98.8235
"Invertebrados",0,0,0,0,100
"Peces",0,0,0,0,0
"Anfibios",0,0,0,0,100
"Reptiles",34.4828,34.4828,0,0,31.0345
"Aves",13.0952,3.5714,1.1905,0,82.1429
"Mamíferos",20,0,0,0,80
