"Grupo","Sujeta_a_proteccion_especial_(Pr)","Amenazada_(A)","En_peligro_de_extincion_(P)","Probablemente_extinta_en_medio_silvestre_(E)","No_enlistadas"
"Hongos",0,0,0,0,100
"Plantas",3.9216,5.8824,0,0,90.1961
"Invertebrados",0,0,0,0,100
"Peces",0,0,0,0,0
"Anfibios",0,0,0,0,0
"Reptiles",0,0,0,0,0
"Aves",0,0,0,0,0
"Mamíferos",0,0,0,0,0
