"Grupo","Sujeta_a_proteccion_especial_(Pr)","Amenazada_(A)","En_peligro_de_extincion_(P)","Probablemente_extinta_en_medio_silvestre_(E)","No_enlistadas"
"Hongos",0,0,0,0,100
"Plantas",1.444,1.083,0,0,97.4729
"Invertebrados",0,0,0,0,100
"Peces",1.0204,0,1.0204,0,97.9592
"Anfibios",20,0,0,0,80
"Reptiles",34.7826,26.087,4.3478,0,34.7826
"Aves",10.084,4.2017,0.8403,0,84.8739
"Mamíferos",15.3846,7.6923,0,0,76.9231
