"Grupo","Sujeta_a_proteccion_especial_(Pr)","Amenazada_(A)","En_peligro_de_extincion_(P)","Probablemente_extinta_en_medio_silvestre_(E)","No_enlistadas"
"Hongos",0,0,0,0,0
"Plantas",2.5641,0,0,0,97.4359
"Invertebrados",0,0,0,0,100
"Peces",3.7037,0,3.7037,0,92.5926
"Anfibios",0,0,0,0,100
"Reptiles",23.0769,23.0769,7.6923,0,46.1538
"Aves",10.8696,6.5217,2.1739,0,80.4348
"Mamíferos",11.7647,5.8824,0,0,82.3529
