"Grupo","Sujeta_a_proteccion_especial_(Pr)","Amenazada_(A)","En_peligro_de_extincion_(P)","Probablemente_extinta_en_medio_silvestre_(E)","No_enlistadas"
"Hongos",0,0,0,0,0
"Plantas",1.1111,0,0,0,98.8889
"Invertebrados",0,0,0,0,100
"Peces",0,0,0,0,0
"Anfibios",0,0,0,0,100
"Reptiles",43.75,18.75,0,0,37.5
"Aves",8.0357,3.5714,1.7857,0,86.6071
"Mamíferos",16.6667,0,0,0,83.3333
