"Grupo","Sujeta_a_proteccion_especial_(Pr)","Amenazada_(A)","En_peligro_de_extincion_(P)","Probablemente_extinta_en_medio_silvestre_(E)","No_enlistadas"
"Hongos",0,0,0,0,0
"Plantas",1.6129,0,0,0,98.3871
"Invertebrados",0,0,0,0,100
"Peces",0,0,0,0,100
"Anfibios",0,0,0,0,0
"Reptiles",38.4615,30.7692,0,0,30.7692
"Aves",17.6471,2.9412,2.9412,0,76.4706
"Mamíferos",14.2857,0,14.2857,0,71.4286
