"Grupo","Sujeta_a_proteccion_especial_(Pr)","Amenazada_(A)","En_peligro_de_extincion_(P)","Probablemente_extinta_en_medio_silvestre_(E)","No_enlistadas"
"Hongos",0,0,0,0,100
"Plantas",1.8182,1.8182,0,0,96.3636
"Invertebrados",0,0,0,0,100
"Peces",5.5556,0,0,0,94.4444
"Anfibios",28.5714,0,0,0,71.4286
"Reptiles",37.931,10.3448,0,0,51.7241
"Aves",12.1739,5.2174,1.7391,0,80.8696
"Mamíferos",0,6.6667,6.6667,0,86.6667
