"Grupo","Sujeta_a_proteccion_especial_(Pr)","Amenazada_(A)","En_peligro_de_extincion_(P)","Probablemente_extinta_en_medio_silvestre_(E)","No_enlistadas"
"Hongos",0,0,0,0,100
"Plantas",0.4926,1.4778,0.9852,0,97.0443
"Invertebrados",0,0,0,0,100
"Peces",0,0,0,0,100
"Anfibios",25,5,10,0,60
"Reptiles",13.0435,13.0435,8.6957,0,65.2174
"Aves",9.0909,18.1818,13.6364,0,59.0909
"Mamíferos",0,0,25,0,75
