"Grupo","Sujeta_a_proteccion_especial_(Pr)","Amenazada_(A)","En_peligro_de_extincion_(P)","Probablemente_extinta_en_medio_silvestre_(E)","No_enlistadas"
"Hongos",0,0,0,0,100
"Plantas",0.7282,0.4854,0,0,98.7864
"Invertebrados",0,0,0,0,100
"Peces",0,0,0,0,100
"Anfibios",20,0,0,0,80
"Reptiles",29.4118,23.5294,2.9412,0,44.1176
"Aves",15.1515,0,0,0,84.8485
"Mamíferos",2.9412,5.8824,0,0,91.1765
