"Grupo","Sujeta_a_proteccion_especial_(Pr)","Amenazada_(A)","En_peligro_de_extincion_(P)","Probablemente_extinta_en_medio_silvestre_(E)","No_enlistadas"
"Hongos",0,0,0,0,0
"Plantas",3.5714,0,0,0,96.4286
"Invertebrados",0,0,0,0,0
"Peces",0,0,0,0,100
"Anfibios",0,0,0,0,0
"Reptiles",100,0,0,0,0
"Aves",100,0,0,0,0
"Mamíferos",0,0,0,0,100
