"Grupo","Sujeta_a_proteccion_especial_(Pr)","Amenazada_(A)","En_peligro_de_extincion_(P)","Probablemente_extinta_en_medio_silvestre_(E)","No_enlistadas"
"Hongos",0,0,0,0,100
"Plantas",0.8499,1.1331,1.1331,0,96.8839
"Invertebrados",2.0408,0,0,0,97.9592
"Peces",0,0,0,0,100
"Anfibios",0,11.1111,11.1111,0,77.7778
"Reptiles",25.7143,17.1429,0,0,57.1429
"Aves",10.9091,5.4545,0,0,83.6364
"Mamíferos",11.1111,0,0,0,88.8889
