"Grupo","Sujeta_a_proteccion_especial_(Pr)","Amenazada_(A)","En_peligro_de_extincion_(P)","Probablemente_extinta_en_medio_silvestre_(E)","No_enlistadas"
"Hongos",0,1.25,0,0,98.75
"Plantas",1.0989,0.4884,0.6105,0,97.8022
"Invertebrados",0,0,0,0,100
"Peces",3.3333,0,0,0,96.6667
"Anfibios",8.3333,8.3333,16.6667,0,66.6667
"Reptiles",26.3158,19.2982,0,0,54.386
"Aves",13.5593,6.7797,3.3898,0,76.2712
"Mamíferos",0,0,4,0,96
