"Grupo","Sujeta_a_proteccion_especial_(Pr)","Amenazada_(A)","En_peligro_de_extincion_(P)","Probablemente_extinta_en_medio_silvestre_(E)","No_enlistadas"
"Hongos",0,0,0,0,100
"Plantas",0.5391,1.3477,0.2695,0,97.8437
"Invertebrados",0,0,0,0,100
"Peces",0,0,0,0,100
"Anfibios",25,0,0,0,75
"Reptiles",19.3548,3.2258,0,0,77.4194
"Aves",14.2857,8.1633,2.551,0,75
"Mamíferos",0,0,0,0,100
