"Grupo","Sujeta_a_proteccion_especial_(Pr)","Amenazada_(A)","En_peligro_de_extincion_(P)","Probablemente_extinta_en_medio_silvestre_(E)","No_enlistadas"
"Hongos",0,0,0,0,100
"Plantas",0,3.2,0,0,96.8
"Invertebrados",0,0,0,0,100
"Peces",0,0,0,0,0
"Anfibios",0,0,0,0,100
"Reptiles",42.8571,0,0,0,57.1429
"Aves",0,0,18.75,0,81.25
"Mamíferos",0,0,0,0,100
