"Grupo","Sujeta_a_proteccion_especial_(Pr)","Amenazada_(A)","En_peligro_de_extincion_(P)","Probablemente_extinta_en_medio_silvestre_(E)","No_enlistadas"
"Hongos",0,0,0,0,100
"Plantas",1.8182,3.6364,0,0,94.5455
"Invertebrados",0,0,0,0,100
"Peces",0,0,0,0,100
"Anfibios",50,0,0,0,50
"Reptiles",22.2222,22.2222,0,0,55.5556
"Aves",6.9444,6.9444,4.1667,0,81.9444
"Mamíferos",0,14.2857,0,0,85.7143
