"Grupo","Sujeta_a_proteccion_especial_(Pr)","Amenazada_(A)","En_peligro_de_extincion_(P)","Probablemente_extinta_en_medio_silvestre_(E)","No_enlistadas"
"Hongos",0,0,0,0,100
"Plantas",1.0309,0.6873,0,0,98.2818
"Invertebrados",0,0,0,0,100
"Peces",5.2632,5.2632,0,0,89.4737
"Anfibios",14.2857,0,14.2857,0,71.4286
"Reptiles",34.0909,25,2.2727,0,38.6364
"Aves",9.0909,5.1948,1.2987,0,84.4156
"Mamíferos",14.2857,0,0,0,85.7143
