"Grupo","Sujeta_a_proteccion_especial_(Pr)","Amenazada_(A)","En_peligro_de_extincion_(P)","Probablemente_extinta_en_medio_silvestre_(E)","No_enlistadas"
"Hongos",0,0,0,0,100
"Plantas",0.578,0,0,0,99.422
"Invertebrados",0,0,0,0,100
"Peces",0,0,0,0,0
"Anfibios",20,0,20,0,60
"Reptiles",33.3333,14.8148,0,0,51.8519
"Aves",6.383,8.5106,2.1277,0,82.9787
"Mamíferos",0,11.1111,0,0,88.8889
