"Grupo","Sujeta_a_proteccion_especial_(Pr)","Amenazada_(A)","En_peligro_de_extincion_(P)","Probablemente_extinta_en_medio_silvestre_(E)","No_enlistadas"
"Hongos",0,0,0,0,0
"Plantas",3.7736,1.8868,0,0,94.3396
"Invertebrados",0,0,0,0,100
"Peces",0,0,0,0,100
"Anfibios",0,0,0,0,100
"Reptiles",29.1667,20.8333,4.1667,0,45.8333
"Aves",11.5385,11.5385,3.8462,0,73.0769
"Mamíferos",23.0769,7.6923,7.6923,0,61.5385
