"Grupo","Sujeta_a_proteccion_especial_(Pr)","Amenazada_(A)","En_peligro_de_extincion_(P)","Probablemente_extinta_en_medio_silvestre_(E)","No_enlistadas"
"Hongos",0,0,0,0,0
"Plantas",1.9704,3.9409,0.4926,0,93.5961
"Invertebrados",0,0,0,0,100
"Peces",0,0,0,0,0
"Anfibios",18.1818,0,0,0,81.8182
"Reptiles",35.7143,14.2857,0,0,50
"Aves",16,4,1,0,79
"Mamíferos",7.1429,14.2857,7.1429,0,71.4286
