"Grupo","Sujeta_a_proteccion_especial_(Pr)","Amenazada_(A)","En_peligro_de_extincion_(P)","Probablemente_extinta_en_medio_silvestre_(E)","No_enlistadas"
"Hongos",0,0,0,0,0
"Plantas",2.439,0,0,0,97.561
"Invertebrados",0,0,0,0,100
"Peces",0,0,0,0,0
"Anfibios",0,100,0,0,0
"Reptiles",25,50,0,0,25
"Aves",8.9552,5.9701,1.4925,0,83.5821
"Mamíferos",0,0,0,0,0
