"Grupo","Sujeta_a_proteccion_especial_(Pr)","Amenazada_(A)","En_peligro_de_extincion_(P)","Probablemente_extinta_en_medio_silvestre_(E)","No_enlistadas"
"Hongos",0,0,0,0,100
"Plantas",0.7299,1.8248,0.365,0,97.0803
"Invertebrados",0,0,0,0,100
"Peces",6.6667,0,0,0,93.3333
"Anfibios",0,0,0,0,100
"Reptiles",25.9259,7.4074,0,0,66.6667
"Aves",10.9589,5.4795,0,0,83.5616
"Mamíferos",0,10,0,0,90
