"Grupo","Sujeta_a_proteccion_especial_(Pr)","Amenazada_(A)","En_peligro_de_extincion_(P)","Probablemente_extinta_en_medio_silvestre_(E)","No_enlistadas"
"Hongos",0,0,0,0,0
"Plantas",3.252,1.626,0,0,95.122
"Invertebrados",0,0,0,0,100
"Peces",0,0,0,0,100
"Anfibios",16.6667,0,0,0,83.3333
"Reptiles",5.2632,26.3158,0,0,68.4211
"Aves",15.1515,6.0606,0,0,78.7879
"Mamíferos",28.5714,0,0,0,71.4286
