"Grupo","Sujeta_a_proteccion_especial_(Pr)","Amenazada_(A)","En_peligro_de_extincion_(P)","Probablemente_extinta_en_medio_silvestre_(E)","No_enlistadas"
"Hongos",0,0,0,0,0
"Plantas",0,1.3699,0,0,98.6301
"Invertebrados",0,0,0,0,100
"Peces",0,0,0,0,100
"Anfibios",0,0,0,0,0
"Reptiles",0,42.8571,0,0,57.1429
"Aves",17.6471,0,0,0,82.3529
"Mamíferos",50,0,0,0,50
