"Grupo","Sujeta_a_proteccion_especial_(Pr)","Amenazada_(A)","En_peligro_de_extincion_(P)","Probablemente_extinta_en_medio_silvestre_(E)","No_enlistadas"
"Hongos",0,0,0,0,0
"Plantas",100,0,0,0,0
"Invertebrados",0,0,0,0,0
"Peces",0,0,0,0,0
"Anfibios",0,0,0,0,100
"Reptiles",16.6667,16.6667,0,0,66.6667
"Aves",7.4074,7.4074,0,0,85.1852
"Mamíferos",0,0,50,0,50
