"Grupo","Sujeta_a_proteccion_especial_(Pr)","Amenazada_(A)","En_peligro_de_extincion_(P)","Probablemente_extinta_en_medio_silvestre_(E)","No_enlistadas"
"Hongos",0,0,0,0,0
"Plantas",0,0,0,0,100
"Invertebrados",0,0,0,0,100
"Peces",0,0,0,0,0
"Anfibios",0,0,0,0,100
"Reptiles",0,33.3333,33.3333,0,33.3333
"Aves",6.6667,0,6.6667,0,86.6667
"Mamíferos",0,0,0,0,100
