"Grupo","Sujeta_a_proteccion_especial_(Pr)","Amenazada_(A)","En_peligro_de_extincion_(P)","Probablemente_extinta_en_medio_silvestre_(E)","No_enlistadas"
"Hongos",0,0,0,0,100
"Plantas",1.0638,1.0638,0,0,97.8723
"Invertebrados",2.9412,0,0,0,97.0588
"Peces",0,0,0,0,0
"Anfibios",0,12.5,25,0,62.5
"Reptiles",13.0435,21.7391,0,0,65.2174
"Aves",15.3846,0,0,0,84.6154
"Mamíferos",20,0,0,0,80
