"Grupo","Sujeta_a_proteccion_especial_(Pr)","Amenazada_(A)","En_peligro_de_extincion_(P)","Probablemente_extinta_en_medio_silvestre_(E)","No_enlistadas"
"Hongos",0,0,0,0,100
"Plantas",0.4762,0.4762,0,0,99.0476
"Invertebrados",0,0,0,0,100
"Peces",1.7857,1.7857,1.7857,0,94.6429
"Anfibios",16.6667,0,0,0,83.3333
"Reptiles",30.1887,15.0943,3.7736,0,50.9434
"Aves",9.8214,7.1429,2.6786,0,80.3571
"Mamíferos",25,16.6667,0,0,58.3333
