"Grupo","Sujeta_a_proteccion_especial_(Pr)","Amenazada_(A)","En_peligro_de_extincion_(P)","Probablemente_extinta_en_medio_silvestre_(E)","No_enlistadas"
"Hongos",0,0,0,0,0
"Plantas",4.5455,0,0,0,95.4545
"Invertebrados",0,0,0,0,100
"Peces",0,0,0,0,0
"Anfibios",0,0,0,0,0
"Reptiles",14.2857,57.1429,0,0,28.5714
"Aves",4.1667,4.1667,0,0,91.6667
"Mamíferos",0,0,0,0,100
