"Grupo","Sujeta_a_proteccion_especial_(Pr)","Amenazada_(A)","En_peligro_de_extincion_(P)","Probablemente_extinta_en_medio_silvestre_(E)","No_enlistadas"
"Hongos",0,0,0,0,0
"Plantas",2.2727,0,0,0,97.7273
"Invertebrados",0,0,0,0,0
"Peces",0,0,0,0,100
"Anfibios",0,0,0,0,100
"Reptiles",12.5,25,6.25,0,56.25
"Aves",12.9032,9.6774,3.2258,0,74.1935
"Mamíferos",0,0,0,0,100
