"Grupo","Sujeta_a_proteccion_especial_(Pr)","Amenazada_(A)","En_peligro_de_extincion_(P)","Probablemente_extinta_en_medio_silvestre_(E)","No_enlistadas"
"Hongos",0,0,0,0,0
"Plantas",0,0,0,0,100
"Invertebrados",0,0,0,0,100
"Peces",0,0,3.4483,0,96.5517
"Anfibios",50,0,0,0,50
"Reptiles",29.4118,23.5294,5.8824,0,41.1765
"Aves",60,0,0,0,40
"Mamíferos",66.6667,0,0,0,33.3333
