"Grupo","Sujeta_a_proteccion_especial_(Pr)","Amenazada_(A)","En_peligro_de_extincion_(P)","Probablemente_extinta_en_medio_silvestre_(E)","No_enlistadas"
"Hongos",0,3.1963,0,0,96.8037
"Plantas",1.0411,0.911,0.3904,0.0521,97.6054
"Invertebrados",0.0539,0,0,0,99.9461
"Peces",2.0408,6.1224,8.1633,0,83.6735
"Anfibios",33.3333,16.6667,3.7037,0,46.2963
"Reptiles",25.8993,12.9496,1.4388,0,59.7122
"Aves",10.7981,10.3286,3.7559,0,75.1174
"Mamíferos",5.6452,7.2581,4.0323,0,83.0645
