"Grupo","Sujeta_a_proteccion_especial_(Pr)","Amenazada_(A)","En_peligro_de_extincion_(P)","Probablemente_extinta_en_medio_silvestre_(E)","No_enlistadas"
"Hongos",0,0,0,0,100
"Plantas",2.1828,1.2278,0.3411,0,96.2483
"Invertebrados",0.2907,0,0,0,99.7093
"Peces",0,9.0909,9.0909,0,81.8182
"Anfibios",40,0,0,0,60
"Reptiles",21.6867,13.253,0,0,65.0602
"Aves",13.5135,5.4054,2.7027,0,78.3784
"Mamíferos",2.1053,4.2105,5.2632,0,88.4211
