"Grupo","Sujeta_a_proteccion_especial_(Pr)","Amenazada_(A)","En_peligro_de_extincion_(P)","Probablemente_extinta_en_medio_silvestre_(E)","No_enlistadas"
"Hongos",0,0,0,0,0
"Plantas",0,0,0,0,100
"Invertebrados",0,0,0,0,100
"Peces",0,0,0,0,100
"Anfibios",33.3333,0,0,0,66.6667
"Reptiles",33.3333,16.6667,0,0,50
"Aves",0,0,0,0,100
"Mamíferos",0,10,0,0,90
