"Grupo","Sujeta_a_proteccion_especial_(Pr)","Amenazada_(A)","En_peligro_de_extincion_(P)","Probablemente_extinta_en_medio_silvestre_(E)","No_enlistadas"
"Hongos",0,0,0,0,0
"Plantas",2.5641,0,0,0,97.4359
"Invertebrados",0,0,0,0,0
"Peces",0,0,0,0,0
"Anfibios",0,0,0,0,0
"Reptiles",50,12.5,0,0,37.5
"Aves",100,0,0,0,0
"Mamíferos",0,0,0,0,100
