"Grupo","Sujeta_a_proteccion_especial_(Pr)","Amenazada_(A)","En_peligro_de_extincion_(P)","Probablemente_extinta_en_medio_silvestre_(E)","No_enlistadas"
"Hongos",0,0,0,0,0
"Plantas",7.6923,0,0,0,92.3077
"Invertebrados",0,0,0,0,100
"Peces",0,0,0,0,100
"Anfibios",0,0,0,0,0
"Reptiles",0,0,50,0,50
"Aves",11.1111,6.6667,4.4444,0,77.7778
"Mamíferos",0,0,0,0,0
