"Grupo","Sujeta_a_proteccion_especial_(Pr)","Amenazada_(A)","En_peligro_de_extincion_(P)","Probablemente_extinta_en_medio_silvestre_(E)","No_enlistadas"
"Hongos",0,0,0,0,0
"Plantas",0,5.8824,0,0,94.1176
"Invertebrados",0,0,0,0,100
"Peces",0,0,0,0,100
"Anfibios",0,0,0,0,0
"Reptiles",0,0,0,0,100
"Aves",12,8,0,0,80
"Mamíferos",0,0,0,0,0
