"Grupo","Sujeta_a_proteccion_especial_(Pr)","Amenazada_(A)","En_peligro_de_extincion_(P)","Probablemente_extinta_en_medio_silvestre_(E)","No_enlistadas"
"Hongos",0,0,0,0,0
"Plantas",0.5348,2.6738,1.0695,0,95.7219
"Invertebrados",0,0,0,0,100
"Peces",0,0,0,0,100
"Anfibios",0,0,0,0,100
"Reptiles",28.5714,14.2857,0,0,57.1429
"Aves",13.6364,6.0606,3.0303,0,77.2727
"Mamíferos",0,4.7619,0,0,95.2381
