"Grupo","Sujeta_a_proteccion_especial_(Pr)","Amenazada_(A)","En_peligro_de_extincion_(P)","Probablemente_extinta_en_medio_silvestre_(E)","No_enlistadas"
"Hongos",0,0,0,0,100
"Plantas",0,2.2222,0,0,97.7778
"Invertebrados",0,0,0,0,100
"Peces",0,0,0,0,0
"Anfibios",0,0,0,0,100
"Reptiles",35.7143,14.2857,7.1429,0,42.8571
"Aves",10.1911,7.0064,1.9108,0,80.8917
"Mamíferos",25,0,0,0,75
