"Grupo","Sujeta_a_proteccion_especial_(Pr)","Amenazada_(A)","En_peligro_de_extincion_(P)","Probablemente_extinta_en_medio_silvestre_(E)","No_enlistadas"
"Hongos",0,0,0,0,100
"Plantas",0.6623,3.3113,0,0,96.0265
"Invertebrados",0,0,0,0,100
"Peces",1.6949,0,1.6949,0,96.6102
"Anfibios",0,0,0,0,100
"Reptiles",29.1667,16.6667,0,0,54.1667
"Aves",8.8,3.2,0.8,0,87.2
"Mamíferos",0,0,0,0,100
