"Grupo","Sujeta_a_proteccion_especial_(Pr)","Amenazada_(A)","En_peligro_de_extincion_(P)","Probablemente_extinta_en_medio_silvestre_(E)","No_enlistadas"
"Hongos",0,0,0,0,0
"Plantas",0,0,0,0,100
"Invertebrados",0,5.8824,0,0,94.1176
"Peces",2.8571,0,0,0,97.1429
"Anfibios",0,0,0,0,100
"Reptiles",42.8571,28.5714,0,0,28.5714
"Aves",13.5135,0,2.7027,0,83.7838
"Mamíferos",28.5714,0,0,0,71.4286
