"Grupo","Sujeta_a_proteccion_especial_(Pr)","Amenazada_(A)","En_peligro_de_extincion_(P)","Probablemente_extinta_en_medio_silvestre_(E)","No_enlistadas"
"Hongos",0,5.5556,0,0,94.4444
"Plantas",0.9091,0.5455,0,0,98.5455
"Invertebrados",0,0,0,0,100
"Peces",0,0,0,0,100
"Anfibios",0,0,20,0,80
"Reptiles",35.8974,20.5128,2.5641,0,41.0256
"Aves",15.0943,1.8868,0,0,83.0189
"Mamíferos",7.6923,7.6923,0,0,84.6154
