"Grupo","Sujeta_a_proteccion_especial_(Pr)","Amenazada_(A)","En_peligro_de_extincion_(P)","Probablemente_extinta_en_medio_silvestre_(E)","No_enlistadas"
"Hongos",0,3.5714,0,0,96.4286
"Plantas",0.9722,0.625,0.2083,0,98.1944
"Invertebrados",0.3367,0,0,0,99.6633
"Peces",0,15.3846,19.2308,0,65.3846
"Anfibios",28,8,0,0,64
"Reptiles",25.641,25.641,0,0,48.7179
"Aves",10.9589,4.7945,2.0548,0.6849,81.5068
"Mamíferos",2.0408,6.1224,2.0408,0,89.7959
