"Grupo","Sujeta_a_proteccion_especial_(Pr)","Amenazada_(A)","En_peligro_de_extincion_(P)","Probablemente_extinta_en_medio_silvestre_(E)","No_enlistadas"
"Hongos",0,0,0,0,0
"Plantas",0,0,0,0,100
"Invertebrados",0,0,0,0,100
"Peces",0,0,0,0,100
"Anfibios",0,0,0,0,0
"Reptiles",11.1111,22.2222,0,0,66.6667
"Aves",50,0,0,0,50
"Mamíferos",0,12.5,0,0,87.5
