"Grupo","Sujeta_a_proteccion_especial_(Pr)","Amenazada_(A)","En_peligro_de_extincion_(P)","Probablemente_extinta_en_medio_silvestre_(E)","No_enlistadas"
"Hongos",0,0,0,0,0
"Plantas",0,0,0,0,100
"Invertebrados",0,0,0,0,0
"Peces",0,0,0,0,0
"Anfibios",25,0,0,0,75
"Reptiles",12.5,12.5,0,0,75
"Aves",12.5,12.5,0,0,75
"Mamíferos",0,0,0,0,100
