"Grupo","Sujeta_a_proteccion_especial_(Pr)","Amenazada_(A)","En_peligro_de_extincion_(P)","Probablemente_extinta_en_medio_silvestre_(E)","No_enlistadas"
"Hongos",0,0,0,0,0
"Plantas",0,2.1277,0,0,97.8723
"Invertebrados",0,0,0,0,100
"Peces",0,0,0,0,0
"Anfibios",100,0,0,0,0
"Reptiles",33.3333,16.6667,0,0,50
"Aves",0,0,0,0,100
"Mamíferos",0,0,0,0,100
