"Grupo","Sujeta_a_proteccion_especial_(Pr)","Amenazada_(A)","En_peligro_de_extincion_(P)","Probablemente_extinta_en_medio_silvestre_(E)","No_enlistadas"
"Hongos",0,0,0,0,100
"Plantas",0.7937,1.9841,0.3968,0,96.8254
"Invertebrados",0,0,0,0,100
"Peces",7.1429,0,0,0,92.8571
"Anfibios",18.1818,0,0,0,81.8182
"Reptiles",16,12,0,0,72
"Aves",22.8571,2.8571,2.8571,0,71.4286
"Mamíferos",0,0,0,0,100
