"Grupo","Sujeta_a_proteccion_especial_(Pr)","Amenazada_(A)","En_peligro_de_extincion_(P)","Probablemente_extinta_en_medio_silvestre_(E)","No_enlistadas"
"Hongos",0,0,0,0,100
"Plantas",1.5385,4.6154,0,0,93.8462
"Invertebrados",0,0,0,0,100
"Peces",1.6129,0,0,0,98.3871
"Anfibios",20,0,0,0,80
"Reptiles",41.1765,17.6471,0,0,41.1765
"Aves",12.5,7.5,1,0,79
"Mamíferos",50,0,0,0,50
