"Grupo","Sujeta_a_proteccion_especial_(Pr)","Amenazada_(A)","En_peligro_de_extincion_(P)","Probablemente_extinta_en_medio_silvestre_(E)","No_enlistadas"
"Hongos",0,0,0,0,0
"Plantas",0.3704,1.1111,0.3704,0,98.1481
"Invertebrados",1.0417,0,1.0417,0,97.9167
"Peces",2.0833,0,0,0,97.9167
"Anfibios",30.7692,0,7.6923,0,61.5385
"Reptiles",15.1515,15.1515,3.0303,0,66.6667
"Aves",9.2308,5.3846,3.0769,0,82.3077
"Mamíferos",0,8,0,0,92
