"Grupo","Sujeta_a_proteccion_especial_(Pr)","Amenazada_(A)","En_peligro_de_extincion_(P)","Probablemente_extinta_en_medio_silvestre_(E)","No_enlistadas"
"Hongos",0,0,0,0,100
"Plantas",0.5533,0.8299,0.1383,0,98.4786
"Invertebrados",0,0,0.6024,0,99.3976
"Peces",1.9608,3.9216,0,0,94.1176
"Anfibios",42.8571,0,0,0,57.1429
"Reptiles",17.2414,10.3448,0,0,72.4138
"Aves",17.6923,6.1538,2.3077,0,73.8462
"Mamíferos",0,7.6923,11.5385,0,80.7692
