"Grupo","Sujeta_a_proteccion_especial_(Pr)","Amenazada_(A)","En_peligro_de_extincion_(P)","Probablemente_extinta_en_medio_silvestre_(E)","No_enlistadas"
"Hongos",0,0,0,0,100
"Plantas",1.6393,6.5574,0,0,91.8033
"Invertebrados",0,0,0,0,100
"Peces",0,0,0,0,100
"Anfibios",50,0,0,0,50
"Reptiles",20,16,0,0,64
"Aves",12.9412,3.5294,3.5294,0,80
"Mamíferos",7.1429,0,7.1429,0,85.7143
