"Grupo","Sujeta_a_proteccion_especial_(Pr)","Amenazada_(A)","En_peligro_de_extincion_(P)","Probablemente_extinta_en_medio_silvestre_(E)","No_enlistadas"
"Hongos",0,2.3576,0,0,97.6424
"Plantas",1.0475,0.8551,0.4489,0,97.6486
"Invertebrados",0.0464,0.0464,0.0464,0,99.8609
"Peces",5.1948,10.3896,15.5844,0,68.8312
"Anfibios",29.2683,14.6341,2.439,0,53.6585
"Reptiles",25.8278,15.2318,1.3245,0,57.6159
"Aves",10.1266,8.8608,4.2194,0,76.7932
"Mamíferos",6.1728,6.1728,2.4691,0,85.1852
