"Grupo","Sujeta_a_proteccion_especial_(Pr)","Amenazada_(A)","En_peligro_de_extincion_(P)","Probablemente_extinta_en_medio_silvestre_(E)","No_enlistadas"
"Hongos",0,0,0,0,0
"Plantas",0,5.8824,0,0,94.1176
"Invertebrados",0,0,0,0,0
"Peces",0,0,0,0,0
"Anfibios",100,0,0,0,0
"Reptiles",33.3333,8.3333,0,0,58.3333
"Aves",5.2632,5.2632,0,0,89.4737
"Mamíferos",0,0,0,0,0
