"Grupo","Sujeta_a_proteccion_especial_(Pr)","Amenazada_(A)","En_peligro_de_extincion_(P)","Probablemente_extinta_en_medio_silvestre_(E)","No_enlistadas"
"Hongos",0,0,0,0,0
"Plantas",8.5714,2.8571,0,0,88.5714
"Invertebrados",0,0,0,0,100
"Peces",0,0,0,0,100
"Anfibios",0,0,0,0,0
"Reptiles",16.6667,11.1111,5.5556,0,66.6667
"Aves",8.1081,8.1081,2.7027,0,81.0811
"Mamíferos",12.5,0,0,0,87.5
