"Grupo","Sujeta_a_proteccion_especial_(Pr)","Amenazada_(A)","En_peligro_de_extincion_(P)","Probablemente_extinta_en_medio_silvestre_(E)","No_enlistadas"
"Hongos",0,0,0,0,0
"Plantas",1.3889,1.3889,0,0,97.2222
"Invertebrados",0,0,0,0,100
"Peces",0,0,0,0,100
"Anfibios",0,0,0,0,100
"Reptiles",35.2941,5.8824,5.8824,0,52.9412
"Aves",10,0,0,0,90
"Mamíferos",0,4.7619,4.7619,0,90.4762
