"Grupo","Sujeta_a_proteccion_especial_(Pr)","Amenazada_(A)","En_peligro_de_extincion_(P)","Probablemente_extinta_en_medio_silvestre_(E)","No_enlistadas"
"Hongos",0,0,0,0,0
"Plantas",0,7.4074,0,0,92.5926
"Invertebrados",0,0,0,0,100
"Peces",5.2632,0,0,0,94.7368
"Anfibios",0,0,0,0,0
"Reptiles",0,66.6667,0,0,33.3333
"Aves",7.5472,2.8302,0.9434,0,88.6792
"Mamíferos",0,0,0,0,100
