"Grupo","Datos_insuficientes_(DD)","Preocupacion_menor_(LC)","Casi_amenazado_(NT)","Vulnerable_(VU)","En_peligro_(EN)","En_peligro_critico_(CR)_","Extinto_en_estado_silvestre_(EW)","Extinto_(EX)","No_enlistadas"
"Hongos",0,0,0,0,0,0,0,0,100
"Plantas",0.6452,9.6774,0,1.2903,0.6452,0,0,0,87.7419
"Invertebrados",0,0,0,0,0,0,0,0,100
"Peces",0,66.6667,0,0,0,0,0,0,33.3333
"Anfibios",0,0,0,0,100,0,0,0,0
"Reptiles",0,71.4286,0,7.1429,7.1429,0,0,0,14.2857
"Aves",0,100,0,0,0,0,0,0,0
"Mamíferos",0,100,0,0,0,0,0,0,0
