"Grupo","Datos_insuficientes_(DD)","Preocupacion_menor_(LC)","Casi_amenazado_(NT)","Vulnerable_(VU)","En_peligro_(EN)","En_peligro_critico_(CR)_","Extinto_en_estado_silvestre_(EW)","Extinto_(EX)","No_enlistadas"
"Hongos",0,0,0,0,0,0,0,0,0
"Plantas",0,16.6667,0,0,0,0,0,0,83.3333
"Invertebrados",0,12.5,0,0,0,0,0,0,87.5
"Peces",0,93.3333,6.6667,0,0,0,0,0,0
"Anfibios",0,0,0,0,0,0,0,0,0
"Reptiles",0,62.5,0,0,0,0,0,0,37.5
"Aves",0,92.5,3.75,0,0,0,0,0,3.75
"Mamíferos",0,100,0,0,0,0,0,0,0
