"Grupo","Datos_insuficientes_(DD)","Preocupacion_menor_(LC)","Casi_amenazado_(NT)","Vulnerable_(VU)","En_peligro_(EN)","En_peligro_critico_(CR)_","Extinto_en_estado_silvestre_(EW)","Extinto_(EX)","No_enlistadas"
"Hongos",0,0,0,0,0,0,0,0,100
"Plantas",0.7576,7.8283,0.5051,0.7576,0,0,0,0,90.1515
"Invertebrados",0,2.7397,0,0.6849,0.6849,0.6849,0,0,95.2055
"Peces",8.1081,64.8649,0,2.7027,0,0,0,0,24.3243
"Anfibios",0,61.5385,7.6923,0,7.6923,0,0,0,23.0769
"Reptiles",2,78,0,2,0,0,0,0,18
"Aves",0,88.6076,5.6962,1.2658,0.6329,0,0,0,3.7975
"Mamíferos",0,91.6667,4.1667,0,0,0,0,0,4.1667
