"Grupo","Datos_insuficientes_(DD)","Preocupacion_menor_(LC)","Casi_amenazado_(NT)","Vulnerable_(VU)","En_peligro_(EN)","En_peligro_critico_(CR)_","Extinto_en_estado_silvestre_(EW)","Extinto_(EX)","No_enlistadas"
"Hongos",0,0,0,0,0,0,0,0,0
"Plantas",0,15.3846,0,0,0,0,0,0,84.6154
"Invertebrados",0,0,0,0,0,0,0,0,0
"Peces",0,0,0,0,0,0,0,0,0
"Anfibios",0,0,0,0,0,0,0,0,0
"Reptiles",0,0,0,0,50,0,0,0,50
"Aves",0,89.2857,10.7143,0,0,0,0,0,0
"Mamíferos",0,100,0,0,0,0,0,0,0
