"Grupo","Datos_insuficientes_(DD)","Preocupacion_menor_(LC)","Casi_amenazado_(NT)","Vulnerable_(VU)","En_peligro_(EN)","En_peligro_critico_(CR)_","Extinto_en_estado_silvestre_(EW)","Extinto_(EX)","No_enlistadas"
"Hongos",0,0,0,0,0,0,0,0,0
"Plantas",1.5873,12.6984,0,0,0,0,0,0,85.7143
"Invertebrados",0,25,0,0,0,0,0,0,75
"Peces",0,100,0,0,0,0,0,0,0
"Anfibios",0,0,0,0,0,0,0,0,100
"Reptiles",0,33.3333,0,0,0,0,0,0,66.6667
"Aves",0,100,0,0,0,0,0,0,0
"Mamíferos",0,0,0,0,0,0,0,0,0
