"Grupo","Datos_insuficientes_(DD)","Preocupacion_menor_(LC)","Casi_amenazado_(NT)","Vulnerable_(VU)","En_peligro_(EN)","En_peligro_critico_(CR)_","Extinto_en_estado_silvestre_(EW)","Extinto_(EX)","No_enlistadas"
"Hongos",0,0,0,0,0,0,0,0,100
"Plantas",0,14.8148,0,0,0,0,0,0,85.1852
"Invertebrados",0,0,0,0,0,0,0,0,100
"Peces",14.2857,85.7143,0,0,0,0,0,0,0
"Anfibios",0,100,0,0,0,0,0,0,0
"Reptiles",0,66.6667,0,0,0,0,0,0,33.3333
"Aves",0,85,7.5,2.5,0,0,0,0,5
"Mamíferos",0,100,0,0,0,0,0,0,0
