"Grupo","Datos_insuficientes_(DD)","Preocupacion_menor_(LC)","Casi_amenazado_(NT)","Vulnerable_(VU)","En_peligro_(EN)","En_peligro_critico_(CR)_","Extinto_en_estado_silvestre_(EW)","Extinto_(EX)","No_enlistadas"
"Hongos",0,0,0,0,0,0,0,0,0
"Plantas",0,19.2308,0,0,0,0,0,0,80.7692
"Invertebrados",0,0,0,0,0,0,0,0,100
"Peces",0,0,0,100,0,0,0,0,0
"Anfibios",0,0,0,0,0,0,0,0,0
"Reptiles",0,88.8889,0,0,11.1111,0,0,0,0
"Aves",0,86.8687,6.0606,1.0101,0,0,0,0,6.0606
"Mamíferos",0,0,0,0,0,0,0,0,0
