"Grupo","Datos_insuficientes_(DD)","Preocupacion_menor_(LC)","Casi_amenazado_(NT)","Vulnerable_(VU)","En_peligro_(EN)","En_peligro_critico_(CR)_","Extinto_en_estado_silvestre_(EW)","Extinto_(EX)","No_enlistadas"
"Hongos",0,0,0,0,0,0,0,0,0
"Plantas",1.3889,6.9444,0,1.3889,1.3889,0,0,0,88.8889
"Invertebrados",0,17.6471,0,2.9412,0,0,0,0,79.4118
"Peces",0,83.3333,16.6667,0,0,0,0,0,0
"Anfibios",0,0,0,0,0,0,0,0,0
"Reptiles",0,68.4211,5.2632,5.2632,5.2632,5.2632,0,0,10.5263
"Aves",0,95.1807,2.4096,0,0,0,0,0,2.4096
"Mamíferos",0,75,0,25,0,0,0,0,0
