"Grupo","Datos_insuficientes_(DD)","Preocupacion_menor_(LC)","Casi_amenazado_(NT)","Vulnerable_(VU)","En_peligro_(EN)","En_peligro_critico_(CR)_","Extinto_en_estado_silvestre_(EW)","Extinto_(EX)","No_enlistadas"
"Hongos",0,0,0,0,0,0,0,0,100
"Plantas",0.6849,8.9041,0,0,0.6849,0,0,0,89.726
"Invertebrados",0.6711,3.3557,0.6711,0.6711,0,0,0,0,94.6309
"Peces",0,85.2941,5.8824,0,0,0,0,0,8.8235
"Anfibios",0,100,0,0,0,0,0,0,0
"Reptiles",0,70.5882,0,11.7647,0,0,0,0,17.6471
"Aves",0,90.8257,3.6697,1.8349,0,0,0,0,3.6697
"Mamíferos",0,86.3636,4.5455,0,0,0,0,0,9.0909
