"Grupo","Datos_insuficientes_(DD)","Preocupacion_menor_(LC)","Casi_amenazado_(NT)","Vulnerable_(VU)","En_peligro_(EN)","En_peligro_critico_(CR)_","Extinto_en_estado_silvestre_(EW)","Extinto_(EX)","No_enlistadas"
"Hongos",0,0,0,0,0,0,0,0,0
"Plantas",0,5.2632,0,0,0,0,0,0,94.7368
"Invertebrados",0,50,0,0,0,0,0,0,50
"Peces",6.6667,60,6.6667,0,0,0,0,0,26.6667
"Anfibios",0,100,0,0,0,0,0,0,0
"Reptiles",0,100,0,0,0,0,0,0,0
"Aves",0,66.6667,33.3333,0,0,0,0,0,0
"Mamíferos",0,100,0,0,0,0,0,0,0
