"Grupo","Datos_insuficientes_(DD)","Preocupacion_menor_(LC)","Casi_amenazado_(NT)","Vulnerable_(VU)","En_peligro_(EN)","En_peligro_critico_(CR)_","Extinto_en_estado_silvestre_(EW)","Extinto_(EX)","No_enlistadas"
"Hongos",0,0,0,0,0,0,0,0,0
"Plantas",0,2.5641,0,2.5641,0,0,0,0,94.8718
"Invertebrados",0,0,0,0,0,0,0,0,0
"Peces",0,0,0,0,0,0,0,0,0
"Anfibios",0,50,0,0,0,0,0,0,50
"Reptiles",0,100,0,0,0,0,0,0,0
"Aves",0,100,0,0,0,0,0,0,0
"Mamíferos",0,0,0,0,0,0,0,0,0
