"Grupo","Datos_insuficientes_(DD)","Preocupacion_menor_(LC)","Casi_amenazado_(NT)","Vulnerable_(VU)","En_peligro_(EN)","En_peligro_critico_(CR)_","Extinto_en_estado_silvestre_(EW)","Extinto_(EX)","No_enlistadas"
"Hongos",0,0,0,0,0,0,0,0,0
"Plantas",0,0,0,0,0,0,0,0,0
"Invertebrados",0,0,0,0,0,0,0,0,0
"Peces",0,0,0,0,0,0,0,0,0
"Anfibios",0,66.6667,0,0,0,0,0,0,33.3333
"Reptiles",6.25,81.25,0,0,0,0,0,0,12.5
"Aves",0,0,0,0,0,0,0,0,0
"Mamíferos",0,0,0,0,0,0,0,0,0
