"Grupo","Datos_insuficientes_(DD)","Preocupacion_menor_(LC)","Casi_amenazado_(NT)","Vulnerable_(VU)","En_peligro_(EN)","En_peligro_critico_(CR)_","Extinto_en_estado_silvestre_(EW)","Extinto_(EX)","No_enlistadas"
"Hongos",0,0,0,0,0,0,0,0,100
"Plantas",0.1932,3.5956,0.1395,0.5045,0.3435,0.0215,0,0,95.2023
"Invertebrados",0.1868,1.1954,0.0747,0.1121,0.0747,0.0187,0,0,98.3377
"Peces",3.1056,46.5839,0.6211,3.7267,0,3.7267,0,0,42.236
"Anfibios",6.2937,34.965,4.1958,11.1888,18.8811,14.6853,0,0,9.7902
"Reptiles",6.6202,62.3693,2.439,5.9233,3.4843,0.6969,0,0,18.4669
"Aves",0.3436,87.2852,3.4364,0.6873,1.7182,0.3436,0,0,6.1856
"Mamíferos",1.2821,77.7778,3.8462,3.8462,5.1282,2.1368,0,0,5.9829
