"Grupo","Datos_insuficientes_(DD)","Preocupacion_menor_(LC)","Casi_amenazado_(NT)","Vulnerable_(VU)","En_peligro_(EN)","En_peligro_critico_(CR)_","Extinto_en_estado_silvestre_(EW)","Extinto_(EX)","No_enlistadas"
"Hongos",0,0,0,0,0,0,0,0,0
"Plantas",0,2.8571,0,0,0,0,0,0,97.1429
"Invertebrados",0,0,0,0,0,0,0,0,0
"Peces",0,0,0,0,0,0,0,0,0
"Anfibios",0,100,0,0,0,0,0,0,0
"Reptiles",0,90,0,0,0,0,0,0,10
"Aves",0,0,0,0,0,0,0,0,0
"Mamíferos",0,100,0,0,0,0,0,0,0
