"Grupo","Datos_insuficientes_(DD)","Preocupacion_menor_(LC)","Casi_amenazado_(NT)","Vulnerable_(VU)","En_peligro_(EN)","En_peligro_critico_(CR)_","Extinto_en_estado_silvestre_(EW)","Extinto_(EX)","No_enlistadas"
"Hongos",0,0,0,0,0,0,0,0,0
"Plantas",0,16.6667,0,0,0,0,0,0,83.3333
"Invertebrados",0,0,0,0,0,0,0,0,100
"Peces",0,85.7143,0,0,0,0,0,0,14.2857
"Anfibios",0,100,0,0,0,0,0,0,0
"Reptiles",0,40,0,20,20,0,0,0,20
"Aves",0,90.3226,0,0,6.4516,0,0,0,3.2258
"Mamíferos",0,0,0,0,0,0,0,0,0
