"Grupo","Datos_insuficientes_(DD)","Preocupacion_menor_(LC)","Casi_amenazado_(NT)","Vulnerable_(VU)","En_peligro_(EN)","En_peligro_critico_(CR)_","Extinto_en_estado_silvestre_(EW)","Extinto_(EX)","No_enlistadas"
"Hongos",0,0,0,0,0,0,0,0,100
"Plantas",0.1516,3.3359,0,0.7582,0.3033,0,0,0,95.4511
"Invertebrados",0,0.5747,0,0,0,0,0,0,99.4253
"Peces",5.3571,58.9286,1.7857,0,0,0,0,0,33.9286
"Anfibios",0,47.3684,2.6316,13.1579,18.4211,13.1579,0,0,5.2632
"Reptiles",7.5472,49.0566,3.7736,3.7736,1.8868,0,0,0,33.9623
"Aves",0,91.1458,3.125,1.0417,0.5208,0,0,0,4.1667
"Mamíferos",0,88,4,0,2,0,0,0,6
