"Grupo","Datos_insuficientes_(DD)","Preocupacion_menor_(LC)","Casi_amenazado_(NT)","Vulnerable_(VU)","En_peligro_(EN)","En_peligro_critico_(CR)_","Extinto_en_estado_silvestre_(EW)","Extinto_(EX)","No_enlistadas"
"Hongos",0,0,0,0,0,0,0,0,100
"Plantas",0.3339,6.177,0.1669,0.5008,0,0,0,0,92.8214
"Invertebrados",0,3.8462,0,0,0,0,0,0,96.1538
"Peces",0,61.1111,0,5.5556,5.5556,0,0,0,27.7778
"Anfibios",0,71.4286,7.1429,0,0,0,0,0,21.4286
"Reptiles",3.4483,62.069,3.4483,0,3.4483,6.8966,0,0,20.6897
"Aves",0,93.8776,2.0408,0,4.0816,0,0,0,0
"Mamíferos",0,94.1176,0,0,0,0,0,0,5.8824
