"Grupo","Datos_insuficientes_(DD)","Preocupacion_menor_(LC)","Casi_amenazado_(NT)","Vulnerable_(VU)","En_peligro_(EN)","En_peligro_critico_(CR)_","Extinto_en_estado_silvestre_(EW)","Extinto_(EX)","No_enlistadas"
"Hongos",0,0,0,0,0,0,0,0,0
"Plantas",0,16.6667,0,0,0,0,0,0,83.3333
"Invertebrados",0,33.3333,0,33.3333,0,0,0,0,33.3333
"Peces",0,75,0,0,0,0,0,0,25
"Anfibios",0,0,0,0,0,0,0,0,0
"Reptiles",0,0,0,100,0,0,0,0,0
"Aves",0,100,0,0,0,0,0,0,0
"Mamíferos",0,100,0,0,0,0,0,0,0
