"Grupo","Datos_insuficientes_(DD)","Preocupacion_menor_(LC)","Casi_amenazado_(NT)","Vulnerable_(VU)","En_peligro_(EN)","En_peligro_critico_(CR)_","Extinto_en_estado_silvestre_(EW)","Extinto_(EX)","No_enlistadas"
"Hongos",0,0,0,0,0,0,0,0,100
"Plantas",0.0473,3.9281,0.0473,0.7572,0.0473,0,0,0,95.1727
"Invertebrados",0.2584,4.9096,0.2584,0.2584,0,0,0,0,94.3152
"Peces",2.9412,20.5882,0,0,0,2.9412,2.9412,0,70.5882
"Anfibios",6.25,62.5,4.1667,12.5,2.0833,4.1667,0,0,8.3333
"Reptiles",5.0505,63.6364,3.0303,2.0202,1.0101,0,0,0,25.2525
"Aves",0.4651,90.2326,3.7209,0,1.3953,0,0,0,4.186
"Mamíferos",0.7812,79.6875,3.9062,3.9062,3.9062,0,0,0,7.8125
