"Grupo","Datos_insuficientes_(DD)","Preocupacion_menor_(LC)","Casi_amenazado_(NT)","Vulnerable_(VU)","En_peligro_(EN)","En_peligro_critico_(CR)_","Extinto_en_estado_silvestre_(EW)","Extinto_(EX)","No_enlistadas"
"Hongos",0,0,0,0,0,0,0,0,100
"Plantas",0.1194,3.3684,0.1194,1.0511,0.3344,0.1672,0,0,94.8399
"Invertebrados",0.1774,1.5967,0,0.0591,0.0591,0,0,0,98.1076
"Peces",4,30,2,1,0,0,0,0,63
"Anfibios",2.1053,38.9474,6.3158,15.7895,14.7368,12.6316,0,0,9.4737
"Reptiles",8.0214,50.8021,3.7433,2.6738,1.6043,1.6043,0,0,31.5508
"Aves",0,88.7372,3.7543,1.7065,0.6826,0,0,0,5.1195
"Mamíferos",1.2422,80.7453,3.7267,3.7267,3.1056,0.6211,0,0,6.8323
