"Grupo","Datos_insuficientes_(DD)","Preocupacion_menor_(LC)","Casi_amenazado_(NT)","Vulnerable_(VU)","En_peligro_(EN)","En_peligro_critico_(CR)_","Extinto_en_estado_silvestre_(EW)","Extinto_(EX)","No_enlistadas"
"Hongos",0,0,0,0,0,0,0,0,100
"Plantas",0,7.393,0,0.1946,0,0,0,0,92.4125
"Invertebrados",0,0.7092,0,0,0,0,0,0,99.2908
"Peces",0,54.5455,0,0,0,0,0,0,45.4545
"Anfibios",0,77.7778,5.5556,5.5556,0,0,0,0,11.1111
"Reptiles",2.0408,77.551,6.1224,0,0,0,0,0,14.2857
"Aves",0,95.7895,2.1053,0,0,0,0,0,2.1053
"Mamíferos",2.2727,86.3636,6.8182,2.2727,0,0,0,0,2.2727
