"Grupo","Datos_insuficientes_(DD)","Preocupacion_menor_(LC)","Casi_amenazado_(NT)","Vulnerable_(VU)","En_peligro_(EN)","En_peligro_critico_(CR)_","Extinto_en_estado_silvestre_(EW)","Extinto_(EX)","No_enlistadas"
"Hongos",0,0,0,0,0,0,0,0,100
"Plantas",0.1242,4.7205,0.2484,1.4907,0.4969,0,0,0,92.9193
"Invertebrados",0,2.7132,0.3876,0.7752,0,0,0,0,96.124
"Peces",0,0,0,0,0,0,0,0,0
"Anfibios",0,46.1538,3.8462,19.2308,15.3846,7.6923,0,0,7.6923
"Reptiles",2.1739,69.5652,0,4.3478,2.1739,0,0,0,21.7391
"Aves",0,92.1687,3.6145,0.6024,1.2048,0,0,0,2.4096
"Mamíferos",0,80.4348,2.1739,6.5217,6.5217,0,0,0,4.3478
