"Grupo","Datos_insuficientes_(DD)","Preocupacion_menor_(LC)","Casi_amenazado_(NT)","Vulnerable_(VU)","En_peligro_(EN)","En_peligro_critico_(CR)_","Extinto_en_estado_silvestre_(EW)","Extinto_(EX)","No_enlistadas"
"Hongos",0,0,0,0,0,0,0,0,100
"Plantas",0.1802,4.8649,0,1.982,0.1802,0,0,0,92.7928
"Invertebrados",0.9434,3.7736,0,0,0.4717,0,0,0,94.8113
"Peces",2.7778,55.5556,2.7778,1.3889,0,0,0,0,37.5
"Anfibios",0,42.8571,14.2857,4.7619,19.0476,14.2857,0,0,4.7619
"Reptiles",10.5263,52.6316,0,2.6316,2.6316,0,0,0,31.5789
"Aves",0,91.875,3.75,0.625,0.625,0,0,0,3.125
"Mamíferos",4.7619,80.9524,0,0,4.7619,4.7619,0,0,4.7619
