"Grupo","Datos_insuficientes_(DD)","Preocupacion_menor_(LC)","Casi_amenazado_(NT)","Vulnerable_(VU)","En_peligro_(EN)","En_peligro_critico_(CR)_","Extinto_en_estado_silvestre_(EW)","Extinto_(EX)","No_enlistadas"
"Hongos",0,0,0,0,0,0,0,0,100
"Plantas",0,5.7208,0.6865,0.6865,0.9153,0,0,0,91.9908
"Invertebrados",0,2.7523,0,0,0.9174,0,0,0,96.3303
"Peces",0,100,0,0,0,0,0,0,0
"Anfibios",16.6667,66.6667,0,0,0,0,0,0,16.6667
"Reptiles",4.7619,66.6667,0,4.7619,0,0,0,0,23.8095
"Aves",0,91.9786,3.2086,0.5348,0.5348,0,0,0,3.7433
"Mamíferos",0,85,10,5,0,0,0,0,0
