"Grupo","Datos_insuficientes_(DD)","Preocupacion_menor_(LC)","Casi_amenazado_(NT)","Vulnerable_(VU)","En_peligro_(EN)","En_peligro_critico_(CR)_","Extinto_en_estado_silvestre_(EW)","Extinto_(EX)","No_enlistadas"
"Hongos",0,0,0,0,0,0,0,0,100
"Plantas",0.2755,4.0634,0.4132,0.551,0.2066,0,0,0,94.4904
"Invertebrados",0,2.2272,0,0,0,0,0,0,97.7728
"Peces",0,45,3.75,2.5,0,0,0,0,48.75
"Anfibios",0,87.5,0,0,0,0,0,0,12.5
"Reptiles",2.0833,54.1667,5.2083,2.0833,0,1.0417,0,0,35.4167
"Aves",0,88.5572,5.4726,0.995,0,0,0,0,4.9751
"Mamíferos",1.2195,84.1463,2.439,3.6585,3.6585,0,0,0,4.878
