"Grupo","Datos_insuficientes_(DD)","Preocupacion_menor_(LC)","Casi_amenazado_(NT)","Vulnerable_(VU)","En_peligro_(EN)","En_peligro_critico_(CR)_","Extinto_en_estado_silvestre_(EW)","Extinto_(EX)","No_enlistadas"
"Hongos",0,0,0,0,0,0,0,0,100
"Plantas",0.3891,5.4475,0.3891,0.7782,0,0,0,0,92.9961
"Invertebrados",0,2.4752,0.9901,0.9901,0,0,0,0,95.5446
"Peces",2.439,60.9756,4.878,2.439,2.439,0,0,0,26.8293
"Anfibios",0,74.0741,0,3.7037,11.1111,3.7037,0,0,7.4074
"Reptiles",5.1724,63.7931,1.7241,3.4483,0,0,0,0,25.8621
"Aves",0,91.7647,2.3529,0.5882,0.5882,0,0,0,4.7059
"Mamíferos",0,82.7586,3.4483,6.8966,0,0,0,0,6.8966
