"Grupo","Datos_insuficientes_(DD)","Preocupacion_menor_(LC)","Casi_amenazado_(NT)","Vulnerable_(VU)","En_peligro_(EN)","En_peligro_critico_(CR)_","Extinto_en_estado_silvestre_(EW)","Extinto_(EX)","No_enlistadas"
"Hongos",0,0,0,0,0,0,0,0,100
"Plantas",0,3.012,0,2.4096,0,0,0,0,94.5783
"Invertebrados",0,0,0,0,0,0,0,0,100
"Peces",0,33.3333,0,0,0,0,0,0,66.6667
"Anfibios",0,50,0,0,50,0,0,0,0
"Reptiles",4.1667,58.3333,0,0,4.1667,0,0,0,33.3333
"Aves",0,96.7213,1.6393,0,0,0,0,0,1.6393
"Mamíferos",0,77.7778,11.1111,0,0,0,0,0,11.1111
