"Grupo","Datos_insuficientes_(DD)","Preocupacion_menor_(LC)","Casi_amenazado_(NT)","Vulnerable_(VU)","En_peligro_(EN)","En_peligro_critico_(CR)_","Extinto_en_estado_silvestre_(EW)","Extinto_(EX)","No_enlistadas"
"Hongos",0,0,0,0,0,0,0,0,100
"Plantas",0.5157,7.1087,0.2578,0.4052,0.221,0.1105,0,0,91.3812
"Invertebrados",0.2278,1.139,0,0.2278,0.2278,0.2278,0,0,97.9499
"Peces",3.7037,25.9259,7.4074,9.2593,5.5556,1.8519,0,3.7037,42.5926
"Anfibios",2.8571,82.8571,2.8571,5.7143,0,0,0,0,5.7143
"Reptiles",2.8986,70.2899,2.8986,2.8986,3.6232,0,0,0,17.3913
"Aves",0,88.8889,2.4691,0.6173,1.8519,0.6173,0,0,5.5556
"Mamíferos",0.6757,83.7838,5.4054,1.3514,2.027,0,0,0,6.7568
