"Grupo","Datos_insuficientes_(DD)","Preocupacion_menor_(LC)","Casi_amenazado_(NT)","Vulnerable_(VU)","En_peligro_(EN)","En_peligro_critico_(CR)_","Extinto_en_estado_silvestre_(EW)","Extinto_(EX)","No_enlistadas"
"Hongos",0,0,0,0,0,0,0,0,100
"Plantas",0,4.4693,0,1.676,0,0,0,0,93.8547
"Invertebrados",0,0,0,0,0,0,0,0,100
"Peces",0,27.2727,0,0,9.0909,0,0,0,63.6364
"Anfibios",0,25,12.5,18.75,25,6.25,0,0,12.5
"Reptiles",0,42.8571,0,0,0,0,0,0,57.1429
"Aves",0,90.9091,0,9.0909,0,0,0,0,0
"Mamíferos",0,33.3333,0,33.3333,0,33.3333,0,0,0
