"Grupo","Datos_insuficientes_(DD)","Preocupacion_menor_(LC)","Casi_amenazado_(NT)","Vulnerable_(VU)","En_peligro_(EN)","En_peligro_critico_(CR)_","Extinto_en_estado_silvestre_(EW)","Extinto_(EX)","No_enlistadas"
"Hongos",0,0,0,0,0,0,0,0,0
"Plantas",0.1721,4.3029,0,0.6885,0.3442,0,0,0,94.4923
"Invertebrados",0,1.9608,1.9608,0,0,0,0,0,96.0784
"Peces",0,21.4286,7.1429,0,0,0,0,0,71.4286
"Anfibios",0,56,4,16,16,4,0,0,4
"Reptiles",6.5217,58.6957,0,2.1739,0,0,0,0,32.6087
"Aves",0,90.4348,4.3478,1.7391,0,0,0,0,3.4783
"Mamíferos",0,91.6667,0,0,2.0833,2.0833,0,0,4.1667
