"Grupo","Datos_insuficientes_(DD)","Preocupacion_menor_(LC)","Casi_amenazado_(NT)","Vulnerable_(VU)","En_peligro_(EN)","En_peligro_critico_(CR)_","Extinto_en_estado_silvestre_(EW)","Extinto_(EX)","No_enlistadas"
"Hongos",0,0,0,0,0,0,0,0,100
"Plantas",2.3256,5.814,0,3.4884,1.1628,0,0,0,87.2093
"Invertebrados",0,1.6129,0,0,0,0,0,0,98.3871
"Peces",0,28.5714,0,0,0,0,0,0,71.4286
"Anfibios",0,87.5,0,0,0,0,0,0,12.5
"Reptiles",4.7619,42.8571,14.2857,0,0,0,0,0,38.0952
"Aves",0,93.1818,2.2727,2.2727,0,0,0,0,2.2727
"Mamíferos",0,100,0,0,0,0,0,0,0
