"Grupo","Datos_insuficientes_(DD)","Preocupacion_menor_(LC)","Casi_amenazado_(NT)","Vulnerable_(VU)","En_peligro_(EN)","En_peligro_critico_(CR)_","Extinto_en_estado_silvestre_(EW)","Extinto_(EX)","No_enlistadas"
"Hongos",0,0,0,0,0,0,0,0,0
"Plantas",3.3333,6.6667,0,0,0,0,0,0,90
"Invertebrados",0,0,0,0,0,0,0,0,0
"Peces",0,50,0,0,0,0,0,0,50
"Anfibios",0,0,0,0,0,0,0,0,100
"Reptiles",0,0,0,0,0,0,0,0,0
"Aves",0,100,0,0,0,0,0,0,0
"Mamíferos",0,100,0,0,0,0,0,0,0
