"Grupo","Datos_insuficientes_(DD)","Preocupacion_menor_(LC)","Casi_amenazado_(NT)","Vulnerable_(VU)","En_peligro_(EN)","En_peligro_critico_(CR)_","Extinto_en_estado_silvestre_(EW)","Extinto_(EX)","No_enlistadas"
"Hongos",0,0,0,0,0,0,0,0,0
"Plantas",1.4925,1.4925,0,1.4925,0,0,0,0,95.5224
"Invertebrados",0,0,0,0,0,0,0,0,100
"Peces",0,0,0,0,0,100,0,0,0
"Anfibios",0,100,0,0,0,0,0,0,0
"Reptiles",0,57.1429,0,14.2857,0,0,0,0,28.5714
"Aves",0,92,4,0,0,0,0,0,4
"Mamíferos",0,100,0,0,0,0,0,0,0
