"Grupo","Datos_insuficientes_(DD)","Preocupacion_menor_(LC)","Casi_amenazado_(NT)","Vulnerable_(VU)","En_peligro_(EN)","En_peligro_critico_(CR)_","Extinto_en_estado_silvestre_(EW)","Extinto_(EX)","No_enlistadas"
"Hongos",0,0,0,0,0,0,0,0,0
"Plantas",0,8.1967,0,0,1.6393,0,0,0,90.1639
"Invertebrados",0,0,6.6667,0,0,0,0,0,93.3333
"Peces",0,0,0,0,0,0,0,0,0
"Anfibios",0,60,0,20,20,0,0,0,0
"Reptiles",0,50,0,0,0,0,0,0,50
"Aves",0,95.7143,1.4286,0,1.4286,0,0,0,1.4286
"Mamíferos",0,100,0,0,0,0,0,0,0
