"Grupo","Datos_insuficientes_(DD)","Preocupacion_menor_(LC)","Casi_amenazado_(NT)","Vulnerable_(VU)","En_peligro_(EN)","En_peligro_critico_(CR)_","Extinto_en_estado_silvestre_(EW)","Extinto_(EX)","No_enlistadas"
"Hongos",0,0,0,0,0,0,0,0,100
"Plantas",0.2646,5.6878,0.1653,0.3968,0.1323,0.0331,0,0,93.3201
"Invertebrados",0.2973,2.0813,0.0991,0.1982,0,0.0991,0,0,97.225
"Peces",3.7736,53.7736,3.7736,2.8302,3.7736,1.8868,0,0.9434,29.2453
"Anfibios",6.9767,62.7907,2.3256,4.6512,4.6512,4.6512,0,0,13.9535
"Reptiles",4.0984,64.7541,1.6393,4.0984,0.8197,0,0,0,24.5902
"Aves",0,91.0204,4.0816,0.8163,0.8163,0.4082,0,0,2.8571
"Mamíferos",0,84.9673,5.2288,1.9608,1.3072,0,0,0,6.5359
