"Grupo","Datos_insuficientes_(DD)","Preocupacion_menor_(LC)","Casi_amenazado_(NT)","Vulnerable_(VU)","En_peligro_(EN)","En_peligro_critico_(CR)_","Extinto_en_estado_silvestre_(EW)","Extinto_(EX)","No_enlistadas"
"Hongos",0,0,0,0,0,0,0,0,0
"Plantas",0,6.5789,0,0,1.3158,0,0,0,92.1053
"Invertebrados",0,0,0,0,0,0,0,0,100
"Peces",0,0,0,0,0,0,0,0,0
"Anfibios",0,75,0,0,0,0,0,0,25
"Reptiles",0,36.3636,9.0909,0,9.0909,9.0909,0,0,36.3636
"Aves",0,0,0,0,0,0,0,0,0
"Mamíferos",0,92.3077,0,0,0,0,0,0,7.6923
