"Grupo","Datos_insuficientes_(DD)","Preocupacion_menor_(LC)","Casi_amenazado_(NT)","Vulnerable_(VU)","En_peligro_(EN)","En_peligro_critico_(CR)_","Extinto_en_estado_silvestre_(EW)","Extinto_(EX)","No_enlistadas"
"Hongos",0,0,0,0,0,0,0,0,100
"Plantas",0.2553,7.3389,0.1914,0.5743,0.1276,0,0,0,91.5124
"Invertebrados",0,2.9851,0,0,0,0,0,0,97.0149
"Peces",8.547,64.9573,5.9829,5.9829,1.7094,1.7094,0,0,11.1111
"Anfibios",0,85.1852,0,7.4074,0,0,0,0,7.4074
"Reptiles",2.381,65.873,4.7619,2.381,0,0,0,0,24.6032
"Aves",0,88.7805,3.9024,0.4878,0.4878,0,0,0,6.3415
"Mamíferos",1.9802,84.1584,5.9406,1.9802,0.9901,0,0,0,4.9505
