"Grupo","Datos_insuficientes_(DD)","Preocupacion_menor_(LC)","Casi_amenazado_(NT)","Vulnerable_(VU)","En_peligro_(EN)","En_peligro_critico_(CR)_","Extinto_en_estado_silvestre_(EW)","Extinto_(EX)","No_enlistadas"
"Hongos",0,0,0,0,0,0,0,0,0
"Plantas",0,0,0,0,0,0,0,0,100
"Invertebrados",0,33.3333,0,0,0,0,0,0,66.6667
"Peces",0,0,0,0,0,0,0,0,100
"Anfibios",0,0,0,0,0,0,0,0,0
"Reptiles",0,60,0,0,0,0,0,0,40
"Aves",0,85.7143,0,14.2857,0,0,0,0,0
"Mamíferos",0,66.6667,0,33.3333,0,0,0,0,0
