"Grupo","Datos_insuficientes_(DD)","Preocupacion_menor_(LC)","Casi_amenazado_(NT)","Vulnerable_(VU)","En_peligro_(EN)","En_peligro_critico_(CR)_","Extinto_en_estado_silvestre_(EW)","Extinto_(EX)","No_enlistadas"
"Hongos",0,0,0,0,0,0,0,0,100
"Plantas",0,3.9877,0,1.227,0.6135,0,0,0,94.1718
"Invertebrados",0,7.0175,3.5088,0,1.7544,0,0,0,87.7193
"Peces",0,84.6154,0,0,0,0,0,0,15.3846
"Anfibios",0,55.5556,0,11.1111,11.1111,0,0,0,22.2222
"Reptiles",0,71.4286,0,9.5238,0,0,0,0,19.0476
"Aves",0,89.1304,3.2609,1.087,2.1739,0,0,0,4.3478
"Mamíferos",0,78.125,6.25,6.25,0,0,0,0,9.375
