"Grupo","Datos_insuficientes_(DD)","Preocupacion_menor_(LC)","Casi_amenazado_(NT)","Vulnerable_(VU)","En_peligro_(EN)","En_peligro_critico_(CR)_","Extinto_en_estado_silvestre_(EW)","Extinto_(EX)","No_enlistadas"
"Hongos",0,0,0,0,0,0,0,0,100
"Plantas",0.2564,3.956,0.2198,0.8425,0.3297,0.0366,0,0,94.359
"Invertebrados",0.2413,2.1713,0.1206,0.1206,0,0,0,0,97.3462
"Peces",0,27.7778,2.7778,0,0,0,0,0,69.4444
"Anfibios",1.25,38.75,10,7.5,12.5,22.5,0,0,7.5
"Reptiles",9.4444,56.1111,1.6667,5,1.1111,1.6667,0,0,25
"Aves",0,91.6667,2.3148,0.9259,0.9259,0,0,0,4.1667
"Mamíferos",0,76.087,3.6232,4.3478,6.5217,1.4493,0,0,7.971
