"Grupo","Datos_insuficientes_(DD)","Preocupacion_menor_(LC)","Casi_amenazado_(NT)","Vulnerable_(VU)","En_peligro_(EN)","En_peligro_critico_(CR)_","Extinto_en_estado_silvestre_(EW)","Extinto_(EX)","No_enlistadas"
"Hongos",0,0,0,0,0,0,0,0,0
"Plantas",0.6173,1.8519,0,2.4691,0.6173,0.6173,0,0,93.8272
"Invertebrados",0,0,0,0,0,0,0,0,100
"Peces",0,0,0,0,0,0,0,0,0
"Anfibios",0,21.4286,14.2857,14.2857,28.5714,14.2857,0,0,7.1429
"Reptiles",16.6667,58.3333,0,8.3333,0,0,0,0,16.6667
"Aves",0,89.3617,4.2553,0,0,0,0,0,6.383
"Mamíferos",0,100,0,0,0,0,0,0,0
