"Grupo","Datos_insuficientes_(DD)","Preocupacion_menor_(LC)","Casi_amenazado_(NT)","Vulnerable_(VU)","En_peligro_(EN)","En_peligro_critico_(CR)_","Extinto_en_estado_silvestre_(EW)","Extinto_(EX)","No_enlistadas"
"Hongos",0,0,0,0,0,0,0,0,0
"Plantas",4.3478,6.5217,0,0,2.1739,0,0,0,86.9565
"Invertebrados",0,0,0,0,0,0,0,0,100
"Peces",25,50,0,0,0,0,0,0,25
"Anfibios",0,66.6667,16.6667,0,0,0,0,0,16.6667
"Reptiles",0,84.2105,0,0,0,0,0,0,15.7895
"Aves",0,91.0256,5.1282,1.2821,0,0,0,0,2.5641
"Mamíferos",0,100,0,0,0,0,0,0,0
