"Grupo","Datos_insuficientes_(DD)","Preocupacion_menor_(LC)","Casi_amenazado_(NT)","Vulnerable_(VU)","En_peligro_(EN)","En_peligro_critico_(CR)_","Extinto_en_estado_silvestre_(EW)","Extinto_(EX)","No_enlistadas"
"Hongos",0,0,0,0,0,0,0,0,100
"Plantas",0,4.7945,0,0,0.6849,0,0,0,94.5205
"Invertebrados",0,0,0,0,0,0,0,0,100
"Peces",0,60,0,0,0,0,0,0,40
"Anfibios",0,40,20,0,0,0,0,0,40
"Reptiles",0,88.8889,0,0,0,0,0,0,11.1111
"Aves",0,91.1111,3.3333,0,0,0,0,0,5.5556
"Mamíferos",0,100,0,0,0,0,0,0,0
