"Grupo","Datos_insuficientes_(DD)","Preocupacion_menor_(LC)","Casi_amenazado_(NT)","Vulnerable_(VU)","En_peligro_(EN)","En_peligro_critico_(CR)_","Extinto_en_estado_silvestre_(EW)","Extinto_(EX)","No_enlistadas"
"Hongos",0,0,0,0,0,0,0,0,100
"Plantas",0.3521,10.2113,0,0.3521,0.7042,0,0,0,88.3803
"Invertebrados",0,5.6818,0,0,0,0,0,0,94.3182
"Peces",0,86.6667,0,0,0,0,0,0,13.3333
"Anfibios",0,66.6667,0,0,0,0,0,0,33.3333
"Reptiles",2.3256,69.7674,2.3256,2.3256,0,2.3256,0,0,20.9302
"Aves",0,89.726,4.1096,0.6849,0.6849,0,0,0,4.7945
"Mamíferos",0,83.3333,0,0,5.5556,0,0,0,11.1111
