"Grupo","Datos_insuficientes_(DD)","Preocupacion_menor_(LC)","Casi_amenazado_(NT)","Vulnerable_(VU)","En_peligro_(EN)","En_peligro_critico_(CR)_","Extinto_en_estado_silvestre_(EW)","Extinto_(EX)","No_enlistadas"
"Hongos",0,0,0,0,0,0,0,0,100
"Plantas",0.7937,7.1429,0,0,0.7937,0,0,0,91.2698
"Invertebrados",0,0,0,0,0,0,0,0,100
"Peces",0,0,0,0,0,0,0,0,0
"Anfibios",0,33.3333,0,0,33.3333,0,0,0,33.3333
"Reptiles",4.5455,77.2727,0,4.5455,0,0,0,0,13.6364
"Aves",0,87.037,7.4074,0,0,0,0,0,5.5556
"Mamíferos",0,88.4615,0,3.8462,0,3.8462,0,0,3.8462
