"Grupo","Datos_insuficientes_(DD)","Preocupacion_menor_(LC)","Casi_amenazado_(NT)","Vulnerable_(VU)","En_peligro_(EN)","En_peligro_critico_(CR)_","Extinto_en_estado_silvestre_(EW)","Extinto_(EX)","No_enlistadas"
"Hongos",0,0,0,0,0,0,0,0,100
"Plantas",0,5.8824,0,0.9488,0.5693,0,0,0,92.5996
"Invertebrados",0,2.8571,0,0,0,0,0,0,97.1429
"Peces",8.3333,83.3333,0,0,0,8.3333,0,0,0
"Anfibios",0,75,0,0,0,0,0,0,25
"Reptiles",1.4085,71.831,1.4085,1.4085,0,1.4085,0,0,22.5352
"Aves",0,90.1408,4.2254,0,0,0,0,0,5.6338
"Mamíferos",0,69.5652,4.3478,4.3478,13.0435,0,0,0,8.6957
