"Grupo","Datos_insuficientes_(DD)","Preocupacion_menor_(LC)","Casi_amenazado_(NT)","Vulnerable_(VU)","En_peligro_(EN)","En_peligro_critico_(CR)_","Extinto_en_estado_silvestre_(EW)","Extinto_(EX)","No_enlistadas"
"Hongos",0,0,0,0,0,0,0,0,0
"Plantas",0,3.5714,0,3.5714,0,0,0,0,92.8571
"Invertebrados",0,0,0,0,0,0,0,0,100
"Peces",0,100,0,0,0,0,0,0,0
"Anfibios",0,100,0,0,0,0,0,0,0
"Reptiles",0,33.3333,0,0,0,0,0,0,66.6667
"Aves",0,94.7368,0,0,0,0,0,0,5.2632
"Mamíferos",0,0,0,0,0,0,0,0,0
