"Grupo","Datos_insuficientes_(DD)","Preocupacion_menor_(LC)","Casi_amenazado_(NT)","Vulnerable_(VU)","En_peligro_(EN)","En_peligro_critico_(CR)_","Extinto_en_estado_silvestre_(EW)","Extinto_(EX)","No_enlistadas"
"Hongos",0,0,0,0,0,0,0,0,100
"Plantas",0.3306,6.1157,0.1653,0.3306,0.1653,0,0,0,92.8926
"Invertebrados",0,0,0,0,0,0,0,0,100
"Peces",0,50,0,0,0,0,0,0,50
"Anfibios",0,38.4615,7.6923,15.3846,7.6923,0,0,0,30.7692
"Reptiles",2.0833,64.5833,0,2.0833,0,0,0,0,31.25
"Aves",0,93.9024,1.2195,0,0,0,0,0,4.878
"Mamíferos",0,100,0,0,0,0,0,0,0
