"Grupo","Datos_insuficientes_(DD)","Preocupacion_menor_(LC)","Casi_amenazado_(NT)","Vulnerable_(VU)","En_peligro_(EN)","En_peligro_critico_(CR)_","Extinto_en_estado_silvestre_(EW)","Extinto_(EX)","No_enlistadas"
"Hongos",0,0,0,0,0,0,0,0,100
"Plantas",0.1603,7.2115,0.1603,0.4808,0.1603,0,0,0,91.8269
"Invertebrados",0,4.878,0,0,0,0,0,0,95.122
"Peces",8.3333,66.6667,0,0,0,4.1667,0,0,20.8333
"Anfibios",0,63.6364,9.0909,0,0,0,0,0,27.2727
"Reptiles",0,65.5172,1.7241,1.7241,1.7241,0,0,0,29.3103
"Aves",0,89.3617,6.383,0,0,0,0,0,4.2553
"Mamíferos",0,90.4762,2.381,2.381,2.381,2.381,0,0,0
