"Grupo","Datos_insuficientes_(DD)","Preocupacion_menor_(LC)","Casi_amenazado_(NT)","Vulnerable_(VU)","En_peligro_(EN)","En_peligro_critico_(CR)_","Extinto_en_estado_silvestre_(EW)","Extinto_(EX)","No_enlistadas"
"Hongos",0,0,0,0,0,0,0,0,100
"Plantas",0,9.1603,0,0,0,0,0,0,90.8397
"Invertebrados",0,0,0,0,0,0,0,0,100
"Peces",0,50,0,50,0,0,0,0,0
"Anfibios",0,100,0,0,0,0,0,0,0
"Reptiles",0,64.2857,10.7143,0,0,0,0,0,25
"Aves",0,88.8889,6.1728,0,0,0,0,0,4.9383
"Mamíferos",3.4483,93.1034,3.4483,0,0,0,0,0,0
