"Grupo","Datos_insuficientes_(DD)","Preocupacion_menor_(LC)","Casi_amenazado_(NT)","Vulnerable_(VU)","En_peligro_(EN)","En_peligro_critico_(CR)_","Extinto_en_estado_silvestre_(EW)","Extinto_(EX)","No_enlistadas"
"Hongos",0,0,0,0,0,0,0,0,100
"Plantas",0,5.102,0,0,0,0,0,0,94.898
"Invertebrados",0,0,0,0,0,0,0,0,100
"Peces",3.1746,84.127,3.1746,1.5873,0,0,0,0,7.9365
"Anfibios",0,0,0,0,0,0,0,0,0
"Reptiles",0,91.6667,0,0,8.3333,0,0,0,0
"Aves",0,91.8367,6.1224,0,0,0,0,0,2.0408
"Mamíferos",0,85.7143,0,0,14.2857,0,0,0,0
