"Grupo","Datos_insuficientes_(DD)","Preocupacion_menor_(LC)","Casi_amenazado_(NT)","Vulnerable_(VU)","En_peligro_(EN)","En_peligro_critico_(CR)_","Extinto_en_estado_silvestre_(EW)","Extinto_(EX)","No_enlistadas"
"Hongos",0,0,0,0,0,0,0,0,0
"Plantas",0,7.4627,0,1.4925,1.4925,0,0,0,89.5522
"Invertebrados",0,0,0,0,0,0,0,0,100
"Peces",0,57.1429,28.5714,14.2857,0,0,0,0,0
"Anfibios",0,100,0,0,0,0,0,0,0
"Reptiles",0,52.9412,5.8824,5.8824,5.8824,5.8824,0,0,23.5294
"Aves",0,88.6364,5.6818,0,0,0,0,0,5.6818
"Mamíferos",0,80,0,0,20,0,0,0,0
