"Grupo","Datos_insuficientes_(DD)","Preocupacion_menor_(LC)","Casi_amenazado_(NT)","Vulnerable_(VU)","En_peligro_(EN)","En_peligro_critico_(CR)_","Extinto_en_estado_silvestre_(EW)","Extinto_(EX)","No_enlistadas"
"Hongos",0,0,0,0,0,0,0,0,100
"Plantas",0,0,0,0,0,0,0,0,100
"Invertebrados",0,0,0,0,0,0,0,0,100
"Peces",0,0,0,0,0,0,0,0,0
"Anfibios",0,100,0,0,0,0,0,0,0
"Reptiles",0,76.4706,5.8824,0,0,0,0,0,17.6471
"Aves",0,95.122,4.878,0,0,0,0,0,0
"Mamíferos",0,100,0,0,0,0,0,0,0
