"Grupo","Datos_insuficientes_(DD)","Preocupacion_menor_(LC)","Casi_amenazado_(NT)","Vulnerable_(VU)","En_peligro_(EN)","En_peligro_critico_(CR)_","Extinto_en_estado_silvestre_(EW)","Extinto_(EX)","No_enlistadas"
"Hongos",0,0,0,0,0,0,0,0,0
"Plantas",0,2.3256,0,0,0,0,0,0,97.6744
"Invertebrados",0,0,0,0,0,0,0,0,100
"Peces",0,0,0,0,0,0,0,0,0
"Anfibios",0,66.6667,33.3333,0,0,0,0,0,0
"Reptiles",9.0909,81.8182,0,0,0,0,0,0,9.0909
"Aves",0,89.4737,0,5.2632,0,0,0,0,5.2632
"Mamíferos",0,100,0,0,0,0,0,0,0
