"Grupo","Datos_insuficientes_(DD)","Preocupacion_menor_(LC)","Casi_amenazado_(NT)","Vulnerable_(VU)","En_peligro_(EN)","En_peligro_critico_(CR)_","Extinto_en_estado_silvestre_(EW)","Extinto_(EX)","No_enlistadas"
"Hongos",0,0,0,0,0,0,0,0,100
"Plantas",0.3289,9.2105,0,0.3289,0,0,0,0,90.1316
"Invertebrados",0,5.8824,0,0,0,0,0,0,94.1176
"Peces",14.2857,71.4286,14.2857,0,0,0,0,0,0
"Anfibios",0,37.5,0,12.5,12.5,0,0,0,37.5
"Reptiles",2.2222,77.7778,0,2.2222,2.2222,0,0,0,15.5556
"Aves",0,87.5,0,0,0,6.25,0,0,6.25
"Mamíferos",0,84.6154,0,0,7.6923,0,0,0,7.6923
