"Grupo","Datos_insuficientes_(DD)","Preocupacion_menor_(LC)","Casi_amenazado_(NT)","Vulnerable_(VU)","En_peligro_(EN)","En_peligro_critico_(CR)_","Extinto_en_estado_silvestre_(EW)","Extinto_(EX)","No_enlistadas"
"Hongos",0,0,0,0,0,0,0,0,100
"Plantas",0,4.5455,0,0,0.9091,0,0,0,94.5455
"Invertebrados",0,0,14.2857,0,0,0,0,0,85.7143
"Peces",0,0,0,0,0,0,0,0,0
"Anfibios",0,0,0,0,50,0,0,0,50
"Reptiles",0,100,0,0,0,0,0,0,0
"Aves",0,0,0,0,0,0,0,0,0
"Mamíferos",0,100,0,0,0,0,0,0,0
