"Grupo","Datos_insuficientes_(DD)","Preocupacion_menor_(LC)","Casi_amenazado_(NT)","Vulnerable_(VU)","En_peligro_(EN)","En_peligro_critico_(CR)_","Extinto_en_estado_silvestre_(EW)","Extinto_(EX)","No_enlistadas"
"Hongos",0,0,0,0,0,0,0,0,0
"Plantas",0,0,0,0,0,0,0,0,100
"Invertebrados",0,0,0,0,0,0,0,0,100
"Peces",16.6667,83.3333,0,0,0,0,0,0,0
"Anfibios",0,83.3333,0,0,0,0,0,0,16.6667
"Reptiles",0,92.3077,0,0,0,0,0,0,7.6923
"Aves",0,92.3077,0,0,0,0,0,0,7.6923
"Mamíferos",0,80,10,0,0,0,0,0,10
