"Grupo","Datos_insuficientes_(DD)","Preocupacion_menor_(LC)","Casi_amenazado_(NT)","Vulnerable_(VU)","En_peligro_(EN)","En_peligro_critico_(CR)_","Extinto_en_estado_silvestre_(EW)","Extinto_(EX)","No_enlistadas"
"Hongos",0,0,0,0,0,0,0,0,100
"Plantas",0,4.9844,0,0.6231,0.9346,0,0,0,93.4579
"Invertebrados",0,3.7037,0,0,0,0,0,0,96.2963
"Peces",0,100,0,0,0,0,0,0,0
"Anfibios",0,66.6667,0,0,0,0,0,0,33.3333
"Reptiles",0,68.5714,2.8571,0,0,0,0,0,28.5714
"Aves",0,84.466,4.8544,2.9126,0,0.9709,0,0,6.7961
"Mamíferos",0,100,0,0,0,0,0,0,0
