"Grupo","Datos_insuficientes_(DD)","Preocupacion_menor_(LC)","Casi_amenazado_(NT)","Vulnerable_(VU)","En_peligro_(EN)","En_peligro_critico_(CR)_","Extinto_en_estado_silvestre_(EW)","Extinto_(EX)","No_enlistadas"
"Hongos",0,0,0,0,0,0,0,0,0
"Plantas",0,13.7931,0,0,0,0,0,0,86.2069
"Invertebrados",0,12.8205,0,0,0,0,0,0,87.1795
"Peces",30,50,10,10,0,0,0,0,0
"Anfibios",0,0,0,0,0,0,0,0,0
"Reptiles",0,93.3333,0,0,0,0,0,0,6.6667
"Aves",0,90.625,6.25,0,0,0,0,0,3.125
"Mamíferos",0,100,0,0,0,0,0,0,0
