"Grupo","Datos_insuficientes_(DD)","Preocupacion_menor_(LC)","Casi_amenazado_(NT)","Vulnerable_(VU)","En_peligro_(EN)","En_peligro_critico_(CR)_","Extinto_en_estado_silvestre_(EW)","Extinto_(EX)","No_enlistadas"
"Hongos",0,0,0,0,0,0,0,0,0
"Plantas",0,5.0847,0,0,0,0,0,0,94.9153
"Invertebrados",0,0,0,0,0,0,0,0,100
"Peces",0,100,0,0,0,0,0,0,0
"Anfibios",0,100,0,0,0,0,0,0,0
"Reptiles",0,52.6316,5.2632,0,0,0,0,0,42.1053
"Aves",0,94.4444,0,2.7778,0,0,0,0,2.7778
"Mamíferos",0,91.6667,0,0,8.3333,0,0,0,0
