"Grupo","Datos_insuficientes_(DD)","Preocupacion_menor_(LC)","Casi_amenazado_(NT)","Vulnerable_(VU)","En_peligro_(EN)","En_peligro_critico_(CR)_","Extinto_en_estado_silvestre_(EW)","Extinto_(EX)","No_enlistadas"
"Hongos",0,0,0,0,0,0,0,0,0
"Plantas",0,16.6667,0,0,0,0,0,0,83.3333
"Invertebrados",0,14.2857,14.2857,0,0,0,0,0,71.4286
"Peces",0,0,0,0,0,0,0,0,0
"Anfibios",0,0,0,0,0,0,0,0,100
"Reptiles",0,100,0,0,0,0,0,0,0
"Aves",0,96.9697,0,0,0,0,0,0,3.0303
"Mamíferos",0,100,0,0,0,0,0,0,0
