"Grupo","Datos_insuficientes_(DD)","Preocupacion_menor_(LC)","Casi_amenazado_(NT)","Vulnerable_(VU)","En_peligro_(EN)","En_peligro_critico_(CR)_","Extinto_en_estado_silvestre_(EW)","Extinto_(EX)","No_enlistadas"
"Hongos",0,0,0,0,0,0,0,0,0
"Plantas",0,8.3333,0,0.6944,0.6944,0,0,0,90.2778
"Invertebrados",0,0,0,0,0,0,0,0,100
"Peces",0,0,0,0,0,0,0,0,0
"Anfibios",0,50,0,0,50,0,0,0,0
"Reptiles",0,66.6667,0,0,8.3333,0,0,0,25
"Aves",0,100,0,0,0,0,0,0,0
"Mamíferos",0,80,0,0,0,20,0,0,0
