"Grupo","Datos_insuficientes_(DD)","Preocupacion_menor_(LC)","Casi_amenazado_(NT)","Vulnerable_(VU)","En_peligro_(EN)","En_peligro_critico_(CR)_","Extinto_en_estado_silvestre_(EW)","Extinto_(EX)","No_enlistadas"
"Hongos",0,0,0,0,0,0,0,0,0
"Plantas",0,5.1282,0,0,0,0,0,0,94.8718
"Invertebrados",0,0,0,0,0,0,0,0,0
"Peces",0,0,0,0,0,0,0,0,0
"Anfibios",0,0,0,0,0,0,0,0,0
"Reptiles",0,100,0,0,0,0,0,0,0
"Aves",0,83.3333,0,0,0,0,0,0,16.6667
"Mamíferos",0,100,0,0,0,0,0,0,0
