"Grupo","Datos_insuficientes_(DD)","Preocupacion_menor_(LC)","Casi_amenazado_(NT)","Vulnerable_(VU)","En_peligro_(EN)","En_peligro_critico_(CR)_","Extinto_en_estado_silvestre_(EW)","Extinto_(EX)","No_enlistadas"
"Hongos",0,0,0,0,0,0,0,0,0
"Plantas",0.3759,4.1353,0,1.5038,0.3759,0,0,0,93.609
"Invertebrados",0,1.25,0,0,0,0,0,0,98.75
"Peces",0,15,5,0,0,0,0,0,80
"Anfibios",0,64.5161,3.2258,12.9032,9.6774,3.2258,0,0,6.4516
"Reptiles",1.4493,60.8696,2.8986,2.8986,0,0,0,0,31.8841
"Aves",0,90.8257,1.8349,2.7523,0,0,0,0,4.5872
"Mamíferos",0,87.5,1.5625,0,4.6875,1.5625,0,0,4.6875
