"Grupo","Datos_insuficientes_(DD)","Preocupacion_menor_(LC)","Casi_amenazado_(NT)","Vulnerable_(VU)","En_peligro_(EN)","En_peligro_critico_(CR)_","Extinto_en_estado_silvestre_(EW)","Extinto_(EX)","No_enlistadas"
"Hongos",0,0,0,0,0,0,0,0,0
"Plantas",0,2.5,0,0,0,0,0,0,97.5
"Invertebrados",0,0,0,0,0,0,0,0,100
"Peces",0,100,0,0,0,0,0,0,0
"Anfibios",0,0,0,0,0,0,0,0,0
"Reptiles",10,70,0,0,0,0,0,0,20
"Aves",0,100,0,0,0,0,0,0,0
"Mamíferos",0,50,0,0,50,0,0,0,0
