"Grupo","Datos_insuficientes_(DD)","Preocupacion_menor_(LC)","Casi_amenazado_(NT)","Vulnerable_(VU)","En_peligro_(EN)","En_peligro_critico_(CR)_","Extinto_en_estado_silvestre_(EW)","Extinto_(EX)","No_enlistadas"
"Hongos",0,0,0,0,0,0,0,0,100
"Plantas",0,6.8323,0,0.3106,0,0,0,0,92.8571
"Invertebrados",0,0,0,0,0,0,0,0,100
"Peces",12,56,12,4,4,0,0,0,12
"Anfibios",0,71.4286,0,0,0,0,0,0,28.5714
"Reptiles",0,80.6452,0,0,0,0,0,0,19.3548
"Aves",0,91.129,4.0323,0,0,0,0,0,4.8387
"Mamíferos",0,71.4286,0,0,28.5714,0,0,0,0
