"Grupo","Datos_insuficientes_(DD)","Preocupacion_menor_(LC)","Casi_amenazado_(NT)","Vulnerable_(VU)","En_peligro_(EN)","En_peligro_critico_(CR)_","Extinto_en_estado_silvestre_(EW)","Extinto_(EX)","No_enlistadas"
"Hongos",0,0,0,0,0,0,0,0,0
"Plantas",0,8.3333,0,0,0,0,0,0,91.6667
"Invertebrados",0,0,0,0,0,0,0,0,100
"Peces",0,0,0,0,0,0,0,0,0
"Anfibios",0,0,0,0,100,0,0,0,0
"Reptiles",0,60,0,0,20,0,0,0,20
"Aves",0,88.8889,5.5556,0,0,0,0,0,5.5556
"Mamíferos",0,0,0,0,0,0,0,0,0
