"Grupo","Datos_insuficientes_(DD)","Preocupacion_menor_(LC)","Casi_amenazado_(NT)","Vulnerable_(VU)","En_peligro_(EN)","En_peligro_critico_(CR)_","Extinto_en_estado_silvestre_(EW)","Extinto_(EX)","No_enlistadas"
"Hongos",0,0,0,0,0,0,0,0,100
"Plantas",0,8.5106,0,0,0,0,0,0,91.4894
"Invertebrados",0,8,0,0,0,0,0,0,92
"Peces",0,100,0,0,0,0,0,0,0
"Anfibios",0,0,0,0,0,0,0,0,100
"Reptiles",0,25,0,25,0,0,0,0,50
"Aves",0,93.75,5,0,0,0,0,0,1.25
"Mamíferos",0,0,0,0,0,0,0,0,0
