"Grupo","Datos_insuficientes_(DD)","Preocupacion_menor_(LC)","Casi_amenazado_(NT)","Vulnerable_(VU)","En_peligro_(EN)","En_peligro_critico_(CR)_","Extinto_en_estado_silvestre_(EW)","Extinto_(EX)","No_enlistadas"
"Hongos",0,0,0,0,0,0,0,0,0
"Plantas",0,6.6667,0,0,0,0,0,0,93.3333
"Invertebrados",0,0,0,0,0,0,0,0,100
"Peces",0,100,0,0,0,0,0,0,0
"Anfibios",0,50,0,50,0,0,0,0,0
"Reptiles",0,53.8462,0,7.6923,0,0,0,0,38.4615
"Aves",0,88.8889,5.5556,0,0,0,0,0,5.5556
"Mamíferos",0,100,0,0,0,0,0,0,0
