"Grupo","Datos_insuficientes_(DD)","Preocupacion_menor_(LC)","Casi_amenazado_(NT)","Vulnerable_(VU)","En_peligro_(EN)","En_peligro_critico_(CR)_","Extinto_en_estado_silvestre_(EW)","Extinto_(EX)","No_enlistadas"
"Hongos",0,0,0,0,0,0,0,0,0
"Plantas",0,3.125,0,0,3.125,0,0,0,93.75
"Invertebrados",0,18.75,0,0,0,0,0,0,81.25
"Peces",0,100,0,0,0,0,0,0,0
"Anfibios",0,100,0,0,0,0,0,0,0
"Reptiles",0,66.6667,0,11.1111,0,0,0,0,22.2222
"Aves",0,94.0476,3.5714,0,0.5952,0,0,0,1.7857
"Mamíferos",0,68.75,0,0,0,0,0,0,31.25
