"Grupo","Datos_insuficientes_(DD)","Preocupacion_menor_(LC)","Casi_amenazado_(NT)","Vulnerable_(VU)","En_peligro_(EN)","En_peligro_critico_(CR)_","Extinto_en_estado_silvestre_(EW)","Extinto_(EX)","No_enlistadas"
"Hongos",0,0,0,0,0,0,0,0,0
"Plantas",0,8.1633,0,1.0204,0,0,0,0,90.8163
"Invertebrados",0,0,0,0,6.25,0,0,0,93.75
"Peces",0,0,0,0,0,0,0,0,0
"Anfibios",0,100,0,0,0,0,0,0,0
"Reptiles",0,75,0,6.25,0,0,0,0,18.75
"Aves",0,93.3333,2.2222,0,1.1111,0,0,0,3.3333
"Mamíferos",0,57.1429,14.2857,0,0,0,0,0,28.5714
