"Grupo","Datos_insuficientes_(DD)","Preocupacion_menor_(LC)","Casi_amenazado_(NT)","Vulnerable_(VU)","En_peligro_(EN)","En_peligro_critico_(CR)_","Extinto_en_estado_silvestre_(EW)","Extinto_(EX)","No_enlistadas"
"Hongos",0,0,0,0,0,0,0,0,0
"Plantas",0,7.5758,0,0,0,0,0,0,92.4242
"Invertebrados",0,0,0,0,0,0,0,0,100
"Peces",9.0909,90.9091,0,0,0,0,0,0,0
"Anfibios",0,100,0,0,0,0,0,0,0
"Reptiles",0,91.6667,0,0,0,0,0,0,8.3333
"Aves",0,100,0,0,0,0,0,0,0
"Mamíferos",0,0,0,0,0,0,0,0,0
