"Grupo","Datos_insuficientes_(DD)","Preocupacion_menor_(LC)","Casi_amenazado_(NT)","Vulnerable_(VU)","En_peligro_(EN)","En_peligro_critico_(CR)_","Extinto_en_estado_silvestre_(EW)","Extinto_(EX)","No_enlistadas"
"Hongos",0,0,0,0,0,0,0,0,100
"Plantas",0.2404,5.7692,0,0.2404,0,0,0,0,93.75
"Invertebrados",0,0,0,0,0,0,0,0,100
"Peces",33.3333,50,0,0,0,0,0,0,16.6667
"Anfibios",0,100,0,0,0,0,0,0,0
"Reptiles",7.6923,76.9231,0,0,0,0,0,0,15.3846
"Aves",0,95.3125,0,0,0,0,0,0,4.6875
"Mamíferos",0,91.6667,8.3333,0,0,0,0,0,0
