"Grupo","Datos_insuficientes_(DD)","Preocupacion_menor_(LC)","Casi_amenazado_(NT)","Vulnerable_(VU)","En_peligro_(EN)","En_peligro_critico_(CR)_","Extinto_en_estado_silvestre_(EW)","Extinto_(EX)","No_enlistadas"
"Hongos",0,0,0,0,0,0,0,0,100
"Plantas",0.3663,6.9597,0.3663,1.8315,0.3663,0,0,0,90.1099
"Invertebrados",0,0,0,0,0,0,0,0,100
"Peces",100,0,0,0,0,0,0,0,0
"Anfibios",0,85.7143,0,0,0,0,0,0,14.2857
"Reptiles",0,57.8947,2.6316,2.6316,0,2.6316,0,0,34.2105
"Aves",0,90.1786,5.3571,0.8929,0,0,0,0,3.5714
"Mamíferos",0,86.9565,4.3478,0,0,0,0,0,8.6957
