"Grupo","Datos_insuficientes_(DD)","Preocupacion_menor_(LC)","Casi_amenazado_(NT)","Vulnerable_(VU)","En_peligro_(EN)","En_peligro_critico_(CR)_","Extinto_en_estado_silvestre_(EW)","Extinto_(EX)","No_enlistadas"
"Hongos",0,0,0,0,0,0,0,0,0
"Plantas",0,7.7778,0,1.1111,0,0,0,0,91.1111
"Invertebrados",0,0,0,0,0,0,0,0,100
"Peces",0,0,0,0,0,0,0,0,0
"Anfibios",0,75,0,0,0,0,0,0,25
"Reptiles",0,75,0,0,0,0,0,0,25
"Aves",0,91.0714,4.4643,0.8929,0,0,0,0,3.5714
"Mamíferos",0,83.3333,0,0,16.6667,0,0,0,0
