"Grupo","Datos_insuficientes_(DD)","Preocupacion_menor_(LC)","Casi_amenazado_(NT)","Vulnerable_(VU)","En_peligro_(EN)","En_peligro_critico_(CR)_","Extinto_en_estado_silvestre_(EW)","Extinto_(EX)","No_enlistadas"
"Hongos",0,0,0,0,0,0,0,0,100
"Plantas",0.2941,7.0588,0,1.7647,0.2941,0,0,0,90.5882
"Invertebrados",0,3.7559,0,0,0,0,0,0,96.2441
"Peces",0,44.4444,11.1111,0,0,0,0,0,44.4444
"Anfibios",6.6667,80,0,0,0,0,0,0,13.3333
"Reptiles",0,59.6491,0,5.2632,0,0,0,0,35.0877
"Aves",0,91.6168,2.994,0.5988,1.1976,0,0,0,3.5928
"Mamíferos",0,86.0465,6.9767,4.6512,0,0,0,0,2.3256
