"Grupo","Datos_insuficientes_(DD)","Preocupacion_menor_(LC)","Casi_amenazado_(NT)","Vulnerable_(VU)","En_peligro_(EN)","En_peligro_critico_(CR)_","Extinto_en_estado_silvestre_(EW)","Extinto_(EX)","No_enlistadas"
"Hongos",0,0,0,0,0,0,0,0,100
"Plantas",0,7.2727,0,0,0,0,0,0,92.7273
"Invertebrados",4.7619,0,0,0,0,0,0,0,95.2381
"Peces",2.7778,88.8889,0,2.7778,0,0,0,0,5.5556
"Anfibios",0,100,0,0,0,0,0,0,0
"Reptiles",0,62.069,0,3.4483,0,0,0,0,34.4828
"Aves",0,93.0435,4.3478,0,0,0,0,0,2.6087
"Mamíferos",0,66.6667,0,13.3333,6.6667,0,0,0,13.3333
