"Grupo","Datos_insuficientes_(DD)","Preocupacion_menor_(LC)","Casi_amenazado_(NT)","Vulnerable_(VU)","En_peligro_(EN)","En_peligro_critico_(CR)_","Extinto_en_estado_silvestre_(EW)","Extinto_(EX)","No_enlistadas"
"Hongos",0,0,0,0,0,0,0,0,0
"Plantas",0,9.0909,0,0,0,0,0,0,90.9091
"Invertebrados",0,0,0,0,0,0,0,0,100
"Peces",0,0,0,0,0,0,0,0,0
"Anfibios",0,66.6667,0,0,0,0,0,0,33.3333
"Reptiles",0,75,0,0,0,0,0,0,25
"Aves",0,94.8718,0,0,0,0,0,0,5.1282
"Mamíferos",0,100,0,0,0,0,0,0,0
