"Grupo","Datos_insuficientes_(DD)","Preocupacion_menor_(LC)","Casi_amenazado_(NT)","Vulnerable_(VU)","En_peligro_(EN)","En_peligro_critico_(CR)_","Extinto_en_estado_silvestre_(EW)","Extinto_(EX)","No_enlistadas"
"Hongos",0,0,0,0,0,0,0,0,100
"Plantas",0,7.2727,0,0.9091,0.303,0,0,0,91.5152
"Invertebrados",0,0,0,1.2048,0,0,0,0,98.7952
"Peces",0,100,0,0,0,0,0,0,0
"Anfibios",0,80,0,0,0,0,0,0,20
"Reptiles",0,71.4286,2.381,0,0,0,0,0,26.1905
"Aves",0,94.9153,3.3898,0,0,0,0,0,1.6949
"Mamíferos",0,100,0,0,0,0,0,0,0
