"Grupo","Datos_insuficientes_(DD)","Preocupacion_menor_(LC)","Casi_amenazado_(NT)","Vulnerable_(VU)","En_peligro_(EN)","En_peligro_critico_(CR)_","Extinto_en_estado_silvestre_(EW)","Extinto_(EX)","No_enlistadas"
"Hongos",0,0,0,0,0,0,0,0,100
"Plantas",0.303,7.5758,0,0.6061,0,0,0,0,91.5152
"Invertebrados",0,0,0,0,0,0,0,0,100
"Peces",0,0,0,0,0,0,0,0,0
"Anfibios",0,80,0,0,0,0,0,0,20
"Reptiles",0,84.375,0,0,0,0,0,0,15.625
"Aves",0,93.3333,6.6667,0,0,0,0,0,0
"Mamíferos",3.7037,96.2963,0,0,0,0,0,0,0
