"Grupo","Datos_insuficientes_(DD)","Preocupacion_menor_(LC)","Casi_amenazado_(NT)","Vulnerable_(VU)","En_peligro_(EN)","En_peligro_critico_(CR)_","Extinto_en_estado_silvestre_(EW)","Extinto_(EX)","No_enlistadas"
"Hongos",0,0,0,0,0,0,0,0,100
"Plantas",0,10.9091,0,3.6364,0,0,0,0,85.4545
"Invertebrados",0,5.8824,0,0,0,0,0,0,94.1176
"Peces",5.1282,74.359,2.5641,2.5641,0,2.5641,0,0,12.8205
"Anfibios",0,100,0,0,0,0,0,0,0
"Reptiles",0,88.8889,0,0,0,0,0,0,11.1111
"Aves",0,88.8889,5.5556,0,1.3889,0,0,0,4.1667
"Mamíferos",0,85.7143,0,0,14.2857,0,0,0,0
