"Grupo","Datos_insuficientes_(DD)","Preocupacion_menor_(LC)","Casi_amenazado_(NT)","Vulnerable_(VU)","En_peligro_(EN)","En_peligro_critico_(CR)_","Extinto_en_estado_silvestre_(EW)","Extinto_(EX)","No_enlistadas"
"Hongos",0,0,0,0,0,0,0,0,0
"Plantas",0,7.5908,0,0,0.33,0,0,0,92.0792
"Invertebrados",0,0,7.1429,0,0,0,0,0,92.8571
"Peces",0,50,0,50,0,0,0,0,0
"Anfibios",0,100,0,0,0,0,0,0,0
"Reptiles",0,66.6667,4.1667,0,0,0,0,0,29.1667
"Aves",0,96,0,0,0,0,0,0,4
"Mamíferos",0,50,25,0,25,0,0,0,0
