"Grupo","Datos_insuficientes_(DD)","Preocupacion_menor_(LC)","Casi_amenazado_(NT)","Vulnerable_(VU)","En_peligro_(EN)","En_peligro_critico_(CR)_","Extinto_en_estado_silvestre_(EW)","Extinto_(EX)","No_enlistadas"
"Hongos",0,0,0,0,0,0,0,0,0
"Plantas",0,12.1212,0,0,0,0,0,0,87.8788
"Invertebrados",0,0,0,0,0,0,0,0,100
"Peces",0,100,0,0,0,0,0,0,0
"Anfibios",0,0,0,0,0,0,0,0,0
"Reptiles",0,50,0,16.6667,0,0,0,0,33.3333
"Aves",0,100,0,0,0,0,0,0,0
"Mamíferos",0,0,0,0,0,0,0,0,0
