"Grupo","Datos_insuficientes_(DD)","Preocupacion_menor_(LC)","Casi_amenazado_(NT)","Vulnerable_(VU)","En_peligro_(EN)","En_peligro_critico_(CR)_","Extinto_en_estado_silvestre_(EW)","Extinto_(EX)","No_enlistadas"
"Hongos",0,0,0,0,0,0,0,0,100
"Plantas",0.3436,5.4983,0,0.3436,0.6873,0,0,0,93.1271
"Invertebrados",0,4.1667,0,0,0,0,0,0,95.8333
"Peces",0,73.6842,5.2632,0,5.2632,0,0,0,15.7895
"Anfibios",0,85.7143,0,0,0,0,0,0,14.2857
"Reptiles",0,63.6364,2.2727,0,2.2727,0,0,0,31.8182
"Aves",0,89.6104,5.1948,0,0,0,0,0,5.1948
"Mamíferos",7.1429,92.8571,0,0,0,0,0,0,0
