"Grupo","Datos_insuficientes_(DD)","Preocupacion_menor_(LC)","Casi_amenazado_(NT)","Vulnerable_(VU)","En_peligro_(EN)","En_peligro_critico_(CR)_","Extinto_en_estado_silvestre_(EW)","Extinto_(EX)","No_enlistadas"
"Hongos",0,0,0,0,0,0,0,0,0
"Plantas",0,16.9811,0,0,0,0,0,0,83.0189
"Invertebrados",0,4.6512,0,0,0,0,0,0,95.3488
"Peces",11.4286,85.7143,0,2.8571,0,0,0,0,0
"Anfibios",0,100,0,0,0,0,0,0,0
"Reptiles",4.1667,75,8.3333,0,0,0,0,0,12.5
"Aves",0,80.7692,7.6923,3.8462,0,0,0,0,7.6923
"Mamíferos",0,92.3077,7.6923,0,0,0,0,0,0
