"Grupo","Datos_insuficientes_(DD)","Preocupacion_menor_(LC)","Casi_amenazado_(NT)","Vulnerable_(VU)","En_peligro_(EN)","En_peligro_critico_(CR)_","Extinto_en_estado_silvestre_(EW)","Extinto_(EX)","No_enlistadas"
"Hongos",0,0,0,0,0,0,0,0,100
"Plantas",0,5.9603,0,0.3311,0,0,0,0,93.7086
"Invertebrados",0,0,0,0,0,0,0,0,100
"Peces",15.3846,76.9231,0,0,0,0,0,0,7.6923
"Anfibios",0,100,0,0,0,0,0,0,0
"Reptiles",0,52.1739,0,4.3478,4.3478,0,0,0,39.1304
"Aves",0,90.9091,4.0404,1.0101,0,0,0,0,4.0404
"Mamíferos",0,100,0,0,0,0,0,0,0
