"Grupo","Datos_insuficientes_(DD)","Preocupacion_menor_(LC)","Casi_amenazado_(NT)","Vulnerable_(VU)","En_peligro_(EN)","En_peligro_critico_(CR)_","Extinto_en_estado_silvestre_(EW)","Extinto_(EX)","No_enlistadas"
"Hongos",0,0,0,0,0,0,0,0,0
"Plantas",0.495,5.9406,0.495,1.4851,0.495,0,0,0,91.0891
"Invertebrados",0,0,0,0,0,0,0,0,100
"Peces",0,0,0,0,0,0,0,0,0
"Anfibios",0,81.8182,0,0,0,0,0,0,18.1818
"Reptiles",0,64.2857,7.1429,0,0,0,0,0,28.5714
"Aves",0,95,1,0,0,0,0,0,4
"Mamíferos",0,85.7143,7.1429,7.1429,0,0,0,0,0
