"Grupo","Datos_insuficientes_(DD)","Preocupacion_menor_(LC)","Casi_amenazado_(NT)","Vulnerable_(VU)","En_peligro_(EN)","En_peligro_critico_(CR)_","Extinto_en_estado_silvestre_(EW)","Extinto_(EX)","No_enlistadas"
"Hongos",0,0,0,0,0,0,0,0,100
"Plantas",0,5.8824,0,1.4706,1.4706,0,0,0,91.1765
"Invertebrados",0,20.6897,0,0,0,0,0,0,79.3103
"Peces",0,71.4286,0,0,0,0,0,0,28.5714
"Anfibios",0,0,0,0,0,0,0,0,0
"Reptiles",6.4516,77.4194,0,3.2258,0,0,0,0,12.9032
"Aves",0,90,10,0,0,0,0,0,0
"Mamíferos",0,100,0,0,0,0,0,0,0
