"Grupo","Datos_insuficientes_(DD)","Preocupacion_menor_(LC)","Casi_amenazado_(NT)","Vulnerable_(VU)","En_peligro_(EN)","En_peligro_critico_(CR)_","Extinto_en_estado_silvestre_(EW)","Extinto_(EX)","No_enlistadas"
"Hongos",0,0,0,0,0,0,0,0,100
"Plantas",0.2976,4.4643,0,0.2976,0,0,0,0,94.9405
"Invertebrados",0,4.0302,0,0.5038,0,0,0,0,95.466
"Peces",1.1494,93.1034,0,0,0,0,0,0,5.7471
"Anfibios",0,75,0,0,0,0,0,0,25
"Reptiles",0,61.5385,0,3.8462,0,7.6923,0,0,26.9231
"Aves",0,92.2535,2.8169,0.7042,0.7042,0,0,0,3.5211
"Mamíferos",7.1429,85.7143,0,0,7.1429,0,0,0,0
