"Grupo","Datos_insuficientes_(DD)","Preocupacion_menor_(LC)","Casi_amenazado_(NT)","Vulnerable_(VU)","En_peligro_(EN)","En_peligro_critico_(CR)_","Extinto_en_estado_silvestre_(EW)","Extinto_(EX)","No_enlistadas"
"Hongos",0,0,0,0,0,0,0,0,0
"Plantas",0,9.0909,0,0,0,0,0,0,90.9091
"Invertebrados",0,2.8986,0,0,0,0,0,0,97.1014
"Peces",0,89.3617,0,0,0,0,0,0,10.6383
"Anfibios",0,0,0,0,0,0,0,0,0
"Reptiles",0,33.3333,0,0,0,16.6667,0,0,50
"Aves",0,93.0233,2.3256,0,2.3256,0,0,0,2.3256
"Mamíferos",0,85.7143,9.5238,0,0,0,0,0,4.7619
