"Grupo","Datos_insuficientes_(DD)","Preocupacion_menor_(LC)","Casi_amenazado_(NT)","Vulnerable_(VU)","En_peligro_(EN)","En_peligro_critico_(CR)_","Extinto_en_estado_silvestre_(EW)","Extinto_(EX)","No_enlistadas"
"Hongos",0,0,0,0,0,0,0,0,0
"Plantas",0,9.6774,0,0,1.6129,0,0,0,88.7097
"Invertebrados",0,0,0,0,0,0,0,0,100
"Peces",0,55.5556,0,0,0,0,0,0,44.4444
"Anfibios",0,0,0,0,0,0,0,0,0
"Reptiles",0,77.7778,0,0,0,0,0,0,22.2222
"Aves",0,85.4545,7.2727,1.8182,0,0,0,0,5.4545
"Mamíferos",0,100,0,0,0,0,0,0,0
