"Grupo","Datos_insuficientes_(DD)","Preocupacion_menor_(LC)","Casi_amenazado_(NT)","Vulnerable_(VU)","En_peligro_(EN)","En_peligro_critico_(CR)_","Extinto_en_estado_silvestre_(EW)","Extinto_(EX)","No_enlistadas"
"Hongos",0,0,0,0,0,0,0,0,100
"Plantas",0.3106,7.1429,0.3106,0.3106,0,0,0,0,91.9255
"Invertebrados",0.2188,4.814,0,0,0,0.2188,0,0,94.7484
"Peces",11.8421,74.3421,3.2895,0.6579,0,0.6579,0,0,9.2105
"Anfibios",0,100,0,0,0,0,0,0,0
"Reptiles",0,68.4211,2.6316,2.6316,2.6316,0,0,0,23.6842
"Aves",0,89.1156,5.4422,0.6803,0,0,0,0,4.7619
"Mamíferos",3.2258,83.871,3.2258,3.2258,0,0,0,0,6.4516
