"Grupo","Datos_insuficientes_(DD)","Preocupacion_menor_(LC)","Casi_amenazado_(NT)","Vulnerable_(VU)","En_peligro_(EN)","En_peligro_critico_(CR)_","Extinto_en_estado_silvestre_(EW)","Extinto_(EX)","No_enlistadas"
"Hongos",0,0,0,0,0,0,0,0,100
"Plantas",0.365,4.7445,0.365,0.7299,0,0,0,0,93.7956
"Invertebrados",0,5.0725,0,0,0,0,0,0,94.9275
"Peces",0,53.3333,6.6667,0,0,0,0,0,40
"Anfibios",0,71.4286,0,0,0,0,0,0,28.5714
"Reptiles",0,74.0741,0,0,0,0,0,0,25.9259
"Aves",0,95.8904,1.3699,0,0,0,0,0,2.7397
"Mamíferos",0,80,0,10,0,0,0,0,10
