"Grupo","Datos_insuficientes_(DD)","Preocupacion_menor_(LC)","Casi_amenazado_(NT)","Vulnerable_(VU)","En_peligro_(EN)","En_peligro_critico_(CR)_","Extinto_en_estado_silvestre_(EW)","Extinto_(EX)","No_enlistadas"
"Hongos",0,0,0,0,0,0,0,0,100
"Plantas",0.1795,4.6679,0.1795,2.1544,0.1795,0,0,0,92.6391
"Invertebrados",0,3.01,0,0,0.1672,0,0,0,96.8227
"Peces",0,14.2857,0,0,4.7619,0,0,0,80.9524
"Anfibios",0,59.0909,13.6364,9.0909,9.0909,4.5455,0,0,4.5455
"Reptiles",5.6604,45.283,1.8868,1.8868,0,0,0,0,45.283
"Aves",0,91.8605,3.4884,0.5814,0.5814,0,0,0,3.4884
"Mamíferos",0,85.2941,2.9412,0,0,2.9412,0,0,8.8235
