"Grupo","Datos_insuficientes_(DD)","Preocupacion_menor_(LC)","Casi_amenazado_(NT)","Vulnerable_(VU)","En_peligro_(EN)","En_peligro_critico_(CR)_","Extinto_en_estado_silvestre_(EW)","Extinto_(EX)","No_enlistadas"
"Hongos",0,0,0,0,0,0,0,0,0
"Plantas",0,15.0685,0,0,0,0,0,0,84.9315
"Invertebrados",0,5,0,0,0,0,0,0,95
"Peces",0,100,0,0,0,0,0,0,0
"Anfibios",0,100,0,0,0,0,0,0,0
"Reptiles",0,78.5714,14.2857,0,0,0,0,0,7.1429
"Aves",0,84.6154,15.3846,0,0,0,0,0,0
"Mamíferos",0,87.5,12.5,0,0,0,0,0,0
