"Grupo","Datos_insuficientes_(DD)","Preocupacion_menor_(LC)","Casi_amenazado_(NT)","Vulnerable_(VU)","En_peligro_(EN)","En_peligro_critico_(CR)_","Extinto_en_estado_silvestre_(EW)","Extinto_(EX)","No_enlistadas"
"Hongos",0,0,0,0,0,0,0,0,0
"Plantas",1.6667,10,0,0,1.6667,0,0,0,86.6667
"Invertebrados",0,10,0,0,0,0,0,0,90
"Peces",0,83.3333,11.1111,0,0,0,0,0,5.5556
"Anfibios",0,0,0,0,0,0,0,0,0
"Reptiles",0,73.3333,0,0,0,0,0,0,26.6667
"Aves",0,96,2,0,0,0,0,0,2
"Mamíferos",0,75,0,0,25,0,0,0,0
