"Grupo","Datos_insuficientes_(DD)","Preocupacion_menor_(LC)","Casi_amenazado_(NT)","Vulnerable_(VU)","En_peligro_(EN)","En_peligro_critico_(CR)_","Extinto_en_estado_silvestre_(EW)","Extinto_(EX)","No_enlistadas"
"Hongos",0,0,0,0,0,0,0,0,0
"Plantas",0,0,0,0,0,0,0,0,100
"Invertebrados",0,0,0,0,0,0,0,0,0
"Peces",0,0,0,0,0,0,0,0,0
"Anfibios",0,50,0,0,0,0,0,0,50
"Reptiles",0,83.3333,0,0,0,0,0,0,16.6667
"Aves",0,85.1852,7.4074,0,0,0,0,0,7.4074
"Mamíferos",0,50,0,50,0,0,0,0,0
