"Grupo","Datos_insuficientes_(DD)","Preocupacion_menor_(LC)","Casi_amenazado_(NT)","Vulnerable_(VU)","En_peligro_(EN)","En_peligro_critico_(CR)_","Extinto_en_estado_silvestre_(EW)","Extinto_(EX)","No_enlistadas"
"Hongos",0,0,0,0,0,0,0,0,100
"Plantas",0.9091,3.6364,0,0,0,0,0,0,95.4545
"Invertebrados",0,4.2553,0,0,0,0,0,0,95.7447
"Peces",0,75,0,0,0,0,0,0,25
"Anfibios",10,80,0,0,0,0,0,0,10
"Reptiles",0,75,0,8.3333,0,0,0,0,16.6667
"Aves",0,93.6508,3.1746,0,0,0,0,0,3.1746
"Mamíferos",0,90.9091,0,0,0,0,0,0,9.0909
