"Grupo","Datos_insuficientes_(DD)","Preocupacion_menor_(LC)","Casi_amenazado_(NT)","Vulnerable_(VU)","En_peligro_(EN)","En_peligro_critico_(CR)_","Extinto_en_estado_silvestre_(EW)","Extinto_(EX)","No_enlistadas"
"Hongos",0,0,0,0,0,0,0,0,0
"Plantas",0,3.5211,0,0,0,0,0,0,96.4789
"Invertebrados",0,0,0,0,0,2.1739,0,0,97.8261
"Peces",0,50,0,0,0,0,0,0,50
"Anfibios",0,33.3333,0,0,0,0,0,0,66.6667
"Reptiles",0,83.3333,0,0,0,0,0,0,16.6667
"Aves",0,87.7778,4.4444,1.1111,0,0,0,0,6.6667
"Mamíferos",0,88.8889,0,0,0,11.1111,0,0,0
