"Grupo","Datos_insuficientes_(DD)","Preocupacion_menor_(LC)","Casi_amenazado_(NT)","Vulnerable_(VU)","En_peligro_(EN)","En_peligro_critico_(CR)_","Extinto_en_estado_silvestre_(EW)","Extinto_(EX)","No_enlistadas"
"Hongos",0,0,0,0,0,0,0,0,100
"Plantas",0.4566,5.0228,0,0.4566,0.9132,0,0,0,93.1507
"Invertebrados",0,0,0,0,0,0,0,0,100
"Peces",0,0,0,0,0,0,0,0,100
"Anfibios",0,40,20,0,0,0,0,0,40
"Reptiles",0,76,0,4,0,0,0,0,20
"Aves",0,91.3043,4.3478,0,0,0,0,0,4.3478
"Mamíferos",0,100,0,0,0,0,0,0,0
