"Grupo","Datos_insuficientes_(DD)","Preocupacion_menor_(LC)","Casi_amenazado_(NT)","Vulnerable_(VU)","En_peligro_(EN)","En_peligro_critico_(CR)_","Extinto_en_estado_silvestre_(EW)","Extinto_(EX)","No_enlistadas"
"Hongos",0,0,0,0,0,0,0,0,0
"Plantas",0.9615,5.7692,0,0.9615,0.9615,0,0,0,91.3462
"Invertebrados",0,0,0,0,0,0,0,0,100
"Peces",6.6667,53.3333,0,0,0,0,0,0,40
"Anfibios",0,75,0,0,25,0,0,0,0
"Reptiles",0,76.4706,0,11.7647,0,0,0,0,11.7647
"Aves",0,88.8889,5.5556,0,0,0,0,0,5.5556
"Mamíferos",0,100,0,0,0,0,0,0,0
