"Grupo","Datos_insuficientes_(DD)","Preocupacion_menor_(LC)","Casi_amenazado_(NT)","Vulnerable_(VU)","En_peligro_(EN)","En_peligro_critico_(CR)_","Extinto_en_estado_silvestre_(EW)","Extinto_(EX)","No_enlistadas"
"Hongos",0,0,0,0,0,0,0,0,100
"Plantas",0.2924,4.386,0,0.5848,0.5848,0,0,0,94.152
"Invertebrados",0,4.6296,0,0,0,0,0,0,95.3704
"Peces",0,80,0,20,0,0,0,0,0
"Anfibios",0,75,12.5,0,0,0,0,0,12.5
"Reptiles",0,72.5,2.5,2.5,0,0,0,0,22.5
"Aves",0,87.8571,5,0.7143,0,0,0,0,6.4286
"Mamíferos",0,87.5,0,12.5,0,0,0,0,0
