"Grupo","Datos_insuficientes_(DD)","Preocupacion_menor_(LC)","Casi_amenazado_(NT)","Vulnerable_(VU)","En_peligro_(EN)","En_peligro_critico_(CR)_","Extinto_en_estado_silvestre_(EW)","Extinto_(EX)","No_enlistadas"
"Hongos",0,0,0,0,0,0,0,0,0
"Plantas",0,4.6154,0,0,0,0,0,0,95.3846
"Invertebrados",0,0,0,0,0,0,0,0,100
"Peces",3.4483,82.7586,3.4483,6.8966,0,0,0,0,3.4483
"Anfibios",0,50,0,0,0,0,0,0,50
"Reptiles",0,76.4706,5.8824,0,0,0,0,0,17.6471
"Aves",0,80,20,0,0,0,0,0,0
"Mamíferos",0,100,0,0,0,0,0,0,0
