"Grupo","Datos_insuficientes_(DD)","Preocupacion_menor_(LC)","Casi_amenazado_(NT)","Vulnerable_(VU)","En_peligro_(EN)","En_peligro_critico_(CR)_","Extinto_en_estado_silvestre_(EW)","Extinto_(EX)","No_enlistadas"
"Hongos",0,0,0,0,0,0,0,0,100
"Plantas",0.3226,9.5161,0.3226,1.129,0.1613,0,0,0,88.5484
"Invertebrados",0,0,0,0,0,0,0,0,100
"Peces",0,0,0,0,0,0,0,0,0
"Anfibios",0,80,0,0,0,0,0,0,20
"Reptiles",0,84.8485,0,0,0,0,0,0,15.1515
"Aves",0,96.5517,0,0,0,0,0,0,3.4483
"Mamíferos",3.7037,85.1852,0,0,7.4074,0,0,0,3.7037
