"Grupo","Datos_insuficientes_(DD)","Preocupacion_menor_(LC)","Casi_amenazado_(NT)","Vulnerable_(VU)","En_peligro_(EN)","En_peligro_critico_(CR)_","Extinto_en_estado_silvestre_(EW)","Extinto_(EX)","No_enlistadas"
"Hongos",0,0,0,0,0,0,0,0,0
"Plantas",0,2.5641,0,0,0,0,0,0,97.4359
"Invertebrados",0,0,0,0,0,0,0,0,0
"Peces",0,0,0,0,0,0,0,0,0
"Anfibios",0,0,0,0,0,0,0,0,0
"Reptiles",0,87.5,0,0,0,0,0,0,12.5
"Aves",0,50,50,0,0,0,0,0,0
"Mamíferos",0,100,0,0,0,0,0,0,0
