"Grupo","Datos_insuficientes_(DD)","Preocupacion_menor_(LC)","Casi_amenazado_(NT)","Vulnerable_(VU)","En_peligro_(EN)","En_peligro_critico_(CR)_","Extinto_en_estado_silvestre_(EW)","Extinto_(EX)","No_enlistadas"
"Hongos",0,0,0,0,0,0,0,0,0
"Plantas",0,7.6923,0,0,0,0,0,0,92.3077
"Invertebrados",0,10,0,0,0,0,0,0,90
"Peces",3.5714,92.8571,3.5714,0,0,0,0,0,0
"Anfibios",0,0,0,0,0,0,0,0,0
"Reptiles",0,50,0,50,0,0,0,0,0
"Aves",0,88.8889,8.8889,2.2222,0,0,0,0,0
"Mamíferos",0,0,0,0,0,0,0,0,0
