"Grupo","Datos_insuficientes_(DD)","Preocupacion_menor_(LC)","Casi_amenazado_(NT)","Vulnerable_(VU)","En_peligro_(EN)","En_peligro_critico_(CR)_","Extinto_en_estado_silvestre_(EW)","Extinto_(EX)","No_enlistadas"
"Hongos",0,0,0,0,0,0,0,0,100
"Plantas",0,5.7143,0,0,0,0,0,0,94.2857
"Invertebrados",0,0,0,0,0,0,0,0,100
"Peces",0,94.7368,0,0,0,0,0,0,5.2632
"Anfibios",0,100,0,0,0,0,0,0,0
"Reptiles",0,60,10,0,0,0,0,0,30
"Aves",0,91.6667,4.1667,0,0,0,0,0,4.1667
"Mamíferos",0,100,0,0,0,0,0,0,0
