"Grupo","Datos_insuficientes_(DD)","Preocupacion_menor_(LC)","Casi_amenazado_(NT)","Vulnerable_(VU)","En_peligro_(EN)","En_peligro_critico_(CR)_","Extinto_en_estado_silvestre_(EW)","Extinto_(EX)","No_enlistadas"
"Hongos",0,0,0,0,0,0,0,0,0
"Plantas",0,14.2857,0,0,3.5714,0,0,0,82.1429
"Invertebrados",0,0,0,0,0,0,0,0,100
"Peces",0,0,0,0,0,0,0,0,0
"Anfibios",0,100,0,0,0,0,0,0,0
"Reptiles",0,66.6667,0,0,0,0,0,0,33.3333
"Aves",0,50,50,0,0,0,0,0,0
"Mamíferos",0,100,0,0,0,0,0,0,0
