"Grupo","Datos_insuficientes_(DD)","Preocupacion_menor_(LC)","Casi_amenazado_(NT)","Vulnerable_(VU)","En_peligro_(EN)","En_peligro_critico_(CR)_","Extinto_en_estado_silvestre_(EW)","Extinto_(EX)","No_enlistadas"
"Hongos",0,0,0,0,0,0,0,0,100
"Plantas",0.4425,6.8584,0.2212,0.6637,0.2212,0,0,0,91.5929
"Invertebrados",0.1272,1.9084,0,0,0,0,0,0,97.9644
"Peces",12.5,75,0,0,0,0,0,0,12.5
"Anfibios",0,78.9474,0,0,5.2632,0,0,0,15.7895
"Reptiles",1.8182,52.7273,1.8182,5.4545,1.8182,0,0,0,36.3636
"Aves",0,93.617,3.1915,0,0.5319,0,0,0,2.6596
"Mamíferos",0,97.3684,0,2.6316,0,0,0,0,0
