"Grupo","Datos_insuficientes_(DD)","Preocupacion_menor_(LC)","Casi_amenazado_(NT)","Vulnerable_(VU)","En_peligro_(EN)","En_peligro_critico_(CR)_","Extinto_en_estado_silvestre_(EW)","Extinto_(EX)","No_enlistadas"
"Hongos",0,0,0,0,0,0,0,0,0
"Plantas",0,9.8684,0,0.6579,0.6579,0,0,0,88.8158
"Invertebrados",100,0,0,0,0,0,0,0,0
"Peces",0,0,0,0,0,0,0,0,100
"Anfibios",0,100,0,0,0,0,0,0,0
"Reptiles",0,75,0,12.5,0,0,0,0,12.5
"Aves",0,93.1034,3.4483,0,0,0,0,0,3.4483
"Mamíferos",0,100,0,0,0,0,0,0,0
