"Grupo","Datos_insuficientes_(DD)","Preocupacion_menor_(LC)","Casi_amenazado_(NT)","Vulnerable_(VU)","En_peligro_(EN)","En_peligro_critico_(CR)_","Extinto_en_estado_silvestre_(EW)","Extinto_(EX)","No_enlistadas"
"Hongos",0,0,0,0,0,0,0,0,0
"Plantas",0,0,0,0,2.9412,0,0,0,97.0588
"Invertebrados",0,0,0,0,0,0,0,0,0
"Peces",0,89.7959,0,2.0408,0,2.0408,0,0,6.1224
"Anfibios",0,0,0,0,0,0,0,0,0
"Reptiles",0,50,0,0,0,0,0,0,50
"Aves",0,77.7778,11.1111,0,0,0,0,0,11.1111
"Mamíferos",33.3333,33.3333,0,33.3333,0,0,0,0,0
