"Grupo","Datos_insuficientes_(DD)","Preocupacion_menor_(LC)","Casi_amenazado_(NT)","Vulnerable_(VU)","En_peligro_(EN)","En_peligro_critico_(CR)_","Extinto_en_estado_silvestre_(EW)","Extinto_(EX)","No_enlistadas"
"Hongos",0,0,0,0,0,0,0,0,0
"Plantas",0,4.1667,0,0,0,0,0,0,95.8333
"Invertebrados",0,0,0,0,0,0,0,0,0
"Peces",12.8205,76.9231,2.5641,0,0,0,0,0,7.6923
"Anfibios",0,0,0,0,0,100,0,0,0
"Reptiles",5.2632,47.3684,5.2632,5.2632,0,0,0,0,36.8421
"Aves",0,92.6829,7.3171,0,0,0,0,0,0
"Mamíferos",0,0,0,0,100,0,0,0,0
