"Grupo","Datos_insuficientes_(DD)","Preocupacion_menor_(LC)","Casi_amenazado_(NT)","Vulnerable_(VU)","En_peligro_(EN)","En_peligro_critico_(CR)_","Extinto_en_estado_silvestre_(EW)","Extinto_(EX)","No_enlistadas"
"Hongos",0,0,0,0,0,0,0,0,0
"Plantas",0,10.6383,0,0,0,0,0,0,89.3617
"Invertebrados",0,0,0,0,0,0,0,0,100
"Peces",0,60,0,20,0,0,0,0,20
"Anfibios",0,0,0,0,0,0,0,0,0
"Reptiles",0,75,25,0,0,0,0,0,0
"Aves",0,76.4706,23.5294,0,0,0,0,0,0
"Mamíferos",0,100,0,0,0,0,0,0,0
