"Grupo","Datos_insuficientes_(DD)","Preocupacion_menor_(LC)","Casi_amenazado_(NT)","Vulnerable_(VU)","En_peligro_(EN)","En_peligro_critico_(CR)_","Extinto_en_estado_silvestre_(EW)","Extinto_(EX)","No_enlistadas"
"Hongos",0,0,0,0,0,0,0,0,100
"Plantas",0,7.8125,0,0,0,0,0,0,92.1875
"Invertebrados",0,17.2414,0,0,0,0,0,0,82.7586
"Peces",0,93.3333,0,0,0,0,0,0,6.6667
"Anfibios",0,0,0,0,0,0,0,0,0
"Reptiles",0,50,0,25,0,0,0,0,25
"Aves",0,94.3925,2.8037,0,0,0,0,0,2.8037
"Mamíferos",0,71.4286,14.2857,0,0,0,0,0,14.2857
