"Grupo","Datos_insuficientes_(DD)","Preocupacion_menor_(LC)","Casi_amenazado_(NT)","Vulnerable_(VU)","En_peligro_(EN)","En_peligro_critico_(CR)_","Extinto_en_estado_silvestre_(EW)","Extinto_(EX)","No_enlistadas"
"Hongos",0,0,0,0,0,0,0,0,100
"Plantas",0,8.2569,0,0,0,0,0,0,91.7431
"Invertebrados",0,0,0,0,0,0,0,0,100
"Peces",33.3333,0,0,33.3333,0,0,0,0,33.3333
"Anfibios",0,77.7778,22.2222,0,0,0,0,0,0
"Reptiles",4.3478,82.6087,0,0,0,0,0,0,13.0435
"Aves",0,93.1034,1.1494,0,1.1494,1.1494,0,0,3.4483
"Mamíferos",0,94.7368,5.2632,0,0,0,0,0,0
