"Grupo","Datos_insuficientes_(DD)","Preocupacion_menor_(LC)","Casi_amenazado_(NT)","Vulnerable_(VU)","En_peligro_(EN)","En_peligro_critico_(CR)_","Extinto_en_estado_silvestre_(EW)","Extinto_(EX)","No_enlistadas"
"Hongos",0,0,0,0,0,0,0,0,100
"Plantas",0,7.9681,0,0,0,0,0,0,92.0319
"Invertebrados",0,0,0,1.7544,0,0,0,0,98.2456
"Peces",0,38.4615,7.6923,23.0769,0,0,0,0,30.7692
"Anfibios",0,70,10,0,0,0,0,0,20
"Reptiles",4,76,0,0,0,0,0,0,20
"Aves",0,89.1566,1.2048,0,1.2048,1.2048,0,0,7.2289
"Mamíferos",0,92.5926,0,0,0,0,0,0,7.4074
