"Grupo","Datos_insuficientes_(DD)","Preocupacion_menor_(LC)","Casi_amenazado_(NT)","Vulnerable_(VU)","En_peligro_(EN)","En_peligro_critico_(CR)_","Extinto_en_estado_silvestre_(EW)","Extinto_(EX)","No_enlistadas"
"Hongos",0,0,0,0,0,0,0,0,100
"Plantas",0.1821,6.3752,0,0.5464,0.5464,0,0,0,92.3497
"Invertebrados",0,1.6129,0,1.6129,0,0,0,0,96.7742
"Peces",0,100,0,0,0,0,0,0,0
"Anfibios",0,40,0,20,0,0,0,0,40
"Reptiles",5.1282,64.1026,2.5641,2.5641,0,0,0,0,25.641
"Aves",0,92.4528,1.8868,0,0,0,0,0,5.6604
"Mamíferos",0,76.9231,0,0,15.3846,0,0,0,7.6923
