"Grupo","Datos_insuficientes_(DD)","Preocupacion_menor_(LC)","Casi_amenazado_(NT)","Vulnerable_(VU)","En_peligro_(EN)","En_peligro_critico_(CR)_","Extinto_en_estado_silvestre_(EW)","Extinto_(EX)","No_enlistadas"
"Hongos",0,0,0,0,0,0,0,0,100
"Plantas",0,5.4348,0,0,0,0,0,0,94.5652
"Invertebrados",0,1.4706,0,1.4706,0,0,0,0,97.0588
"Peces",0,0,0,0,0,0,0,0,0
"Anfibios",0,87.5,0,12.5,0,0,0,0,0
"Reptiles",2,70,2,0,0,0,0,0,26
"Aves",0,93.75,2.0833,0,0,0,0,0,4.1667
"Mamíferos",0,95.4545,4.5455,0,0,0,0,0,0
