"Grupo","Datos_insuficientes_(DD)","Preocupacion_menor_(LC)","Casi_amenazado_(NT)","Vulnerable_(VU)","En_peligro_(EN)","En_peligro_critico_(CR)_","Extinto_en_estado_silvestre_(EW)","Extinto_(EX)","No_enlistadas"
"Hongos",0,0,0,0,0,0,0,0,0
"Plantas",0.1678,5.7047,0,0,0,0,0,0,94.1275
"Invertebrados",0,2.381,0,0,0,0,0,0,97.619
"Peces",0,20,40,0,0,0,0,0,40
"Anfibios",0,83.3333,0,5.5556,0,0,0,0,11.1111
"Reptiles",1.8182,78.1818,1.8182,0,0,0,0,0,18.1818
"Aves",0,89.8551,2.8986,0,1.4493,0,0,0,5.7971
"Mamíferos",0,90.6977,9.3023,0,0,0,0,0,0
