"Grupo","Datos_insuficientes_(DD)","Preocupacion_menor_(LC)","Casi_amenazado_(NT)","Vulnerable_(VU)","En_peligro_(EN)","En_peligro_critico_(CR)_","Extinto_en_estado_silvestre_(EW)","Extinto_(EX)","No_enlistadas"
"Hongos",0,0,0,0,0,0,0,0,0
"Plantas",0,5.9829,0,0,0,0,0,0,94.0171
"Invertebrados",0,0,0,0,0,0,0,0,100
"Peces",4.0816,87.7551,2.0408,4.0816,0,0,0,0,2.0408
"Anfibios",0,66.6667,0,0,0,0,0,0,33.3333
"Reptiles",0,94.7368,0,0,0,0,0,0,5.2632
"Aves",0,96.7742,3.2258,0,0,0,0,0,0
"Mamíferos",0,50,0,0,50,0,0,0,0
