"Grupo","Datos_insuficientes_(DD)","Preocupacion_menor_(LC)","Casi_amenazado_(NT)","Vulnerable_(VU)","En_peligro_(EN)","En_peligro_critico_(CR)_","Extinto_en_estado_silvestre_(EW)","Extinto_(EX)","No_enlistadas"
"Hongos",0,0,0,0,0,0,0,0,100
"Plantas",0.974,6.4935,0,0.3247,0,0,0,0,92.2078
"Invertebrados",0,3.8835,0,0,0,0,0,0,96.1165
"Peces",7.1429,62.5,7.1429,0,0,0,0,0,23.2143
"Anfibios",0,93.75,0,0,0,0,0,0,6.25
"Reptiles",1.6949,52.5424,1.6949,5.0847,0,1.6949,0,0,37.2881
"Aves",0,92.0245,3.0675,0.6135,0.6135,0,0,0,3.681
"Mamíferos",0,87.5,5.3571,5.3571,0,0,0,0,1.7857
