"Grupo","Datos_insuficientes_(DD)","Preocupacion_menor_(LC)","Casi_amenazado_(NT)","Vulnerable_(VU)","En_peligro_(EN)","En_peligro_critico_(CR)_","Extinto_en_estado_silvestre_(EW)","Extinto_(EX)","No_enlistadas"
"Hongos",0,0,0,0,0,0,0,0,100
"Plantas",0,8.3333,0,0,0,0,0,0,91.6667
"Invertebrados",0,6.6667,0,0,0,0,0,0,93.3333
"Peces",0,0,0,0,0,0,0,0,100
"Anfibios",0,71.4286,0,0,14.2857,0,0,0,14.2857
"Reptiles",0,66.6667,0,8.3333,0,0,0,0,25
"Aves",0,92,0,4,0,0,0,0,4
"Mamíferos",0,80,13.3333,6.6667,0,0,0,0,0
