"Grupo","Datos_insuficientes_(DD)","Preocupacion_menor_(LC)","Casi_amenazado_(NT)","Vulnerable_(VU)","En_peligro_(EN)","En_peligro_critico_(CR)_","Extinto_en_estado_silvestre_(EW)","Extinto_(EX)","No_enlistadas"
"Hongos",0,0,0,0,0,0,0,0,100
"Plantas",0.3268,8.0065,0.1634,0.4902,0.3268,0,0,0,90.6863
"Invertebrados",0,2.1277,0,1.4184,0,0,0,0,96.4539
"Peces",6.7568,82.4324,0,1.3514,2.7027,1.3514,0,0,5.4054
"Anfibios",0,72.7273,0,0,0,0,0,0,27.2727
"Reptiles",1.4286,71.4286,1.4286,1.4286,1.4286,0,0,0,22.8571
"Aves",0,89.1304,5.7971,0.7246,0,0,0,0,4.3478
"Mamíferos",0,85.4167,4.1667,2.0833,4.1667,0,0,0,4.1667
