"Grupo","Datos_insuficientes_(DD)","Preocupacion_menor_(LC)","Casi_amenazado_(NT)","Vulnerable_(VU)","En_peligro_(EN)","En_peligro_critico_(CR)_","Extinto_en_estado_silvestre_(EW)","Extinto_(EX)","No_enlistadas"
"Hongos",0,0,0,0,0,0,0,0,100
"Plantas",0.1383,5.2559,0.2766,0.5533,0.1383,0,0,0,93.6376
"Invertebrados",0,0.6024,0,0,0,0,0,0,99.3976
"Peces",0,49.0196,1.9608,0,0,1.9608,0,0,47.0588
"Anfibios",0,71.4286,0,0,0,0,0,0,28.5714
"Reptiles",0,58.6207,3.4483,0,0,0,0,0,37.931
"Aves",0,90.7692,3.0769,0,0,0,0,0,6.1538
"Mamíferos",0,80.7692,3.8462,3.8462,7.6923,0,0,0,3.8462
