"Grupo","Datos_insuficientes_(DD)","Preocupacion_menor_(LC)","Casi_amenazado_(NT)","Vulnerable_(VU)","En_peligro_(EN)","En_peligro_critico_(CR)_","Extinto_en_estado_silvestre_(EW)","Extinto_(EX)","No_enlistadas"
"Hongos",0,0,0,0,0,0,0,0,100
"Plantas",0,4.2424,0,1.2121,0.6061,0,0,0,93.9394
"Invertebrados",0,1.4706,0,0,0,0,0,0,98.5294
"Peces",0,16.6667,0,0,0,0,0,0,83.3333
"Anfibios",0,55.5556,16.6667,16.6667,5.5556,0,0,0,5.5556
"Reptiles",4.6512,58.1395,0,2.3256,0,0,0,0,34.8837
"Aves",0,94.6237,2.1505,1.0753,0,0,0,0,2.1505
"Mamíferos",0,100,0,0,0,0,0,0,0
