"Grupo","Datos_insuficientes_(DD)","Preocupacion_menor_(LC)","Casi_amenazado_(NT)","Vulnerable_(VU)","En_peligro_(EN)","En_peligro_critico_(CR)_","Extinto_en_estado_silvestre_(EW)","Extinto_(EX)","No_enlistadas"
"Hongos",0,0,0,0,0,0,0,0,0
"Plantas",0,9.0909,0,0,0,0,0,0,90.9091
"Invertebrados",0,15.7895,0,0,0,0,0,0,84.2105
"Peces",0,0,0,0,0,0,0,0,0
"Anfibios",0,100,0,0,0,0,0,0,0
"Reptiles",5.2632,73.6842,0,0,0,0,0,0,21.0526
"Aves",0,89.3939,1.5152,1.5152,0,0,0,0,7.5758
"Mamíferos",0,0,0,0,0,0,0,0,0
