"Grupo","Datos_insuficientes_(DD)","Preocupacion_menor_(LC)","Casi_amenazado_(NT)","Vulnerable_(VU)","En_peligro_(EN)","En_peligro_critico_(CR)_","Extinto_en_estado_silvestre_(EW)","Extinto_(EX)","No_enlistadas"
"Hongos",0,0,0,0,0,0,0,0,100
"Plantas",0.105,3.4664,0.2101,1.6807,0.4202,0,0,0,94.1176
"Invertebrados",0.3361,5.3782,0,0,0.1681,0,0,0,94.1176
"Peces",0,0,0,0,0,0,0,0,100
"Anfibios",0,50,11.3636,11.3636,13.6364,6.8182,0,0,6.8182
"Reptiles",4.3956,51.6484,3.2967,3.2967,0,2.1978,0,0,35.1648
"Aves",0,88.8268,5.0279,0.5587,0,0,0,0,5.5866
"Mamíferos",0,89.6552,0,0,0,1.7241,0,0,8.6207
