"Grupo","Datos_insuficientes_(DD)","Preocupacion_menor_(LC)","Casi_amenazado_(NT)","Vulnerable_(VU)","En_peligro_(EN)","En_peligro_critico_(CR)_","Extinto_en_estado_silvestre_(EW)","Extinto_(EX)","No_enlistadas"
"Hongos",0,0,0,0,0,0,0,0,0
"Plantas",0,14.2857,0,0,0,0,0,0,85.7143
"Invertebrados",0,0,0,0,0,0,0,0,100
"Peces",50,0,0,0,0,50,0,0,0
"Anfibios",0,0,0,0,0,0,0,0,0
"Reptiles",0,92.3077,0,0,0,0,0,0,7.6923
"Aves",0,90.3226,6.4516,0,0,0,0,0,3.2258
"Mamíferos",16.6667,66.6667,0,0,16.6667,0,0,0,0
