"Grupo","Datos_insuficientes_(DD)","Preocupacion_menor_(LC)","Casi_amenazado_(NT)","Vulnerable_(VU)","En_peligro_(EN)","En_peligro_critico_(CR)_","Extinto_en_estado_silvestre_(EW)","Extinto_(EX)","No_enlistadas"
"Hongos",0,0,0,0,0,0,0,0,0
"Plantas",0,0,0,3.2258,0,0,0,0,96.7742
"Invertebrados",0,0,0,0,0,0,0,0,100
"Peces",0,0,0,0,0,0,0,0,0
"Anfibios",14.2857,85.7143,0,0,0,0,0,0,0
"Reptiles",0,68.4211,5.2632,0,0,0,0,0,26.3158
"Aves",0,80,0,0,20,0,0,0,0
"Mamíferos",0,0,0,0,0,0,0,0,0
