"Grupo","Datos_insuficientes_(DD)","Preocupacion_menor_(LC)","Casi_amenazado_(NT)","Vulnerable_(VU)","En_peligro_(EN)","En_peligro_critico_(CR)_","Extinto_en_estado_silvestre_(EW)","Extinto_(EX)","No_enlistadas"
"Hongos",0,0,0,0,0,0,0,0,0
"Plantas",0,10.2564,0,0,0,0,0,0,89.7436
"Invertebrados",0,0,0,0,0,0,0,0,0
"Peces",0,0,25,0,0,0,0,0,75
"Anfibios",0,100,0,0,0,0,0,0,0
"Reptiles",0,0,0,0,0,0,0,0,0
"Aves",0,91.3043,4.3478,0,0,0,0,0,4.3478
"Mamíferos",0,0,0,0,0,0,0,0,0
