"Grupo","Numero_de_especies_registradas","Numero_de_especies_endemicas","Numero_de_especies_en_la_NOM-059-SEMARNAT-2010","Numero_de_especies_prioritarias","Numero_de_registros"
"Bacterias",1,0,0,0,3
"Algas",0,0,0,0,0
"Hongos",40,0,1,0,65
"Plantas no vasculares",33,0,0,0,50
"Briofitas",33,0,0,0,50
"Anthocerotophyta",0,0,0,0,0
"Marchantiophyta",0,0,0,0,0
"Plantas vasculares",1542,532,21,14,12974
"Pteridofitas",0,0,0,0,0
"Gimnospermas",13,7,2,2,48
"Pinaceae",6,4,1,1,19
"Cupressaceae",6,2,1,1,26
"Podocarpaceae",0,0,0,0,0
"Zamiaceae",0,0,0,0,0
"Ephedraceae",1,1,0,0,3
"Taxaceae",0,0,0,0,0
"Angiospermas",1483,522,19,12,12814
"Asteraceae",247,113,1,0,1262
"Cactaceae",55,41,4,7,627
"Crassulaceae",12,8,0,0,20
"Euphorbiaceae",43,15,0,0,127
"Fabaceae",101,30,1,2,844
"Fagaceae",20,15,0,1,228
"Lamiaceae",35,19,0,0,419
"Rubiaceae",26,7,1,0,420
"Solanaceae",55,16,0,0,872
"Orchidaceae",4,3,1,1,5
"Asparagaceae",33,25,2,0,153
"Arecaceae",3,0,0,0,5
"Bromeliaceae",7,4,0,0,47
"Poaceae",176,45,0,0,1850
"Commelinaceae",13,6,0,0,43
"Rosaceae",13,6,0,0,27
"Burseraceae",6,4,0,0,41
"Apocynaceae",19,7,0,0,78
"Campanulaceae",8,1,0,0,115
"Invertebrados no artrópodos",8,0,0,0,16
"Esponjas de mar",0,0,0,0,0
"Cnidarios",0,0,0,0,0
"Ctenóforos",0,0,0,0,0
"Chaetognatha",0,0,0,0,0
"platelmintos",0,0,0,0,0
"Moluscos",5,0,0,0,5
"Gusanos anélidos",1,0,0,0,1
"Sipuncula",0,0,0,0,0
"Rotifera",2,0,0,0,10
"Acanthocephala",0,0,0,0,0
"Briozoos",0,0,0,0,0
"Brachiopodos",0,0,0,0,0
"Tardigrados",0,0,0,0,0
"Onychophora",0,0,0,0,0
"Equinodermos",0,0,0,0,0
"Urocordados",0,0,0,0,0
"Artrópodos",406,12,1,1,2559
"Crustáceos",57,0,0,0,1000
"Quelicerados",27,0,0,0,167
"Miriápodos",1,0,0,0,1
"Hexápodos",321,12,1,1,1391
"Vertebrados",309,65,68,35,8010
"Peces",14,0,2,1,74
"Anfibios",23,12,9,1,897
"Reptiles",60,29,27,1,776
"Aves",137,9,22,28,5705
"Mamíferos",75,15,8,4,558
