"Grupo","Numero_de_especies_registradas","Numero_de_especies_endemicas","Numero_de_especies_en_la_NOM-059-SEMARNAT-2010","Numero_de_especies_prioritarias","Numero_de_registros"
"Bacterias",17,0,0,0,42
"Algas",56,0,0,0,219
"Hongos",488,0,11,0,1629
"Plantas no vasculares",353,0,1,0,2869
"Briofitas",331,0,1,0,2788
"Anthocerotophyta",1,0,0,0,3
"Marchantiophyta",21,0,0,0,78
"Plantas vasculares",5648,2197,131,43,92817
"Pteridofitas",0,0,0,0,0
"Gimnospermas",38,19,10,9,1972
"Pinaceae",26,15,6,7,1714
"Cupressaceae",8,3,2,1,239
"Podocarpaceae",1,0,1,0,14
"Zamiaceae",2,1,1,1,4
"Ephedraceae",1,0,0,0,1
"Taxaceae",0,0,0,0,0
"Angiospermas",5353,2148,118,34,86927
"Asteraceae",762,391,3,0,15702
"Cactaceae",67,45,4,3,404
"Crassulaceae",40,28,1,0,645
"Euphorbiaceae",189,100,2,0,1905
"Fabaceae",545,172,7,2,7595
"Fagaceae",45,35,0,2,2437
"Lamiaceae",135,83,0,0,3762
"Rubiaceae",107,30,3,0,1381
"Solanaceae",141,44,0,0,3885
"Orchidaceae",227,146,19,13,2033
"Asparagaceae",65,55,7,0,886
"Arecaceae",10,5,6,0,57
"Bromeliaceae",57,40,1,0,425
"Poaceae",377,114,3,0,6912
"Commelinaceae",45,20,0,0,1166
"Rosaceae",45,16,0,0,885
"Burseraceae",51,30,3,2,1879
"Apocynaceae",111,49,0,0,1451
"Campanulaceae",17,3,0,0,640
"Invertebrados no artrópodos",141,0,0,0,425
"Esponjas de mar",7,0,0,0,7
"Cnidarios",15,0,0,0,16
"Ctenóforos",0,0,0,0,0
"Chaetognatha",0,0,0,0,0
"platelmintos",32,0,0,0,163
"Moluscos",72,0,0,0,116
"Gusanos anélidos",10,0,0,0,29
"Sipuncula",0,0,0,0,0
"Rotifera",1,0,0,0,6
"Acanthocephala",4,0,0,0,88
"Briozoos",0,0,0,0,0
"Brachiopodos",0,0,0,0,0
"Tardigrados",0,0,0,0,0
"Onychophora",0,0,0,0,0
"Equinodermos",0,0,0,0,0
"Urocordados",0,0,0,0,0
"Artrópodos",2309,117,4,1,68044
"Crustáceos",95,0,0,0,451
"Quelicerados",70,0,3,0,485
"Miriápodos",3,0,0,0,7
"Hexápodos",2141,117,1,1,67101
"Vertebrados",942,230,255,79,47587
"Peces",223,0,30,19,5341
"Anfibios",72,47,29,4,5552
"Reptiles",193,112,94,11,9100
"Aves",280,31,74,37,22046
"Mamíferos",174,40,28,8,5548
