"Grupo","Numero_de_especies_registradas","Numero_de_especies_endemicas","Numero_de_especies_en_la_NOM-059-SEMARNAT-2010","Numero_de_especies_prioritarias","Numero_de_registros"
"Bacterias",49,0,0,0,448
"Algas",136,0,0,0,1123
"Hongos",176,0,3,0,341
"Plantas no vasculares",316,0,1,0,1427
"Briofitas",285,0,1,0,1338
"Anthocerotophyta",0,0,0,0,0
"Marchantiophyta",31,0,0,0,89
"Plantas vasculares",8553,3272,262,78,55697
"Pteridofitas",0,0,0,0,0
"Gimnospermas",66,34,27,26,853
"Pinaceae",30,13,6,8,397
"Cupressaceae",12,5,2,1,167
"Podocarpaceae",1,0,1,0,6
"Zamiaceae",17,15,17,17,172
"Ephedraceae",5,1,0,0,105
"Taxaceae",1,0,1,0,6
"Angiospermas",8112,3198,225,50,52537
"Asteraceae",1165,559,5,0,6828
"Cactaceae",195,129,58,12,6643
"Crassulaceae",92,70,1,0,617
"Euphorbiaceae",391,221,6,0,2242
"Fabaceae",688,212,6,2,3844
"Fagaceae",77,53,1,2,1105
"Lamiaceae",240,140,0,0,1269
"Rubiaceae",252,90,10,0,881
"Solanaceae",193,58,0,0,1169
"Orchidaceae",247,136,32,10,790
"Asparagaceae",116,92,18,4,1895
"Arecaceae",47,24,23,2,267
"Bromeliaceae",86,47,5,0,558
"Poaceae",386,114,4,0,5184
"Commelinaceae",68,32,0,0,536
"Rosaceae",59,18,0,0,326
"Burseraceae",34,19,2,2,218
"Apocynaceae",172,63,0,0,890
"Campanulaceae",34,10,0,0,173
"Invertebrados no artrópodos",273,0,1,0,948
"Esponjas de mar",0,0,0,0,0
"Cnidarios",0,0,0,0,0
"Ctenóforos",0,0,0,0,0
"Chaetognatha",0,0,0,0,0
"platelmintos",10,0,0,0,18
"Moluscos",242,0,1,0,903
"Gusanos anélidos",3,0,0,0,7
"Sipuncula",0,0,0,0,0
"Rotifera",18,0,0,0,20
"Acanthocephala",0,0,0,0,0
"Briozoos",0,0,0,0,0
"Brachiopodos",0,0,0,0,0
"Tardigrados",0,0,0,0,0
"Onychophora",0,0,0,0,0
"Equinodermos",0,0,0,0,0
"Urocordados",0,0,0,0,0
"Artrópodos",2353,71,3,1,15484
"Crustáceos",71,0,2,0,344
"Quelicerados",146,0,0,0,650
"Miriápodos",18,4,0,0,185
"Hexápodos",2118,67,1,1,14305
"Vertebrados",765,155,216,67,28716
"Peces",79,0,18,4,1960
"Anfibios",65,31,27,3,3796
"Reptiles",186,68,77,4,7472
"Aves",253,19,69,46,9790
"Mamíferos",182,37,25,10,5698
