"Grupo","Numero_de_especies_registradas","Numero_de_especies_endemicas","Numero_de_especies_en_la_NOM-059-SEMARNAT-2010","Numero_de_especies_prioritarias","Numero_de_registros"
"Bacterias",49,0,0,0,224
"Algas",343,0,0,0,1250
"Hongos",97,0,0,0,354
"Plantas no vasculares",69,0,0,0,379
"Briofitas",65,0,0,0,370
"Anthocerotophyta",0,0,0,0,0
"Marchantiophyta",4,0,0,0,9
"Plantas vasculares",2144,284,52,17,60560
"Pteridofitas",0,0,0,0,0
"Gimnospermas",9,5,4,3,70
"Pinaceae",3,1,0,0,5
"Cupressaceae",1,0,0,0,4
"Podocarpaceae",0,0,0,0,0
"Zamiaceae",5,4,4,3,61
"Ephedraceae",0,0,0,0,0
"Taxaceae",0,0,0,0,0
"Angiospermas",2086,279,46,14,60115
"Asteraceae",143,17,1,0,3172
"Cactaceae",22,6,0,1,463
"Crassulaceae",0,0,0,0,0
"Euphorbiaceae",116,37,1,0,3757
"Fabaceae",234,25,2,1,9194
"Fagaceae",0,0,0,0,0
"Lamiaceae",38,5,0,0,1125
"Rubiaceae",60,14,1,0,2084
"Solanaceae",66,5,0,0,1914
"Orchidaceae",46,13,2,1,295
"Asparagaceae",27,13,2,0,1184
"Arecaceae",15,8,7,0,534
"Bromeliaceae",28,7,3,0,598
"Poaceae",154,16,0,0,2690
"Commelinaceae",17,3,0,0,385
"Rosaceae",0,0,0,0,0
"Burseraceae",5,0,0,0,254
"Apocynaceae",62,13,0,0,2105
"Campanulaceae",3,1,0,0,20
"Invertebrados no artrópodos",354,0,0,0,6307
"Esponjas de mar",2,0,0,0,3
"Cnidarios",5,0,0,0,12
"Ctenóforos",0,0,0,0,0
"Chaetognatha",1,0,0,0,316
"platelmintos",66,0,0,0,517
"Moluscos",209,0,0,0,2479
"Gusanos anélidos",64,0,0,0,2913
"Sipuncula",1,0,0,0,41
"Rotifera",3,0,0,0,7
"Acanthocephala",3,0,0,0,19
"Briozoos",0,0,0,0,0
"Brachiopodos",0,0,0,0,0
"Tardigrados",0,0,0,0,0
"Onychophora",0,0,0,0,0
"Equinodermos",0,0,0,0,0
"Urocordados",0,0,0,0,0
"Artrópodos",1392,28,8,1,41903
"Crustáceos",157,14,6,0,8226
"Quelicerados",53,0,1,0,385
"Miriápodos",2,0,0,0,3
"Hexápodos",1180,14,1,1,33289
"Vertebrados",711,44,162,68,108067
"Peces",184,0,11,6,3295
"Anfibios",28,5,8,3,2123
"Reptiles",128,17,49,12,9470
"Aves",243,13,65,37,88205
"Mamíferos",128,9,29,10,4974
