"Grupo","Numero_de_especies_registradas","Numero_de_especies_endemicas","Numero_de_especies_en_la_NOM-059-SEMARNAT-2010","Numero_de_especies_prioritarias","Numero_de_registros"
"Bacterias",1,0,0,0,1
"Algas",35,0,0,0,37
"Hongos",77,0,2,0,136
"Plantas no vasculares",361,0,1,0,1568
"Briofitas",317,0,1,0,1473
"Anthocerotophyta",0,0,0,0,0
"Marchantiophyta",44,0,0,0,95
"Plantas vasculares",4891,1855,123,46,33768
"Pteridofitas",4,0,2,0,12
"Gimnospermas",35,13,6,7,1732
"Pinaceae",18,9,4,6,1593
"Cupressaceae",11,3,1,1,103
"Podocarpaceae",0,0,0,0,0
"Zamiaceae",1,0,1,0,2
"Ephedraceae",5,1,0,0,34
"Taxaceae",0,0,0,0,0
"Angiospermas",4662,1816,111,38,31288
"Asteraceae",710,324,1,0,7474
"Cactaceae",116,75,23,9,1162
"Crassulaceae",41,31,0,0,91
"Euphorbiaceae",175,69,2,0,750
"Fabaceae",484,159,5,2,2842
"Fagaceae",59,44,0,2,606
"Lamiaceae",142,84,0,0,661
"Rubiaceae",61,14,1,0,313
"Solanaceae",151,31,0,0,1288
"Orchidaceae",302,160,27,14,877
"Asparagaceae",74,58,7,0,520
"Arecaceae",13,9,8,0,17
"Bromeliaceae",38,21,1,0,141
"Poaceae",352,124,3,0,6283
"Commelinaceae",34,20,0,0,268
"Rosaceae",30,10,0,0,99
"Burseraceae",18,8,0,0,203
"Apocynaceae",67,20,0,0,292
"Campanulaceae",13,4,0,0,75
"Invertebrados no artrópodos",46,0,0,0,189
"Esponjas de mar",0,0,0,0,0
"Cnidarios",0,0,0,0,0
"Ctenóforos",0,0,0,0,0
"Chaetognatha",0,0,0,0,0
"platelmintos",14,0,0,0,17
"Moluscos",29,0,0,0,148
"Gusanos anélidos",0,0,0,0,0
"Sipuncula",0,0,0,0,0
"Rotifera",1,0,0,0,22
"Acanthocephala",1,0,0,0,1
"Briozoos",0,0,0,0,0
"Brachiopodos",0,0,0,0,0
"Tardigrados",0,0,0,0,0
"Onychophora",0,0,0,0,0
"Equinodermos",1,0,0,0,1
"Urocordados",0,0,0,0,0
"Artrópodos",606,20,1,1,2913
"Crustáceos",34,0,0,0,314
"Quelicerados",23,0,0,0,84
"Miriápodos",3,0,0,0,6
"Hexápodos",546,20,1,1,2509
"Vertebrados",538,129,141,56,10032
"Peces",41,0,16,5,225
"Anfibios",40,18,14,2,1790
"Reptiles",148,58,60,7,2416
"Aves",166,19,38,34,1656
"Mamíferos",143,34,13,8,3945
