"Grupo","Numero_de_especies_registradas","Icono"
"Bacterias",1,"Biod_bacteria.png"
"Algas",87,"alga.png"
"Hongos",1,"Biod_hongo.png"
"Plantas no vasculares",0,"Biod_briofitas.png"
"Plantas vasculares",374,"Biod_angiospermas.png"
"Invertebrados no artrópodos",306,"invertebrado_no_artropodo.png"
"Invertebrados artrópodos",222,"invertebrados_artropodos.png"
"Vertebrados",580,"Biod_mamiferos.png"
