"Grupo","Numero_de_especies_registradas","Icono"
"Bacterias",3,"Biod_bacteria.png"
"Algas",118,"alga.png"
"Hongos",4,"Biod_hongo.png"
"Plantas no vasculares",3,"Biod_briofitas.png"
"Plantas vasculares",258,"Biod_angiospermas.png"
"Invertebrados no artrópodos",163,"invertebrado_no_artropodo.png"
"Invertebrados artrópodos",202,"invertebrados_artropodos.png"
"Vertebrados",481,"Biod_mamiferos.png"
