"Grupo","Numero_de_especies_registradas","Icono"
"Bacterias",7,"Biod_bacteria.png"
"Algas",92,"alga.png"
"Hongos",1,"Biod_hongo.png"
"Plantas no vasculares",2,"Biod_briofitas.png"
"Plantas vasculares",314,"Biod_angiospermas.png"
"Invertebrados no artrópodos",145,"invertebrado_no_artropodo.png"
"Invertebrados artrópodos",201,"invertebrados_artropodos.png"
"Vertebrados",451,"Biod_mamiferos.png"
