"Grupo","Numero_de_especies_registradas","Icono"
"Bacterias",0,"Biod_bacteria.png"
"Algas",0,"alga.png"
"Hongos",30,"Biod_hongo.png"
"Plantas no vasculares",14,"Biod_briofitas.png"
"Plantas vasculares",783,"Biod_angiospermas.png"
"Invertebrados no artrópodos",2,"invertebrado_no_artropodo.png"
"Invertebrados artrópodos",255,"invertebrados_artropodos.png"
"Vertebrados",206,"Biod_mamiferos.png"
