"Grupo","Numero_de_especies_registradas","Icono"
"Bacterias",0,"Biod_bacteria.png"
"Algas",0,"alga.png"
"Hongos",65,"Biod_hongo.png"
"Plantas no vasculares",35,"Biod_briofitas.png"
"Plantas vasculares",1556,"Biod_angiospermas.png"
"Invertebrados no artrópodos",8,"invertebrado_no_artropodo.png"
"Invertebrados artrópodos",452,"invertebrados_artropodos.png"
"Vertebrados",429,"Biod_mamiferos.png"
