"Grupo","Numero_de_especies_registradas","Icono"
"Bacterias",3,"Biod_bacteria.png"
"Algas",79,"alga.png"
"Hongos",4,"Biod_hongo.png"
"Plantas no vasculares",0,"Biod_briofitas.png"
"Plantas vasculares",694,"Biod_angiospermas.png"
"Invertebrados no artrópodos",287,"invertebrado_no_artropodo.png"
"Invertebrados artrópodos",591,"invertebrados_artropodos.png"
"Vertebrados",619,"Biod_mamiferos.png"
