"Grupo","Numero_de_especies_registradas","Icono"
"Bacterias",0,"Biod_bacteria.png"
"Algas",0,"alga.png"
"Hongos",349,"Biod_hongo.png"
"Plantas no vasculares",181,"Biod_briofitas.png"
"Plantas vasculares",2522,"Biod_angiospermas.png"
"Invertebrados no artrópodos",12,"invertebrado_no_artropodo.png"
"Invertebrados artrópodos",446,"invertebrados_artropodos.png"
"Vertebrados",308,"Biod_mamiferos.png"
