"Grupo","Numero_de_especies_registradas","Icono"
"Bacterias",8,"Biod_bacteria.png"
"Algas",83,"alga.png"
"Hongos",0,"Biod_hongo.png"
"Plantas no vasculares",0,"Biod_briofitas.png"
"Plantas vasculares",47,"Biod_angiospermas.png"
"Invertebrados no artrópodos",158,"invertebrado_no_artropodo.png"
"Invertebrados artrópodos",25,"invertebrados_artropodos.png"
"Vertebrados",374,"Biod_mamiferos.png"
