"Grupo","Numero_de_especies_registradas","Icono"
"Bacterias",20,"Biod_bacteria.png"
"Algas",124,"alga.png"
"Hongos",3,"Biod_hongo.png"
"Plantas no vasculares",17,"Biod_briofitas.png"
"Plantas vasculares",90,"Biod_angiospermas.png"
"Invertebrados no artrópodos",38,"invertebrado_no_artropodo.png"
"Invertebrados artrópodos",17,"invertebrados_artropodos.png"
"Vertebrados",206,"Biod_mamiferos.png"
