"Grupo","Numero_de_especies_registradas","Icono"
"Bacterias",1,"Biod_bacteria.png"
"Algas",322,"alga.png"
"Hongos",93,"Biod_hongo.png"
"Plantas no vasculares",14,"Biod_briofitas.png"
"Plantas vasculares",666,"Biod_angiospermas.png"
"Invertebrados no artrópodos",276,"invertebrado_no_artropodo.png"
"Invertebrados artrópodos",178,"invertebrados_artropodos.png"
"Vertebrados",856,"Biod_mamiferos.png"
