"Grupo","Numero_de_especies_registradas","Icono"
"Bacterias",0,"Biod_bacteria.png"
"Algas",0,"alga.png"
"Hongos",147,"Biod_hongo.png"
"Plantas no vasculares",16,"Biod_briofitas.png"
"Plantas vasculares",515,"Biod_angiospermas.png"
"Invertebrados no artrópodos",2,"invertebrado_no_artropodo.png"
"Invertebrados artrópodos",46,"invertebrados_artropodos.png"
"Vertebrados",106,"Biod_mamiferos.png"
