"Grupo","Numero_de_especies_registradas","Icono"
"Bacterias",0,"Biod_bacteria.png"
"Algas",220,"alga.png"
"Hongos",16,"Biod_hongo.png"
"Plantas no vasculares",0,"Biod_briofitas.png"
"Plantas vasculares",104,"Biod_angiospermas.png"
"Invertebrados no artrópodos",116,"invertebrado_no_artropodo.png"
"Invertebrados artrópodos",111,"invertebrados_artropodos.png"
"Vertebrados",406,"Biod_mamiferos.png"
