"Grupo","Numero_de_especies_registradas","Icono"
"Bacterias",0,"Biod_bacteria.png"
"Algas",0,"alga.png"
"Hongos",11,"Biod_hongo.png"
"Plantas no vasculares",37,"Biod_briofitas.png"
"Plantas vasculares",500,"Biod_angiospermas.png"
"Invertebrados no artrópodos",8,"invertebrado_no_artropodo.png"
"Invertebrados artrópodos",62,"invertebrados_artropodos.png"
"Vertebrados",85,"Biod_mamiferos.png"
