"Grupo","Numero_de_especies_registradas","Icono"
"Bacterias",0,"Biod_bacteria.png"
"Algas",0,"alga.png"
"Hongos",32,"Biod_hongo.png"
"Plantas no vasculares",14,"Biod_briofitas.png"
"Plantas vasculares",195,"Biod_angiospermas.png"
"Invertebrados no artrópodos",0,"invertebrado_no_artropodo.png"
"Invertebrados artrópodos",58,"invertebrados_artropodos.png"
"Vertebrados",29,"Biod_mamiferos.png"
