"Grupo","Numero_de_especies_registradas","Icono"
"Bacterias",1,"Biod_bacteria.png"
"Algas",1,"alga.png"
"Hongos",57,"Biod_hongo.png"
"Plantas no vasculares",18,"Biod_briofitas.png"
"Plantas vasculares",363,"Biod_angiospermas.png"
"Invertebrados no artrópodos",3,"invertebrado_no_artropodo.png"
"Invertebrados artrópodos",290,"invertebrados_artropodos.png"
"Vertebrados",97,"Biod_mamiferos.png"
