"Grupo","Numero_de_especies_registradas","Icono"
"Bacterias",0,"Biod_bacteria.png"
"Algas",0,"alga.png"
"Hongos",1,"Biod_hongo.png"
"Plantas no vasculares",30,"Biod_briofitas.png"
"Plantas vasculares",402,"Biod_angiospermas.png"
"Invertebrados no artrópodos",1,"invertebrado_no_artropodo.png"
"Invertebrados artrópodos",38,"invertebrados_artropodos.png"
"Vertebrados",87,"Biod_mamiferos.png"
