"Grupo","Numero_de_especies_registradas","Icono"
"Bacterias",0,"Biod_bacteria.png"
"Algas",0,"alga.png"
"Hongos",35,"Biod_hongo.png"
"Plantas no vasculares",0,"Biod_briofitas.png"
"Plantas vasculares",356,"Biod_angiospermas.png"
"Invertebrados no artrópodos",12,"invertebrado_no_artropodo.png"
"Invertebrados artrópodos",46,"invertebrados_artropodos.png"
"Vertebrados",146,"Biod_mamiferos.png"
