"Grupo","Numero_de_especies_registradas","Icono"
"Bacterias",0,"Biod_bacteria.png"
"Algas",0,"alga.png"
"Hongos",103,"Biod_hongo.png"
"Plantas no vasculares",136,"Biod_briofitas.png"
"Plantas vasculares",984,"Biod_angiospermas.png"
"Invertebrados no artrópodos",4,"invertebrado_no_artropodo.png"
"Invertebrados artrópodos",89,"invertebrados_artropodos.png"
"Vertebrados",118,"Biod_mamiferos.png"
