"Grupo","Numero_de_especies_registradas","Icono"
"Bacterias",0,"Biod_bacteria.png"
"Algas",0,"alga.png"
"Hongos",6,"Biod_hongo.png"
"Plantas no vasculares",10,"Biod_briofitas.png"
"Plantas vasculares",207,"Biod_angiospermas.png"
"Invertebrados no artrópodos",0,"invertebrado_no_artropodo.png"
"Invertebrados artrópodos",12,"invertebrados_artropodos.png"
"Vertebrados",13,"Biod_mamiferos.png"
