"Grupo","Numero_de_especies_registradas","Icono"
"Bacterias",0,"Biod_bacteria.png"
"Algas",48,"alga.png"
"Hongos",7,"Biod_hongo.png"
"Plantas no vasculares",1,"Biod_briofitas.png"
"Plantas vasculares",253,"Biod_angiospermas.png"
"Invertebrados no artrópodos",135,"invertebrado_no_artropodo.png"
"Invertebrados artrópodos",155,"invertebrados_artropodos.png"
"Vertebrados",305,"Biod_mamiferos.png"
