"Grupo","Numero_de_especies_registradas","Icono"
"Bacterias",0,"Biod_bacteria.png"
"Algas",0,"alga.png"
"Hongos",10,"Biod_hongo.png"
"Plantas no vasculares",4,"Biod_briofitas.png"
"Plantas vasculares",389,"Biod_angiospermas.png"
"Invertebrados no artrópodos",3,"invertebrado_no_artropodo.png"
"Invertebrados artrópodos",47,"invertebrados_artropodos.png"
"Vertebrados",48,"Biod_mamiferos.png"
