"Grupo","Numero_de_especies_registradas","Icono"
"Bacterias",4,"Biod_bacteria.png"
"Algas",160,"alga.png"
"Hongos",0,"Biod_hongo.png"
"Plantas no vasculares",0,"Biod_briofitas.png"
"Plantas vasculares",92,"Biod_angiospermas.png"
"Invertebrados no artrópodos",72,"invertebrado_no_artropodo.png"
"Invertebrados artrópodos",40,"invertebrados_artropodos.png"
"Vertebrados",259,"Biod_mamiferos.png"
