"Grupo","Numero_de_especies_registradas","Icono"
"Bacterias",0,"Biod_bacteria.png"
"Algas",0,"alga.png"
"Hongos",13,"Biod_hongo.png"
"Plantas no vasculares",37,"Biod_briofitas.png"
"Plantas vasculares",394,"Biod_angiospermas.png"
"Invertebrados no artrópodos",0,"invertebrado_no_artropodo.png"
"Invertebrados artrópodos",15,"invertebrados_artropodos.png"
"Vertebrados",35,"Biod_mamiferos.png"
