"Grupo","Numero_de_especies_registradas","Icono"
"Bacterias",1,"Biod_bacteria.png"
"Algas",1,"alga.png"
"Hongos",44,"Biod_hongo.png"
"Plantas no vasculares",4,"Biod_briofitas.png"
"Plantas vasculares",190,"Biod_angiospermas.png"
"Invertebrados no artrópodos",2,"invertebrado_no_artropodo.png"
"Invertebrados artrópodos",17,"invertebrados_artropodos.png"
"Vertebrados",36,"Biod_mamiferos.png"
