"Grupo","Numero_de_especies_registradas","Icono"
"Bacterias",2,"Biod_bacteria.png"
"Algas",4,"alga.png"
"Hongos",6,"Biod_hongo.png"
"Plantas no vasculares",9,"Biod_briofitas.png"
"Plantas vasculares",382,"Biod_angiospermas.png"
"Invertebrados no artrópodos",7,"invertebrado_no_artropodo.png"
"Invertebrados artrópodos",5,"invertebrados_artropodos.png"
"Vertebrados",110,"Biod_mamiferos.png"
