"Grupo","Numero_de_especies_registradas","Icono"
"Bacterias",0,"Biod_bacteria.png"
"Algas",0,"alga.png"
"Hongos",8,"Biod_hongo.png"
"Plantas no vasculares",28,"Biod_briofitas.png"
"Plantas vasculares",721,"Biod_angiospermas.png"
"Invertebrados no artrópodos",0,"invertebrado_no_artropodo.png"
"Invertebrados artrópodos",58,"invertebrados_artropodos.png"
"Vertebrados",63,"Biod_mamiferos.png"
