"Grupo","Numero_de_especies_registradas","Icono"
"Bacterias",0,"Biod_bacteria.png"
"Algas",0,"alga.png"
"Hongos",5,"Biod_hongo.png"
"Plantas no vasculares",18,"Biod_briofitas.png"
"Plantas vasculares",106,"Biod_angiospermas.png"
"Invertebrados no artrópodos",0,"invertebrado_no_artropodo.png"
"Invertebrados artrópodos",11,"invertebrados_artropodos.png"
"Vertebrados",59,"Biod_mamiferos.png"
