"Grupo","Numero_de_especies_registradas","Icono"
"Bacterias",0,"Biod_bacteria.png"
"Algas",0,"alga.png"
"Hongos",3,"Biod_hongo.png"
"Plantas no vasculares",15,"Biod_briofitas.png"
"Plantas vasculares",237,"Biod_angiospermas.png"
"Invertebrados no artrópodos",7,"invertebrado_no_artropodo.png"
"Invertebrados artrópodos",115,"invertebrados_artropodos.png"
"Vertebrados",98,"Biod_mamiferos.png"
