"Grupo","Numero_de_especies_registradas","Icono"
"Bacterias",0,"Biod_bacteria.png"
"Algas",0,"alga.png"
"Hongos",48,"Biod_hongo.png"
"Plantas no vasculares",115,"Biod_briofitas.png"
"Plantas vasculares",347,"Biod_angiospermas.png"
"Invertebrados no artrópodos",3,"invertebrado_no_artropodo.png"
"Invertebrados artrópodos",9,"invertebrados_artropodos.png"
"Vertebrados",92,"Biod_mamiferos.png"
