"Grupo","Numero_de_especies_registradas","Icono"
"Bacterias",4,"Biod_bacteria.png"
"Algas",70,"alga.png"
"Hongos",1,"Biod_hongo.png"
"Plantas no vasculares",0,"Biod_briofitas.png"
"Plantas vasculares",477,"Biod_angiospermas.png"
"Invertebrados no artrópodos",50,"invertebrado_no_artropodo.png"
"Invertebrados artrópodos",183,"invertebrados_artropodos.png"
"Vertebrados",391,"Biod_mamiferos.png"
