"Grupo","Numero_de_especies_registradas","Icono"
"Bacterias",0,"Biod_bacteria.png"
"Algas",0,"alga.png"
"Hongos",181,"Biod_hongo.png"
"Plantas no vasculares",2,"Biod_briofitas.png"
"Plantas vasculares",1075,"Biod_angiospermas.png"
"Invertebrados no artrópodos",2,"invertebrado_no_artropodo.png"
"Invertebrados artrópodos",207,"invertebrados_artropodos.png"
"Vertebrados",333,"Biod_mamiferos.png"
