"Grupo","Numero_de_especies_registradas","Icono"
"Bacterias",0,"Biod_bacteria.png"
"Algas",0,"alga.png"
"Hongos",46,"Biod_hongo.png"
"Plantas no vasculares",1,"Biod_briofitas.png"
"Plantas vasculares",1315,"Biod_angiospermas.png"
"Invertebrados no artrópodos",28,"invertebrado_no_artropodo.png"
"Invertebrados artrópodos",153,"invertebrados_artropodos.png"
"Vertebrados",185,"Biod_mamiferos.png"
