"Grupo","Numero_de_especies_registradas","Icono"
"Bacterias",0,"Biod_bacteria.png"
"Algas",27,"alga.png"
"Hongos",139,"Biod_hongo.png"
"Plantas no vasculares",51,"Biod_briofitas.png"
"Plantas vasculares",1131,"Biod_angiospermas.png"
"Invertebrados no artrópodos",0,"invertebrado_no_artropodo.png"
"Invertebrados artrópodos",229,"invertebrados_artropodos.png"
"Vertebrados",196,"Biod_mamiferos.png"
