"Grupo","Numero_de_especies_registradas","Icono"
"Bacterias",1,"Biod_bacteria.png"
"Algas",52,"alga.png"
"Hongos",0,"Biod_hongo.png"
"Plantas no vasculares",3,"Biod_briofitas.png"
"Plantas vasculares",63,"Biod_angiospermas.png"
"Invertebrados no artrópodos",163,"invertebrado_no_artropodo.png"
"Invertebrados artrópodos",109,"invertebrados_artropodos.png"
"Vertebrados",194,"Biod_mamiferos.png"
